L	28	+	27	-	0M
L	28	+	1	+	0M
L	41	+	40	-	0M
L	41	+	24	-	0M
L	42	+	25	-	0M
L	42	+	39	+	0M
L	29	+	10	+	0M
L	14	+	6	-	0M
L	14	+	4	-	0M
L	14	+	1	-	0M
L	14	+	3	+	0M
L	34	-	20	+	0M
L	47	+	26	+	0M
L	47	+	47	+	0M
L	17	+	4	+	0M
L	17	+	40	+	0M
L	20	+	45	+	0M
L	34	+	14	+	0M
L	39	+	47	+	0M
L	28	-	8	+	0M
L	28	-	21	+	0M
L	26	+	41	+	0M
L	44	+	29	+	0M
L	46	-	2	+	0M
L	17	-	13	+	0M
L	13	+	33	+	0M
L	10	+	32	+	0M
L	43	-	37	+	0M
L	46	+	20	-	0M
L	43	+	46	+	0M
L	37	+	5	-	0M
L	37	+	6	+	0M
L	41	-	25	+	0M
L	33	+	13	-	0M
L	33	+	11	-	0M
L	21	+	3	-	0M
L	45	+	2	-	0M
L	44	-	5	+	0M
L	7	+	7	+	0M
L	42	-	9	+	0M
L	38	+	12	+	0M
L	35	+	19	-	0M
L	12	+	19	+	0M
L	15	+	36	+	0M
L	31	-	15	+	0M
L	30	+	24	+	0M
L	18	+	35	+	0M
L	36	+	18	+	0M
L	22	+	8	-	0M
L	16	+	30	+	0M
L	38	-	16	+	0M
L	9	+	27	+	0M
L	31	+	23	-	0M
L	23	-	22	+	0M
L	32	+	11	+	0M
