L	edge_1	+	edge_1	+	0M	flye_30345_1_279phred20
L	edge_1	-	edge_1	-	0M	flye_30345_1_279phred20
L	edge_2	+	edge_2	+	0M	flye_30345_1_279phred20
L	edge_2	-	edge_2	-	0M	flye_30345_1_279phred20
L	edge_5	+	edge_5	+	0M	flye_30345_1_279phred20
