L	edge_1	+	edge_1	+	0M	flye_30821_1_335phred20
L	edge_1	-	edge_1	-	0M	flye_30821_1_335phred20
L	edge_2	+	edge_5	+	0M	flye_30821_1_335phred20
L	edge_2	+	edge_6	+	0M	flye_30821_1_335phred20
L	edge_2	-	edge_5	-	0M	flye_30821_1_335phred20
L	edge_2	-	edge_6	-	0M	flye_30821_1_335phred20
