L	edge_1	+	edge_1	+	0M	flye_30859_5_11phred20
L	edge_1	-	edge_1	-	0M	flye_30859_5_11phred20
L	edge_2	+	edge_2	+	0M	flye_30859_5_11phred20
L	edge_3	+	edge_3	+	0M	flye_30859_5_11phred20
L	edge_4	+	edge_4	+	0M	flye_30859_5_11phred20
