280	279
113	112
507	506
549	548
88	87
310	309
617	616
516	515
320	319
492	491
94	93
674	673
495	494
422	421
110	109
420	419
368	367
349	348
377	376
421	420
356	355
294	293
225	224
377	376
417	416
360	359
451	450
247	246
462	461
412	411
552	551
197	196
399	398
406	405
247	246
321	320
849	848
107	106
78	77
68	67
275	274
236	235
299	298
239	238
721	720
301	300
255	254
317	316
127	126
127	126
297	296
156	155
290	289
612	611
207	206
287	286
207	206
341	340
267	266
300	299
318	317
754	753
186	185
503	502
666	665
282	281
302	301
408	407
130	129
319	318
492	491
520	519
287	286
223	222
32	31
270	269
255	254
497	496
169	168
325	324
210	209
335	334
256	255
476	475
252	251
202	201
547	546
90	89
172	171
259	258
261	260
163	162
498	497
234	233
388	387
730	729
444	443
205	204
484	483
182	181
85	84
176	175
195	194
90	89
329	328
209	208
477	476
311	310
62	61
929	928
211	210
170	169
458	457
37	36
470	469
350	349
470	469
608	607
231	230
468	467
462	461
679	678
292	291
301	300
414	413
293	292
299	298
299	298
262	261
200	199
291	290
146	145
314	313
303	302
97	96
71	70
93	92
73	72
247	246
283	282
81	80
310	309
212	211
301	300
805	1016
196	195
279	278
612	611
769	768
348	347
583	582
357	356
484	483
149	148
465	464
105	104
275	274
420	419
490	489
279	278
313	312
345	344
207	206
328	327
225	224
458	457
233	232
167	166
301	300
35	34
321	320
330	329
252	251
256	255
200	199
147	146
100	99
143	142
249	248
337	336
503	502
282	281
80	79
162	161
309	308
444	443
177	176
285	284
342	341
733	732
71	70
203	202
106	105
387	386
811	810
377	376
518	517
297	296
727	726
302	301
206	205
368	367
221	220
834	833
360	359
107	106
766	765
293	292
114	113
284	283
578	577
884	883
384	383
335	334
259	258
458	457
306	305
467	466
389	388
439	438
235	234
120	119
367	366
615	614
286	285
85	84
433	432
91	90
452	451
887	886
233	232
140	139
346	345
230	229
128	127
196	195
294	293
445	444
246	245
541	540
192	191
217	216
319	318
160	159
600	599
325	324
227	226
302	301
243	242
244	243
127	126
87	86
283	282
212	211
168	167
519	518
1296	1295
461	460
238	237
445	445
113	112
397	396
418	417
398	397
1094	1093
328	327
510	509
333	332
354	353
291	290
141	140
380	379
427	426
285	284
268	267
247	246
163	162
405	404
129	128
108	107
172	171
617	616
112	111
67	66
428	427
259	258
282	281
1654	1653
759	770
144	143
385	384
336	335
373	372
425	424
207	206
393	392
491	490
72	71
725	724
331	330
2694	2693
456	455
489	488
526	525
419	418
220	219
221	220
83	82
306	305
274	273
100	99
51	50
195	194
77	76
67	66
278	277
261	260
115	114
187	195
211	211
66	65
157	148
164	163
50	49
195	289
123	122
113	112
186	197
287	286
235	234
126	125
92	91
492	491
140	139
84	83
69	68
560	559
99	98
232	231
329	328
146	145
112	111
108	107
202	201
824	823
155	154
182	181
838	837
601	600
825	824
99	98
54	53
211	210
232	231
86	85
674	673
135	134
103	102
210	209
161	160
180	179
172	171
58	57
51	50
748	747
514	513
689	688
213	212
346	345
209	208
430	429
249	248
120	119
488	487
354	353
157	156
191	190
293	292
345	344
77	76
238	237
288	287
672	671
233	232
67	66
376	375
119	118
1038	1037
567	566
660	659
192	191
333	332
668	667
317	316
760	759
112	111
160	159
234	233
268	267
339	338
112	111
96	95
468	467
279	278
396	395
409	408
468	467
454	453
296	295
220	219
167	166
351	350
301	300
290	289
142	141
150	149
192	191
300	299
475	474
299	298
264	263
339	338
278	277
292	291
366	365
304	303
123	122
284	283
170	169
576	575
86	85
324	323
254	253
333	332
672	671
73	72
333	332
309	308
255	254
278	277
419	418
295	294
472	471
124	123
120	119
730	729
401	400
413	412
109	108
419	418
322	321
109	108
416	415
362	361
346	345
832	831
286	285
245	244
566	565
413	412
307	306
81	80
92	91
211	210
417	416
565	564
315	314
382	381
1198	1197
205	204
388	387
513	512
443	442
446	445
312	311
90	89
74	73
159	158
162	161
273	272
949	948
291	290
824	823
328	327
145	144
367	366
72	71
201	200
771	770
312	311
341	340
225	224
524	523
116	115
216	215
361	360
201	200
69	68
264	263
200	199
128	127
142	141
68	67
34	33
173	172
184	183
343	342
143	142
302	301
276	275
91	367
287	286
235	234
126	125
92	91
262	285
485	484
552	551
536	535
62	61
97	96
216	215
116	115
367	388
85	84
224	223
120	119
96	95
113	112
306	305
247	246
63	62
161	160
101	100
269	268
342	341
77	89
126	125
92	91
344	342
98	97
53	52
770	769
439	438
733	732
538	542
117	116
142	141
339	338
787	786
100	99
127	126
144	143
52	51
397	396
311	310
252	251
447	446
95	94
437	436
715	714
162	161
189	188
121	113
126	125
92	91
752	770
251	250
164	163
160	159
176	175
275	274
184	183
311	310
362	361
275	274
270	269
183	182
93	92
669	668
407	406
393	392
332	331
379	378
338	337
271	270
220	219
305	304
423	422
221	220
163	162
506	505
190	189
261	260
261	260
229	228
239	238
258	257
298	297
121	120
216	215
215	214
184	183
181	180
493	506
715	714
401	400
152	151
165	164
217	216
611	610
200	199
406	405
313	312
55	54
148	147
221	220
601	600
167	166
446	445
909	908
326	325
181	180
185	184
101	100
614	613
510	509
486	485
168	167
324	323
581	580
306	305
154	153
102	101
432	431
557	556
253	252
286	285
321	320
452	451
89	88
129	128
112	111
551	550
297	296
661	660
323	322
386	385
201	200
142	141
181	180
401	400
261	260
402	401
430	429
268	267
82	81
332	331
397	396
420	419
543	542
453	452
359	358
217	216
85	84
377	376
762	761
1255	1254
241	240
876	875
563	562
208	207
1465	1464
550	549
259	258
395	394
441	440
217	216
221	220
462	461
609	608
950	949
217	216
891	890
374	373
352	351
355	354
217	216
548	547
549	548
163	162
55	54
165	164
88	87
829	828
232	231
288	287
150	149
201	200
206	205
221	220
246	245
70	69
160	159
648	647
186	185
351	350
216	215
68	67
214	213
587	586
76	75
336	335
95	94
587	586
232	231
397	396
115	114
530	529
342	341
365	364
605	604
519	518
189	188
238	237
329	328
489	488
191	190
85	84
394	393
377	376
313	312
564	563
314	313
313	312
417	416
233	232
314	313
363	362
286	285
350	349
294	293
490	489
664	663
279	278
223	222
386	385
347	346
333	332
507	506
337	336
412	411
413	412
80	79
240	239
295	294
232	231
133	132
317	316
479	508
254	253
193	192
196	195
311	310
572	571
756	755
306	305
386	385
309	308
244	243
36	35
244	243
562	561
240	239
157	156
154	153
668	667
64	104
317	316
760	759
363	362
62	61
1211	1210
1254	1253
1267	1266
678	677
370	369
94	93
181	180
225	224
827	826
345	344
113	112
275	274
91	90
263	262
267	266
273	272
249	248
322	321
335	334
426	425
351	350
285	284
421	420
151	150
95	94
452	451
347	346
260	259
300	299
106	105
454	453
111	110
241	240
468	467
472	471
1026	1497
1041	1040
416	415
220	219
227	226
647	646
451	450
283	282
1106	1105
214	213
194	193
618	617
528	527
380	379
148	147
721	720
280	279
163	162
406	405
406	405
249	248
183	182
374	373
322	321
161	160
405	404
479	478
457	456
465	464
493	492
427	426
407	406
465	464
298	297
362	361
300	299
294	293
186	185
416	415
368	367
389	388
331	330
197	196
373	372
265	264
469	468
389	388
326	325
204	203
259	258
246	245
197	196
356	355
357	356
435	434
300	299
84	83
85	84
275	274
317	316
453	454
476	475
389	388
158	157
353	352
110	109
514	513
249	248
65	64
125	124
123	122
74	73
159	158
158	157
49	48
274	273
137	136
226	225
357	356
302	301
795	794
145	144
722	721
330	329
353	352
256	255
86	85
382	381
341	340
49	48
215	214
201	200
69	68
399	398
538	542
117	116
142	141
67	66
190	189
134	133
137	136
286	285
345	344
322	321
253	252
405	404
39	38
258	257
175	174
399	398
218	217
408	407
215	214
43	42
716	715
181	180
248	247
360	359
312	311
306	305
317	316
485	484
239	238
485	484
439	438
265	264
92	91
126	125
159	158
490	489
250	249
674	673
526	525
268	267
367	366
3164	3163
2036	2035
320	319
601	600
601	600
427	426
435	434
321	320
266	265
342	341
68	67
814	813
64	63
63	62
55	54
73	72
43	42
79	78
140	139
94	93
142	141
363	362
141	140
119	118
61	60
59	58
172	171
71	70
376	375
122	121
230	229
72	71
117	116
178	177
155	154
117	116
161	160
586	585
61	60
414	413
217	216
402	401
63	62
102	101
113	112
149	148
115	114
252	251
124	123
97	96
1076	1075
114	113
233	232
200	247
183	182
1160	1159
200	199
800	799
94	93
347	346
96	95
217	216
212	211
335	334
138	137
261	260
453	452
284	283
353	352
37	36
232	231
473	472
157	156
307	306
306	305
61	60
565	564
272	271
76	75
63	62
208	207
262	261
90	89
246	245
122	121
138	137
335	334
155	154
376	375
148	147
458	457
229	228
332	331
553	552
105	104
111	110
184	183
266	265
90	89
78	77
402	401
138	137
496	495
122	121
137	136
472	471
437	436
240	239
184	183
286	285
329	328
223	222
251	250
241	240
75	74
219	218
611	610
183	182
222	221
404	403
80	79
166	165
108	107
84	83
168	167
330	329
505	504
329	328
267	266
475	474
143	142
117	116
193	192
296	295
309	308
655	654
168	167
554	553
40	39
287	286
350	349
130	129
215	214
383	382
693	692
131	130
578	577
189	188
249	248
367	366
810	809
324	323
248	247
132	131
273	272
189	188
591	590
148	147
247	246
174	173
201	200
204	203
337	336
58	57
201	200
262	261
252	251
329	328
441	440
324	323
481	480
290	289
50	49
492	491
604	603
214	213
393	392
97	96
119	118
220	219
687	686
221	220
219	218
77	76
125	124
291	290
114	113
219	218
92	91
79	78
482	481
878	877
428	427
184	183
233	232
683	682
294	293
458	457
264	263
80	79
96	95
70	69
270	269
189	188
153	152
284	283
267	266
324	323
519	518
533	532
455	454
193	192
454	453
60	59
100	99
116	115
637	636
232	231
194	193
584	583
372	371
213	212
120	119
61	60
83	82
342	341
85	84
116	115
394	393
273	272
149	148
168	167
497	496
492	491
428	427
645	644
249	248
285	284
295	294
332	331
138	137
91	90
359	358
460	459
348	347
279	278
316	315
327	326
253	252
453	452
214	213
339	338
237	236
619	618
184	183
348	347
652	651
448	447
91	90
136	135
207	206
436	435
218	217
512	511
389	388
183	182
235	234
226	225
237	236
269	268
407	406
345	344
493	492
448	447
323	322
162	161
192	191
296	295
276	275
113	112
107	106
453	452
117	116
280	279
451	450
253	252
754	753
88	87
464	463
197	196
223	222
179	178
287	286
97	96
310	309
253	252
36	35
96	95
643	642
145	144
66	65
119	118
328	327
796	795
100	99
327	326
184	183
250	249
155	154
238	237
479	478
64	63
349	348
278	277
793	792
549	566
98	97
430	429
313	312
255	254
304	303
384	383
532	531
253	252
289	288
422	421
405	404
119	118
371	370
1019	1018
137	136
63	62
123	122
496	495
249	248
424	423
407	406
139	138
335	334
79	78
471	470
70	69
209	208
701	700
213	212
223	222
262	261
255	254
535	534
102	101
419	418
458	457
214	213
383	382
404	403
311	310
342	341
30	29
390	389
194	193
276	275
116	115
216	215
136	135
366	365
200	199
80	79
299	298
174	173
671	670
286	285
79	78
145	144
156	155
370	369
108	107
219	218
425	424
287	286
202	201
501	500
212	211
232	231
207	206
353	352
807	628
193	192
194	193
147	146
72	71
347	346
334	333
391	390
531	530
343	342
256	255
193	192
604	603
458	457
422	421
503	502
392	391
549	548
468	467
310	309
434	433
240	239
112	111
241	240
461	460
315	314
511	510
463	462
345	344
122	121
110	109
274	273
103	102
418	417
298	297
407	406
232	231
419	418
205	204
285	284
206	205
246	245
245	244
809	808
102	101
249	248
187	186
114	113
109	108
405	404
340	339
456	455
487	486
68	67
229	228
249	248
682	681
297	296
32	31
396	395
300	299
73	72
128	127
145	144
222	221
397	396
294	293
463	462
309	308
120	119
473	472
484	483
305	304
253	252
89	88
441	440
60	59
188	187
237	236
884	883
177	176
168	167
305	304
760	759
66	65
254	253
561	560
386	385
270	269
467	466
512	511
440	439
800	799
144	143
72	71
46	45
566	565
337	336
57	56
95	94
218	217
295	294
804	1015
196	195
275	274
463	462
1247	1246
515	514
232	231
227	226
298	297
282	281
190	189
379	378
500	499
354	353
701	700
79	78
173	172
150	149
78	77
58	57
475	474
265	264
314	313
338	337
382	381
469	468
57	56
668	667
179	178
391	390
223	222
198	197
331	330
327	326
180	179
75	74
540	551
448	447
308	307
98	97
56	55
58	57
177	176
334	333
480	479
267	266
1301	1300
202	201
289	288
2868	1690
57	56
78	77
109	108
62	61
880	879
330	329
141	140
89	88
1175	1174
378	377
145	144
90	89
126	125
92	91
312	311
458	457
58	57
328	327
411	410
188	187
504	503
343	342
272	271
172	171
251	250
317	316
86	85
344	343
538	537
300	299
307	306
213	212
243	242
322	321
169	168
514	513
354	353
466	465
333	332
302	301
361	360
220	219
756	755
352	351
263	262
351	350
281	280
294	293
431	430
560	559
105	104
74	73
120	119
75	74
223	222
326	325
82	81
548	547
322	321
297	296
331	330
269	268
388	387
458	457
1036	1035
374	373
189	188
263	262
376	375
645	644
662	661
58	57
250	249
73	72
109	108
266	265
390	389
103	102
255	254
197	196
892	891
56	55
43	42
325	324
866	865
84	83
350	349
253	252
197	196
64	102
126	125
92	91
34	87
341	340
292	291
633	632
207	206
294	293
521	520
532	531
453	452
398	397
269	268
218	217
248	247
180	179
133	132
239	238
99	98
418	417
487	486
110	109
335	334
338	337
303	302
307	306
559	558
54	53
52	51
216	215
892	891
402	401
206	205
138	137
303	302
338	337
315	314
153	152
281	280
364	363
375	374
201	200
429	428
269	268
339	338
336	335
226	225
237	236
513	512
1248	1247
464	463
73	72
599	598
217	216
465	464
118	117
239	238
80	79
367	366
36	35
285	284
270	269
131	130
278	277
361	360
419	418
208	207
284	283
338	337
551	559
93	92
195	194
364	363
392	391
95	94
164	163
57	56
84	83
66	65
46	45
399	398
71	70
886	885
227	226
466	465
285	284
156	155
66	65
205	204
305	304
151	150
180	179
141	140
163	162
90	89
176	175
120	119
112	111
82	81
629	628
172	171
376	375
56	55
586	585
80	79
640	639
357	356
211	210
473	472
566	565
341	340
327	326
253	252
271	270
285	284
657	656
85	84
245	244
204	203
305	304
579	578
357	356
433	432
511	510
240	239
514	513
177	176
423	422
140	139
87	86
149	148
220	219
98	97
134	133
123	122
232	231
271	270
89	88
104	103
95	94
110	109
124	123
121	120
227	226
83	82
89	88
79	78
404	403
244	243
135	134
51	50
305	304
276	275
286	285
286	285
98	97
93	92
538	542
117	116
142	141
643	685
1133	1132
191	190
200	247
233	232
110	109
854	853
145	130
141	140
247	246
132	131
193	192
118	117
125	124
343	342
116	115
502	501
531	530
69	68
643	642
183	182
61	60
125	124
148	147
166	165
72	71
361	360
128	127
46	45
121	120
97	96
57	56
152	151
348	347
509	508
111	110
101	100
234	233
335	334
180	179
76	75
162	161
354	353
126	125
69	68
99	98
262	261
227	226
61	60
50	49
72	71
30	29
73	72
80	79
79	78
381	380
417	416
218	217
154	153
369	368
214	213
457	456
224	223
487	486
374	373
409	408
379	378
288	287
89	88
219	218
195	194
1009	1008
200	199
1231	1230
194	193
248	247
233	232
110	109
854	853
138	137
144	143
251	250
132	131
192	191
118	117
125	124
343	342
116	115
502	501
531	530
69	68
643	642
170	169
118	117
109	108
158	157
44	43
49	48
178	177
297	296
72	71
54	53
63	62
112	111
107	106
230	229
123	122
353	352
93	92
84	83
52	51
60	59
329	328
122	121
136	135
287	286
235	234
126	125
92	91
46	78
154	153
99	98
131	130
257	256
141	140
347	346
184	183
76	75
136	135
51	50
125	124
285	284
63	62
68	67
819	818
90	89
373	372
265	264
349	348
154	153
263	262
274	273
304	303
413	414
234	233
400	399
358	357
1173	1172
320	319
86	85
211	210
180	179
435	434
181	180
342	341
275	274
214	213
126	125
120	119
730	729
478	477
266	265
335	334
214	213
341	340
270	269
414	413
79	78
245	244
310	309
318	317
347	346
58	57
174	173
208	207
320	319
1062	1061
318	317
548	547
314	313
366	365
233	232
261	260
252	251
402	401
232	231
135	134
139	138
220	219
98	97
139	138
512	511
308	307
216	215
195	194
403	402
216	215
187	186
348	347
82	81
85	84
373	372
38	37
189	188
192	191
351	350
307	306
409	408
125	124
76	75
838	847
501	517
386	385
494	493
178	177
104	103
111	110
153	152
152	82
217	216
130	129
139	138
278	277
174	173
185	184
246	245
313	312
35	34
456	455
808	807
673	672
442	441
138	137
355	354
424	423
376	375
277	276
503	502
1321	1320
213	212
364	363
232	231
129	128
267	266
197	196
165	164
443	442
58	57
199	198
76	75
414	413
307	306
102	101
200	199
849	865
391	390
231	230
343	342
896	910
358	357
58	57
71	70
437	436
31	30
379	378
515	514
286	285
133	132
196	195
236	235
598	597
373	372
220	219
110	109
93	92
392	391
106	105
138	137
221	220
153	152
685	684
149	148
721	720
210	209
170	169
351	350
151	150
587	586
209	208
56	55
188	187
547	546
418	417
636	635
703	702
370	369
181	180
337	336
192	191
320	319
382	381
265	264
256	255
871	870
401	400
467	466
363	362
397	396
216	215
183	182
616	615
1487	1486
235	234
441	440
262	261
260	259
298	297
249	248
61	60
411	410
329	328
583	582
755	754
95	94
558	557
228	227
255	254
428	427
363	362
231	230
587	586
399	398
761	760
247	246
383	382
209	208
288	287
206	205
815	814
431	430
448	447
204	203
1369	1368
165	164
357	356
589	588
574	573
235	234
73	72
759	758
107	106
75	74
649	648
372	371
331	330
553	552
232	231
300	299
551	550
323	322
573	572
334	333
477	476
338	337
277	276
108	107
172	171
243	242
244	243
239	238
223	222
244	243
376	375
163	162
282	281
315	314
378	377
371	370
159	158
301	300
241	240
96	95
86	85
126	125
562	561
179	178
376	375
272	271
93	92
411	410
199	198
253	252
401	400
209	208
372	371
128	127
442	441
443	442
298	297
446	502
304	303
307	306
513	512
624	623
322	321
412	411
250	249
221	220
300	299
811	810
272	271
531	530
307	306
373	372
156	155
43	42
528	527
172	171
296	295
168	167
249	248
220	219
241	240
742	741
309	308
87	86
761	760
225	224
89	88
87	86
362	361
321	320
717	716
66	65
454	453
224	223
332	331
579	578
378	377
369	368
137	136
254	253
414	413
319	318
238	237
235	234
151	150
82	81
162	161
171	170
330	329
303	302
674	673
226	225
252	251
385	384
347	346
430	429
159	158
428	427
754	753
478	477
351	350
318	317
332	331
273	272
353	352
230	229
258	257
50	49
263	262
491	490
339	338
349	348
383	382
347	346
251	250
351	350
127	126
314	313
240	239
348	347
264	263
174	173
431	430
437	436
143	142
231	230
135	134
98	97
38	37
380	379
523	522
398	397
878	877
639	638
241	240
290	289
389	388
406	405
934	933
239	238
589	588
116	115
135	134
36	35
428	427
437	436
154	153
323	322
399	398
104	103
252	251
338	337
229	228
238	237
349	348
264	263
245	244
311	310
219	218
248	247
494	493
473	472
170	169
69	68
558	557
683	682
191	190
895	894
226	225
733	732
440	439
547	546
182	181
255	254
121	120
177	176
149	148
109	108
469	468
555	554
254	253
329	328
412	411
386	385
296	295
253	252
390	389
157	156
427	426
649	648
267	266
383	382
407	406
251	250
555	554
146	145
392	391
475	474
360	359
156	155
293	292
513	512
626	625
303	302
247	246
225	224
242	241
312	311
557	556
484	483
236	235
185	125
73	72
161	160
861	860
194	193
344	343
214	213
204	203
106	105
156	155
634	633
371	370
363	362
404	403
88	87
214	213
178	177
322	321
68	67
263	262
128	127
70	69
187	186
462	461
227	226
553	552
353	352
99	98
303	302
511	510
184	183
293	292
488	487
269	268
137	136
30	29
143	142
532	531
188	187
249	248
301	300
407	406
210	209
387	386
363	362
66	65
702	701
138	137
249	248
286	285
537	536
392	391
319	318
417	416
335	334
331	330
272	271
378	377
1294	1293
73	72
401	400
747	746
261	260
312	311
277	276
317	316
507	506
312	311
207	206
515	514
356	355
266	265
262	261
51	50
51	50
373	372
83	82
128	127
218	217
416	415
461	460
1048	1047
408	407
111	110
461	460
228	227
481	480
746	745
991	990
297	296
318	317
223	222
209	208
289	288
71	70
174	173
462	461
165	164
241	240
110	109
170	169
356	355
298	297
272	271
420	419
556	555
350	349
412	411
262	261
382	381
434	433
454	453
485	484
89	88
202	201
259	258
594	593
272	271
161	160
309	308
369	368
223	222
223	222
223	222
220	219
668	667
805	804
229	228
198	197
257	256
285	284
260	259
226	225
306	305
153	152
160	159
136	135
431	430
311	310
835	834
114	113
101	100
265	264
160	159
267	266
168	167
551	550
407	406
559	558
435	434
320	319
321	320
215	214
625	624
202	201
110	109
644	643
184	183
126	125
176	175
55	54
1121	1120
216	215
398	397
1050	1049
125	124
73	72
184	183
157	156
517	516
118	117
104	103
191	190
287	286
429	428
113	112
594	593
591	590
153	152
273	272
567	566
232	231
133	132
124	123
624	623
91	90
785	784
425	424
208	207
433	432
105	104
193	192
492	491
316	315
664	663
205	204
110	109
297	296
455	454
164	163
304	303
197	196
483	482
81	80
300	299
621	629
325	324
173	172
326	325
140	139
157	156
368	367
150	149
180	179
295	294
116	115
324	323
605	615
111	110
376	375
357	356
194	193
606	605
458	457
440	439
432	431
230	229
401	400
1048	1047
423	422
303	302
326	325
61	60
95	94
226	225
64	63
175	174
153	152
270	269
372	371
107	69
472	471
87	86
365	364
71	70
103	102
365	364
407	406
34	33
386	385
208	207
996	995
325	324
284	283
276	275
256	255
321	320
92	91
370	369
278	277
180	179
404	403
338	337
317	316
270	269
289	288
315	314
555	554
278	277
364	363
1025	1024
418	417
207	206
428	427
420	419
629	628
484	483
390	389
297	296
148	147
374	373
92	91
211	210
350	349
461	460
317	316
473	472
516	515
288	287
202	201
166	165
311	310
363	362
678	677
196	195
491	490
557	556
94	93
188	187
265	264
47	46
254	253
764	763
223	222
232	231
476	475
240	239
285	284
442	556
198	197
290	289
286	285
1416	1415
284	283
330	329
298	297
309	308
307	306
381	380
34	33
89	88
47	46
181	180
196	195
223	222
842	841
548	547
237	236
205	204
112	111
259	258
307	306
261	260
1033	1032
546	545
416	415
157	156
418	417
368	367
352	351
134	133
415	414
153	152
486	485
205	204
380	379
125	124
352	351
229	228
580	579
166	165
253	252
247	246
256	255
193	192
815	814
149	148
257	256
247	246
156	155
241	240
252	251
407	406
257	256
275	274
305	304
268	267
85	84
191	190
344	343
218	217
272	271
135	134
236	235
573	572
275	274
237	236
141	140
182	181
67	66
87	86
438	437
130	129
714	713
320	319
1161	1160
199	198
383	382
263	262
152	151
342	341
162	161
811	810
451	450
250	249
51	50
253	252
399	398
186	185
242	241
284	283
242	241
265	264
891	890
275	274
129	128
386	385
475	474
506	505
233	232
267	266
208	207
115	114
474	473
427	426
661	660
297	296
266	265
750	749
337	336
826	825
239	238
189	188
842	841
810	809
177	176
235	234
152	151
309	308
455	454
160	159
195	194
247	246
867	866
191	190
201	200
199	198
418	417
265	264
284	283
68	67
311	310
127	126
410	409
147	146
257	256
309	308
221	220
183	182
797	796
517	516
103	102
289	288
265	264
121	120
866	865
588	587
475	474
631	630
888	887
255	254
97	96
97	96
97	96
95	94
594	593
457	456
285	284
184	183
298	297
147	146
462	461
401	400
348	347
207	206
248	247
66	65
133	132
902	901
196	195
306	305
384	383
421	420
277	276
307	306
492	491
356	355
415	414
439	438
361	360
453	452
496	495
589	588
122	121
314	313
153	152
335	334
164	163
575	574
315	314
524	523
364	363
467	466
202	201
44	43
552	551
328	327
537	536
233	232
255	254
496	495
146	145
318	317
308	307
411	410
282	281
567	566
501	500
232	231
784	783
969	968
220	219
272	271
785	784
429	428
330	329
274	273
126	125
283	282
105	104
78	77
197	196
621	620
177	176
444	443
96	95
429	428
314	313
257	256
505	504
381	380
406	405
518	517
262	261
197	196
132	131
73	72
1074	1073
383	382
274	273
122	121
305	304
317	316
150	149
165	164
939	938
314	313
88	87
458	457
680	679
300	299
389	388
420	419
498	497
254	253
377	376
639	638
135	134
238	237
189	188
196	195
318	317
477	476
259	258
99	98
429	428
311	310
821	820
229	228
239	238
451	450
475	474
230	229
158	157
290	289
216	215
172	171
99	98
646	645
556	555
95	94
111	110
411	410
461	460
323	322
215	214
339	338
88	87
240	239
408	407
441	440
260	259
517	516
235	234
261	260
358	357
54	53
202	201
539	538
226	225
149	148
138	137
344	343
79	78
263	262
226	225
242	241
257	256
158	157
180	179
246	245
165	164
764	763
341	340
305	304
454	453
555	554
717	716
68	67
319	318
101	100
96	95
70	69
98	97
420	419
427	426
384	383
256	255
86	85
324	323
393	392
185	184
228	227
154	153
391	390
304	303
131	130
281	280
858	857
244	243
327	326
246	245
114	113
387	386
374	373
357	356
122	121
173	172
409	408
161	160
116	115
256	255
183	182
83	82
454	453
289	288
414	413
198	197
293	292
554	553
114	113
97	96
150	149
161	160
326	325
422	421
483	482
427	426
467	466
221	220
150	149
53	52
100	99
175	174
135	134
150	149
115	114
110	109
82	81
137	136
715	714
320	319
401	400
355	354
331	330
395	394
246	245
112	111
177	176
391	390
513	512
236	235
371	370
172	171
519	518
143	142
189	188
217	145
62	61
877	876
167	166
354	353
166	165
80	79
362	361
188	187
320	319
124	123
260	259
120	119
258	257
322	321
505	504
480	479
378	377
751	750
176	175
68	67
146	145
140	139
156	155
137	136
256	255
181	180
570	569
308	307
609	608
204	203
154	153
117	116
291	290
91	90
374	373
337	336
693	692
143	142
115	114
854	853
219	218
256	255
303	302
421	420
213	212
259	258
455	454
348	347
184	183
331	330
380	379
209	208
254	253
350	349
160	159
237	236
104	103
108	107
202	201
476	475
303	302
346	345
35	34
51	50
245	244
571	570
600	599
122	121
424	423
87	86
192	191
287	286
260	259
470	469
485	484
262	261
426	425
493	492
307	306
506	505
457	456
468	469
336	335
224	223
36	35
291	290
433	432
546	545
264	263
745	1178
434	433
919	918
447	446
447	446
451	450
150	149
261	260
110	109
182	181
283	282
455	454
430	429
456	455
282	281
383	382
216	215
439	438
592	591
473	472
141	140
244	243
367	366
132	131
306	305
76	75
402	401
148	147
269	268
366	365
167	166
513	514
446	445
222	221
551	550
164	163
879	878
775	774
788	787
286	285
793	792
274	273
176	175
623	622
838	837
213	212
161	160
405	404
1130	1129
546	545
473	472
141	140
587	586
360	359
179	178
143	142
459	458
249	248
514	513
316	315
199	198
392	391
527	526
275	274
418	417
444	443
609	608
1181	1180
963	962
1123	1122
108	107
136	135
188	187
157	156
265	264
292	291
749	748
177	176
49	48
230	229
238	237
73	72
347	346
398	397
720	719
344	343
421	420
312	311
231	230
473	472
254	253
279	278
394	393
410	409
252	251
766	765
293	292
160	159
593	592
396	395
399	398
404	403
462	461
311	310
542	541
257	256
193	192
1033	1032
443	442
260	259
957	956
467	466
439	438
456	455
163	162
640	639
483	482
42	41
183	182
506	505
294	293
578	577
237	236
299	298
174	173
136	135
89	88
327	326
220	219
104	103
478	477
958	957
130	129
365	364
401	400
393	392
442	441
193	192
110	109
201	200
411	410
220	219
77	76
298	297
352	351
104	103
98	97
92	91
247	246
212	211
287	286
360	359
388	387
340	339
144	143
193	192
236	235
226	225
226	225
238	237
170	169
322	321
426	425
463	462
148	147
303	302
664	663
253	252
307	306
244	243
659	658
84	83
385	384
465	464
152	151
236	235
244	243
317	316
212	211
139	138
327	326
235	234
189	188
97	96
198	197
379	378
336	335
349	348
240	239
109	108
240	239
351	350
92	91
361	359
419	418
712	711
236	235
411	420
142	141
117	116
538	542
348	347
92	91
126	125
167	166
126	125
92	91
90	89
101	100
74	73
120	119
508	507
80	79
101	100
89	88
273	272
152	151
154	153
180	179
68	67
72	71
123	122
81	80
697	696
302	301
122	121
329	328
245	244
312	311
370	369
237	236
270	269
491	490
292	291
306	305
142	141
117	116
367	366
513	512
103	102
128	127
190	189
69	68
191	190
497	496
291	290
1040	1039
839	838
152	151
78	77
273	272
162	161
159	158
74	73
215	214
127	126
126	125
65	70
66	65
282	281
132	131
306	305
97	96
500	499
187	186
328	327
383	382
559	559
247	246
676	675
399	398
379	378
458	457
1108	1107
224	223
259	258
179	178
393	392
326	325
202	201
124	123
188	187
152	151
408	407
498	497
687	686
273	272
137	136
270	269
1522	1521
561	560
724	723
135	134
408	407
351	350
500	499
257	256
381	380
553	552
305	304
83	82
391	390
360	359
357	356
187	186
275	274
450	449
253	252
258	254
231	230
500	499
620	619
289	288
83	82
114	113
163	162
165	164
568	567
393	392
329	328
373	372
96	95
255	254
48	47
347	346
165	164
295	294
142	141
245	244
396	395
220	219
319	318
388	387
276	275
309	308
86	85
740	739
250	249
491	490
339	338
337	336
328	327
161	160
435	434
471	470
246	245
753	752
536	535
161	160
131	130
220	219
450	449
111	110
237	236
160	159
194	193
105	104
296	295
316	315
350	349
328	327
270	269
714	713
631	630
194	193
276	275
141	140
210	209
494	493
224	223
387	386
599	598
223	222
224	223
272	271
258	257
57	56
188	187
841	840
247	246
350	349
218	217
100	99
67	66
210	209
554	553
478	477
947	946
434	433
207	206
413	412
274	273
123	122
206	205
311	310
304	303
202	201
488	487
338	337
72	71
582	581
614	613
169	168
255	254
208	207
507	506
430	459
111	110
328	327
1031	1030
150	149
478	477
357	356
784	783
673	672
139	138
105	104
379	378
168	167
231	230
329	328
322	321
415	414
184	183
496	495
471	470
433	432
259	258
221	220
128	127
123	122
102	101
135	134
100	99
161	160
329	328
123	122
299	298
234	233
55	54
437	436
444	443
455	454
130	129
765	764
403	402
444	443
330	329
313	312
382	381
297	296
257	256
445	444
524	523
112	111
155	154
270	269
427	426
158	157
260	259
293	292
145	144
378	377
385	384
287	286
159	158
268	267
264	263
238	237
288	287
679	678
132	131
197	196
192	191
347	346
212	211
173	172
148	147
101	100
168	167
175	174
332	331
293	292
336	335
415	414
630	629
295	294
712	711
90	89
315	314
134	133
891	890
496	495
151	150
448	447
506	518
111	110
446	445
283	282
648	647
210	209
98	97
159	158
478	477
391	390
322	321
86	85
104	103
324	323
93	92
420	419
90	89
98	97
212	211
184	183
261	260
270	269
326	325
329	328
189	188
192	191
186	185
242	241
478	477
96	95
164	163
285	284
91	90
211	210
243	242
218	217
779	778
310	309
1518	1517
473	472
155	154
292	291
230	229
497	496
298	297
261	260
166	165
213	212
131	130
143	142
376	375
133	132
456	455
356	355
313	312
157	156
88	87
91	90
656	655
311	310
68	67
310	309
482	481
1267	1266
490	489
198	197
163	162
368	367
348	347
647	646
325	324
157	156
450	449
349	348
321	320
330	329
500	499
297	296
285	284
272	271
319	318
81	80
484	483
294	293
322	321
99	98
295	294
60	59
221	220
386	385
1035	1034
74	73
342	341
394	393
368	367
253	252
91	90
85	84
185	184
86	85
273	272
191	190
181	180
158	157
375	374
170	169
316	315
430	429
459	458
138	137
73	72
142	141
123	122
128	127
330	329
207	206
130	129
119	118
39	38
444	443
145	144
60	59
168	167
118	117
178	177
131	130
102	101
180	179
105	104
124	123
85	84
64	63
137	136
234	233
111	110
93	92
274	273
101	100
202	201
210	209
104	103
140	139
490	489
272	271
651	650
494	493
399	398
146	145
170	169
126	125
196	195
328	327
388	387
154	153
226	225
159	158
65	64
901	900
395	394
705	704
157	156
125	124
96	95
120	119
129	128
241	240
271	270
73	72
197	196
67	66
602	601
184	183
638	637
341	340
73	72
290	289
135	134
211	210
697	696
407	406
188	187
201	200
56	55
191	190
394	393
848	847
109	108
269	268
458	457
56	55
362	361
435	434
118	117
293	292
409	408
388	387
121	120
302	301
335	334
253	252
226	225
279	278
429	428
363	362
174	173
403	402
135	134
147	146
180	179
260	259
851	850
187	186
708	707
223	222
134	133
293	292
383	382
575	574
541	540
451	450
240	239
159	158
774	773
76	75
774	773
79	78
121	120
257	256
228	227
192	191
439	438
695	694
798	797
902	901
149	148
112	111
253	252
277	276
109	108
502	501
202	201
256	255
502	502
816	815
478	477
432	431
658	657
729	728
368	367
198	197
401	400
700	699
447	446
176	175
332	331
232	231
346	345
163	162
578	577
147	146
248	247
357	356
282	281
296	295
439	438
238	237
256	255
426	425
309	308
397	396
128	127
176	175
89	88
368	367
285	284
353	352
223	222
499	498
199	198
90	89
120	119
209	208
733	732
82	81
222	221
186	185
417	416
350	349
196	195
525	524
315	314
278	277
255	254
269	268
134	133
32	31
249	248
158	157
94	93
453	452
503	502
90	89
284	283
375	374
912	911
356	355
355	354
398	397
500	499
112	111
145	144
490	489
251	250
681	680
281	280
451	450
72	71
142	141
92	91
189	188
177	176
343	342
661	660
305	304
420	445
165	164
208	207
319	318
257	256
192	191
113	112
111	110
191	190
176	175
110	109
386	385
1038	1037
243	242
275	274
467	466
466	465
550	549
201	200
324	323
338	337
441	440
687	686
256	255
310	309
499	498
429	428
650	662
1158	1157
369	368
770	769
873	872
251	250
63	62
520	519
64	63
84	93
469	559
36	35
36	35
36	35
424	423
336	335
104	103
108	107
338	337
328	327
301	300
340	339
536	535
564	563
403	402
233	232
188	187
147	146
778	777
220	219
325	324
237	236
97	96
71	70
51	50
284	283
174	173
690	689
304	303
100	99
332	331
146	145
114	113
485	484
441	440
331	330
514	513
394	393
393	392
275	274
677	676
418	417
158	157
283	282
333	332
155	154
307	306
156	155
426	425
329	328
499	498
221	220
287	286
232	231
272	271
467	466
658	657
513	512
432	431
384	383
615	614
464	463
203	202
379	378
121	120
638	637
383	382
196	195
70	69
121	120
227	226
1448	1447
552	551
259	258
397	396
158	157
274	273
340	339
156	155
84	83
144	143
515	514
420	419
320	319
345	344
342	341
399	398
311	310
349	348
320	319
422	421
358	357
284	283
233	232
339	338
340	339
360	359
312	311
266	265
375	374
353	352
426	425
160	159
270	269
56	55
79	78
223	222
407	406
153	152
199	198
214	213
239	238
288	287
206	205
561	560
208	207
92	91
703	702
230	229
694	693
402	401
464	463
570	569
227	226
311	310
287	286
284	283
364	363
105	104
157	156
518	517
773	772
461	460
346	345
166	165
308	307
273	272
98	97
413	412
120	119
108	107
151	150
445	444
589	588
464	463
440	439
501	500
197	196
213	378
100	99
37	36
86	85
184	183
249	248
87	86
374	373
93	92
438	437
269	268
144	143
211	210
261	260
263	262
320	319
656	655
450	449
329	328
335	334
214	213
372	371
420	419
85	84
692	691
429	428
580	579
397	396
541	540
142	141
52	51
59	58
163	162
126	125
123	122
38	37
74	73
159	158
155	154
273	272
53	52
617	616
514	513
249	248
326	325
291	290
291	290
71	70
201	200
69	68
71	70
66	65
190	189
134	133
145	144
79	78
127	126
116	115
473	472
453	452
261	260
307	306
439	438
338	337
85	84
419	418
96	95
148	147
344	343
98	97
230	229
519	518
275	274
98	97
210	209
359	358
50	211
175	174
300	299
199	198
399	398
990	989
608	607
291	290
98	97
304	303
540	539
309	308
340	339
188	187
344	343
255	254
440	439
333	332
88	87
407	406
361	360
360	359
504	503
148	147
952	951
396	395
168	167
139	138
335	334
151	150
407	406
311	310
335	334
468	467
163	162
312	311
154	153
129	128
899	898
316	315
474	473
552	551
713	712
155	154
129	128
451	450
184	183
458	457
333	332
332	331
341	340
501	500
319	318
177	176
114	113
1260	1259
578	577
213	212
448	447
69	68
186	185
247	246
648	647
127	126
287	286
322	321
221	220
471	470
207	206
213	212
216	215
264	263
281	280
259	258
514	513
691	690
426	425
254	253
169	168
164	163
150	149
76	75
105	104
132	131
92	91
229	228
285	284
217	216
155	154
102	101
466	465
355	354
252	251
250	249
110	109
92	91
542	541
388	387
213	212
133	132
220	219
233	232
134	133
244	243
814	813
142	141
433	432
66	65
335	334
420	419
427	426
103	102
317	316
616	615
444	443
154	153
511	515
380	379
182	181
351	350
323	322
1108	1107
101	100
486	500
326	325
603	602
245	244
132	131
120	119
335	334
178	177
106	105
49	48
42	41
189	188
343	342
290	289
118	117
549	548
98	97
419	418
159	158
479	478
434	433
113	112
566	565
192	191
513	512
445	444
716	715
486	485
506	505
58	57
99	98
91	90
1310	1309
60	59
264	263
161	160
1237	1283
171	170
235	234
846	845
91	90
77	76
544	543
240	239
447	446
549	548
217	216
452	451
303	302
756	755
254	253
446	445
548	547
223	222
367	366
30	29
501	500
293	292
743	742
112	111
148	147
263	262
339	338
260	259
242	241
151	150
195	194
355	354
282	281
253	252
227	226
379	378
186	185
145	144
253	252
119	118
150	149
297	296
312	311
511	510
327	326
232	231
310	309
662	661
92	91
344	343
684	683
489	488
140	139
560	715
523	522
350	349
278	277
279	278
235	234
230	229
438	437
199	198
128	127
541	540
319	318
224	223
189	188
479	478
653	652
105	104
550	549
230	229
137	136
295	294
550	549
450	449
155	154
108	107
529	528
94	93
179	178
941	940
119	118
139	138
238	237
607	606
453	452
358	357
500	499
291	290
390	389
473	472
385	384
915	914
398	397
335	334
186	185
360	359
472	471
345	344
524	523
260	259
427	426
679	678
328	327
81	80
332	331
172	171
70	69
442	441
203	202
123	122
808	807
291	290
166	165
307	306
446	446
372	371
397	396
515	514
297	296
137	136
53	52
699	698
246	245
213	212
81	43
550	549
450	449
91	90
291	290
316	315
269	268
136	135
165	164
266	265
275	274
410	409
230	229
544	543
150	149
35	34
1228	1227
275	274
575	574
435	439
534	533
310	309
148	147
128	127
85	84
530	529
430	429
442	441
459	458
140	139
212	211
91	90
197	196
224	223
355	354
258	257
159	158
632	631
212	211
252	251
67	66
257	256
378	377
1408	1407
1343	1342
122	121
166	165
235	234
143	142
182	181
128	127
395	394
309	308
322	321
343	342
428	428
111	110
86	85
218	217
286	285
87	86
197	196
70	69
154	153
187	186
287	286
249	248
1757	1756
754	750
246	245
244	243
160	159
941	940
458	460
131	130
96	95
182	181
95	94
112	111
114	113
248	247
86	85
617	616
213	212
102	101
331	330
211	210
129	128
877	876
154	153
158	157
74	73
172	171
78	77
107	106
197	196
476	475
243	242
189	188
104	103
120	119
229	228
128	127
170	169
274	273
96	95
71	70
240	239
145	144
653	652
78	77
176	175
77	76
188	187
454	453
77	76
64	63
141	140
142	141
257	256
145	144
74	73
228	227
309	308
407	406
173	172
83	82
146	145
331	330
391	390
266	265
78	77
131	130
324	323
215	214
92	91
270	269
102	101
73	72
56	55
214	213
107	106
326	325
247	246
390	389
38	37
122	121
657	656
264	263
71	70
142	141
117	116
538	542
65	106
260	259
341	340
253	252
86	85
116	115
135	134
119	118
508	507
160	159
109	108
89	88
392	391
754	753
259	258
292	291
46	45
87	86
97	96
112	111
116	115
170	169
87	86
109	108
160	159
168	167
107	106
150	149
162	161
162	161
232	231
377	376
428	427
460	459
176	175
647	646
254	253
169	168
53	52
231	230
476	475
331	330
310	309
297	296
322	321
502	501
140	139
623	622
499	498
484	483
331	330
153	152
148	147
630	629
208	207
127	126
272	271
80	79
157	156
178	177
514	513
288	287
461	460
140	139
457	456
610	609
347	346
320	319
297	296
258	257
242	241
279	278
625	624
465	464
539	538
390	389
241	240
196	195
156	155
194	221
446	445
189	188
250	249
320	319
392	391
416	415
472	471
455	454
549	548
109	108
47	46
468	467
367	366
358	357
805	804
133	132
271	270
219	218
230	229
293	292
206	205
383	382
431	430
367	366
405	416
87	86
138	137
143	142
554	553
289	288
572	571
498	497
116	115
121	120
166	165
395	394
563	562
92	96
183	182
166	165
242	241
879	878
177	176
168	167
301	300
448	447
395	394
487	486
65	64
242	241
168	293
327	326
369	368
239	238
132	131
201	200
199	198
538	542
117	116
142	141
85	84
131	153
52	67
