554	553
646	645
74	73
862	861
109	108
117	116
149	148
115	114
239	238
125	124
70	69
1081	1080
114	113
233	232
248	247
194	193
1158	1157
153	152
514	513
249	248
246	245
477	496
176	175
178	177
76	139
30	29
219	218
90	89
57	56
186	185
269	268
398	397
453	452
532	531
521	520
294	293
207	206
632	627
292	291
341	340
103	102
197	196
253	252
350	349
84	83
866	865
325	324
43	42
56	55
892	891
197	196
255	254
103	102
390	389
266	265
109	108
73	72
250	249
58	57
662	661
645	644
376	375
263	262
189	188
374	373
1036	1035
458	457
388	387
269	268
331	330
297	296
322	321
548	547
82	81
326	325
223	222
75	74
120	119
74	73
105	104
560	559
431	430
294	293
281	280
351	350
263	262
352	351
756	755
220	219
361	360
302	301
333	332
466	465
354	353
514	513
169	168
322	321
243	242
213	212
307	306
300	299
538	537
344	343
86	85
317	316
251	250
172	171
272	271
343	342
504	503
188	187
411	410
328	327
58	57
458	457
312	311
90	89
145	144
378	377
1175	1174
89	88
141	140
330	329
880	879
62	61
109	108
78	77
57	56
2839	2838
289	288
202	201
1301	1300
267	266
480	479
334	333
177	176
58	57
56	55
98	97
308	307
448	447
540	551
75	74
180	179
327	326
331	330
198	197
223	222
391	390
179	178
668	667
57	56
469	468
264	381
126	131
338	337
314	313
265	264
475	474
58	57
78	77
150	149
173	172
79	78
701	700
354	353
500	499
379	378
190	189
282	281
33	32
298	297
227	226
232	231
515	514
1247	1246
463	462
275	274
196	195
804	1015
295	294
218	217
95	94
57	56
337	336
566	565
46	45
72	71
144	143
800	799
440	439
512	511
467	466
270	269
386	385
561	560
254	253
66	65
760	759
305	304
168	167
177	176
884	883
237	236
188	187
60	59
441	440
89	88
253	252
305	304
484	483
473	472
120	119
309	308
463	462
294	293
397	396
222	221
145	144
128	127
73	72
300	299
396	395
32	31
297	296
682	681
249	248
229	228
68	67
487	486
456	455
340	339
405	404
109	108
114	113
187	186
249	248
102	101
809	808
245	244
246	245
206	205
285	284
205	204
419	418
232	231
407	406
298	297
418	417
103	102
274	273
110	109
122	121
345	344
463	462
511	510
315	314
461	460
241	240
112	111
240	239
434	433
310	309
468	467
549	548
392	391
503	502
355	354
78	77
302	301
157	156
604	603
193	192
256	255
343	342
531	530
391	390
334	333
347	346
72	71
147	146
194	193
193	192
807	628
353	352
207	206
232	231
212	211
501	500
202	201
287	286
425	424
219	218
108	107
370	369
156	155
145	144
79	78
286	285
328	327
312	311
174	173
299	298
80	79
200	199
366	365
136	135
216	215
116	115
276	275
194	193
390	389
30	29
342	341
311	310
404	403
383	382
214	213
458	457
419	418
102	101
535	534
255	254
262	261
223	222
213	212
701	700
209	208
70	69
471	470
79	78
335	334
139	138
407	406
424	423
249	248
496	495
123	122
63	62
137	136
1019	1018
371	370
119	118
405	404
422	421
289	288
253	252
532	531
384	383
304	303
255	254
313	312
430	429
98	97
549	566
793	792
278	277
349	348
64	63
479	478
238	237
155	154
250	249
184	183
327	326
100	99
796	795
328	327
119	118
66	65
145	144
643	642
96	95
36	35
253	252
310	309
97	96
287	286
179	178
223	222
197	196
464	463
88	87
754	753
253	252
451	450
280	279
117	116
453	452
107	106
113	112
276	275
296	295
192	191
162	161
323	322
448	447
493	492
345	344
407	406
269	268
237	236
226	225
235	234
183	182
389	388
512	511
218	217
436	435
207	206
136	135
91	90
448	447
652	651
348	347
184	183
619	618
237	236
339	338
214	213
453	452
253	252
327	326
316	315
279	278
348	347
460	459
359	358
91	90
138	137
332	331
295	294
285	284
249	248
645	644
428	427
492	491
497	496
168	167
149	148
273	272
394	393
116	115
85	84
342	341
83	82
61	60
120	119
213	212
372	371
584	583
194	193
232	231
637	636
116	115
100	99
60	59
454	453
193	192
455	454
533	532
519	518
324	323
267	266
284	283
153	152
189	188
270	269
70	69
96	95
80	79
264	263
458	457
294	293
683	682
233	232
184	183
428	427
878	877
482	481
79	78
92	91
219	218
114	113
291	290
125	124
77	76
219	218
221	220
687	686
220	219
119	118
97	96
393	392
214	213
604	603
492	491
50	49
290	289
481	480
324	323
441	440
329	328
252	251
262	261
201	200
58	57
337	336
204	203
201	200
174	173
247	246
148	147
591	590
189	188
273	272
132	131
248	247
324	323
810	809
367	366
92	91
126	125
249	248
189	188
578	577
131	130
693	692
383	382
215	214
130	129
350	349
287	286
40	39
554	553
168	167
655	654
309	308
296	295
193	192
117	116
143	142
475	474
267	266
329	328
505	504
330	329
168	167
84	83
108	107
166	165
80	79
404	403
222	221
140	139
55	54
258	257
130	129
547	546
94	93
171	170
501	500
130	129
395	394
209	208
307	306
130	129
301	300
179	178
227	226
127	126
140	139
345	344
110	109
436	435
525	524
78	77
621	620
189	188
82	81
160	159
91	90
128	127
224	223
98	97
199	198
60	59
214	213
78	77
163	162
202	201
233	232
308	307
263	262
74	73
39	38
75	74
104	103
79	78
137	136
472	471
252	251
75	74
159	158
77	76
138	137
107	106
739	738
190	189
61	60
88	87
339	338
183	182
611	610
219	218
75	74
241	240
251	250
223	222
329	328
286	285
184	183
240	239
350	349
472	471
137	136
122	121
496	495
138	137
402	401
78	77
166	165
90	89
183	182
266	265
184	183
111	110
105	104
553	552
332	331
229	228
458	457
148	147
376	375
155	154
335	334
138	137
122	121
246	245
90	89
262	261
208	207
63	62
76	75
272	271
565	564
61	60
306	305
307	306
157	156
473	472
232	231
37	36
372	371
284	283
453	452
261	260
138	137
335	334
212	211
201	200
58	57
217	216
266	265
421	420
435	434
427	426
601	600
571	600
320	319
2036	2035
3164	3163
367	366
268	267
526	525
674	673
250	249
421	420
159	158
351	350
439	438
485	484
239	238
485	484
317	316
306	305
312	311
360	359
248	247
181	180
716	715
43	42
215	214
408	407
218	217
399	398
175	174
258	257
39	38
405	404
253	252
322	321
345	344
286	285
137	136
134	133
190	189
67	66
399	398
69	68
201	200
231	230
341	340
31	30
382	381
86	85
256	255
353	352
330	329
722	721
145	144
795	794
302	301
357	356
138	137
514	513
249	248
90	89
137	136
37	42
142	141
117	116
538	542
191	256
82	81
158	157
159	158
74	73
215	214
123	122
125	124
65	64
110	109
110	109
126	125
92	91
236	236
158	157
389	388
476	475
153	152
453	454
317	316
275	274
85	84
84	83
300	299
435	434
357	356
356	355
197	196
246	245
259	258
204	203
326	325
389	388
469	468
264	263
367	366
202	201
406	405
383	382
322	321
420	419
181	180
293	292
300	299
362	361
298	297
465	464
407	406
427	426
493	492
465	464
457	456
479	478
408	407
161	160
322	321
374	373
183	182
249	248
407	406
406	405
163	162
280	279
721	720
148	147
380	379
528	527
618	617
194	193
214	213
1106	1105
283	282
451	450
647	646
254	253
220	219
416	415
1041	1040
1026	1497
472	471
468	467
241	240
111	110
454	453
106	105
300	299
260	259
347	346
222	221
230	229
95	94
151	150
421	420
285	284
351	350
426	425
335	334
322	321
249	248
273	272
267	266
263	262
91	90
275	274
113	112
345	344
827	826
225	224
181	180
94	93
370	369
678	677
1267	1266
1254	1253
1211	1210
62	61
363	362
760	759
379	378
668	667
154	153
157	156
240	239
562	561
244	243
36	35
244	243
309	308
386	385
306	305
756	755
572	571
311	310
196	195
193	192
254	253
479	508
317	316
133	132
232	231
295	294
240	239
80	79
413	412
412	411
337	336
507	506
333	332
347	346
386	385
223	222
279	278
664	663
490	489
269	268
350	349
286	285
363	362
314	313
233	232
417	416
313	312
314	313
564	563
313	312
377	376
394	393
85	84
191	190
489	488
329	328
238	237
189	188
519	518
605	604
365	364
342	341
530	529
115	114
397	396
232	231
587	586
95	94
336	335
76	75
587	586
83	82
68	67
216	215
351	350
186	185
648	647
160	159
70	69
246	245
221	220
206	205
201	200
150	149
288	287
232	231
829	828
88	87
165	164
55	54
163	162
549	548
548	547
217	216
355	354
352	351
374	373
891	890
217	216
950	949
609	608
462	461
221	220
217	216
441	440
395	394
259	258
550	549
1465	1464
208	207
563	562
876	875
241	240
1255	1254
762	761
377	376
85	84
217	216
359	358
453	452
543	542
420	419
397	396
332	331
74	73
268	267
430	429
402	401
261	260
401	400
181	180
142	141
201	200
386	385
323	322
661	660
297	296
551	550
112	111
129	128
89	88
452	451
321	320
286	285
253	252
557	556
432	431
102	101
154	153
306	305
581	580
324	323
168	167
486	485
510	509
614	613
101	100
185	184
181	180
326	325
909	908
446	445
167	166
601	600
221	220
148	147
55	54
313	312
406	405
200	199
611	610
217	216
165	164
152	151
401	400
715	714
493	506
181	180
184	183
215	214
216	215
121	120
298	297
258	257
239	238
229	228
261	260
261	260
190	189
506	505
163	162
221	220
423	422
305	304
220	219
271	270
338	337
379	378
332	331
393	392
407	406
669	668
93	92
183	182
270	269
275	274
362	361
311	310
184	183
275	274
176	175
160	159
164	163
251	250
883	882
189	188
162	161
715	714
437	436
95	94
447	446
252	251
311	310
392	391
317	316
294	293
91	90
896	895
137	136
79	78
197	196
335	334
287	286
76	75
312	311
446	445
443	442
513	512
388	387
205	204
1198	1197
382	381
315	314
565	564
417	416
211	210
92	91
81	80
307	306
413	412
566	565
245	244
286	285
832	831
346	345
362	361
416	415
109	108
322	321
419	418
109	108
413	412
401	400
812	811
120	119
124	123
472	471
295	294
419	418
278	277
255	254
309	308
333	332
73	72
672	671
333	332
254	253
324	323
86	85
576	575
170	169
284	283
123	122
304	303
366	365
292	291
278	277
339	338
264	263
299	298
475	474
300	299
192	191
150	149
142	141
290	289
301	300
351	350
167	166
220	219
296	295
454	453
468	467
409	408
396	395
279	278
468	467
96	95
112	111
339	338
268	267
234	233
160	159
112	111
760	759
317	316
668	667
333	332
192	191
660	659
567	566
1038	1037
119	118
376	375
67	66
233	232
672	671
288	287
238	237
77	76
345	344
293	292
191	190
157	156
354	353
488	487
120	119
249	248
430	429
209	208
346	345
213	212
689	688
514	513
748	747
51	50
58	57
172	171
180	179
526	525
489	488
456	455
2694	2693
331	330
725	724
72	71
491	490
393	392
207	206
425	424
373	372
336	335
385	384
144	143
759	770
1654	1653
282	281
259	258
428	427
67	66
112	111
617	616
172	171
108	107
129	128
405	404
163	162
247	246
268	267
285	284
427	426
380	379
141	140
291	290
354	353
333	332
510	509
328	327
1094	1093
398	397
418	417
397	396
113	112
445	445
238	237
461	460
1296	1295
519	518
168	167
212	211
283	282
87	86
127	126
244	243
243	242
302	301
227	226
325	324
600	599
160	159
319	318
217	216
192	191
541	540
246	245
445	444
294	293
196	195
128	127
230	229
346	345
140	139
233	232
887	886
452	451
91	90
433	432
85	84
858	857
244	243
327	326
246	245
114	113
387	386
374	373
357	356
121	120
173	172
409	408
161	160
116	115
256	255
183	182
83	82
454	453
289	288
414	413
198	197
293	292
554	553
114	113
97	96
159	158
161	160
326	325
422	421
483	482
427	426
467	466
221	220
150	149
53	52
100	99
175	174
135	134
150	149
115	114
110	109
82	81
137	136
715	714
320	319
401	400
355	354
331	330
395	394
246	245
112	111
177	176
391	390
513	512
236	235
371	370
172	171
519	518
143	142
189	188
217	145
62	61
877	876
167	166
354	353
166	165
80	79
362	361
188	187
320	319
124	123
260	259
120	119
258	257
322	321
505	504
480	479
378	377
751	750
176	175
68	67
146	145
140	139
151	155
137	136
256	255
181	180
570	569
308	307
609	608
204	203
154	153
117	116
291	290
91	90
374	373
337	336
693	692
143	142
115	114
854	853
219	218
256	255
303	302
421	420
213	212
259	258
455	454
348	347
184	183
331	330
380	379
209	208
254	253
350	349
160	159
237	236
104	103
108	107
202	201
476	475
303	302
346	345
35	34
51	50
245	244
571	570
600	599
122	121
424	423
87	86
192	191
287	286
260	259
470	469
485	484
262	261
426	425
493	492
307	306
506	505
457	456
468	469
336	335
224	223
36	35
291	290
433	432
546	545
264	263
745	1178
434	433
919	918
447	446
447	446
451	450
150	149
261	260
110	109
182	181
283	282
455	454
430	429
456	455
282	281
383	382
216	215
439	438
592	591
473	472
141	140
244	243
367	366
132	131
306	305
76	75
402	401
148	147
269	268
366	365
167	166
513	514
446	445
222	221
551	550
164	163
879	878
775	774
788	787
286	285
793	792
274	273
176	175
623	622
838	837
201	200
405	404
560	559
514	513
249	248
601	600
546	545
473	472
141	140
587	586
360	359
179	178
143	142
459	458
316	315
199	198
392	391
527	526
275	274
418	417
444	443
609	608
1181	1180
963	962
1123	1122
108	107
136	135
188	187
157	156
265	264
292	291
749	748
177	176
49	48
230	229
238	237
73	72
347	346
398	397
720	719
344	343
421	420
312	311
231	230
473	472
254	253
279	278
394	393
410	409
252	251
766	765
293	292
160	159
593	592
396	395
399	398
404	403
462	461
311	310
542	541
257	256
126	125
72	71
193	192
1033	1032
443	442
260	259
957	956
467	466
439	438
456	455
163	162
640	639
483	482
42	41
183	182
506	505
294	293
578	577
237	236
299	298
174	173
136	135
89	88
327	326
220	219
104	103
478	477
958	957
130	129
365	364
401	400
393	392
442	441
193	192
110	109
201	200
411	410
220	219
77	76
298	297
352	351
104	103
98	97
92	91
247	246
212	211
287	286
360	359
388	387
340	339
144	143
193	192
236	235
226	225
226	225
238	237
170	169
322	321
426	425
463	462
148	147
303	302
664	663
253	252
307	306
244	243
659	658
84	83
385	384
67	66
465	464
152	151
236	235
244	243
317	316
212	211
139	138
327	326
235	234
189	188
97	96
198	197
379	378
329	328
168	167
434	433
336	335
349	348
240	239
109	108
240	239
351	350
92	91
360	359
419	418
712	711
236	235
422	421
348	347
126	125
92	91
90	89
101	100
74	73
267	266
109	108
249	248
87	86
187	186
143	142
398	397
575	593
316	315
581	580
426	425
734	733
1296	1299
58	57
123	122
384	383
273	272
152	151
154	153
180	179
68	67
72	71
120	119
81	80
697	696
302	301
122	121
329	328
245	244
312	311
370	369
237	236
270	269
491	490
292	291
306	305
142	141
117	116
367	366
513	512
103	102
128	127
190	189
69	68
191	190
497	496
291	290
479	489
538	542
117	116
142	141
590	1042
358	357
152	151
78	77
273	272
162	161
159	158
74	73
215	214
123	122
126	125
163	162
66	65
282	281
132	131
247	246
52	51
328	327
383	382
559	558
247	246
676	675
390	389
371	370
521	520
101	100
563	562
239	238
225	224
259	258
179	178
393	392
326	325
202	201
124	123
188	187
152	151
408	407
498	497
687	686
281	280
137	136
270	269
1519	1518
555	560
724	723
135	134
408	407
351	350
500	499
255	254
381	380
574	576
305	304
83	82
391	390
360	359
357	356
187	186
275	274
450	449
258	257
233	232
231	230
500	499
620	619
289	288
83	82
114	113
163	162
165	164
568	567
393	392
329	328
373	372
96	95
296	295
347	346
165	164
295	294
142	141
245	244
396	395
220	219
319	318
388	387
276	275
309	308
86	85
740	739
250	249
491	490
339	338
337	336
328	327
161	160
435	434
471	470
246	245
753	752
536	535
161	160
131	130
220	219
450	449
111	110
237	236
160	159
194	193
105	104
296	295
316	315
350	349
328	327
270	269
714	713
631	630
194	193
276	275
141	140
210	209
494	493
224	223
387	386
599	598
223	222
224	223
272	271
258	257
57	56
188	187
841	840
247	246
350	349
218	217
100	99
67	66
210	209
554	553
478	477
947	946
434	433
207	206
413	412
274	273
123	122
206	205
311	310
304	303
202	201
488	487
338	337
72	71
582	581
614	613
169	168
255	254
208	207
507	506
430	429
111	110
328	327
1031	1030
150	149
478	477
357	356
784	783
673	672
139	138
105	104
379	378
168	167
231	230
329	328
322	321
415	414
184	183
496	495
471	470
433	432
259	258
221	220
128	127
123	122
102	101
135	134
100	99
161	160
329	328
123	122
299	298
234	233
55	54
437	436
261	260
101	100
211	210
86	85
184	183
249	248
87	86
374	373
93	92
438	437
269	268
144	143
211	210
261	260
263	262
320	319
656	655
450	449
329	328
335	334
214	213
372	371
420	419
211	210
101	100
85	84
692	691
429	428
580	579
397	396
541	540
142	141
52	51
59	58
163	162
538	542
117	116
142	141
77	67
123	122
38	37
74	73
159	158
158	157
273	272
53	52
407	416
514	513
249	248
553	576
291	290
306	305
43	42
201	200
69	68
190	189
134	133
145	144
79	78
127	126
116	115
462	461
453	452
70	69
174	173
318	317
775	774
301	300
333	332
319	318
256	255
86	85
81	80
138	137
101	100
273	272
666	665
53	52
426	425
219	218
35	34
261	260
307	306
439	438
338	337
538	542
117	116
142	141
79	78
31	30
296	295
59	58
415	414
338	337
506	505
300	299
255	254
72	71
92	91
197	196
340	339
501	500
361	360
360	359
504	503
148	147
952	951
399	398
168	167
139	138
335	334
113	112
424	423
151	150
198	197
238	237
132	131
312	311
154	153
129	128
899	898
316	315
474	473
552	551
713	712
155	154
129	128
451	450
184	183
458	457
333	332
332	331
341	340
501	500
319	318
177	176
105	104
84	83
114	113
1260	1259
578	577
213	212
448	447
69	68
186	185
247	246
648	647
127	126
287	286
322	321
221	220
471	470
207	206
213	212
216	215
264	263
281	280
259	258
514	513
691	690
426	425
254	253
169	168
164	163
150	149
76	75
105	104
132	131
92	91
229	228
285	284
217	216
155	154
102	101
466	465
355	354
252	251
250	249
110	109
92	91
542	541
388	387
213	212
133	132
220	219
233	232
85	84
50	49
244	243
814	813
142	141
433	432
66	65
335	334
420	419
427	426
103	102
317	316
616	615
444	443
154	153
511	515
380	379
182	181
351	350
323	322
1108	1107
101	100
486	500
326	325
603	602
245	244
132	131
120	119
335	334
178	177
106	105
49	48
42	41
189	188
343	342
290	289
118	117
549	548
98	97
419	418
159	158
479	478
434	433
113	112
566	565
192	191
513	512
445	444
716	715
486	485
506	505
58	57
99	98
91	90
1310	1309
60	59
264	263
161	160
1280	1279
175	174
231	230
846	845
91	90
77	76
544	543
240	239
447	446
549	548
217	216
452	451
303	302
756	755
254	253
446	445
548	547
223	222
367	366
30	29
501	500
293	292
743	742
112	111
148	147
263	262
339	338
260	259
242	241
151	150
195	194
355	354
282	281
253	252
227	226
379	378
186	185
145	144
253	252
119	118
150	149
297	296
312	311
511	510
327	326
232	231
310	309
662	661
92	91
344	343
684	683
489	488
140	139
560	715
523	522
350	349
278	277
279	278
235	234
230	229
438	437
199	198
128	127
541	540
319	318
224	223
189	188
479	478
653	652
105	104
550	549
230	229
137	136
295	294
550	549
450	449
155	154
108	107
529	528
94	93
179	178
941	940
119	118
139	138
238	237
607	606
453	452
358	357
500	499
291	290
390	389
473	472
385	384
915	914
398	397
335	334
186	185
360	359
472	471
345	344
524	523
260	259
427	426
679	678
328	327
81	80
332	331
172	171
70	69
442	441
203	202
123	122
808	807
291	290
166	165
307	306
447	446
372	371
397	396
515	514
297	296
137	136
53	52
699	698
246	245
213	212
81	43
550	549
450	449
91	90
291	290
316	315
269	268
136	135
165	164
266	265
275	274
410	409
230	229
544	543
150	149
35	34
1228	1227
275	274
575	574
435	439
534	533
310	309
148	147
128	127
85	84
530	529
430	429
442	441
459	458
140	139
212	211
91	90
197	196
224	223
355	354
258	257
159	158
632	631
212	211
252	251
67	66
257	256
378	377
1408	1407
1343	1342
122	121
166	165
235	234
143	142
182	181
128	127
395	394
309	308
322	321
343	342
85	84
286	285
615	614
367	366
120	119
235	234
439	438
389	388
467	466
306	305
458	457
259	258
335	334
384	383
884	883
578	577
284	283
114	113
293	292
766	765
107	106
360	359
834	833
221	220
368	367
206	205
302	301
727	726
297	296
518	517
377	376
811	810
387	386
106	105
203	202
71	70
733	732
342	341
285	284
177	176
444	443
309	308
162	161
80	79
282	281
503	502
337	336
249	248
143	142
100	99
147	146
200	199
256	255
252	251
330	329
321	320
301	300
167	166
233	232
458	457
225	224
328	327
207	206
345	344
313	312
279	278
490	489
420	419
275	274
105	104
465	464
182	181
278	277
196	195
805	1016
301	300
212	211
310	309
81	80
283	282
247	246
73	72
93	92
71	70
97	96
104	103
303	302
314	313
146	145
291	290
200	199
296	295
450	449
478	477
337	336
296	295
293	292
299	298
263	262
608	607
470	469
350	349
470	469
37	36
458	457
170	169
211	210
929	928
60	59
311	310
426	425
44	43
209	208
329	328
90	89
195	194
176	175
85	84
182	181
484	483
205	204
444	443
730	729
388	387
234	233
498	497
163	162
261	260
259	258
172	171
90	89
547	546
202	201
252	251
476	475
256	255
335	334
210	209
325	324
169	168
497	496
255	254
270	269
32	31
223	222
287	286
520	519
492	491
319	318
130	129
408	407
302	301
282	281
666	665
503	502
186	185
754	753
318	317
300	299
267	266
341	340
207	206
287	286
207	206
612	611
290	289
156	155
297	296
127	126
127	126
317	316
255	254
301	300
721	720
239	238
299	298
236	235
275	274
68	67
78	77
107	106
849	848
321	320
247	246
402	401
399	398
197	196
552	551
412	411
462	461
247	246
451	450
360	359
417	416
377	376
225	224
294	293
356	355
421	420
377	376
349	348
368	367
420	419
110	109
422	421
495	494
674	673
94	93
492	491
320	319
516	515
617	616
310	309
88	87
549	548
507	506
113	112
280	279
85	84
231	230
476	475
331	330
310	309
297	296
322	321
502	501
140	139
623	622
499	498
484	483
331	330
153	152
148	147
630	629
208	207
127	126
272	271
80	79
157	156
178	177
514	513
288	287
461	460
140	139
457	456
610	609
347	346
320	319
297	296
258	257
242	241
231	230
625	624
465	464
539	538
390	389
241	240
196	195
156	155
222	221
446	445
189	188
250	249
320	319
392	391
416	415
472	471
455	454
549	548
109	108
47	46
468	467
367	366
358	357
805	804
133	132
271	270
219	218
230	229
293	292
206	205
383	382
431	430
367	366
405	416
87	86
138	137
143	142
554	553
289	288
572	571
121	120
393	392
116	115
121	120
166	165
395	394
563	562
97	96
163	162
197	196
501	500
440	439
464	463
589	588
445	444
151	150
108	107
120	119
413	412
98	97
273	272
308	307
166	165
346	345
461	460
773	772
518	517
157	156
105	104
364	363
284	283
287	286
311	310
227	226
570	569
464	463
402	401
694	693
230	229
703	702
92	91
208	207
561	560
206	205
288	287
239	238
214	213
199	198
153	152
407	406
223	222
79	78
56	55
270	269
160	159
426	425
353	352
375	374
266	265
312	311
360	359
340	339
339	338
233	232
284	283
92	91
126	125
255	256
422	421
320	319
349	348
311	310
399	398
342	341
345	344
320	319
420	419
515	514
144	143
84	83
156	155
340	339
274	273
158	157
416	396
259	258
552	551
1448	1447
227	226
121	120
70	69
196	195
383	382
638	637
121	120
379	378
203	202
464	463
615	614
384	383
432	431
513	512
658	657
467	466
272	271
232	231
287	286
221	220
499	498
329	328
426	425
156	155
307	306
155	154
333	332
283	282
158	157
418	417
677	676
275	274
393	392
394	393
514	513
331	330
441	440
485	484
114	113
146	145
332	331
100	99
304	303
690	689
51	50
71	70
97	96
237	236
325	324
220	219
778	777
147	146
188	187
233	232
403	402
564	563
536	535
340	339
301	300
328	327
335	334
424	423
36	35
36	35
36	35
560	559
64	63
520	519
63	62
251	250
169	178
693	872
773	772
369	368
1158	1157
650	662
429	428
499	498
310	309
256	255
687	686
441	440
338	337
324	323
201	200
550	549
466	465
467	466
275	274
243	242
94	93
1038	1037
386	385
110	109
176	175
191	190
111	110
113	112
192	191
257	256
319	318
208	207
165	164
446	445
305	304
661	660
343	342
177	176
189	188
92	91
142	141
72	71
451	450
281	280
681	680
251	250
490	489
145	144
112	111
500	499
398	397
355	354
356	355
912	911
375	374
284	283
90	89
503	502
453	452
94	93
158	157
249	248
32	31
134	133
269	268
255	254
278	277
315	314
525	524
196	195
350	349
420	419
186	185
222	221
82	81
733	732
209	208
120	119
90	89
199	198
499	498
223	222
353	352
285	284
368	367
89	88
176	175
128	127
397	396
309	308
426	425
256	255
238	237
439	438
296	295
282	281
357	356
248	247
147	146
578	577
163	162
346	345
232	231
332	331
176	175
447	446
700	699
401	400
198	197
368	367
729	728
658	657
432	431
478	477
816	815
502	502
256	255
202	201
502	501
109	108
275	274
253	252
112	111
149	148
902	901
798	797
695	694
439	438
192	191
228	227
257	256
121	120
79	78
774	773
76	75
774	773
159	158
240	239
451	450
541	540
575	574
383	382
293	292
134	133
223	222
712	711
187	186
851	850
260	259
180	179
147	146
135	134
403	402
174	173
363	362
429	428
279	278
226	225
253	252
335	334
302	301
121	120
388	387
409	408
293	292
118	117
435	434
362	361
56	55
458	457
269	268
109	108
848	847
394	393
191	190
56	55
201	200
188	187
407	406
697	696
211	210
135	134
290	289
73	72
341	340
638	637
184	183
602	601
67	66
197	196
73	72
271	270
241	240
129	128
120	119
96	95
125	124
157	156
705	704
395	394
901	900
65	64
159	158
114	113
154	153
388	387
328	327
196	195
126	125
170	169
146	145
399	398
494	493
651	650
272	271
490	489
140	139
104	103
210	209
202	201
101	100
274	273
93	92
111	110
234	233
137	136
64	63
85	84
124	123
105	104
180	179
102	101
131	130
178	177
118	117
168	167
60	59
145	144
444	443
39	38
119	118
130	129
207	206
330	329
128	127
123	122
142	141
73	72
138	137
459	458
430	429
316	315
170	169
375	374
158	157
181	180
191	190
273	272
86	85
185	184
85	84
91	90
253	252
368	367
394	393
342	341
74	73
1035	1034
386	385
221	220
60	59
295	294
99	98
287	286
294	293
484	483
81	80
319	318
272	271
285	284
297	296
500	499
330	329
321	320
349	348
450	449
157	156
325	324
647	646
348	347
368	367
163	162
198	197
490	489
1267	1266
482	481
310	309
68	67
311	310
656	655
91	90
88	87
157	156
313	312
356	355
456	455
133	132
376	375
143	142
131	130
213	212
166	165
261	260
298	297
497	496
230	229
292	291
155	154
473	472
1518	1517
310	309
779	778
218	217
243	242
211	210
91	90
285	284
164	163
96	95
478	477
242	241
186	185
192	191
189	188
329	328
326	325
270	269
261	260
184	183
212	211
98	97
90	89
420	419
93	92
324	323
104	103
86	85
322	321
391	390
478	477
159	158
98	97
210	209
648	647
283	282
446	445
111	110
506	518
448	447
151	150
496	495
891	890
134	133
315	314
90	89
712	711
295	294
630	629
415	414
336	335
293	292
332	331
175	174
168	167
101	100
148	147
173	172
212	211
347	346
192	191
197	196
132	131
679	678
288	287
238	237
264	263
268	267
159	158
287	286
385	384
378	377
145	144
293	292
260	259
158	157
427	426
270	269
155	154
112	111
524	523
445	444
257	256
297	296
382	381
313	312
330	329
444	443
403	402
765	764
130	129
455	454
153	152
211	210
101	100
348	347
327	326
369	368
239	238
132	131
407	406
173	172
199	198
183	182
166	165
242	241
879	878
177	176
168	167
301	300
448	447
395	394
487	486
258	257
193	192
131	130
304	303
391	390
154	153
228	227
185	184
393	392
324	323
86	85
256	255
384	383
427	426
411	410
319	318
471	470
142	141
117	116
538	542
55	54
113	112
1088	1087
435	434
540	539
389	388
96	95
101	100
319	318
68	67
717	716
555	554
454	453
305	304
341	340
764	763
165	164
246	245
180	179
158	157
278	277
242	241
226	225
263	262
79	78
344	343
138	137
149	148
226	225
530	538
202	201
54	53
358	357
261	260
288	287
517	516
260	259
441	440
408	407
240	239
444	443
339	338
215	214
323	322
461	460
411	410
556	555
646	645
99	98
176	175
216	215
290	289
158	157
230	229
475	474
451	450
239	238
229	228
821	820
311	310
429	428
99	98
259	258
477	476
318	317
196	195
189	188
238	237
135	134
639	638
377	376
51	50
254	253
498	497
420	419
389	388
300	299
680	679
458	457
88	87
314	313
939	938
165	164
150	149
317	316
305	304
122	121
274	273
383	382
1074	1073
73	72
132	131
197	196
262	261
518	517
406	405
381	380
505	504
257	256
314	313
429	428
96	95
444	443
177	176
621	620
197	196
78	77
95	94
283	282
126	125
274	273
330	329
429	428
785	784
272	271
220	219
969	968
784	783
232	231
501	500
567	566
282	281
411	410
308	307
318	317
146	145
496	495
255	254
233	232
537	536
328	327
552	551
44	43
202	201
467	466
364	363
524	523
315	314
575	574
164	163
335	334
153	152
314	313
122	121
589	588
496	495
453	452
361	360
439	438
415	414
356	355
492	491
307	306
277	276
421	420
384	383
306	305
196	195
902	901
133	132
66	65
248	247
207	206
348	347
401	400
380	379
147	146
298	297
184	183
285	284
457	456
594	593
95	94
97	96
97	96
97	96
255	254
888	887
631	630
475	474
588	587
866	865
121	120
265	264
289	288
103	102
517	516
797	796
183	182
221	220
309	308
257	256
147	146
410	409
127	126
307	306
66	65
284	283
265	264
418	417
199	198
201	200
191	190
867	866
247	246
195	194
160	159
455	454
309	308
152	151
235	234
177	176
810	809
842	841
189	188
239	238
826	825
337	336
750	749
266	265
297	296
661	660
427	426
474	473
115	114
208	207
267	266
233	232
506	505
475	474
386	385
129	128
275	274
891	890
265	264
242	241
284	283
242	241
186	185
399	398
253	252
51	50
250	249
451	450
811	810
162	161
342	341
152	151
263	262
383	382
199	198
1161	1160
320	319
714	713
130	129
438	437
87	86
67	66
182	181
141	140
237	236
275	274
573	572
236	235
135	134
272	271
218	217
344	343
191	190
85	84
268	267
305	304
275	274
257	256
407	406
252	251
241	240
156	155
247	246
257	256
149	148
815	814
193	192
256	255
247	246
253	252
166	165
698	697
380	379
261	260
91	90
251	250
124	123
284	283
329	328
114	113
549	548
337	336
237	236
447	464
145	144
132	131
116	115
183	182
134	133
32	31
813	812
311	310
143	142
93	92
246	245
112	111
144	143
238	237
401	400
246	245
262	261
247	246
367	366
100	99
459	458
310	309
326	325
281	280
305	304
439	438
131	130
104	103
354	353
156	155
239	238
288	287
308	307
352	351
125	124
380	379
205	204
486	485
153	152
415	414
134	133
352	351
368	367
418	417
157	156
416	415
546	545
1033	1032
261	260
307	306
259	258
112	111
205	204
237	236
548	547
842	841
223	222
196	195
181	180
47	46
89	88
92	91
126	125
1165	1415
211	210
101	100
286	285
290	289
198	197
442	556
285	284
240	239
419	426
538	542
117	116
142	141
57	56
232	231
223	222
764	763
254	253
47	46
265	264
188	187
94	93
557	556
491	490
196	195
678	677
126	125
92	91
363	362
311	310
166	165
202	201
288	287
516	515
473	472
317	316
461	460
350	349
211	210
92	91
529	528
297	296
390	389
484	483
629	628
420	419
428	427
207	206
418	417
1025	1024
364	363
278	277
555	554
315	314
289	288
270	269
317	316
338	337
404	403
180	179
278	277
370	369
92	91
321	320
256	255
276	275
284	283
325	324
996	995
208	207
386	385
407	406
365	364
103	102
71	70
365	364
87	86
472	471
107	69
372	371
270	269
153	152
175	174
64	63
226	225
95	94
61	60
326	325
303	302
423	422
1048	1047
401	400
230	229
432	431
440	439
458	457
606	605
194	193
357	356
376	375
111	110
605	615
324	323
116	115
295	294
180	179
150	149
368	367
157	156
140	139
326	325
173	172
325	324
621	629
300	299
81	80
483	482
197	196
304	303
164	163
455	454
297	296
110	109
205	204
664	663
316	315
492	491
193	192
105	104
433	432
208	207
425	424
785	784
91	90
624	623
124	123
133	132
232	231
567	566
273	272
153	152
591	590
594	593
113	112
429	428
287	286
191	190
104	103
118	117
517	516
157	156
184	183
73	72
125	124
1050	1049
398	397
216	215
1121	1120
55	54
176	175
126	125
184	183
644	643
110	109
202	201
625	624
215	214
321	320
320	319
435	434
559	558
407	406
551	550
168	167
267	266
160	159
265	264
101	100
114	113
835	834
311	310
431	430
136	135
160	159
153	152
306	305
226	225
260	259
285	284
257	256
198	197
229	228
805	804
668	667
220	219
223	222
223	222
369	368
309	308
161	160
272	271
594	593
259	258
293	292
485	484
454	453
434	433
272	277
262	261
412	411
350	349
556	555
420	419
272	271
298	297
356	355
170	169
110	109
241	240
165	164
462	461
174	173
71	70
289	288
100	99
223	222
318	317
297	296
991	990
746	745
481	480
228	227
461	460
111	110
408	407
1048	1047
461	460
416	415
218	217
128	127
83	82
373	372
51	50
51	50
262	261
266	265
356	355
515	514
207	206
312	311
507	506
317	316
277	276
312	311
261	260
747	746
401	400
73	72
1294	1293
378	377
272	271
331	330
335	334
417	416
319	318
392	391
537	536
286	285
249	248
138	137
702	701
66	65
363	362
387	386
210	209
407	406
301	300
249	248
188	187
532	531
143	142
137	136
269	268
488	487
293	292
184	183
511	510
303	302
99	98
353	352
553	552
227	226
462	461
187	186
70	69
128	127
263	262
68	67
322	321
178	177
214	213
88	87
404	403
363	362
371	370
634	633
156	155
106	105
204	203
214	213
344	343
194	193
861	860
161	160
73	72
185	125
236	235
484	483
557	556
312	311
242	241
225	224
247	246
303	302
626	625
513	512
293	292
156	155
360	359
475	474
392	391
146	145
555	554
251	250
407	406
383	382
267	266
649	648
427	426
157	156
390	389
253	252
296	295
386	385
412	411
329	328
254	253
555	554
469	468
109	108
149	148
177	176
121	120
255	254
182	181
547	546
440	439
733	732
226	225
895	894
191	190
683	682
558	557
69	68
170	169
473	472
494	493
248	247
219	218
311	310
245	244
264	263
349	348
238	237
229	228
338	337
252	251
104	103
399	398
323	322
154	153
437	436
428	427
36	35
135	134
116	115
589	588
239	238
934	933
406	405
389	388
290	289
241	240
639	638
878	877
398	397
523	522
380	379
38	37
98	97
135	134
231	230
143	142
411	410
431	430
174	173
264	263
348	347
240	239
314	313
127	126
351	350
251	250
347	346
383	382
349	348
339	338
491	490
263	262
50	49
258	257
230	229
353	352
273	272
332	331
318	317
351	350
478	477
754	753
428	427
357	356
56	55
94	93
184	183
74	73
72	71
251	250
53	52
227	226
262	261
99	98
69	68
126	125
354	353
162	161
76	75
180	179
335	334
234	233
658	657
152	151
57	56
97	96
121	120
46	46
128	127
361	360
72	71
166	165
156	155
51	50
175	174
137	136
182	181
642	641
69	68
534	533
440	439
111	110
342	341
133	132
118	117
193	192
132	131
247	246
141	140
145	130
854	853
110	109
233	232
248	247
191	190
1166	1165
200	199
246	245
678	677
151	165
92	91
126	125
159	158
430	429
347	346
385	384
252	251
226	225
674	673
303	302
330	329
171	170
162	161
82	81
151	150
235	234
238	237
319	318
414	413
254	253
137	136
369	368
378	377
579	578
332	331
224	223
454	453
66	65
717	716
321	320
362	361
87	86
89	88
225	224
761	760
87	86
309	308
742	741
241	240
220	219
249	248
168	167
296	295
172	171
528	527
43	42
156	155
373	372
307	306
531	530
272	271
811	810
300	299
221	220
250	249
412	411
322	321
624	623
513	512
307	306
304	303
783	782
443	442
442	441
128	127
372	371
209	208
401	400
253	252
199	198
411	410
93	92
272	271
376	375
179	178
562	561
126	125
86	85
96	95
241	240
301	300
159	158
371	370
378	377
315	314
282	281
163	162
376	375
244	243
223	222
239	238
244	243
243	242
172	171
108	107
277	276
338	337
477	476
334	333
573	572
323	322
551	550
300	299
232	231
553	552
331	330
372	371
649	648
75	74
107	106
759	758
73	72
235	234
574	573
589	588
357	356
165	164
1369	1368
204	203
448	447
431	430
47	46
87	86
370	369
395	394
171	170
125	124
936	935
163	162
200	199
262	261
176	175
178	177
662	661
177	176
299	298
117	116
194	193
215	214
156	155
626	625
132	131
131	130
108	107
67	66
165	164
267	266
351	350
279	278
584	583
349	348
175	174
166	165
281	280
105	104
320	319
941	940
122	121
77	76
100	99
89	88
68	67
137	136
38	37
81	80
93	92
117	116
64	63
141	140
174	173
114	113
331	330
815	814
206	205
288	287
209	208
383	382
247	246
761	760
399	398
587	586
231	230
363	362
428	427
191	190
161	160
205	204
148	147
416	415
193	192
368	367
116	115
199	198
385	384
71	70
295	294
984	983
112	111
94	93
174	173
476	475
84	83
155	154
149	148
113	112
318	317
372	371
153	152
274	273
499	498
532	531
182	181
104	103
109	108
217	216
236	235
117	116
243	242
134	133
72	71
255	254
119	118
63	62
103	102
307	306
106	105
590	589
389	388
90	89
177	176
65	64
91	90
99	98
72	71
228	227
77	76
69	68
150	149
130	129
249	248
228	227
558	557
95	94
755	754
583	582
329	328
411	410
61	60
249	248
298	297
260	259
262	261
441	440
235	234
1487	1486
616	615
183	182
216	215
397	396
363	362
467	466
401	400
871	870
256	255
265	264
382	381
320	319
192	191
337	336
181	180
370	369
703	702
636	635
418	417
547	546
188	187
56	55
209	208
587	586
151	150
351	350
170	169
205	209
721	720
149	148
685	684
153	152
221	220
138	137
106	105
392	391
93	92
110	109
220	219
373	372
598	597
236	235
196	195
133	132
286	285
515	514
379	378
31	30
437	436
71	70
58	57
358	357
896	895
343	342
231	230
391	390
849	865
200	199
102	101
307	306
414	413
76	75
199	198
58	57
443	442
165	164
197	196
267	266
129	128
232	231
364	363
213	212
1321	1320
70	69
503	502
277	276
376	375
424	423
355	354
138	137
442	441
673	672
808	807
456	455
35	34
313	312
246	245
185	184
174	173
278	277
139	138
130	129
217	216
152	82
153	152
111	110
104	103
178	177
494	493
386	385
501	517
838	847
76	75
125	124
409	408
307	306
351	350
192	191
189	188
38	37
373	372
85	84
82	81
348	347
187	186
216	215
403	402
195	194
216	215
308	307
512	511
139	138
98	97
220	219
139	138
135	134
232	231
402	401
252	251
261	260
233	232
366	365
314	313
548	547
318	317
1062	1061
320	319
208	207
174	173
58	57
347	346
318	317
310	309
245	244
79	78
414	413
270	269
341	340
214	213
335	334
266	265
478	477
730	729
120	119
126	125
214	213
275	274
342	341
181	180
435	434
180	179
211	210
86	85
320	319
1173	1172
358	357
400	399
234	233
413	412
304	303
274	273
263	262
154	153
349	348
265	264
286	285
379	378
409	408
374	373
487	486
224	223
457	456
214	213
369	368
154	153
218	217
417	416
381	380
79	78
80	79
109	108
61	60
227	226
262	261
99	98
69	68
252	251
77	76
180	179
335	334
234	233
1421	1421
142	141
117	116
538	542
348	347
152	151
57	56
97	96
121	120
46	45
230	229
102	101
159	158
154	153
98	97
109	108
118	117
182	181
642	641
69	68
534	533
440	439
111	110
342	341
133	132
118	117
193	192
132	131
247	246
141	140
145	130
854	853
110	109
233	232
200	199
181	180
1161	1160
674	673
93	92
98	97
286	285
286	285
276	275
305	304
253	252
52	51
51	50
135	134
244	243
404	403
79	78
89	88
83	82
227	226
121	120
124	123
110	109
95	94
104	103
89	88
271	270
232	231
123	122
134	133
98	97
220	219
149	148
87	86
140	139
423	422
177	176
514	513
240	239
511	510
433	432
357	356
579	578
305	304
204	203
245	244
85	84
657	656
285	284
271	270
253	252
327	326
341	340
566	565
473	472
211	210
357	356
640	639
80	79
586	585
56	55
376	375
172	171
629	628
82	81
112	111
120	119
176	175
90	89
163	162
141	140
180	179
151	150
305	304
205	204
66	65
156	155
285	284
466	465
200	199
886	885
71	70
399	398
46	45
66	65
84	83
57	56
164	163
95	94
392	391
364	363
195	194
93	92
551	559
338	337
284	283
208	207
419	418
361	360
278	277
131	130
270	269
285	284
36	35
367	366
80	79
239	238
118	117
465	464
217	216
599	598
73	72
464	463
1248	1247
513	512
237	236
226	225
336	335
339	338
269	268
429	428
201	200
375	374
364	363
281	280
153	152
315	314
338	337
303	302
138	137
206	205
402	401
892	891
216	215
52	51
54	53
559	558
307	306
303	302
338	337
335	334
110	109
487	486
418	417
99	98
239	238
133	132
180	179
248	247
213	212
377	376
824	823
64	63
63	62
73	72
43	42
79	78
239	238
72	71
142	141
296	295
249	248
257	256
142	141
222	221
71	70
352	351
127	126
274	273
66	65
350	349
112	111
618	617
72	71
115	114
91	90
178	177
44	43
165	164
72	71
67	66
122	121
186	187
326	325
40	39
247	246
390	389
38	37
122	121
235	234
111	110
86	85
218	217
286	285
83	82
197	196
70	69
153	153
78	77
42	41
226	225
71	70
187	186
249	248
1757	1756
751	753
142	141
117	116
538	542
159	169
259	258
166	165
941	940
458	457
132	131
105	104
182	181
95	94
112	111
114	113
248	247
86	85
617	616
213	212
102	101
331	330
211	210
129	128
877	876
116	115
73	72
158	157
74	73
172	171
106	105
189	188
484	483
243	242
189	188
104	103
120	119
132	131
230	229
128	127
170	169
274	273
99	98
81	80
108	107
72	71
105	104
240	239
145	144
653	652
78	77
176	175
208	207
402	401
198	197
64	63
141	140
142	141
83	82
257	256
145	144
74	73
228	227
309	308
141	140
327	326
127	91
107	107
235	234
180	179
67	63
188	187
454	453
77	76
64	63
141	140
142	141
276	275
145	144
74	73
228	227
309	308
324	323
389	388
252	251
269	268
102	101
73	72
332	331
298	297
126	125
92	91
1039	1038
424	423
519	518
74	73
127	126
60	59
120	119
125	124
106	105
327	326
30	29
476	475
311	310
78	77
126	125
92	91
68	67
244	243
305	304
133	132
309	308
178	177
70	69
56	55
