85	84
433	432
91	90
452	451
887	886
233	232
140	139
346	345
230	229
128	127
196	195
276	293
445	444
246	245
440	540
118	117
192	191
217	216
319	318
160	159
600	599
325	324
227	226
302	301
158	185
82	81
244	243
127	126
87	86
283	282
212	211
168	167
519	518
143	142
1148	1295
356	350
111	128
238	237
445	445
113	112
397	396
89	88
349	417
382	397
209	208
132	184
258	345
471	1093
328	327
510	509
333	332
218	205
76	186
67	73
291	290
141	140
380	379
427	426
285	284
268	267
247	246
163	162
405	404
129	128
108	107
172	171
617	616
112	111
67	66
428	427
72	94
172	258
282	281
1090	1653
491	1653
82	94
678	779
144	143
385	384
336	335
166	165
69	146
119	185
237	243
144	160
202	206
393	392
491	490
72	71
192	205
329	497
142	497
69	168
263	330
185	254
693	2693
471	1640
655	2693
721	2693
492	455
65	108
381	381
229	225
130	268
157	156
180	179
172	171
64	63
51	50
120	119
619	747
443	489
422	450
280	279
78	77
346	345
209	208
108	115
257	256
249	248
120	119
296	309
177	209
354	353
137	156
191	190
293	292
141	134
114	117
221	194
127	130
168	187
154	187
475	497
154	179
43	41
67	66
376	375
119	118
34	36
379	432
101	629
90	272
376	401
391	391
180	179
660	659
192	191
333	332
266	592
317	369
249	248
760	759
112	111
160	159
234	233
94	107
186	267
264	263
75	74
98	97
96	95
468	467
279	278
65	64
332	395
409	408
468	467
454	453
296	295
220	219
167	166
351	350
301	300
208	207
142	141
150	149
192	191
300	299
475	474
105	246
183	213
264	263
339	338
278	277
292	291
366	365
304	303
123	122
284	283
170	169
499	575
44	43
86	85
324	323
254	253
333	332
672	671
73	72
333	332
309	308
255	254
82	111
102	181
75	87
218	220
202	233
148	178
162	179
229	223
155	382
83	82
124	123
120	119
814	811
286	307
76	123
48	47
413	412
109	108
419	418
322	321
109	108
416	415
362	361
46	63
289	345
330	329
505	831
286	285
245	244
525	565
413	412
307	306
81	80
92	91
211	210
417	416
181	180
261	335
143	142
315	314
344	381
37	36
1148	1197
205	204
388	387
513	512
443	442
446	445
312	311
90	89
69	68
159	158
162	161
129	128
162	161
427	426
527	673
206	233
79	78
35	113
737	823
426	731
145	144
367	366
72	71
201	200
771	770
49	311
210	209
318	317
225	224
524	523
116	115
216	215
118	117
253	261
201	200
69	68
240	263
136	147
128	127
142	141
68	67
34	33
173	172
50	109
208	279
89	88
343	342
143	142
302	301
97	275
180	210
368	367
485	484
281	357
244	551
536	535
97	96
154	163
69	124
116	115
367	388
85	84
102	223
51	45
120	119
63	62
306	305
247	246
63	62
161	160
96	95
269	268
342	341
77	89
126	125
92	91
344	342
53	52
101	189
339	491
264	397
49	48
439	438
101	135
490	732
339	338
83	398
631	786
100	99
127	126
175	200
52	51
397	396
311	310
252	251
447	446
95	94
437	436
715	714
162	161
98	131
71	83
121	113
126	125
100	99
281	769
487	770
251	250
164	163
160	159
176	175
186	215
70	210
184	183
311	310
362	361
275	274
185	184
64	63
183	182
93	92
392	518
290	337
151	150
276	287
393	392
184	183
60	59
94	297
111	110
47	46
87	86
296	295
124	175
247	246
395	394
107	106
69	68
125	124
470	469
470	935
163	162
93	92
111	110
100	116
205	204
100	105
472	458
203	202
299	298
117	116
194	193
215	214
156	155
627	626
179	182
131	130
108	107
67	66
165	164
267	266
351	350
266	265
497	583
349	348
175	174
88	87
138	137
105	104
124	123
104	103
320	319
915	940
122	121
82	81
68	67
81	80
96	95
114	113
36	35
36	35
69	68
96	95
118	117
335	334
386	385
338	337
271	270
220	219
251	304
47	46
423	422
221	220
196	196
496	505
190	189
261	260
261	260
229	228
239	238
34	32
196	195
298	297
121	120
216	215
215	214
146	145
39	38
181	180
493	506
385	404
132	355
175	174
401	400
152	151
165	164
217	216
611	610
200	199
406	405
99	159
162	173
148	147
221	220
440	442
164	163
167	166
446	445
852	908
326	325
181	180
185	184
101	100
451	509
156	162
510	509
486	485
168	167
324	323
581	580
215	305
108	109
154	153
102	101
432	431
557	556
253	252
286	285
280	320
437	451
89	88
129	128
112	111
183	182
81	380
295	292
297	296
542	660
117	106
323	322
386	385
201	200
142	141
181	180
401	400
261	260
402	401
430	429
268	267
82	81
37	36
245	331
80	79
397	396
420	419
543	542
453	452
359	358
217	216
85	84
377	376
762	761
311	430
963	1252
73	72
168	167
168	175
718	875
216	302
248	257
91	148
858	1534
68	230
609	1534
550	549
259	258
107	106
174	238
66	117
33	32
441	440
217	216
221	220
390	388
87	80
609	608
248	247
570	949
166	169
217	216
891	890
318	329
367	366
355	354
213	213
548	547
549	548
163	162
55	54
165	164
88	87
631	828
170	169
232	231
143	187
146	148
150	149
201	200
181	180
221	220
254	253
135	137
108	107
504	503
162	164
186	185
351	350
216	215
68	67
214	213
587	586
76	75
336	335
95	94
587	586
222	224
321	377
115	114
530	529
342	341
365	364
605	604
519	518
189	188
238	237
137	145
165	177
489	488
151	150
45	44
85	84
394	393
377	376
313	312
311	331
267	563
153	152
60	85
273	287
313	312
56	55
352	407
233	232
314	313
363	362
286	285
350	349
294	293
490	489
664	663
279	278
223	222
371	385
347	346
333	332
507	506
313	312
412	411
331	362
273	311
295	294
187	186
133	132
317	316
509	508
254	253
193	192
196	195
311	310
295	294
289	288
756	755
233	256
216	217
185	223
309	308
244	243
36	35
244	243
118	155
243	263
169	168
240	239
157	156
154	153
165	164
385	554
111	110
64	104
317	316
760	759
363	362
183	197
504	1210
218	395
1244	1244
561	1266
377	644
195	644
678	677
370	369
94	93
181	180
225	224
275	270
345	356
195	194
130	129
215	214
113	112
275	274
91	90
40	39
263	262
267	266
273	272
249	248
242	233
94	137
335	334
119	150
312	313
351	350
141	171
421	420
151	150
95	94
452	451
347	346
76	73
165	164
300	299
126	125
454	453
111	110
241	240
442	467
506	471
1015	1497
934	1040
537	662
220	219
227	226
61	60
592	646
130	129
123	332
213	226
283	282
153	162
690	1002
264	282
204	208
194	193
618	617
400	411
129	127
380	379
148	147
721	720
280	279
163	162
406	405
406	405
249	248
183	182
234	233
154	159
322	321
161	160
81	80
255	404
99	104
479	478
457	456
465	464
258	254
236	235
427	426
407	406
465	464
298	297
362	361
300	299
294	293
186	185
416	415
138	367
238	292
251	355
73	180
331	330
90	196
138	133
205	348
46	76
237	236
469	468
389	388
326	325
204	203
259	258
246	245
197	196
356	355
357	356
435	434
300	299
84	83
85	84
275	274
128	120
190	189
453	454
476	475
389	388
31	36
125	124
353	352
110	109
514	513
249	248
65	64
125	124
123	122
74	73
159	158
158	157
49	48
274	273
137	136
161	159
357	356
302	301
228	260
567	794
145	144
722	721
103	102
174	226
154	154
192	190
256	255
86	85
349	381
82	83
156	131
119	118
67	66
49	48
128	172
201	200
69	68
51	52
404	431
332	331
162	161
117	116
142	141
67	66
190	189
134	133
146	172
150	149
91	91
252	259
58	66
322	321
184	183
316	315
90	89
39	38
208	257
175	174
399	398
218	217
98	153
291	365
123	84
111	150
43	42
393	392
314	313
181	180
248	247
357	356
204	227
306	305
317	316
485	484
239	238
485	484
174	173
206	227
57	56
265	264
92	91
126	125
159	158
490	489
154	158
674	673
254	297
67	66
268	267
1938	1678
920	1346
205	445
241	252
262	272
239	352
262	574
297	349
512	906
156	433
334	333
320	319
601	600
206	205
245	424
125	599
427	426
365	364
321	320
81	76
267	265
217	216
212	211
335	334
138	137
235	255
335	452
102	125
284	283
250	328
88	86
41	40
63	73
116	164
132	133
473	472
157	156
307	306
306	305
131	80
107	144
347	505
219	271
76	75
63	62
93	59
78	123
41	40
262	261
44	43
45	82
85	180
51	50
122	110
382	472
102	113
62	61
159	199
177	176
148	147
121	130
134	282
142	146
229	228
278	307
91	107
476	473
105	104
111	110
184	183
49	48
234	233
90	89
78	77
402	401
138	137
176	193
116	215
64	75
102	101
131	136
417	438
389	436
240	239
184	183
286	285
329	328
223	222
251	250
241	240
75	74
219	218
611	610
181	181
222	221
405	403
80	79
166	165
108	107
84	83
168	167
70	106
261	260
195	194
311	310
329	328
267	266
475	474
143	142
117	116
193	192
58	57
234	233
43	42
54	96
213	212
478	654
181	180
168	167
53	52
514	513
40	39
287	286
44	43
292	291
108	108
215	214
150	149
234	262
421	413
272	325
131	130
578	577
191	190
249	248
367	366
810	809
324	323
175	208
226	320
191	190
112	111
88	89
99	153
505	590
148	147
247	246
174	173
201	200
204	203
337	336
65	64
84	83
115	114
262	261
252	251
329	328
260	283
200	211
332	331
115	114
255	375
136	135
144	187
123	135
38	37
339	355
162	161
604	603
214	213
393	392
97	96
131	130
37	36
220	219
537	536
152	157
221	220
219	218
77	76
125	124
234	290
57	56
114	113
219	218
64	63
79	78
482	481
878	877
296	427
133	132
166	165
233	232
699	698
294	293
161	160
310	309
234	263
80	79
96	95
70	69
270	269
174	174
153	152
284	283
267	266
324	323
70	69
366	364
157	190
533	532
90	102
379	393
193	192
454	453
60	59
100	99
116	115
637	636
232	231
194	193
314	390
254	378
372	371
213	212
120	119
61	60
83	82
136	135
79	109
85	84
114	115
394	393
273	272
47	46
103	102
131	146
497	496
486	491
428	427
645	644
249	248
163	284
95	97
295	294
332	331
136	137
91	90
359	358
460	459
87	93
234	280
279	278
316	315
327	326
253	252
453	452
214	213
339	338
237	236
418	471
196	195
184	183
121	120
228	247
114	106
538	651
227	226
197	223
136	135
207	206
436	435
218	217
218	217
292	318
333	388
57	56
104	119
96	76
235	234
190	189
237	236
269	268
407	406
345	344
172	171
70	69
250	443
768	541
162	161
192	191
296	295
276	275
113	112
107	106
451	446
117	116
280	279
451	450
253	252
754	753
88	87
464	463
197	196
186	185
50	43
179	178
262	215
97	96
342	341
253	252
36	35
96	95
643	642
145	144
66	65
119	118
328	327
64	63
752	786
100	99
130	129
168	167
184	183
250	249
155	154
228	227
479	478
64	63
349	348
278	277
294	293
495	494
549	566
98	97
407	429
33	364
313	312
255	254
304	303
384	383
532	531
239	238
111	150
148	150
147	146
292	291
405	404
66	65
202	201
169	168
93	106
51	156
540	1018
324	310
118	136
63	62
123	122
279	278
229	228
249	248
424	423
407	406
139	138
335	334
79	78
471	470
70	69
209	208
701	700
92	91
138	212
257	239
30	29
168	261
255	254
535	534
102	101
419	418
458	457
192	210
77	76
212	319
172	171
223	222
86	85
202	201
342	341
30	29
390	389
109	134
95	105
276	275
116	115
216	215
136	135
366	365
200	199
80	79
299	298
174	173
671	670
286	285
79	78
145	144
51	50
97	96
276	261
101	102
108	107
219	218
425	424
246	245
42	41
202	201
501	500
212	211
232	231
207	206
255	351
109	108
807	628
193	192
166	188
147	146
72	71
177	178
153	158
334	333
391	390
531	530
343	342
256	255
197	196
604	603
458	457
265	315
117	167
52	51
389	388
109	132
392	391
549	548
468	467
310	309
453	452
242	241
112	111
241	240
318	357
144	186
315	314
200	176
321	384
463	462
92	91
217	269
239	288
145	179
60	59
64	66
148	145
197	192
78	77
100	99
292	248
294	341
137	136
91	90
386	385
153	185
392	391
113	112
99	98
147	146
119	118
554	553
94	93
53	52
55	54
122	121
110	109
274	273
103	102
418	417
130	133
169	222
407	406
240	239
419	418
205	204
285	284
206	205
246	245
245	244
642	809
168	167
102	101
249	248
127	126
65	67
114	113
109	108
82	81
405	404
340	339
456	455
464	486
68	67
229	228
249	248
682	681
297	296
32	31
396	395
300	299
73	72
128	127
72	71
71	69
222	221
397	396
294	293
463	462
309	308
120	119
473	472
484	483
305	304
227	250
89	88
83	82
60	59
139	141
237	236
884	883
177	176
168	167
305	304
760	759
66	65
254	253
561	560
299	269
88	87
270	269
467	466
512	511
440	439
770	798
144	143
72	71
46	45
566	565
337	336
57	56
95	94
218	217
295	294
804	1015
181	180
269	262
54	49
194	295
152	377
316	314
81	416
44	143
86	145
132	150
554	1246
515	514
232	231
236	235
298	297
222	281
61	91
190	189
379	378
500	499
354	353
673	700
79	78
173	172
151	149
78	77
89	97
475	474
160	159
108	124
186	185
128	127
338	337
178	231
222	173
409	468
57	56
509	653
175	199
64	45
121	178
391	390
130	129
198	197
331	330
327	326
180	179
45	74
125	174
329	332
448	447
308	307
98	97
56	55
60	59
177	176
242	241
84	83
220	219
116	122
145	144
267	266
257	294
235	338
758	1213
202	201
289	288
2868	1690
57	56
78	77
173	172
207	273
49	101
618	809
330	329
141	140
89	88
1175	1174
378	377
145	144
90	89
305	275
458	457
58	57
179	178
154	169
411	410
188	187
237	315
109	281
63	173
110	122
296	304
238	271
112	112
193	189
57	56
317	316
86	85
344	343
538	537
300	299
307	306
213	212
243	242
322	321
169	168
514	513
354	353
466	465
333	332
302	301
323	322
220	219
756	755
293	292
209	262
63	77
351	350
281	280
294	293
426	430
435	559
134	124
105	104
74	73
120	119
75	74
116	115
91	92
326	325
82	81
120	133
369	468
322	321
304	296
331	330
269	268
458	457
251	250
781	1035
374	373
189	188
236	262
150	120
645	644
57	59
606	661
58	57
150	149
105	104
73	72
92	91
266	265
172	171
159	218
55	46
103	102
123	122
124	123
197	196
155	154
242	401
455	891
56	55
43	42
325	324
562	865
305	304
84	83
350	349
253	252
86	85
111	110
103	102
341	340
309	291
635	631
207	206
294	293
219	211
173	194
101	101
532	531
408	452
398	397
269	268
218	217
248	247
180	179
133	132
239	238
131	130
418	417
195	213
292	291
110	109
335	334
338	337
303	302
307	306
544	543
54	53
52	51
246	245
841	891
351	401
206	205
138	137
303	302
338	337
273	272
153	152
232	280
181	363
183	363
65	97
163	285
166	264
63	62
151	278
292	428
269	268
339	338
92	112
226	225
237	236
297	296
499	1247
750	1247
431	404
73	72
599	598
217	216
111	117
353	344
118	117
232	231
80	79
367	366
36	35
285	284
270	269
131	130
278	277
361	360
380	418
208	207
284	283
338	337
551	559
93	92
62	56
128	127
364	363
373	391
95	94
164	163
84	83
66	65
46	45
387	411
71	70
204	647
697	885
198	226
123	122
341	358
300	284
134	130
305	304
151	150
180	179
141	140
163	162
90	89
176	175
120	119
116	111
82	81
512	544
87	116
172	171
376	375
218	352
216	276
80	79
640	639
357	356
211	210
473	472
566	565
341	340
185	184
143	142
253	252
271	270
285	284
522	656
85	84
245	244
204	203
305	304
579	578
357	356
433	432
511	510
240	239
514	513
177	176
226	259
204	225
140	139
87	86
149	148
220	219
67	66
134	133
123	122
232	231
271	270
89	88
109	108
58	57
95	94
110	109
124	123
121	120
51	50
227	226
83	82
89	88
79	78
262	261
137	136
244	243
135	134
51	50
264	263
285	284
111	110
179	194
286	285
98	97
93	92
332	331
162	161
117	116
121	120
259	403
403	385
481	985
650	1132
99	98
248	247
233	232
110	109
854	853
145	130
141	140
247	246
132	131
82	81
82	81
118	117
125	124
343	342
116	115
441	448
75	74
507	530
69	68
480	625
183	182
61	60
125	124
148	147
166	165
72	71
361	360
128	127
46	45
121	120
57	56
152	151
226	257
130	154
509	508
111	110
101	100
234	233
340	339
180	179
76	75
162	161
354	353
126	125
69	68
99	98
262	261
227	226
61	60
50	49
72	71
30	29
73	72
80	79
79	78
381	380
417	416
218	217
154	153
216	223
134	133
214	213
457	456
209	223
462	461
342	373
179	178
200	205
373	372
288	287
89	88
219	218
30	29
262	261
127	175
49	48
419	517
214	213
172	200
72	71
565	1157
525	1157
196	195
234	247
233	232
114	113
1081	1080
58	48
169	168
188	187
51	50
95	94
149	148
117	116
42	46
70	67
554	820
110	190
74	73
646	645
554	553
188	187
67	66
75	74
165	164
44	43
178	177
117	116
72	71
390	435
238	297
350	349
66	65
167	166
127	126
77	76
270	221
52	51
60	59
37	36
59	58
61	60
119	118
48	47
88	87
136	135
145	87
250	249
148	147
62	61
89	88
142	141
331	356
142	141
76	75
215	214
79	78
57	56
73	72
55	54
63	62
64	63
824	823
90	89
373	372
265	264
349	348
136	135
263	262
80	79
242	273
46	45
304	303
413	414
234	233
135	134
135	227
136	133
313	312
1173	1172
237	319
78	83
86	85
119	139
42	41
144	143
94	98
297	351
181	180
342	341
275	274
214	213
126	125
120	119
687	729
478	477
44	43
234	221
335	334
161	160
387	550
270	269
414	413
79	78
103	123
163	162
310	309
318	317
347	346
58	57
174	173
143	154
54	79
320	319
1062	1061
318	317
548	547
314	313
325	324
233	232
261	260
252	251
292	401
232	231
135	134
139	138
220	219
98	97
81	57
512	511
308	307
216	215
195	194
403	402
216	215
187	186
348	347
82	81
85	84
373	372
38	37
189	188
192	191
351	350
307	306
409	408
125	124
76	75
176	175
655	847
378	398
86	85
386	385
173	227
323	308
178	177
104	103
111	110
153	152
161	85
217	216
130	129
139	138
278	277
174	173
185	184
246	245
313	312
78	71
142	157
255	386
463	736
346	536
284	290
404	471
112	219
283	412
138	137
355	354
353	423
65	64
376	375
188	243
107	106
524	502
70	69
368	414
909	1320
167	166
364	363
260	259
103	128
252	266
79	91
71	70
165	164
443	442
58	57
199	198
408	412
307	306
102	101
200	199
778	848
66	65
134	141
276	329
231	230
72	71
246	245
891	910
181	367
187	186
58	57
71	70
71	70
437	436
31	30
379	378
515	514
288	285
133	132
196	195
236	235
598	597
280	335
93	92
220	219
110	109
93	92
180	244
231	230
106	105
138	137
221	220
153	152
685	684
149	148
721	720
210	209
170	169
351	350
151	150
109	159
442	482
161	171
49	71
56	55
188	187
547	546
154	153
155	201
115	115
71	70
555	635
703	702
370	369
104	139
79	78
190	189
156	155
192	191
332	331
649	857
256	255
871	870
401	400
467	466
77	73
115	235
85	84
397	396
167	215
47	46
45	44
148	147
616	615
1487	1486
188	219
441	440
262	261
53	52
208	207
258	297
43	77
249	248
61	60
411	410
317	328
583	582
383	382
385	383
95	94
558	557
228	227
255	254
167	166
140	259
115	129
246	267
90	89
97	96
125	119
487	586
399	398
761	760
116	115
119	131
419	382
209	208
288	287
206	205
815	814
431	430
448	447
93	128
108	132
101	100
261	419
1040	1039
189	188
322	321
190	188
410	456
574	573
39	38
196	234
73	72
524	758
206	196
88	87
75	74
649	648
372	371
208	207
553	552
232	231
300	299
551	550
323	322
573	572
334	333
477	476
338	337
277	276
108	107
129	128
243	242
244	243
227	226
223	222
244	243
376	375
163	162
282	281
315	314
378	377
371	370
159	158
301	300
241	240
96	95
86	85
97	114
111	110
469	561
179	178
403	402
272	271
93	92
411	410
199	198
253	252
401	400
209	208
372	371
128	127
442	441
443	442
142	141
151	297
446	502
304	303
307	306
513	512
624	623
322	321
306	316
98	97
250	249
221	220
300	299
781	810
51	133
272	271
531	530
307	306
171	372
214	372
83	85
87	82
43	42
384	395
189	171
296	295
168	167
249	248
220	219
110	150
137	142
65	64
93	144
510	741
124	201
125	124
62	86
98	171
187	270
406	419
225	224
89	88
87	86
362	361
198	209
125	178
624	684
65	64
454	453
65	64
175	211
60	59
332	331
329	320
251	250
178	198
187	239
369	368
162	143
254	253
119	128
287	367
319	318
238	237
235	234
151	150
69	81
120	145
171	170
330	329
327	302
674	673
226	225
247	251
206	223
89	138
73	72
347	346
430	429
68	67
73	85
428	427
754	753
478	477
351	350
318	317
332	331
305	304
353	352
230	229
258	257
50	49
263	262
491	490
339	338
349	348
383	382
347	346
251	250
351	350
131	126
314	313
240	239
305	347
264	263
174	173
401	400
193	136
143	142
231	230
135	134
98	97
38	37
380	379
523	522
393	380
878	877
639	638
241	240
290	289
389	388
406	405
697	933
204	203
239	238
566	588
116	115
135	134
36	35
370	369
56	55
437	436
154	153
245	245
67	322
399	398
104	103
252	251
222	332
126	337
229	228
238	237
349	348
264	263
245	244
311	310
219	218
226	225
226	224
192	191
473	472
170	169
69	68
558	557
134	133
567	682
191	190
137	190
300	467
421	511
226	225
733	732
162	161
263	416
30	29
547	546
182	181
255	254
121	120
177	176
149	148
109	108
469	468
555	554
254	253
329	328
76	78
356	411
386	385
229	253
98	97
109	106
390	389
157	156
427	426
649	648
282	281
60	73
108	168
116	262
116	137
407	406
251	250
475	554
146	145
92	91
113	209
190	391
475	474
183	166
179	194
156	155
69	169
128	166
513	512
437	625
155	302
126	131
120	149
100	99
188	190
98	97
85	91
312	311
557	556
178	278
305	304
115	122
135	166
185	125
73	72
161	160
108	107
704	860
194	193
115	136
214	213
217	203
60	59
156	155
341	377
290	290
371	370
363	362
404	403
88	87
214	213
322	321
44	42
263	262
128	127
70	69
187	186
119	164
343	343
227	226
263	262
297	410
370	369
99	98
303	302
511	510
184	183
293	292
232	305
272	280
269	268
137	136
143	142
532	531
188	187
249	248
301	300
392	391
76	75
121	120
387	386
363	362
66	65
702	701
138	137
249	248
286	285
537	536
392	391
228	266
334	341
84	101
335	334
147	149
185	249
272	271
342	377
905	1293
390	389
73	72
401	400
747	746
261	260
312	311
144	155
118	124
317	316
507	506
312	311
207	206
505	514
384	355
266	265
262	261
51	50
51	50
373	372
232	241
218	217
416	415
216	228
258	284
1048	1047
408	407
41	40
64	63
461	460
228	227
481	480
746	745
991	990
297	296
318	317
144	143
209	208
289	288
71	70
174	173
83	132
386	393
165	164
183	240
110	109
170	169
356	355
569	297
420	419
556	555
350	349
66	65
366	411
262	261
382	381
434	433
454	453
485	484
89	88
202	201
78	127
92	91
126	125
144	209
594	593
272	271
161	160
115	114
128	127
369	368
186	194
82	105
223	222
169	219
55	66
668	667
679	804
119	118
229	228
198	197
270	269
285	284
260	259
226	225
306	305
152	151
160	159
136	135
206	297
201	200
311	310
370	385
464	490
114	113
101	100
265	264
161	182
249	266
168	167
551	550
407	406
559	558
435	434
320	319
321	320
195	214
625	624
63	62
140	139
110	109
118	143
368	441
184	183
126	125
176	175
55	54
657	1120
465	528
216	215
398	397
309	302
219	530
532	1049
125	124
73	72
184	183
157	156
222	221
296	516
118	117
104	103
191	190
104	103
184	183
429	428
51	50
59	58
594	593
338	361
210	271
153	152
273	272
567	566
232	231
170	132
124	123
624	623
91	90
481	784
169	184
153	152
425	424
208	207
433	432
105	104
153	179
492	491
269	289
48	98
442	453
229	241
205	204
110	109
297	296
455	454
164	163
304	303
197	196
483	482
81	80
300	299
237	236
403	402
325	324
173	172
326	325
140	139
157	156
368	367
150	149
180	179
255	254
116	115
324	323
605	615
111	110
376	375
357	356
194	193
89	106
257	345
279	308
394	419
440	439
432	431
230	229
420	410
211	377
304	527
302	651
227	226
379	394
303	302
177	179
137	136
61	60
101	127
194	185
93	91
175	174
153	152
60	75
195	194
372	371
125	124
398	397
87	86
301	364
71	73
71	70
365	364
373	372
34	33
106	113
127	231
154	169
208	207
304	330
130	303
485	963
325	324
183	182
352	572
256	255
249	256
83	110
92	91
269	254
48	86
62	69
278	277
180	179
379	403
338	337
113	112
204	316
270	269
289	288
254	274
61	60
207	206
349	348
278	277
364	363
104	117
649	1019
203	411
418	417
81	206
78	77
428	427
420	419
272	299
374	378
327	372
111	169
180	179
211	193
297	296
148	147
199	373
92	91
211	210
350	349
461	460
317	316
473	472
516	515
122	139
114	113
202	201
166	165
311	310
363	362
678	677
196	195
491	490
557	556
94	93
364	363
184	183
301	442
126	125
92	91
472	763
223	222
231	231
476	475
240	239
285	284
442	556
198	197
290	289
249	285
52	39
1416	1415
284	283
330	329
298	297
309	308
307	306
381	380
34	33
89	88
47	46
181	180
150	149
223	222
306	305
120	164
406	405
548	547
237	236
205	204
112	111
259	258
261	306
202	260
1033	1032
546	545
329	332
157	156
418	417
368	367
352	351
134	133
202	216
195	238
153	152
192	191
307	306
187	186
406	405
125	124
313	313
40	39
229	228
580	579
166	165
202	226
247	246
256	255
193	192
815	814
149	148
257	256
247	246
156	155
241	240
265	251
407	406
257	256
275	274
185	201
88	91
268	267
85	84
147	152
51	50
344	343
218	217
272	271
135	134
236	235
61	60
513	572
275	274
237	236
141	140
182	181
67	66
87	86
244	253
194	193
98	92
714	713
320	319
1161	1160
199	198
383	382
263	262
152	151
342	341
134	133
811	810
451	450
286	285
232	231
399	398
186	185
242	241
262	282
242	241
265	264
891	890
275	274
129	128
386	385
365	364
444	505
233	232
267	266
208	207
115	114
474	473
427	426
525	660
144	143
297	296
266	265
640	749
123	127
337	336
715	825
113	106
239	238
189	188
765	841
70	52
768	809
177	176
95	192
123	147
152	151
309	308
240	251
160	159
183	191
247	246
603	602
265	272
191	190
201	200
106	173
418	417
128	167
83	92
284	283
68	67
311	310
127	126
385	409
147	146
154	162
104	103
250	283
221	220
183	182
535	796
250	316
517	516
103	102
297	296
265	264
121	120
124	123
274	420
483	865
588	587
475	474
631	630
781	887
255	254
97	96
97	96
97	96
95	94
594	593
457	456
285	284
184	183
298	297
147	146
462	461
401	400
348	347
207	206
183	182
79	165
66	65
122	118
902	901
196	195
306	305
384	383
421	420
277	276
307	306
492	491
356	355
415	414
439	438
64	63
299	298
453	452
496	495
120	119
470	588
122	121
249	254
153	152
335	334
164	163
505	574
73	72
315	314
524	523
364	363
467	466
202	201
56	43
513	551
328	327
537	536
181	182
53	138
255	254
158	233
320	495
146	145
304	317
308	307
207	206
145	144
282	281
267	266
301	412
170	222
345	337
40	39
193	231
98	94
695	783
664	968
245	254
97	82
220	219
272	271
785	784
434	428
330	329
274	273
126	125
283	282
105	104
78	77
197	196
621	620
177	176
224	259
238	228
96	95
95	112
82	99
267	297
314	313
257	256
79	92
412	443
228	239
162	173
406	405
423	517
96	95
175	187
90	89
197	196
132	131
68	64
325	390
597	1073
96	95
174	175
136	215
273	272
137	121
305	304
317	316
42	44
112	109
165	164
596	595
199	356
155	120
261	291
88	87
171	169
287	286
680	679
73	73
141	226
77	76
135	134
262	261
420	419
498	497
254	253
377	376
517	638
123	127
135	134
238	237
189	188
196	195
318	317
477	476
174	202
99	98
429	428
311	310
821	820
135	228
92	40
239	238
442	450
81	80
359	386
230	229
158	157
290	289
216	215
172	171
79	94
646	645
556	555
89	88
111	110
411	410
436	471
323	322
215	214
339	338
88	87
240	239
136	135
273	285
265	264
182	181
150	157
73	69
102	132
403	516
235	234
261	260
358	357
54	53
202	201
539	538
226	225
276	275
344	343
79	78
261	260
226	225
225	224
433	408
180	179
246	245
165	164
764	763
341	340
305	304
313	355
99	98
555	554
579	578
143	142
68	67
319	318
101	100
96	95
70	69
98	97
348	333
87	100
310	309
125	124
384	383
256	255
86	85
324	323
393	392
185	184
116	115
154	153
120	119
171	170
304	303
131	130
281	280
100	99
126	125
70	103
181	241
65	64
487	486
395	394
448	447
178	175
130	163
168	167
177	176
162	161
671	878
122	121
121	99
166	165
183	182
199	198
132	131
239	238
369	368
327	326
115	114
142	141
117	116
162	161
332	331
234	397
100	99
75	74
184	183
105	114
149	151
87	86
374	373
93	92
353	437
86	90
269	268
144	143
211	210
261	260
263	262
320	319
656	655
118	115
314	333
329	328
335	334
214	213
372	371
247	257
174	212
85	84
259	253
434	440
141	140
100	99
126	125
299	320
580	579
397	396
251	250
222	299
73	101
142	141
52	51
59	58
163	162
126	125
123	122
38	37
74	73
159	158
155	154
273	272
53	52
617	616
190	206
321	320
249	248
93	325
252	251
291	290
83	152
220	258
201	200
69	68
52	70
66	65
190	189
134	133
145	144
79	78
130	129
116	115
283	472
179	178
453	452
261	260
307	306
125	124
78	72
258	257
312	334
85	84
419	418
96	95
148	147
178	206
148	204
98	97
219	218
384	485
136	154
275	274
98	97
210	209
359	358
81	59
99	98
220	217
123	183
113	149
199	198
70	158
321	358
974	989
608	607
130	228
152	217
98	97
39	150
266	303
540	539
264	308
340	339
188	187
155	144
196	195
255	254
440	439
333	332
88	87
466	559
361	360
360	359
504	503
148	147
952	951
396	395
168	167
139	138
335	334
151	150
229	241
128	396
48	71
311	310
335	334
468	467
163	162
59	58
312	311
154	153
129	128
899	898
316	315
474	473
67	66
441	551
713	712
140	139
129	128
451	450
184	183
458	457
333	332
332	331
341	340
501	500
319	318
177	176
114	113
1260	1259
578	577
166	165
448	447
69	68
80	81
74	118
247	246
648	647
127	126
287	286
322	321
221	220
471	470
100	99
97	97
213	212
216	215
264	263
63	62
219	280
259	258
514	513
683	690
426	425
222	253
169	168
164	163
150	149
76	75
105	104
132	131
92	91
229	228
285	284
217	216
155	154
102	101
336	369
132	168
355	354
252	251
250	249
110	109
92	91
542	541
388	387
232	230
133	132
99	219
233	232
134	133
104	120
151	150
844	813
142	141
433	432
66	65
335	334
423	422
423	422
103	102
121	120
182	181
559	615
66	78
443	443
154	153
511	515
238	259
142	165
182	181
294	269
323	322
1097	1107
101	100
486	500
213	245
127	90
71	70
521	520
245	244
70	68
63	62
120	119
335	334
104	100
73	72
106	105
49	48
42	41
189	188
343	342
290	289
118	117
139	138
407	416
98	97
419	418
159	158
479	478
403	402
54	50
593	592
192	191
169	512
327	326
445	444
716	715
486	485
506	505
62	61
99	98
91	90
181	180
982	1309
98	140
60	59
264	263
78	74
355	431
876	1283
171	170
247	234
846	845
91	90
77	76
246	217
318	317
240	239
447	446
549	548
177	216
452	451
303	302
112	110
656	755
254	253
446	445
162	186
359	547
223	222
265	265
89	181
30	29
338	337
240	292
228	292
513	742
112	111
148	147
263	262
339	338
255	255
242	241
151	150
195	194
355	354
282	281
253	252
227	226
379	378
186	185
145	144
253	252
113	112
150	149
108	112
202	294
274	311
128	127
384	389
327	326
232	231
52	51
260	309
662	661
92	91
327	343
684	683
489	488
53	52
75	74
544	715
391	418
350	349
176	166
103	102
279	278
501	247
438	437
199	198
128	127
539	540
319	318
224	223
189	188
479	478
653	652
105	104
550	549
230	229
137	136
295	294
550	549
450	449
155	154
108	107
529	528
94	93
131	130
54	53
941	940
119	118
141	140
238	237
607	606
453	452
358	357
208	240
283	282
291	290
390	389
467	466
332	367
55	60
915	914
398	397
335	334
186	185
262	261
53	52
247	246
226	225
345	344
524	523
260	259
427	426
679	678
328	327
81	80
332	331
172	171
70	69
442	441
203	202
123	122
335	372
132	243
357	424
291	290
166	165
185	204
446	446
372	371
32	31
397	396
515	514
297	296
137	136
53	52
374	538
262	261
246	245
213	212
86	85
550	549
316	316
129	132
81	80
291	290
182	253
127	126
269	268
136	135
97	112
59	70
266	265
275	274
335	365
82	106
230	229
479	518
135	149
166	226
268	292
48	83
744	1227
275	274
422	425
153	167
264	263
166	165
534	533
310	309
148	147
56	126
85	139
85	84
204	203
342	341
430	429
97	104
349	348
180	179
279	278
140	139
212	211
91	90
176	196
224	223
355	354
258	257
159	158
632	631
212	211
252	251
324	323
150	266
222	286
1229	1407
162	188
298	365
148	213
853	2867
95	104
166	165
139	138
85	84
143	142
182	181
128	127
395	394
309	308
322	321
343	342
85	84
286	285
615	614
367	366
120	119
121	147
120	145
439	438
389	388
467	466
306	305
458	457
259	258
261	260
88	87
384	383
884	883
578	577
284	283
114	113
227	227
766	765
107	106
106	105
254	252
834	833
221	220
368	367
206	205
108	147
186	301
727	726
297	296
136	135
186	313
183	179
377	376
811	810
387	386
106	105
203	202
71	70
733	732
342	341
285	284
177	176
444	443
95	94
215	214
162	161
58	57
32	31
257	256
482	496
337	336
249	248
143	142
100	99
147	146
200	199
256	255
142	182
93	251
330	329
321	320
301	300
66	65
107	104
233	232
98	97
108	166
223	222
225	224
314	313
56	55
99	98
345	344
313	312
263	278
490	489
424	378
275	274
105	104
465	464
149	148
484	483
357	356
162	331
314	582
348	347
484	768
300	768
481	611
133	441
233	270
196	195
435	1016
383	382
272	300
212	211
310	309
43	42
81	80
283	282
247	246
73	72
93	92
74	73
97	96
303	302
314	313
146	145
291	290
200	199
133	132
123	122
144	298
155	207
236	298
293	292
414	413
301	300
292	291
679	678
462	461
468	467
231	230
608	607
470	469
350	349
229	228
261	260
37	36
458	457
142	141
211	210
929	928
62	61
311	310
477	476
209	208
329	328
90	89
195	194
176	175
85	84
182	181
367	366
109	108
205	204
444	443
161	160
582	757
388	387
234	233
498	497
163	162
261	260
259	258
172	171
90	89
547	546
202	201
252	251
429	475
147	152
110	147
48	86
297	334
210	209
325	324
169	168
497	496
255	254
270	269
32	31
173	176
109	108
180	286
520	519
75	238
424	474
319	318
130	129
408	407
231	230
282	281
666	665
503	502
186	185
754	753
318	317
300	299
267	266
341	340
207	206
287	286
207	206
612	611
290	289
156	155
297	296
127	126
317	316
255	254
301	300
721	720
239	238
299	298
236	235
280	269
68	67
78	77
107	106
849	848
321	320
247	246
37	31
372	407
399	398
100	195
109	196
125	124
364	359
412	411
462	461
247	246
451	450
205	359
120	119
417	416
367	376
225	224
294	293
356	355
327	420
80	79
377	376
284	344
66	65
177	176
170	169
420	419
110	109
89	132
121	209
179	205
449	451
47	47
289	288
393	392
94	93
492	491
305	304
449	480
663	616
310	309
88	87
549	548
507	506
113	112
280	279
85	84
231	230
476	475
331	330
310	309
297	296
84	83
218	217
52	51
437	438
140	139
537	622
84	83
499	498
413	412
82	81
331	330
153	152
148	147
630	629
208	207
128	127
203	201
80	79
157	156
178	177
151	158
169	323
129	128
265	264
461	460
140	139
453	456
610	609
347	346
320	319
297	296
258	257
242	241
279	278
176	175
444	624
465	464
539	538
390	389
241	240
196	195
156	155
194	221
446	445
189	188
201	200
49	69
320	319
392	391
314	305
472	471
455	454
483	548
60	113
86	108
47	46
468	467
367	366
358	357
805	804
133	132
271	270
219	218
230	229
293	292
206	205
383	382
431	430
367	366
405	416
68	86
138	137
143	142
554	553
171	194
119	118
222	224
370	379
355	354
136	135
116	115
121	120
166	165
122	121
273	272
563	562
97	96
44	43
208	286
197	196
501	500
440	439
460	459
589	588
445	444
151	150
108	107
120	119
260	259
154	220
98	97
273	272
308	307
166	165
346	345
446	460
773	772
518	517
157	156
105	104
364	363
284	283
287	286
311	310
227	226
76	115
507	569
464	463
70	69
347	346
694	693
230	229
703	702
92	91
208	207
561	560
206	205
44	43
245	244
239	238
214	213
199	198
153	152
104	103
300	406
145	157
79	78
56	55
96	95
62	157
53	111
160	159
114	113
312	311
321	340
375	374
266	265
266	265
360	359
216	264
115	114
339	338
233	232
284	283
214	256
422	421
320	319
349	348
311	310
399	398
342	341
345	344
320	319
420	419
515	514
144	143
84	83
156	155
340	339
274	273
158	157
416	396
195	258
552	551
1448	1447
227	226
121	120
70	69
219	251
383	382
374	465
264	314
50	49
72	71
110	109
269	306
203	202
402	454
36	66
580	614
384	383
432	431
466	512
658	657
467	466
272	271
260	234
287	286
221	220
141	171
374	498
255	328
59	58
426	425
156	155
307	306
155	154
333	332
271	270
158	157
418	417
677	676
275	274
386	385
394	393
514	513
331	330
441	440
318	484
114	113
146	145
332	331
122	129
304	303
690	689
174	173
284	283
51	50
97	96
237	236
325	324
220	219
778	777
147	146
188	187
216	219
403	402
564	563
161	160
536	535
340	339
301	300
328	327
338	337
108	107
104	103
71	217
281	335
424	423
36	35
36	35
36	35
453	553
84	93
64	63
520	519
63	62
251	250
186	185
207	398
489	872
770	769
369	368
277	276
666	1157
217	216
659	662
429	428
499	498
310	309
256	255
294	276
143	144
182	472
441	440
338	337
324	323
201	200
550	549
441	465
467	466
275	274
219	218
94	93
468	486
571	1037
339	338
176	175
191	190
111	110
113	112
192	191
257	256
319	318
208	207
165	164
403	445
278	277
661	660
343	342
177	176
179	236
92	91
140	139
72	71
447	446
281	280
233	228
97	138
218	269
251	250
490	489
145	144
92	91
333	332
173	195
411	393
87	116
72	207
146	354
202	201
204	203
912	911
375	374
284	283
90	89
503	502
453	452
94	93
112	140
249	248
32	31
134	133
269	268
255	254
65	68
203	277
315	314
525	524
196	195
350	349
417	416
186	185
222	221
79	71
733	732
209	208
86	85
90	89
199	198
455	498
223	222
353	352
289	281
368	367
89	88
176	175
128	127
268	240
139	138
309	308
426	425
169	168
81	113
238	237
439	438
296	295
282	281
357	356
248	247
147	146
578	577
163	162
346	345
232	231
332	331
176	175
403	402
597	699
159	190
227	400
198	197
384	383
729	728
658	657
432	431
478	477
816	815
94	129
217	432
201	300
256	255
72	99
130	151
293	292
210	195
109	108
207	230
70	69
172	171
51	200
112	111
136	148
591	901
326	315
798	797
695	694
439	438
192	191
228	227
257	256
147	136
79	78
774	773
76	75
581	773
198	194
159	158
240	239
108	107
340	411
176	179
37	55
218	238
58	57
176	284
294	498
171	174
269	343
180	190
134	159
134	133
223	222
689	711
187	186
851	850
260	259
169	168
147	146
79	78
413	412
226	225
363	362
429	428
298	297
226	225
253	252
335	334
115	305
182	228
121	120
388	387
409	408
293	292
93	107
435	434
362	361
56	55
141	199
231	319
269	268
112	108
244	243
442	619
170	185
394	393
78	77
56	55
182	200
188	187
407	406
371	442
316	675
211	210
135	134
260	275
73	72
302	340
638	637
108	107
77	76
137	136
486	601
67	66
197	196
73	72
253	252
241	240
129	128
120	119
96	95
57	56
47	46
125	124
705	704
395	394
230	249
121	501
493	891
40	48
159	158
172	171
57	56
119	122
388	387
255	327
196	195
126	125
170	169
146	145
303	377
84	78
400	367
655	654
272	271
490	489
119	110
104	103
210	209
202	201
87	104
274	273
93	92
111	110
234	233
137	136
64	63
85	84
124	123
108	107
180	179
102	101
131	130
178	177
118	117
168	167
60	59
145	144
444	443
39	38
119	118
130	129
207	206
330	329
128	127
95	122
142	141
58	57
138	137
459	458
192	204
239	217
316	315
70	69
100	99
375	374
106	105
62	61
181	180
173	190
273	272
86	85
185	184
85	84
91	90
253	252
368	367
394	393
226	227
131	137
74	73
193	192
408	841
443	472
386	385
221	220
60	59
284	283
99	98
322	321
294	293
484	483
81	80
319	318
272	271
285	284
297	296
299	298
201	200
330	329
321	320
349	348
450	449
157	156
325	324
647	646
348	347
368	367
163	162
198	197
490	489
1101	1100
167	166
482	481
310	309
68	67
311	310
309	384
363	436
91	90
88	87
157	156
313	312
356	355
412	455
54	53
133	132
376	375
143	142
131	130
213	212
166	165
261	260
298	297
497	496
230	229
213	291
155	154
473	472
689	1486
765	1517
310	309
779	778
101	100
95	94
243	242
211	210
91	90
285	284
164	163
96	95
478	477
242	241
186	185
192	191
189	188
329	328
301	300
266	265
261	260
184	183
212	211
98	97
90	89
420	419
83	82
324	323
104	103
86	85
322	321
391	390
40	39
450	455
159	158
98	97
210	209
648	647
283	282
446	445
111	110
93	92
396	458
448	447
93	154
72	88
399	398
104	107
891	890
134	133
315	314
90	89
59	58
364	522
231	272
295	294
630	629
415	414
324	317
293	292
195	194
149	148
175	174
168	167
101	100
56	55
93	94
173	172
212	211
347	346
192	191
197	196
132	131
679	678
59	66
248	287
238	237
236	263
268	267
159	158
287	286
385	384
378	377
145	144
293	292
260	259
158	157
256	337
55	78
139	138
187	186
89	88
155	154
112	111
524	523
445	444
257	256
297	296
382	381
313	312
330	329
444	443
403	402
765	764
130	129
354	355
111	110
444	443
437	436
55	54
234	233
299	298
123	122
175	194
160	160
161	160
100	99
135	134
102	101
123	122
128	127
221	220
212	219
433	432
471	470
84	83
389	388
65	64
109	108
79	78
351	350
322	321
329	328
231	230
168	167
379	378
105	104
139	138
295	294
391	391
784	783
357	356
478	477
150	149
373	397
610	676
44	94
328	327
76	76
497	496
507	506
208	207
163	151
144	143
68	67
290	292
167	183
217	216
173	311
169	168
72	71
338	337
356	487
127	126
202	201
204	203
114	114
311	310
206	205
84	76
274	273
413	412
207	206
434	433
79	111
861	946
478	477
520	508
210	209
67	66
218	217
350	349
247	246
841	840
180	187
57	56
258	257
272	271
224	223
200	222
599	598
387	386
224	223
494	493
31	30
127	170
141	140
276	275
194	193
89	86
518	630
714	713
270	269
129	203
61	127
126	194
350	349
162	161
121	120
296	295
105	104
194	193
160	159
202	210
129	128
321	320
220	219
128	127
161	160
536	535
753	752
246	245
471	470
435	434
161	160
328	327
337	336
47	97
293	338
491	490
250	249
745	724
86	85
218	217
199	275
93	98
332	331
54	53
319	318
217	217
396	395
245	244
142	141
72	71
207	206
165	164
347	346
48	47
255	254
96	95
373	372
329	328
393	392
568	567
165	164
163	162
111	113
83	82
289	288
620	619
500	499
231	230
258	254
253	252
181	195
245	252
275	274
187	186
110	109
239	238
159	143
212	211
391	390
83	82
305	304
449	552
96	95
193	210
188	187
175	224
52	49
505	499
36	54
305	350
408	407
135	134
724	723
257	248
305	304
1522	1521
270	269
137	136
320	319
524	686
165	164
68	80
143	227
282	340
408	407
152	151
188	187
124	123
202	201
106	132
183	325
368	392
179	178
259	258
224	223
1033	1016
458	457
190	189
99	165
399	398
676	675
247	246
559	559
88	105
293	296
328	327
187	186
77	86
399	398
52	51
306	305
132	131
282	281
66	65
162	162
126	125
127	126
215	214
74	73
159	158
162	161
273	272
78	77
152	151
839	838
91	91
955	1039
291	290
155	202
190	371
191	190
76	68
142	141
117	116
194	194
332	331
190	189
128	127
103	102
513	512
161	205
184	176
117	116
142	141
306	305
123	106
189	251
491	490
270	269
237	236
246	237
107	369
92	139
222	289
245	244
203	207
142	196
110	109
307	306
304	350
331	330
81	80
123	122
72	71
83	90
68	67
187	187
154	153
152	151
273	272
86	82
111	110
80	79
529	507
118	117
234	182
123	122
56	192
1296	1295
734	733
428	427
214	218
312	308
255	259
76	251
184	208
365	393
398	397
307	305
110	109
94	93
69	68
187	186
87	86
235	234
109	108
119	118
508	507
120	119
74	73
100	181
100	99
126	125
167	166
126	125
92	91
348	347
422	421
124	123
142	141
156	155
562	711
419	418
360	359
92	91
181	350
167	169
165	239
64	63
109	108
240	239
123	122
236	235
261	276
86	85
379	378
198	197
97	96
189	188
235	234
327	326
139	138
116	115
87	103
247	246
92	90
59	154
64	63
236	235
152	151
465	464
385	384
84	83
659	658
244	243
307	306
253	252
664	663
303	302
148	147
348	332
123	170
426	425
322	321
54	91
117	149
223	222
226	225
226	225
236	235
193	192
144	143
340	339
137	136
251	250
360	359
287	286
212	211
201	184
47	100
92	91
98	97
104	103
286	351
298	297
77	76
220	219
411	410
151	150
110	109
193	192
442	441
393	392
401	400
365	364
130	129
837	957
112	111
478	477
104	103
220	219
327	326
89	88
136	135
127	126
42	41
265	264
237	236
578	577
294	293
506	505
183	182
42	41
483	482
640	639
41	40
110	162
105	150
341	392
439	438
167	166
297	293
160	159
214	479
60	259
501	956
260	259
443	442
1033	1032
177	176
160	159
37	32
507	541
311	310
462	461
404	403
399	398
396	395
593	592
451	451
766	765
117	116
410	409
394	393
279	278
254	253
473	472
231	230
312	311
364	375
58	57
344	343
720	719
397	397
347	346
73	72
238	237
230	229
49	48
177	176
749	748
292	291
265	264
157	156
188	187
136	135
108	107
1123	1122
963	962
232	232
85	179
846	926
609	608
444	443
448	447
93	184
192	199
152	151
372	509
364	391
199	198
316	315
514	513
249	248
215	214
194	259
143	142
179	178
360	359
587	586
141	140
473	472
354	427
192	545
750	1051
193	299
174	211
161	160
201	200
585	835
114	160
160	134
306	325
157	241
100	205
176	175
75	273
126	125
92	91
179	273
793	792
217	197
788	787
775	774
222	255
172	408
489	878
164	163
551	550
222	221
177	269
280	286
454	514
58	55
187	166
257	338
97	96
267	266
148	147
402	401
76	75
306	305
96	95
367	366
197	196
138	137
473	472
72	71
508	591
439	438
216	215
383	382
282	281
456	455
430	429
455	454
283	282
182	181
110	109
261	260
150	149
315	325
136	135
447	446
378	352
791	892
129	127
434	433
745	1178
264	263
546	545
433	432
291	290
36	35
224	223
142	222
214	213
468	469
457	456
506	505
306	306
330	329
163	154
483	484
262	261
485	484
470	469
63	71
200	259
87	83
201	228
192	191
87	86
424	423
63	121
451	599
562	570
245	244
51	50
346	345
303	302
476	475
171	170
108	107
104	103
237	236
160	159
350	349
219	234
209	208
380	379
331	330
184	183
348	347
455	454
210	258
54	62
213	212
219	238
303	302
256	255
219	218
246	246
620	619
60	59
115	114
143	142
693	692
337	336
374	373
91	90
291	290
117	116
154	153
131	119
331	330
245	244
308	307
570	569
181	180
214	239
137	136
156	155
62	61
140	139
146	145
68	67
176	175
520	637
169	312
72	71
371	377
435	479
453	504
237	321
86	85
258	257
120	119
260	259
124	123
320	319
188	187
349	348
120	79
166	165
354	353
167	166
877	876
62	61
197	228
189	188
122	137
519	518
172	171
371	370
236	235
513	512
391	390
119	176
61	75
112	111
178	207
395	394
331	330
355	354
386	370
320	319
425	424
291	290
137	136
82	81
110	109
115	114
150	149
135	134
103	128
91	99
53	52
150	149
221	220
467	466
427	426
483	482
422	421
326	325
166	173
150	149
97	96
114	113
554	553
293	292
198	197
414	413
289	288
454	453
83	82
183	182
256	255
116	115
128	159
350	407
55	53
173	172
122	121
357	356
374	373
150	149
199	197
114	113
246	245
327	326
244	243
858	857
75	89
72	71
238	274
132	176
101	100
34	113
141	140
66	34
117	95
81	80
257	256
185	122
75	151
183	236
138	144
639	525
103	159
150	262
68	317
380	370
234	234
131	95
65	64
134	160
185	184
191	343
111	343
82	341
122	341
103	384
87	384
303	295
154	237
87	238
57	56
348	347
44	78
41	78
236	235
190	320
74	320
169	876
187	341
391	185
97	96
106	105
194	222
146	145
105	104
232	241
134	133
375	180
69	68
93	194
79	194
204	240
140	139
36	67
214	213
167	166
52	51
235	234
236	235
284	283
196	196
206	205
279	278
235	234
151	217
97	96
159	168
93	92
106	106
170	169
87	86
109	108
160	159
168	167
107	106
150	149
162	161
162	161
232	231
377	376
428	427
460	459
141	140
36	46
642	646
254	253
169	168
85	75
92	91
126	125
126	125
937	936
156	229
235	234
252	251
111	110
235	234
184	181
107	107
259	258
754	753
265	276
138	163
89	88
109	108
160	159
529	507
119	118
135	134
116	115
86	85
158	163
461	340
173	172
173	172
264	263
455	656
141	140
122	121
38	37
390	389
247	246
326	325
107	106
214	213
56	55
73	72
102	101
270	269
75	91
215	214
196	222
131	130
78	77
266	265
391	390
331	330
146	145
83	82
101	101
407	406
309	308
228	227
74	73
145	144
257	256
42	46
101	100
141	140
64	63
167	140
77	76
454	453
181	180
79	76
176	175
78	77
653	652
145	144
240	239
71	70
98	97
274	273
170	169
128	127
194	179
76	75
120	119
104	103
189	188
243	242
289	286
203	220
197	196
107	106
78	77
172	171
74	73
158	157
154	153
389	387
494	876
129	128
211	210
331	330
97	101
213	212
251	264
367	421
87	86
146	147
114	113
112	111
95	94
182	181
96	95
111	111
290	279
167	166
941	940
160	159
244	243
214	213
238	237
402	540
67	66
718	717
714	1662
332	341
260	260
123	122
188	229
152	151
81	80
168	167
70	69
53	62
154	182
87	86
286	285
51	60
176	183
86	85
111	110
92	91
126	125
145	144
117	116
92	91
141	140
565	564
121	120
79	78
236	235
423	422
235	234
302	301
155	154
254	267
195	194
235	234
402	401
68	67
338	273
116	115
263	262
108	107
49	49
