229	262
275	286
69	68
424	465
430	447
116	115
343	342
125	124
312	177
132	131
209	243
144	143
83	96
319	296
501	673
62	72
110	109
233	232
185	184
194	193
942	1230
198	162
109	108
93	100
468	435
238	245
215	214
79	75
100	102
223	222
89	88
288	287
246	245
128	128
445	408
63	64
322	373
76	75
383	440
209	223
137	159
338	351
214	213
358	368
154	153
218	217
417	416
262	303
79	78
80	79
73	72
30	29
72	71
50	49
59	58
227	226
262	261
99	98
69	68
126	125
310	309
59	70
162	161
76	75
180	179
70	93
270	269
334	233
111	110
509	508
348	347
152	151
57	56
97	96
121	120
46	45
128	127
361	360
72	71
166	165
148	147
125	124
61	60
183	182
95	96
148	182
287	286
69	68
531	530
221	263
267	283
126	115
343	342
125	124
130	129
193	192
132	131
247	246
141	140
145	130
319	302
547	853
110	109
233	232
348	397
99	98
498	1132
119	264
535	985
643	685
142	141
117	116
538	542
93	92
409	285
131	130
157	153
276	275
115	114
207	206
51	50
135	134
244	243
137	136
262	261
79	78
89	88
83	82
284	283
51	50
121	120
124	123
110	109
95	94
58	57
104	103
89	88
271	270
232	231
123	122
134	133
53	52
67	66
189	184
149	148
87	86
140	139
423	422
177	176
505	513
240	239
336	331
433	432
357	356
161	185
237	266
127	126
180	179
204	203
245	244
85	84
657	656
231	230
56	53
271	270
253	252
117	142
185	184
341	340
566	565
473	472
211	210
292	356
640	639
80	79
216	276
129	265
56	55
336	349
172	171
90	116
452	546
93	99
82	81
112	111
120	119
176	175
90	89
163	162
141	140
180	179
151	150
305	304
205	204
66	65
109	121
285	284
168	174
88	281
257	358
123	122
61	226
48	885
817	885
71	70
414	411
46	45
66	65
84	83
164	163
95	94
392	391
364	363
161	194
93	92
551	559
338	337
157	158
130	128
221	229
380	418
361	360
278	277
131	130
270	269
285	284
36	35
367	366
80	79
232	231
55	71
75	75
166	307
293	306
217	216
312	336
278	254
73	72
464	463
270	273
621	876
362	361
332	369
192	196
78	76
170	212
48	47
179	178
227	226
178	338
156	275
269	268
292	428
151	278
103	59
311	374
65	97
369	363
281	280
153	152
315	314
245	215
94	93
303	302
134	133
206	205
402	401
894	893
216	215
52	51
54	53
86	180
486	543
307	306
303	302
338	337
329	334
110	109
292	291
195	213
95	94
179	178
233	417
131	130
239	238
133	132
150	147
248	247
218	217
269	268
398	397
453	452
380	379
144	152
101	101
176	194
101	211
134	202
294	293
207	206
611	631
309	291
341	340
103	102
139	196
253	252
350	349
84	83
305	304
562	865
325	324
43	42
56	55
184	196
543	891
155	154
197	196
255	254
103	102
219	218
172	171
266	265
109	108
73	72
105	104
150	149
58	57
662	661
645	644
376	375
263	262
189	188
168	305
188	249
145	208
323	443
106	318
121	583
218	336
56	55
458	457
388	387
269	268
331	330
297	296
322	321
372	468
118	116
82	81
326	325
92	92
116	115
62	61
120	119
74	73
105	104
569	568
431	430
294	293
281	280
351	350
263	262
352	351
198	176
555	755
220	219
361	360
302	301
333	332
249	242
143	214
55	90
299	298
506	513
169	168
110	109
228	232
243	242
80	67
153	173
307	306
258	257
110	109
416	418
227	226
48	47
86	85
317	316
105	115
150	156
67	66
105	104
272	271
343	342
112	122
63	173
109	281
57	388
188	187
411	410
154	169
179	178
58	57
401	457
64	63
305	275
90	89
145	144
378	377
1175	1174
89	88
141	140
108	107
207	242
148	147
372	501
292	291
58	61
109	108
78	77
57	56
908	270
123	126
197	140
1636	1636
39	38
249	288
202	201
649	1300
198	834
441	440
137	136
113	112
480	479
84	83
251	257
177	176
60	59
50	49
98	97
308	307
210	211
239	263
536	551
75	74
180	179
327	326
331	330
198	197
223	222
169	390
221	390
179	178
158	145
516	653
57	56
123	140
130	273
207	229
222	173
178	231
338	337
314	313
265	264
431	474
58	57
78	77
150	149
173	172
113	78
701	700
354	353
500	499
379	378
190	189
282	281
298	297
236	235
232	231
515	514
940	1130
315	301
463	462
275	274
181	180
804	1015
295	294
221	220
95	94
57	56
337	336
254	252
313	302
46	45
72	71
86	85
691	787
110	109
440	439
512	511
467	466
270	269
336	335
561	560
254	253
66	65
291	304
480	479
305	304
168	167
177	176
183	219
702	883
114	113
98	137
188	187
60	59
227	250
139	138
100	66
89	108
393	416
238	315
254	278
96	119
289	304
463	462
294	293
76	100
312	313
222	221
71	69
72	71
54	53
60	65
48	47
199	264
117	129
396	395
32	31
297	296
155	154
196	303
238	317
79	85
249	248
229	228
68	67
487	486
456	455
340	339
405	404
82	81
109	108
114	113
187	186
249	248
102	101
168	167
496	662
133	135
50	254
136	244
242	245
151	184
285	284
205	204
419	418
232	231
407	406
298	297
285	284
122	216
103	102
274	273
110	109
122	121
270	269
92	91
463	462
511	510
315	314
144	186
318	357
241	240
112	111
242	241
453	452
294	309
478	467
274	300
124	276
158	157
176	250
203	202
503	502
422	421
458	457
604	603
193	192
124	123
142	141
343	342
531	530
391	390
334	333
347	346
72	71
147	146
194	193
193	192
807	628
106	105
255	351
207	206
232	231
212	211
501	500
202	201
287	286
407	424
219	218
108	107
370	369
156	155
145	144
79	78
286	285
514	670
171	187
174	173
299	298
80	79
61	89
142	141
121	120
219	218
96	103
51	64
216	215
116	115
154	153
194	193
75	77
315	389
30	29
92	91
233	232
311	310
404	403
275	274
77	76
214	213
458	457
419	418
102	101
193	189
351	415
288	198
233	261
30	29
107	184
213	212
387	386
191	291
103	130
209	208
74	68
389	392
96	95
79	78
335	334
139	138
407	406
440	423
249	248
496	495
123	122
63	62
117	131
917	1018
107	106
169	168
202	201
66	65
405	404
292	291
78	77
148	150
82	81
168	238
532	531
384	383
169	182
117	114
45	45
255	254
275	312
39	92
430	429
98	97
549	566
565	792
43	87
160	159
278	277
46	48
281	280
64	63
114	113
380	466
214	210
155	154
250	249
55	73
141	134
115	114
147	146
100	99
752	795
64	63
328	327
119	118
66	65
145	144
327	326
323	387
96	95
36	35
185	192
310	309
81	119
262	215
179	178
50	43
186	185
197	196
464	463
88	87
640	753
115	152
253	252
454	453
280	279
117	116
453	452
107	106
113	112
276	275
296	295
192	191
162	161
170	180
558	427
61	60
474	473
345	344
209	204
210	244
105	142
165	268
237	236
226	225
235	234
183	182
389	388
512	511
149	217
436	435
207	206
136	135
91	90
448	447
541	651
114	106
348	347
184	183
295	361
302	301
237	236
190	189
150	149
214	213
453	452
253	252
97	96
248	326
316	315
279	278
234	280
87	93
460	459
359	358
91	90
122	121
332	331
186	294
118	148
98	97
163	284
249	248
373	369
261	260
428	427
214	258
264	341
400	482
63	63
103	102
47	46
273	272
394	393
116	115
85	84
110	109
136	135
83	82
61	60
120	119
213	212
372	371
254	378
314	390
194	193
232	231
644	644
116	115
100	99
60	59
454	453
193	192
455	454
533	532
519	518
324	323
267	266
284	283
153	152
174	174
298	269
39	46
96	95
80	79
264	263
367	362
92	91
294	293
522	671
162	161
233	232
184	183
133	132
296	427
878	877
501	481
79	78
101	106
212	218
118	117
57	56
140	290
125	124
77	76
173	164
46	46
189	209
559	686
79	103
220	219
119	118
68	66
366	365
214	213
604	603
141	143
357	357
136	135
87	86
174	173
313	337
324	323
225	257
205	210
314	310
252	251
262	261
201	200
181	180
337	336
204	203
201	200
174	173
247	246
148	147
505	590
99	153
88	89
112	111
191	190
169	169
218	217
324	323
810	809
367	366
222	221
90	99
486	506
109	108
131	130
506	692
188	187
234	262
150	149
133	132
74	89
130	129
89	88
260	299
287	286
40	39
554	553
168	167
369	368
266	259
200	212
82	88
43	42
296	295
193	192
117	116
126	142
206	205
233	234
303	266
81	80
255	254
235	239
283	282
314	329
104	98
78	77
84	83
108	107
166	165
80	79
404	403
222	221
183	182
611	610
219	218
75	74
239	238
91	122
165	160
223	222
329	328
286	285
184	183
240	239
350	349
417	466
137	136
122	121
496	495
138	137
402	401
78	77
128	130
90	89
183	182
83	82
184	183
111	110
105	104
553	552
332	331
229	228
142	146
130	161
180	187
136	147
64	63
170	199
155	154
335	334
138	137
122	121
147	174
109	108
90	89
262	261
159	207
63	62
76	75
39	36
272	271
264	331
158	311
64	94
81	80
304	303
257	273
138	156
473	472
223	222
101	100
68	67
92	121
231	360
284	283
453	452
122	151
138	137
216	215
254	257
190	189
65	64
217	216
266	265
421	420
435	434
258	419
172	171
601	600
146	190
418	432
137	136
334	333
389	539
184	398
332	349
225	327
530	2035
241	252
141	317
93	95
784	1346
659	3163
1292	1678
221	360
268	267
146	172
282	397
81	94
217	357
203	346
155	159
250	249
122	162
300	389
159	158
351	350
439	438
474	484
212	209
98	97
92	91
485	484
317	316
306	305
147	229
176	227
269	308
84	90
145	247
109	108
181	180
176	170
139	313
256	255
215	214
337	365
78	54
218	217
399	398
175	174
208	214
39	38
134	142
242	241
184	183
322	321
345	344
286	285
134	134
134	133
190	189
67	66
399	398
51	52
69	68
85	79
118	117
171	170
49	46
318	317
31	30
183	192
139	138
86	85
256	255
353	352
275	329
722	721
68	69
78	78
679	695
92	91
191	175
125	124
357	356
73	125
514	513
249	248
113	112
137	136
162	161
129	128
82	81
158	157
159	158
74	73
144	143
123	122
125	124
65	64
42	30
119	118
110	109
353	352
158	157
131	165
183	189
281	286
164	203
153	152
453	454
160	160
121	120
275	274
85	84
64	63
300	299
66	65
368	434
357	356
356	355
197	196
246	245
259	258
186	203
326	325
136	153
271	270
469	468
264	263
212	212
167	163
202	201
206	219
207	337
383	382
194	258
122	192
173	247
167	180
293	292
300	299
227	253
146	168
298	297
354	464
169	168
56	87
181	207
316	426
324	329
170	163
465	464
152	151
297	296
479	478
99	104
302	301
160	159
287	286
374	373
183	182
258	248
407	406
161	160
265	264
163	162
162	184
103	103
357	385
172	302
187	295
148	147
255	254
73	72
400	411
618	617
194	193
204	208
89	88
864	1105
153	162
283	282
451	450
592	646
256	199
55	54
101	164
66	80
416	415
1037	1040
825	1025
89	170
116	132
508	471
96	150
202	398
83	82
70	68
72	71
149	166
178	240
54	135
115	147
230	230
165	164
76	73
239	279
55	54
147	146
50	159
230	229
112	111
151	150
421	420
285	284
61	77
112	111
51	104
195	193
426	425
335	334
94	137
242	233
249	248
273	272
267	266
263	262
91	90
243	246
113	112
215	214
130	129
195	194
609	826
225	224
166	165
94	93
370	369
524	522
154	153
502	1222
401	622
221	336
391	559
554	909
100	148
81	80
138	255
163	164
540	1210
183	197
283	362
84	97
395	394
112	125
244	282
208	316
112	152
82	86
74	595
370	554
147	164
154	153
157	156
240	239
458	561
102	116
244	243
36	35
244	243
192	279
117	116
185	223
216	217
260	271
756	755
289	288
295	294
54	53
278	254
196	195
193	192
254	253
509	508
317	316
133	132
36	39
195	194
295	294
240	239
80	79
413	412
412	411
337	336
507	506
333	332
347	346
371	385
223	222
279	278
664	663
490	489
250	249
60	59
324	323
286	285
363	362
314	313
233	232
352	407
56	55
313	312
57	62
258	227
153	152
564	563
259	312
64	71
283	376
92	91
394	393
85	84
230	190
489	488
329	328
128	127
189	188
519	518
605	604
286	285
88	87
342	341
530	529
115	114
397	396
116	128
134	130
587	586
95	94
336	335
76	75
116	93
284	489
193	269
214	213
68	67
216	215
351	350
186	185
648	647
108	107
66	65
70	69
254	253
221	220
181	180
201	200
150	149
288	287
232	231
182	194
91	232
562	828
88	87
165	164
55	54
163	162
500	466
548	547
207	196
310	332
65	158
203	264
88	84
374	373
345	413
484	890
217	216
166	169
97	251
88	198
638	949
62	61
58	145
420	605
462	461
221	220
217	216
441	440
288	368
107	106
259	258
67	66
490	489
609	1534
632	1464
225	224
208	207
518	562
876	875
168	167
73	72
713	1252
235	526
311	430
762	761
377	376
105	84
217	216
359	358
378	377
38	57
480	542
360	419
397	396
323	309
82	81
268	267
217	216
227	226
402	401
140	139
401	400
181	180
142	141
201	200
197	196
176	175
323	322
117	106
420	555
133	132
195	194
121	237
189	213
180	550
194	543
112	111
129	128
89	88
452	451
280	320
216	224
66	65
253	252
557	556
432	431
102	101
95	124
66	65
108	109
215	305
63	530
536	580
324	323
107	95
486	485
248	250
264	263
614	613
101	100
185	184
181	180
219	238
107	140
909	908
446	445
167	166
601	600
221	220
148	147
313	312
316	350
91	144
200	199
611	610
217	216
165	164
69	68
80	103
401	400
98	86
88	174
515	714
507	506
87	93
111	118
39	38
146	145
68	67
135	214
216	215
121	120
45	93
254	297
258	257
239	238
229	228
43	42
149	148
104	112
116	118
190	189
506	505
163	162
221	220
423	422
305	304
143	219
86	71
226	225
60	59
322	326
237	309
155	150
332	331
393	392
127	153
289	334
290	337
391	518
93	92
74	134
117	182
64	63
185	184
275	274
320	319
311	310
184	183
70	210
186	215
59	175
127	175
160	159
164	163
251	250
88	86
417	516
281	769
92	91
126	125
121	113
71	83
98	131
162	161
706	714
437	436
95	94
61	60
384	394
182	184
71	71
274	273
163	150
202	394
52	51
175	200
127	126
100	99
787	786
339	338
159	157
191	190
301	732
101	135
101	122
177	316
153	360
49	48
728	769
53	52
80	79
344	342
100	99
126	125
77	89
342	341
269	268
33	33
149	257
161	160
63	62
72	77
97	246
80	174
155	305
87	305
96	95
120	119
224	223
85	84
367	388
116	115
102	101
104	103
97	96
62	61
536	535
475	551
485	484
368	367
276	275
302	301
143	142
343	342
89	88
208	279
50	109
173	172
34	33
68	67
142	141
140	139
136	147
264	263
69	68
201	200
82	83
118	117
162	160
116	115
271	270
202	268
62	82
225	224
341	340
210	209
526	770
259	545
201	200
72	71
367	366
145	144
418	731
803	823
35	113
142	141
117	116
162	161
332	331
291	290
537	673
427	426
273	272
162	161
159	158
74	73
74	89
312	311
141	140
295	294
314	219
132	131
365	364
149	175
388	387
205	204
644	1147
468	611
382	381
315	314
240	239
203	202
255	254
211	210
92	91
81	80
78	68
218	229
166	186
111	258
160	173
105	98
268	266
132	135
104	103
211	285
137	396
98	106
66	110
198	276
321	423
155	335
135	222
224	181
339	310
109	108
322	321
296	302
109	108
60	60
373	372
48	47
361	360
730	729
80	811
124	123
191	247
243	297
59	58
246	245
53	52
136	163
275	313
197	277
82	111
255	254
309	308
35	34
200	285
101	100
73	72
440	545
148	232
145	144
180	193
254	253
324	323
86	85
44	43
499	575
170	169
228	243
99	110
255	340
87	135
366	365
144	143
95	91
278	277
199	203
130	183
264	263
299	298
475	474
288	299
192	191
150	149
120	119
149	230
76	75
132	130
67	66
99	98
358	357
167	166
220	219
296	295
454	453
433	467
47	126
131	400
270	269
396	395
237	258
256	255
105	115
96	95
112	111
235	234
104	114
268	267
40	77
195	233
160	159
112	111
734	759
73	73
59	104
127	126
269	287
375	399
333	332
166	165
62	181
470	659
102	110
459	548
630	629
220	556
197	196
119	118
376	375
75	256
233	232
672	671
116	115
177	177
238	237
77	76
345	344
293	292
191	190
157	156
354	353
488	487
120	119
249	248
430	429
209	208
346	345
213	212
689	688
514	513
359	408
280	408
120	119
51	50
64	63
172	171
180	179
111	110
416	463
489	488
144	154
313	455
721	2693
655	2693
1076	2693
265	254
195	330
83	86
219	149
77	76
228	227
72	71
99	98
91	90
65	64
177	176
90	89
389	388
590	589
106	105
307	306
103	102
63	62
119	118
255	254
72	71
134	133
243	242
117	116
195	206
217	216
109	108
69	68
207	181
181	190
274	306
499	498
49	93
149	190
50	54
153	152
315	371
57	56
318	317
54	53
60	59
149	148
155	154
84	83
476	475
174	173
47	46
91	90
536	896
342	295
295	294
71	70
385	384
199	198
368	367
193	192
530	538
205	204
161	160
191	190
69	168
86	106
635	724
72	71
491	490
379	379
207	206
425	424
373	372
82	93
136	154
113	112
337	336
35	34
144	143
520	770
169	216
82	94
491	1653
504	1241
669	1653
242	242
172	258
72	94
428	427
67	66
112	111
617	616
164	171
108	107
129	128
265	264
134	133
163	162
192	246
59	56
273	267
280	284
271	270
153	152
142	141
256	211
141	140
291	290
67	73
282	320
333	332
207	410
305	304
328	327
862	1093
213	208
398	397
418	417
397	396
113	112
445	445
202	237
461	460
103	1291
526	1197
428	492
143	142
519	518
168	167
220	211
283	282
87	86
127	126
244	243
243	242
302	301
227	226
233	232
51	50
600	599
160	159
319	318
114	113
122	112
95	94
112	97
241	240
315	375
246	245
376	352
83	82
217	206
196	195
128	127
230	229
346	345
140	139
233	232
281	251
623	886
452	451
91	90
285	432
151	150
85	84
858	857
244	243
301	300
246	245
114	113
387	386
374	373
357	356
121	120
173	172
409	408
128	159
116	115
149	171
108	107
183	182
83	82
114	129
341	326
289	288
189	277
137	147
198	197
884	1337
114	113
97	96
159	158
161	160
240	251
86	85
234	224
108	355
483	482
427	426
467	466
221	220
150	149
53	52
100	99
175	174
135	134
150	149
115	114
110	109
82	81
137	136
435	714
268	348
224	313
401	400
355	354
331	330
395	394
246	245
112	111
177	176
391	390
513	512
236	235
371	370
172	171
88	114
422	518
138	137
189	188
249	228
62	61
75	74
793	792
167	166
354	353
166	165
80	79
397	396
188	187
320	319
124	123
260	259
120	119
258	257
86	85
237	321
499	504
47	46
435	479
306	305
68	107
72	71
162	235
357	390
171	295
176	175
68	67
69	145
95	116
140	139
156	155
137	136
214	239
181	180
459	458
431	883
178	181
331	330
72	84
98	119
154	153
117	116
254	253
91	90
49	87
233	257
115	112
142	146
188	187
273	185
255	541
103	165
84	101
143	142
115	114
854	853
219	218
79	137
191	255
303	302
219	238
213	212
221	258
455	454
348	347
184	183
331	330
380	379
209	208
254	253
350	349
160	159
237	236
104	103
44	65
64	107
202	201
476	475
232	231
74	79
346	345
51	50
245	244
571	570
43	42
569	568
122	121
437	423
87	86
181	191
287	286
260	259
129	132
349	469
485	484
227	226
426	425
493	492
53	37
165	247
506	505
430	427
468	469
264	273
73	90
224	223
36	35
291	290
433	432
546	545
264	263
745	1178
434	433
919	918
447	446
447	446
136	135
315	325
150	149
261	260
66	100
65	64
182	181
283	282
455	454
334	374
100	103
490	489
252	251
383	382
216	215
439	438
594	591
175	255
290	472
138	137
226	243
367	366
132	131
306	305
76	75
402	401
117	117
267	266
412	411
167	166
513	514
446	445
191	221
421	451
131	186
88	67
89	163
769	878
89	255
252	393
463	667
633	644
169	194
50	38
735	792
274	273
275	175
153	241
258	325
254	257
585	835
213	212
161	160
405	404
441	559
668	1051
546	545
296	353
138	158
111	110
90	170
156	263
222	477
114	136
183	359
165	191
149	178
143	142
194	259
186	214
249	248
514	513
316	315
84	83
120	119
392	391
372	509
152	151
216	274
60	59
381	381
102	185
72	124
214	239
168	202
73	100
151	158
63	139
150	150
838	926
102	316
232	232
963	962
1123	1122
108	107
136	135
128	144
157	156
265	264
292	291
626	748
144	164
177	176
49	48
230	229
238	237
73	72
347	346
407	407
720	719
344	343
58	57
188	244
177	176
125	125
185	311
231	230
473	472
165	164
279	278
394	393
410	409
117	116
766	765
451	451
593	592
396	395
322	321
404	403
462	461
311	310
542	541
160	159
177	176
74	73
899	1032
443	442
260	259
766	956
202	239
326	325
137	136
439	438
341	392
112	150
163	162
640	639
483	482
42	41
183	182
506	505
294	293
194	207
192	210
90	89
82	81
165	164
286	286
42	41
64	103
51	60
95	93
89	88
327	326
220	219
104	103
63	108
180	245
43	121
96	161
64	94
151	219
75	96
134	160
151	161
252	408
48	81
91	90
44	43
182	208
175	215
401	400
393	392
349	440
37	239
193	192
46	53
201	200
411	410
220	219
77	76
232	297
286	351
104	103
98	97
92	91
136	135
106	111
212	211
287	286
315	359
112	111
271	283
340	339
144	143
193	192
236	235
226	225
226	225
238	237
170	169
322	321
426	425
444	462
118	117
247	231
596	663
253	252
307	306
203	243
659	658
385	384
465	464
152	151
236	235
64	63
179	178
247	246
212	211
139	138
327	326
235	234
189	188
97	96
198	197
379	378
336	335
236	235
110	122
131	130
88	126
109	108
82	81
165	239
351	350
92	91
360	359
419	418
712	711
236	235
155	62
246	392
82	81
73	72
54	53
162	161
58	57
121	147
374	806
304	470
168	575
220	265
102	101
76	75
294	293
61	60
175	174
178	177
104	103
449	507
147	146
137	136
128	127
190	189
65	64
69	68
200	199
327	339
225	276
66	67
336	318
121	226
574	1039
257	345
73	337
74	122
459	461
152	151
469	468
116	115
93	92
273	272
162	161
159	158
74	73
123	122
137	136
163	162
66	65
289	288
88	87
77	100
211	246
193	203
249	248
321	320
190	189
348	347
92	91
126	125
35	34
152	156
126	125
92	91
90	89
100	181
74	73
120	119
508	507
94	93
59	58
109	108
235	234
87	86
187	186
38	68
94	93
110	109
232	267
398	397
575	593
109	137
601	1845
135	218
258	215
169	178
237	226
162	243
355	357
177	176
189	192
731	1295
56	192
89	88
234	182
118	117
508	507
80	79
111	110
89	88
229	228
67	90
31	78
189	227
156	179
116	115
68	67
92	90
76	71
123	122
81	80
316	330
304	350
142	141
117	116
194	194
332	331
302	301
50	69
51	50
142	196
203	207
152	122
44	43
222	289
92	139
87	369
237	237
83	86
122	205
270	269
157	156
244	307
91	227
292	291
72	277
198	248
71	70
113	116
184	176
161	205
513	512
103	102
128	127
190	189
65	64
47	46
69	68
208	190
336	319
92	143
79	78
104	142
129	128
267	233
782	1039
338	337
397	479
123	108
152	151
78	77
273	272
162	161
64	66
99	98
74	73
54	59
168	172
38	32
87	101
126	125
48	50
73	69
66	65
51	47
218	235
132	131
312	315
52	51
500	499
187	186
328	327
167	190
144	174
368	341
207	237
247	246
659	675
399	398
202	251
97	81
486	485
404	825
208	599
179	181
224	223
259	258
179	178
368	392
276	325
202	201
124	123
133	187
152	151
408	407
375	497
74	99
53	80
165	164
270	293
96	217
149	172
320	319
137	136
255	269
116	213
172	289
743	1518
315	481
561	560
724	723
135	134
408	407
305	350
36	54
396	496
110	109
228	224
381	380
553	552
158	175
156	298
83	82
127	134
263	284
360	359
239	238
110	109
187	186
275	274
74	88
171	244
181	195
130	128
108	144
258	254
231	230
280	279
214	213
620	619
289	288
83	82
111	113
163	162
165	164
568	567
393	392
329	328
373	372
96	95
255	254
48	47
347	346
165	164
295	294
142	141
245	244
195	283
205	265
75	92
155	219
319	318
54	53
332	331
276	275
309	308
86	85
140	215
64	113
183	215
267	279
250	249
68	67
398	490
57	50
229	338
113	112
209	336
328	327
161	160
435	434
471	470
103	114
753	752
536	535
161	160
128	127
220	219
450	449
237	236
160	159
123	122
66	65
105	104
296	295
121	120
162	161
234	266
112	97
328	327
228	227
714	713
251	260
214	285
86	127
89	86
112	111
99	98
232	231
141	140
210	209
143	126
146	271
194	193
125	124
102	223
330	334
236	397
363	416
157	156
67	66
224	223
272	271
37	36
215	214
57	56
180	187
73	177
223	295
541	840
247	246
350	349
218	217
67	66
210	209
554	553
478	477
947	946
375	433
207	206
413	412
274	273
123	122
206	205
111	123
166	205
304	303
202	201
488	487
338	337
72	71
169	168
312	311
62	61
614	613
169	168
144	258
208	207
425	506
83	90
137	172
140	209
236	235
66	65
46	45
328	327
1031	1030
150	149
478	477
357	356
784	783
391	391
295	294
139	138
105	104
379	378
168	167
231	230
329	328
322	321
351	350
79	78
109	108
65	64
389	388
84	83
459	942
433	432
259	258
39	38
198	220
128	127
123	122
102	101
135	134
100	99
161	160
190	186
136	135
123	122
299	298
193	233
55	54
437	436
444	443
111	110
354	355
130	129
765	764
141	158
199	268
64	63
444	443
330	329
313	312
165	274
218	291
297	296
257	256
341	377
524	523
112	111
54	109
101	100
89	88
156	186
139	138
55	78
256	337
158	157
260	259
293	292
110	107
187	174
191	377
385	384
287	286
159	158
268	267
160	159
93	92
238	237
167	213
97	105
679	678
132	131
197	196
192	191
347	346
212	211
173	172
148	147
119	118
168	167
175	174
149	148
195	194
293	292
336	335
415	414
314	350
312	299
295	294
321	384
284	399
59	58
90	89
315	314
134	133
800	890
100	118
483	495
53	55
99	122
448	447
506	518
111	110
446	445
283	282
648	647
210	209
98	97
159	158
422	477
287	304
92	96
254	278
86	85
104	103
324	323
83	82
420	419
90	89
77	97
223	222
175	174
261	260
266	265
236	235
294	293
46	45
189	188
192	191
186	185
242	241
478	477
96	95
164	163
285	284
91	90
211	210
243	242
95	94
101	100
779	778
310	309
765	1517
688	1486
332	317
149	166
155	154
213	291
230	229
497	496
298	297
261	260
166	165
213	212
131	130
52	51
89	95
141	222
254	253
133	132
423	455
356	355
183	182
122	139
157	156
88	87
91	90
91	90
564	563
311	310
68	67
184	204
92	91
482	481
167	166
341	820
114	212
661	1266
294	293
154	153
95	106
104	103
109	108
213	207
128	166
58	57
302	301
284	328
356	646
325	324
157	156
452	449
285	337
122	136
126	90
330	329
201	200
315	298
215	253
59	58
285	284
272	271
319	318
81	80
484	483
294	293
322	321
99	98
287	294
60	59
89	98
136	169
105	104
171	279
123	163
407	374
408	841
193	192
74	73
62	61
243	242
394	393
162	181
181	180
253	252
91	90
85	84
166	184
58	85
273	272
173	190
181	180
62	61
106	105
152	151
218	217
170	169
316	315
174	217
192	204
459	458
138	137
58	57
142	141
95	122
128	127
330	329
207	206
152	135
119	118
39	38
430	443
145	144
60	59
168	167
118	117
178	177
131	130
102	101
180	179
105	104
124	123
85	84
64	63
137	136
238	236
111	110
93	92
274	273
101	100
202	201
210	209
104	103
117	125
486	489
272	271
281	288
370	397
494	493
399	398
146	145
170	169
126	125
145	113
131	186
191	334
388	387
154	153
226	225
159	158
709	894
395	394
705	704
89	88
64	55
125	124
96	95
120	119
129	128
241	240
271	270
73	72
197	196
67	66
602	601
77	76
108	107
638	637
302	340
73	72
260	275
135	134
94	93
97	96
697	696
407	406
188	187
201	200
56	55
78	77
394	393
848	847
109	108
269	268
458	457
56	55
362	361
435	434
81	80
293	292
409	408
388	387
121	120
283	282
335	334
253	252
226	225
132	131
103	129
233	232
201	200
363	362
226	225
413	412
79	78
147	146
180	179
129	154
132	158
528	850
323	385
64	65
141	140
427	449
263	262
223	222
146	133
295	294
383	382
575	574
541	540
305	305
108	107
240	239
99	98
69	68
198	194
581	773
76	75
348	356
311	455
129	128
79	78
121	120
241	256
228	227
192	191
439	438
695	694
798	797
570	569
110	199
67	128
120	309
80	104
253	252
266	274
109	108
210	195
293	292
149	201
256	255
161	300
332	333
816	815
478	477
432	431
658	657
244	290
493	493
384	383
198	197
227	400
153	190
519	698
78	177
139	138
322	317
176	175
332	331
232	231
346	345
163	162
151	155
426	577
54	88
95	104
248	247
357	356
282	281
296	295
256	260
160	159
238	237
256	255
253	272
500	733
364	396
128	127
61	175
91	169
89	88
368	367
285	284
353	352
223	222
455	498
199	198
90	89
51	85
63	119
209	208
252	301
484	732
82	81
222	221
186	185
366	353
164	163
200	239
196	195
59	58
525	524
315	314
278	277
255	254
70	69
194	268
134	133
32	31
249	248
158	157
94	93
453	452
419	502
90	89
284	283
296	295
80	84
912	911
204	203
202	201
355	354
411	393
500	499
92	91
145	144
490	489
251	250
681	680
281	280
156	243
297	446
98	71
142	141
92	91
179	236
177	176
343	342
661	660
278	277
446	445
165	164
208	207
71	61
259	267
221	256
192	191
113	112
111	110
191	190
176	175
49	48
339	338
571	1037
389	486
71	73
94	93
219	218
275	274
467	466
196	195
266	265
229	234
321	320
201	200
324	323
338	337
441	440
185	188
143	144
199	276
102	102
170	169
310	309
499	498
429	428
663	662
1158	1157
369	368
770	769
873	872
251	250
63	62
520	519
64	63
84	93
242	285
214	237
36	35
89	91
36	35
424	423
336	335
104	103
40	107
338	337
328	327
301	300
340	339
76	75
238	252
298	290
564	563
403	402
255	254
172	171
147	146
778	777
208	219
270	282
237	236
97	96
71	70
51	50
284	283
164	164
690	689
304	303
100	99
332	331
146	145
114	113
485	484
441	440
331	330
514	513
190	298
204	203
254	355
152	151
275	274
421	355
178	182
290	289
158	157
244	270
333	332
155	154
307	306
156	155
426	425
282	328
48	47
374	498
141	171
221	220
276	275
260	234
272	271
467	466
658	657
249	312
233	265
133	182
314	386
384	383
580	614
36	66
464	463
203	202
379	378
121	120
264	314
374	465
383	382
219	251
70	69
121	120
227	226
359	211
586	669
503	633
552	551
195	258
371	396
158	157
274	273
340	339
156	155
84	83
144	143
166	165
325	324
420	419
320	319
345	344
342	341
399	398
311	310
258	268
108	105
320	319
52	103
240	233
82	131
101	226
133	162
314	299
233	232
111	194
171	228
115	114
216	264
174	190
187	334
266	265
237	265
375	374
321	340
312	311
114	113
160	159
53	111
158	157
56	55
79	78
223	222
407	406
153	152
199	198
214	213
239	238
265	287
206	205
369	368
196	195
208	207
92	91
122	121
374	374
230	229
694	693
347	346
70	69
464	463
570	569
227	226
311	310
53	119
235	286
259	283
364	363
105	104
157	156
518	517
773	772
461	460
346	345
134	133
165	220
273	272
98	97
154	220
260	259
96	119
108	107
163	162
198	203
268	271
589	588
460	459
440	439
501	500
197	196
287	286
97	96
563	562
395	394
166	165
121	120
116	115
498	497
572	571
189	181
84	92
554	553
143	142
138	137
90	86
405	416
367	366
65	64
164	206
185	176
383	382
206	205
293	292
230	229
219	218
271	270
133	132
805	804
358	357
367	366
468	467
47	46
120	181
60	113
483	548
455	454
472	471
416	415
392	391
324	323
49	69
201	200
189	188
446	445
194	221
52	72
92	110
94	195
92	91
98	97
94	93
241	240
327	326
63	62
539	538
465	464
625	624
279	278
242	241
258	257
297	296
320	319
347	346
610	609
457	456
140	139
461	460
288	287
514	513
178	177
157	156
80	79
227	226
123	127
208	207
630	629
148	147
153	152
592	483
499	498
84	83
537	622
140	139
502	501
322	321
297	296
297	309
331	330
476	475
231	230
85	84
280	279
113	112
110	109
169	304
133	267
101	100
549	548
88	87
310	309
506	616
279	279
222	78
320	319
492	491
94	93
639	673
449	451
260	261
53	98
110	109
184	215
235	250
335	334
66	65
284	344
261	331
71	70
421	420
356	355
294	293
225	224
296	295
86	132
417	416
173	195
188	359
451	450
247	246
431	430
412	411
364	359
125	124
197	196
399	398
378	399
37	31
247	246
114	113
150	158
849	848
107	106
78	77
68	67
280	269
236	235
299	298
239	238
721	720
346	300
255	254
38	37
317	316
127	126
297	296
156	155
290	289
612	611
207	206
287	286
207	206
341	340
267	266
300	299
318	317
754	753
186	185
503	502
666	665
247	260
231	230
408	407
130	129
319	318
492	491
520	519
287	286
173	176
32	31
279	269
255	254
263	288
171	319
101	71
169	168
325	324
122	140
88	87
335	334
256	255
86	123
338	475
229	251
202	201
438	546
101	180
90	89
172	171
259	258
261	260
163	162
498	497
234	233
388	387
730	729
381	380
66	65
205	204
103	108
400	385
182	181
85	84
65	175
64	117
42	41
38	103
120	191
45	54
90	89
149	150
181	197
65	49
145	150
385	476
87	86
311	310
62	61
466	477
472	928
211	210
170	169
165	164
290	289
37	36
101	105
390	389
350	349
438	469
608	607
231	230
428	444
462	461
679	678
292	291
301	300
414	413
293	292
299	298
299	298
95	95
187	187
200	199
291	290
118	117
314	313
303	302
97	96
74	73
93	92
73	72
150	149
92	91
126	125
85	61
283	282
81	80
43	42
310	309
212	211
272	300
805	1016
196	195
92	107
195	224
268	611
252	611
184	768
550	768
348	347
583	582
357	356
484	483
149	148
465	464
98	104
301	274
415	419
490	489
263	278
313	312
345	344
207	206
271	270
225	224
458	457
233	232
107	104
66	65
301	300
35	34
321	320
330	329
93	251
142	182
256	255
200	199
147	146
100	99
143	142
249	248
337	336
503	502
257	256
32	31
80	79
88	115
86	123
309	308
263	262
52	84
63	102
177	176
252	255
342	341
247	246
494	732
71	70
203	202
106	105
333	332
58	57
811	810
377	376
513	517
261	296
625	726
186	301
108	147
206	205
368	367
221	220
444	482
369	368
360	359
107	106
165	164
487	661
117	116
293	292
114	113
284	283
578	577
884	883
384	383
247	334
80	84
259	258
111	139
308	457
306	305
170	169
288	350
389	388
69	68
367	438
120	145
121	147
120	119
367	366
186	185
177	413
116	130
52	54
214	262
85	84
343	342
149	148
188	187
309	308
304	303
128	127
182	181
143	142
229	211
117	121
122	121
90	89
445	593
279	292
86	125
503	1342
65	72
1317	1363
701	1429
252	251
212	211
632	631
159	158
258	257
355	354
224	223
197	196
91	90
149	148
77	89
140	139
462	458
349	348
97	104
430	429
530	529
85	84
128	127
138	147
310	309
534	533
86	85
358	379
533	578
275	274
1228	1227
150	149
74	138
397	396
230	229
319	333
92	112
275	274
266	265
59	70
112	116
100	135
269	268
127	126
184	253
185	184
125	124
81	80
450	449
196	215
335	334
81	43
213	212
246	245
608	698
129	128
297	296
515	514
397	396
32	31
109	108
264	263
447	446
307	306
166	165
291	290
405	424
404	403
123	122
203	202
442	441
70	69
147	171
332	331
81	80
328	327
473	678
207	678
385	401
313	245
524	523
345	344
212	209
238	237
82	120
148	232
126	125
186	185
335	334
398	397
46	45
804	914
104	235
292	367
414	451
390	389
291	290
123	206
167	282
208	240
358	357
453	452
120	119
280	606
178	179
238	237
141	140
119	118
941	940
179	178
94	93
145	216
385	528
108	107
155	154
462	449
550	549
295	294
137	136
230	229
550	549
105	104
637	652
161	193
333	396
189	188
211	223
341	340
249	270
224	278
84	76
45	55
199	198
438	437
230	229
235	234
279	278
234	277
350	349
487	522
560	715
140	139
489	488
158	181
495	497
242	343
92	91
662	661
139	197
121	171
52	51
225	231
327	326
390	389
128	127
209	208
122	121
298	297
150	149
113	112
253	252
61	60
92	141
64	113
68	67
299	307
70	79
227	226
186	516
94	83
282	281
265	354
110	109
160	194
151	150
123	118
260	259
339	338
263	262
148	147
112	111
50	58
583	727
145	133
58	99
34	52
98	133
169	203
175	192
139	165
120	144
55	78
127	123
339	359
102	179
63	186
446	445
254	253
756	755
303	302
452	451
217	216
536	548
447	446
240	239
318	317
158	193
45	44
77	76
91	90
846	845
247	234
171	170
811	1283
80	145
355	431
161	160
197	241
60	59
289	271
345	1041
389	700
76	140
181	180
91	90
99	98
506	505
486	485
716	715
445	444
352	351
169	168
192	191
289	360
277	285
113	112
434	433
493	478
159	158
419	418
98	97
549	548
129	128
290	289
343	342
189	188
42	41
49	48
106	105
178	177
335	334
120	119
132	131
245	244
510	521
111	110
326	325
486	500
117	119
160	162
670	947
272	312
200	218
130	141
294	269
205	204
86	165
238	259
279	307
197	188
154	153
444	443
212	217
377	487
182	181
121	120
103	102
427	426
420	419
335	334
66	65
433	432
142	141
814	813
151	150
104	120
134	133
233	232
220	219
133	132
213	212
388	387
542	541
92	91
92	91
126	125
133	109
250	249
252	251
57	56
306	354
466	465
102	101
155	154
217	216
285	284
229	228
92	91
132	131
76	75
150	149
118	110
169	168
222	253
426	425
108	311
562	653
514	513
172	194
281	280
264	263
216	215
213	212
207	206
328	467
142	150
221	220
322	321
107	114
116	286
36	35
92	107
648	647
110	127
186	185
69	68
257	277
195	202
213	212
143	180
425	577
695	1259
474	1259
82	81
114	113
177	176
319	318
501	500
341	340
332	331
168	174
141	140
135	155
136	279
191	190
184	183
451	450
129	128
155	154
713	712
185	206
292	551
67	66
374	402
101	99
316	315
899	898
129	128
154	153
312	311
163	162
486	467
335	334
315	314
48	71
128	396
229	241
151	150
335	334
139	138
58	67
110	167
369	395
952	951
148	147
120	130
400	455
360	359
361	360
466	559
88	87
333	332
440	439
255	254
196	195
155	144
188	187
340	339
309	308
151	539
361	420
304	303
98	97
152	217
130	228
608	607
376	394
473	989
177	228
205	198
167	166
285	344
223	222
99	98
359	358
210	209
98	97
275	274
402	518
122	156
241	229
98	97
344	343
148	147
96	95
361	385
85	84
338	337
332	361
125	124
302	294
97	95
171	198
249	252
214	245
93	92
398	472
116	115
130	129
42	66
145	144
134	133
70	189
121	146
66	65
71	70
69	68
201	200
291	290
126	125
92	91
206	213
326	325
249	248
321	320
190	206
617	616
53	52
273	272
269	284
159	158
74	73
38	37
104	122
126	125
163	162
59	58
52	51
142	141
73	101
469	546
397	396
580	579
429	428
692	691
85	84
174	212
247	257
372	371
214	213
335	334
329	328
450	449
207	282
443	515
320	319
240	262
261	260
211	210
144	143
269	268
438	437
93	92
374	373
87	86
183	219
184	183
75	74
37	36
100	99
234	397
332	331
194	194
117	116
142	141
115	114
150	293
184	257
281	342
100	76
239	238
132	131
199	198
183	182
166	165
242	241
879	878
177	176
168	167
301	300
230	234
221	256
114	113
278	290
487	486
258	257
126	125
92	91
281	280
131	130
304	303
171	170
120	119
154	153
254	242
185	184
128	127
277	276
131	134
178	198
86	85
256	255
283	323
105	102
125	124
310	309
420	419
98	97
70	69
96	95
101	100
319	318
68	67
143	142
540	578
139	138
367	387
454	453
157	156
162	161
341	340
764	763
165	164
246	245
180	179
158	157
278	277
242	241
226	225
263	262
79	78
344	343
167	166
149	148
226	225
539	538
202	201
54	53
358	357
261	260
235	234
517	516
260	259
317	298
104	121
408	407
240	239
88	87
339	338
215	214
323	322
461	460
411	410
67	110
58	110
89	88
556	555
646	645
99	98
172	171
216	215
290	289
158	157
230	229
107	110
261	376
336	438
112	143
239	238
229	228
281	300
156	129
364	394
311	310
311	388
58	79
99	98
75	72
196	258
477	476
318	317
122	121
75	74
189	188
238	237
135	134
123	127
517	638
233	224
105	104
254	253
498	497
420	419
389	388
300	299
162	679
186	679
85	679
240	679
458	457
88	87
318	313
74	73
794	938
165	164
150	149
317	316
305	304
68	121
80	83
274	273
383	382
102	109
229	334
92	170
662	1073
73	72
132	131
197	196
90	89
175	187
518	517
406	405
369	372
436	504
92	91
126	125
73	100
257	256
314	313
429	428
96	95
444	443
177	176
621	620
197	196
78	77
105	104
291	282
401	308
254	329
45	44
148	147
276	345
785	784
286	285
220	219
969	968
695	783
132	423
232	231
501	500
567	566
282	281
145	144
207	206
308	307
55	272
249	317
161	145
455	495
42	233
255	254
233	232
537	536
85	84
205	327
131	130
406	406
44	43
202	201
455	466
345	344
524	523
315	314
213	238
346	345
164	163
57	56
335	334
153	152
249	254
122	121
470	588
120	119
496	495
453	452
299	298
64	63
439	438
415	414
125	150
247	355
436	441
63	78
307	306
277	276
421	420
384	383
306	305
196	195
902	901
133	132
66	65
79	165
183	182
96	95
116	115
72	92
337	410
401	400
462	461
123	146
298	297
81	80
115	114
285	284
457	456
594	593
95	94
97	96
51	50
97	96
255	254
503	711
383	382
631	630
475	474
588	587
423	442
447	865
121	120
265	264
297	296
103	102
262	243
262	516
429	428
380	430
183	182
142	204
52	51
284	283
104	103
154	162
151	150
410	409
127	126
199	310
124	310
68	67
284	283
225	224
418	417
93	173
120	198
201	200
191	190
265	272
603	602
247	246
195	194
160	159
213	263
240	251
309	308
152	151
210	234
177	176
810	809
842	841
189	188
239	238
113	106
713	712
337	336
750	749
266	265
203	177
110	127
144	143
525	660
427	426
474	473
115	114
208	207
146	172
233	232
114	183
409	413
78	93
120	228
100	118
91	112
277	285
129	128
114	113
45	44
454	890
92	236
265	262
49	48
112	186
89	87
242	241
128	158
114	113
231	250
71	70
56	55
147	249
175	198
232	231
286	285
451	450
146	145
178	306
506	810
162	161
342	341
152	151
263	262
383	382
199	198
1161	1160
320	319
169	261
525	713
130	129
377	376
87	86
67	66
182	181
141	140
237	236
156	274
120	274
573	572
236	235
135	134
177	176
212	211
344	343
51	50
147	152
85	84
268	267
88	91
185	201
275	274
257	256
407	406
252	251
241	240
107	106
247	246
257	256
149	148
556	814
240	326
193	192
141	140
105	104
247	246
171	226
81	104
452	498
112	122
111	261
153	169
40	39
249	313
65	64
125	124
406	405
187	186
307	306
192	191
153	152
144	142
289	414
134	133
352	351
368	367
392	417
157	156
329	332
546	545
747	1032
133	510
170	510
197	260
70	98
59	270
89	306
264	258
44	111
205	204
96	95
126	125
67	66
482	547
369	405
490	489
159	181
150	149
181	180
126	125
92	91
47	46
89	88
34	33
369	380
240	293
86	165
223	277
101	137
88	88
211	213
330	329
284	283
208	188
469	497
757	1415
138	137
119	295
290	289
198	197
153	152
268	257
285	284
240	239
476	475
176	231
223	222
764	763
254	253
47	46
204	234
215	215
94	93
557	556
254	283
237	245
196	195
532	637
41	40
363	362
311	310
166	165
202	201
288	287
516	515
473	472
317	316
461	460
350	349
185	183
92	91
374	373
148	147
297	296
390	389
484	483
610	628
420	419
428	427
78	77
81	206
418	417
1025	1024
364	363
278	277
349	348
207	206
216	224
289	288
270	269
317	316
338	337
404	403
180	179
236	277
370	369
92	91
321	320
256	255
276	275
284	283
325	324
485	963
509	995
208	207
386	385
180	246
156	276
56	55
218	267
156	155
103	102
71	70
327	364
59	58
472	471
75	74
204	225
164	222
270	269
153	152
175	174
64	63
226	225
95	94
61	60
137	136
188	179
303	302
344	362
1048	1047
401	400
230	229
432	431
440	439
394	419
310	308
297	374
194	193
357	356
376	375
111	110
605	615
324	323
116	115
255	254
180	179
150	149
368	367
157	156
140	139
326	325
173	172
95	94
234	241
282	295
121	181
237	236
300	299
81	80
483	482
166	165
149	164
162	164
104	132
66	171
43	58
144	198
161	257
165	123
138	194
103	115
100	103
60	109
136	190
280	306
180	235
98	97
317	394
253	245
105	104
345	432
67	66
208	207
205	212
152	188
153	152
156	156
202	273
270	357
91	90
604	623
37	62
124	123
133	132
232	231
110	109
266	342
362	475
64	63
272	271
147	361
160	158
594	593
59	58
51	50
429	428
287	286
191	190
104	103
118	117
517	516
105	104
52	51
184	183
73	72
125	124
532	1049
97	530
297	302
398	397
228	227
287	316
835	1120
55	54
176	175
126	125
184	183
368	441
203	228
110	109
202	201
625	624
215	214
311	318
320	319
435	434
559	558
407	406
542	550
168	167
194	194
161	182
265	264
101	100
114	113
835	834
311	310
431	430
136	135
39	159
121	159
153	152
306	305
226	225
260	259
285	284
270	269
198	197
229	228
119	118
679	804
406	652
263	376
55	66
93	121
111	108
122	125
223	222
188	190
379	376
309	308
161	160
221	271
594	593
259	258
202	201
89	88
485	484
194	361
66	283
87	430
434	433
382	381
41	40
222	261
152	169
280	270
304	349
556	555
371	419
51	50
208	207
244	243
356	355
170	169
110	109
241	240
81	98
49	48
462	461
174	173
71	70
289	288
209	208
287	231
318	317
107	106
134	114
118	138
107	124
659	990
746	745
447	480
60	59
157	202
34	49
454	460
64	63
41	40
217	226
192	191
244	243
642	1047
193	216
258	284
178	266
135	134
285	265
218	217
232	241
373	372
51	50
51	50
262	261
266	265
356	355
219	227
113	273
82	173
207	206
312	311
148	506
322	476
87	191
220	316
148	276
84	276
312	311
261	260
747	746
102	101
217	374
73	72
390	389
276	308
103	168
100	256
209	416
185	184
86	133
306	377
241	271
185	249
147	149
335	334
46	45
371	416
155	118
166	133
73	87
177	228
70	113
235	241
169	168
111	110
93	98
129	171
66	65
178	248
80	65
418	413
112	508
206	272
73	72
368	362
122	115
286	375
149	149
76	75
367	367
99	104
169	177
42	41
93	92
221	263
273	281
143	142
137	136
269	268
355	405
86	104
120	189
182	244
184	183
186	184
319	369
136	146
181	180
99	98
370	369
297	410
263	262
62	120
72	151
86	100
462	461
187	186
70	69
128	127
263	262
37	39
322	321
104	126
214	213
88	87
404	403
363	362
371	370
634	633
87	86
106	105
204	203
214	213
344	343
194	193
835	860
161	160
73	72
185	125
236	235
305	304
178	278
557	556
261	311
53	56
242	241
225	224
251	250
122	131
165	302
78	77
122	205
225	625
216	625
513	512
293	292
156	155
360	359
154	166
322	339
392	391
146	145
395	464
74	73
251	250
407	406
383	382
267	266
194	239
78	112
222	248
251	328
183	195
157	156
273	368
79	118
159	240
254	273
53	104
281	385
356	411
76	78
329	328
41	69
126	182
114	94
419	418
469	468
54	53
54	100
149	148
177	176
121	120
255	254
182	181
547	546
30	29
417	416
733	732
226	225
716	894
177	190
160	190
42	41
205	251
329	444
134	133
402	435
119	95
69	68
154	158
108	196
382	472
129	172
354	331
226	225
92	110
119	192
124	153
187	217
245	244
264	263
349	348
238	237
229	228
121	337
222	332
252	251
55	103
231	398
132	390
323	322
154	153
437	436
428	427
36	35
130	129
116	115
313	312
260	285
239	238
85	204
50	88
653	933
30	37
371	370
389	388
290	289
85	240
166	240
74	52
608	638
596	877
190	756
76	91
231	267
126	380
117	116
296	316
380	379
38	37
67	97
135	134
231	230
143	142
193	193
204	215
174	266
271	279
178	177
177	263
259	296
47	69
240	239
314	313
127	126
351	350
251	250
347	346
383	382
153	152
209	219
339	338
341	490
155	156
263	262
50	49
249	257
161	160
353	352
305	304
332	331
318	317
351	350
179	178
299	298
754	753
428	427
159	158
430	429
120	119
219	218
172	172
206	223
252	251
226	225
674	673
303	302
338	329
171	170
128	127
50	49
82	81
151	150
235	234
238	237
167	176
172	183
404	404
254	253
137	136
369	368
378	377
206	205
89	356
114	169
164	163
332	331
224	223
454	453
66	65
675	684
321	320
265	269
87	86
119	113
199	224
702	661
87	86
133	132
167	171
30	40
658	687
65	64
241	240
220	219
249	248
168	167
296	295
172	171
419	418
43	42
62	80
97	96
390	391
307	306
531	530
272	271
811	810
300	299
221	220
250	249
412	411
322	321
624	623
452	451
70	69
307	306
304	303
446	502
209	297
77	76
443	442
442	441
128	127
313	312
95	110
108	103
401	400
253	252
199	198
411	410
93	92
272	271
187	186
219	242
179	178
469	561
111	110
126	125
86	85
96	95
70	70
164	163
301	300
123	122
371	370
320	377
76	75
315	314
282	281
163	162
63	125
255	368
244	243
223	222
82	81
161	168
249	243
243	242
129	128
94	76
277	276
276	295
73	197
87	92
393	476
334	333
181	188
205	348
125	124
339	322
386	490
159	158
145	144
154	299
232	231
553	552
79	135
229	228
372	371
649	648
75	74
107	106
128	146
636	635
73	72
235	234
574	573
589	588
322	321
189	188
1369	1368
208	207
448	447
140	139
287	312
304	290
512	814
142	205
97	96
183	182
209	208
383	382
132	131
116	115
761	760
399	398
587	586
229	228
363	362
260	259
167	166
255	254
228	227
558	557
95	94
398	621
358	382
563	582
205	328
80	102
411	410
61	60
249	248
298	297
152	201
53	52
262	261
441	440
235	234
1487	1486
616	615
183	182
47	46
121	215
397	396
363	362
467	466
401	400
522	870
343	342
256	255
162	180
472	471
102	102
233	233
192	191
261	336
181	180
370	369
703	702
555	635
71	70
115	115
155	270
154	153
547	546
188	187
56	55
49	71
161	171
587	586
151	150
351	350
68	107
115	121
119	136
86	191
230	298
484	720
149	148
197	304
117	369
88	241
266	304
153	152
221	220
138	137
106	105
158	157
84	249
99	99
116	114
110	109
220	219
373	372
598	597
236	235
196	195
133	132
273	285
475	514
42	41
352	378
31	30
422	436
71	70
71	70
58	57
187	186
181	367
901	910
343	342
231	230
391	390
849	865
200	199
102	101
307	306
414	413
76	75
199	198
58	57
401	442
75	92
104	103
52	91
231	230
129	128
232	231
364	363
227	226
1321	1320
70	69
503	502
120	223
123	122
376	375
424	423
355	354
138	137
372	412
673	672
808	807
456	455
35	34
313	312
246	245
185	184
174	173
278	277
139	138
130	129
217	216
161	85
153	152
111	110
104	103
178	177
476	493
292	299
80	79
385	458
134	145
484	473
186	349
176	175
76	75
561	556
307	306
351	350
122	121
58	57
189	188
38	37
373	372
85	84
82	81
214	225
143	171
187	186
216	215
403	402
195	194
216	215
115	176
191	269
151	275
366	367
139	138
98	97
220	219
65	64
87	86
135	134
232	231
402	401
252	251
261	260
233	232
89	100
279	287
314	313
548	547
318	317
729	1061
282	275
284	319
208	207
126	125
58	57
152	152
227	226
318	317
104	103
207	264
163	162
103	123
79	78
313	311
117	107
270	269
551	550
233	268
120	334
111	132
120	119
159	165
259	258
721	730
120	119
126	125
214	213
275	274
342	341
181	180
435	434
144	143
42	41
119	139
86	85
174	234
126	323
993	1148
180	221
358	357
400	399
234	233
167	166
247	246
143	142
147	175
274	273
263	262
154	153
349	348
265	264
452	372
352	772
443	402
68	67
63	62
285	284
125	124
51	50
136	135
76	75
184	183
347	346
141	140
257	256
131	130
99	98
154	153
119	118
136	135
122	121
136	279
178	328
52	51
84	83
93	92
353	352
123	122
230	229
107	106
112	111
63	62
54	53
72	71
297	296
178	177
49	48
44	43
153	152
109	108
118	117
170	169
142	164
63	73
64	63
77	76
398	434
57	59
188	187
46	54
154	81
180	179
78	77
352	351
90	309
221	234
145	144
240	239
174	173
195	188
90	89
71	70
98	97
274	273
170	169
128	127
226	225
76	75
121	120
104	103
189	188
224	223
484	483
189	188
120	119
172	171
74	73
35	34
876	875
102	101
211	210
331	330
102	101
213	212
617	616
87	86
197	218
327	326
92	91
98	97
184	237
234	448
134	232
67	66
66	65
482	590
1160	1756
268	240
152	151
64	63
85	84
286	285
142	141
117	116
162	161
332	331
65	58
144	143
76	75
86	85
111	110
40	39
92	91
126	125
145	144
117	116
92	91
141	140
565	564
121	120
79	78
236	235
423	422
235	234
272	271
235	234
219	218
206	205
196	196
554	356
235	234
135	134
157	156
111	110
235	234
194	180
338	337
158	157
95	94
255	254
165	136
256	254
155	154
302	301
235	234
168	167
235	234
989	988
126	125
126	125
92	91
154	153
92	91
126	125
58	57
55	54
208	207
208	207
408	399
198	197
139	138
296	295
126	125
92	91
39	52
92	92
78	77
254	253
642	646
176	175
460	459
426	423
377	376
232	231
65	74
102	102
162	161
248	247
168	167
160	159
109	108
87	86
170	169
165	165
112	111
97	96
87	86
46	45
208	181
95	107
259	258
754	753
392	391
89	88
109	108
160	159
529	507
119	118
93	92
116	115
86	85
253	252
119	118
218	217
173	172
173	172
264	263
455	656
93	140
92	103
110	109
38	37
282	282
70	69
247	246
326	325
119	118
84	83
126	125
92	91
286	285
131	130
157	166
276	275
115	114
207	206
100	99
126	125
291	290
83	97
84	228
175	293
137	115
139	138
77	76
1161	1284
139	138
77	76
82	166
146	145
130	129
125	124
172	171
171	170
73	72
82	73
269	268
80	82
159	158
183	182
182	192
324	323
309	308
67	66
161	175
74	73
145	144
276	275
142	141
73	78
323	639
96	405
130	129
92	121
69	70
232	432
484	995
230	229
104	103
261	260
226	225
163	162
186	214
340	339
223	285
306	569
344	287
1096	2255
812	2255
147	146
83	82
317	316
214	213
187	186
70	69
46	45
217	270
74	73
70	69
64	91
228	282
205	364
308	413
113	105
220	293
103	150
348	347
60	59
77	78
87	59
131	130
83	82
89	88
178	207
98	97
41	40
78	77
87	86
316	315
70	69
129	128
172	171
63	62
163	162
245	244
97	96
98	92
172	288
215	214
79	84
234	241
169	168
133	239
248	247
73	72
173	168
231	230
138	125
52	51
193	192
82	81
87	86
343	374
243	242
262	261
339	338
192	210
333	332
455	454
36	35
142	141
650	754
98	81
95	94
176	258
141	140
131	130
295	294
127	173
399	398
334	333
569	568
530	529
100	206
179	243
96	95
77	76
170	169
52	51
89	88
99	269
151	189
267	266
348	347
81	73
216	224
159	158
189	188
222	203
273	293
171	184
104	139
101	280
396	768
241	345
119	118
380	477
279	278
145	144
917	874
204	203
144	147
91	86
133	153
191	190
88	87
110	109
60	61
89	147
201	200
