716	792
217	197
788	787
775	774
222	255
615	878
164	163
549	550
191	221
446	445
513	514
167	166
366	365
269	268
148	147
402	401
76	75
306	305
132	131
367	366
241	240
138	137
473	472
573	591
439	438
216	215
383	382
282	281
456	455
430	429
455	454
283	282
182	181
110	109
261	260
150	149
315	325
136	135
447	446
447	446
737	763
182	181
434	433
745	1178
137	148
88	121
533	967
433	432
291	290
36	35
114	155
84	125
103	102
214	213
468	469
49	166
409	427
506	505
248	247
53	37
493	492
199	198
229	223
262	261
485	484
470	469
260	259
287	286
192	191
87	86
424	423
122	121
585	599
571	570
245	244
51	50
346	345
303	302
476	475
202	201
108	107
104	103
237	236
160	159
350	349
254	253
209	208
313	312
331	330
184	183
348	347
455	454
210	258
54	62
134	212
460	459
303	302
256	255
219	218
854	853
115	114
143	142
693	692
337	336
374	373
91	90
291	290
117	116
154	153
204	203
601	608
308	307
570	569
181	180
214	239
137	136
156	155
140	139
146	145
68	67
176	175
520	637
169	312
72	71
68	107
306	305
480	479
505	504
237	321
86	85
258	257
120	119
260	259
124	123
320	319
188	187
362	361
120	79
166	165
354	353
167	166
793	792
93	92
62	61
217	145
189	188
138	137
519	518
172	171
371	370
161	235
513	512
348	347
177	176
112	111
178	207
395	394
331	330
355	354
99	98
300	328
224	313
268	348
435	714
137	136
82	81
110	109
115	114
150	149
135	134
175	174
100	99
53	52
150	149
221	220
467	466
427	426
483	482
356	355
326	325
166	173
159	158
97	96
114	113
554	553
293	292
198	197
414	413
289	288
341	326
114	129
83	82
183	182
256	255
116	115
105	104
409	408
173	172
121	120
357	356
374	373
387	386
114	113
246	245
327	326
244	243
50	49
799	798
85	84
433	432
91	90
452	451
887	886
233	232
140	139
346	345
230	229
128	127
196	195
294	293
445	444
246	245
541	540
192	191
217	216
319	318
160	159
600	599
325	324
227	226
302	301
187	221
244	243
127	126
87	86
283	282
220	211
168	167
436	460
143	142
1148	1295
461	460
238	237
445	445
113	112
397	396
238	237
153	172
398	397
209	208
883	1093
328	327
510	509
333	332
354	353
291	290
141	140
380	379
427	426
285	284
268	267
247	246
163	162
405	404
129	128
108	107
172	171
617	616
112	111
67	66
428	427
72	94
172	258
282	281
1165	1653
491	1653
82	94
678	779
144	143
385	384
113	112
223	335
373	372
425	424
207	206
393	392
491	490
72	71
609	724
104	106
69	168
263	330
1337	2693
1134	2693
244	273
349	455
144	154
90	95
397	415
526	525
180	179
172	171
51	50
120	119
280	408
359	408
514	513
689	688
213	212
346	345
209	208
430	429
249	248
120	119
383	401
354	353
157	156
191	190
293	292
345	344
77	76
238	237
288	287
672	671
233	232
67	66
376	375
119	118
561	1037
484	497
392	391
162	179
660	659
192	191
289	332
73	72
668	667
249	248
760	759
112	111
160	159
234	233
268	267
339	338
112	111
96	95
192	213
256	255
279	278
396	395
409	408
468	467
454	453
296	295
220	219
167	166
351	350
301	300
208	207
142	141
150	149
87	90
105	191
300	299
397	474
79	161
299	298
264	263
339	338
278	277
292	291
366	365
304	303
123	122
284	283
170	169
499	575
44	43
86	85
324	323
254	253
310	309
672	671
73	72
333	332
309	308
255	254
82	111
197	277
218	217
202	233
246	245
59	58
472	471
124	123
120	119
812	811
401	400
413	412
109	108
419	418
322	321
109	108
416	415
362	361
346	345
832	831
47	46
105	239
111	110
245	244
566	565
413	412
307	306
81	80
92	91
211	210
417	416
333	326
240	239
315	314
382	381
1148	1147
205	204
388	387
98	97
415	414
443	442
295	294
141	140
312	311
76	75
287	286
335	334
60	196
132	182
79	78
137	136
516	895
400	536
91	90
268	267
317	316
392	391
311	310
252	251
447	446
95	94
437	436
715	714
162	161
189	188
412	845
487	770
251	250
164	163
160	159
176	175
70	210
184	183
311	310
362	361
275	274
185	184
64	63
183	182
93	92
330	518
290	337
407	406
393	392
332	331
379	378
338	337
271	270
220	219
305	304
423	422
221	220
163	162
506	505
190	189
261	260
261	260
229	228
239	238
34	32
145	167
54	89
298	297
121	120
144	143
153	214
68	67
146	145
181	180
495	494
515	714
175	174
401	400
152	151
165	164
217	216
611	610
200	199
316	325
313	312
148	147
221	220
601	600
167	166
446	445
909	908
326	325
181	180
185	184
101	100
614	613
510	509
486	485
168	167
324	323
581	580
306	305
66	65
95	124
102	101
432	431
490	556
67	66
253	252
201	231
89	88
280	320
452	451
89	88
129	128
112	111
183	182
380	380
103	237
195	296
133	132
405	555
117	106
323	322
386	385
201	200
142	141
181	180
401	400
261	260
402	401
430	429
268	267
74	73
332	331
397	396
360	419
543	542
453	452
359	358
217	216
85	84
377	376
762	761
311	430
963	1252
201	200
181	180
241	240
876	875
563	562
149	148
927	1534
557	1464
62	121
550	549
259	258
107	106
288	368
441	440
217	216
221	220
462	461
609	608
800	946
166	169
217	216
764	890
95	94
374	373
352	351
355	354
213	213
548	547
549	548
163	162
55	54
165	164
88	87
631	828
170	169
232	231
251	250
150	149
201	200
179	180
221	220
246	245
70	69
66	65
108	107
648	647
186	185
351	350
216	215
68	67
130	129
93	92
94	93
153	175
138	137
112	111
352	351
69	68
141	140
93	92
294	341
292	255
100	99
78	77
218	221
67	66
60	101
186	334
414	413
587	586
76	75
336	335
95	94
194	204
352	364
232	231
397	396
115	114
530	529
342	341
58	57
304	305
605	604
519	518
189	188
238	237
65	64
217	216
489	488
191	190
85	84
394	393
377	376
313	312
564	563
314	313
313	312
417	416
233	232
314	313
363	362
286	285
350	349
60	59
250	249
490	489
664	663
279	278
223	222
386	385
347	346
333	332
507	506
337	336
412	411
413	412
80	79
240	239
295	294
195	194
36	39
133	132
317	316
479	508
254	253
193	192
196	195
311	310
295	294
289	288
756	755
233	256
386	385
309	308
244	243
36	35
244	243
529	561
240	239
157	156
143	147
577	667
111	110
64	104
91	316
208	316
760	759
363	362
62	61
183	197
540	1210
289	381
81	80
1254	1253
595	1266
648	1266
678	677
370	369
94	93
166	165
225	224
609	826
195	194
130	129
215	214
113	112
151	132
145	137
91	90
263	262
267	266
273	272
249	248
242	233
428	639
419	418
351	350
285	284
421	420
151	150
95	94
452	451
347	346
260	259
300	299
106	105
455	453
70	69
241	240
298	297
125	150
506	471
1015	1497
934	1040
537	662
220	219
98	199
99	199
647	646
130	129
333	332
283	282
1106	1105
204	208
194	193
261	251
358	357
400	411
129	127
380	379
148	147
187	295
534	720
280	279
163	162
406	405
407	406
249	248
183	182
374	373
322	321
161	160
408	407
479	478
297	296
152	151
465	464
508	459
316	426
208	207
216	247
131	130
354	464
298	297
146	168
227	253
300	299
293	292
181	180
108	139
324	419
322	321
204	203
405	405
202	201
278	266
264	263
469	468
389	388
326	325
204	203
259	258
246	245
197	196
356	355
357	356
435	434
300	299
64	63
48	69
275	274
317	316
453	454
82	81
475	474
299	392
64	63
56	55
95	94
192	209
223	222
158	157
55	54
98	97
128	127
202	201
57	56
51	50
44	43
323	322
123	122
157	156
208	207
109	152
302	301
238	237
42	48
98	97
91	90
185	295
162	180
275	319
109	108
67	66
89	88
137	136
123	122
59	58
71	70
97	96
121	120
63	62
173	172
108	107
159	158
146	145
51	50
162	161
81	80
147	146
472	471
727	731
298	297
55	54
364	417
63	62
154	153
473	472
318	317
152	151
231	230
450	449
723	722
110	109
122	121
82	49
84	83
793	823
389	388
158	157
353	352
110	109
65	64
125	124
123	122
215	214
74	73
159	158
158	157
82	81
273	272
137	136
225	225
357	356
302	301
795	794
78	78
68	69
722	721
69	72
236	329
353	352
256	255
86	85
382	381
156	131
341	340
173	172
201	200
51	50
51	52
399	398
67	66
190	189
146	172
238	238
345	344
322	321
184	183
405	404
39	38
244	250
175	174
399	398
218	217
98	153
291	365
215	214
43	42
393	392
314	313
181	180
109	108
145	247
360	359
312	311
306	305
317	316
485	484
239	238
485	484
439	438
351	350
159	158
421	420
154	249
674	673
526	525
268	267
670	956
1308	3163
173	198
1347	1346
966	2035
713	2035
334	333
320	319
258	267
160	248
146	190
601	600
427	426
435	434
421	420
266	265
217	216
181	180
201	200
212	211
335	334
138	137
261	260
453	452
284	283
372	371
30	29
223	222
473	472
157	156
324	323
306	305
81	80
565	564
272	271
76	75
63	62
159	207
41	40
262	261
90	89
109	108
147	174
111	110
138	137
335	334
155	154
376	375
148	147
458	457
229	228
332	331
553	552
105	104
111	110
184	183
83	82
183	182
90	89
166	165
40	39
40	39
402	401
138	137
496	495
122	121
137	136
472	471
350	349
240	239
184	183
286	285
329	328
223	222
251	250
241	240
75	74
219	218
611	610
183	182
339	338
88	87
61	60
190	189
215	293
523	738
107	106
138	137
77	76
159	158
75	74
252	251
475	471
137	136
79	78
104	103
75	74
39	38
74	73
263	262
308	307
233	232
202	201
163	162
78	77
214	213
79	59
199	198
98	97
224	223
128	127
91	90
160	159
82	81
189	188
284	626
314	314
78	77
525	524
94	435
284	435
110	109
233	344
71	344
140	139
127	126
227	226
179	178
301	300
130	129
307	306
209	208
395	394
97	124
167	185
325	388
171	170
42	93
350	546
193	243
130	129
75	74
348	347
140	139
222	221
404	403
80	79
166	165
108	107
84	83
168	167
330	329
505	504
153	157
191	196
267	266
475	474
143	142
117	116
193	192
296	295
309	308
655	654
168	167
53	52
514	513
40	39
287	286
186	185
160	159
130	129
215	214
150	149
234	262
493	692
207	206
131	130
578	577
189	188
222	221
379	378
810	809
188	323
128	143
248	247
132	131
253	272
189	188
99	153
505	590
148	147
247	246
174	173
201	200
204	203
337	336
181	180
201	200
262	261
252	251
314	328
205	210
225	257
332	331
481	480
144	187
136	135
50	49
492	491
604	603
214	213
393	392
97	96
131	130
37	36
220	219
537	536
152	157
221	220
46	46
173	164
77	76
88	87
234	290
57	56
118	117
212	218
92	91
79	78
70	94
413	481
878	877
296	427
133	132
184	183
233	232
683	682
294	293
92	91
367	362
264	263
80	79
96	95
70	69
242	269
189	188
153	152
302	259
267	266
324	323
519	518
533	532
455	454
193	192
454	453
60	59
100	99
116	115
535	534
111	110
162	161
194	193
584	583
372	371
213	212
120	119
61	60
83	82
311	313
85	84
35	34
199	198
196	195
273	272
47	46
103	102
63	63
400	482
486	491
428	427
645	644
249	248
163	284
95	97
295	294
332	331
122	121
91	90
359	358
460	459
348	347
279	278
316	315
327	326
253	252
177	173
276	316
214	213
339	338
237	236
619	618
184	183
277	347
64	63
649	651
448	447
91	90
136	135
207	206
436	435
218	217
512	511
389	388
183	182
235	234
226	225
237	236
269	268
407	406
345	344
493	492
768	541
162	161
192	191
296	295
276	275
113	112
107	106
453	452
117	116
113	130
150	149
454	453
44	43
105	243
754	753
88	87
464	463
197	196
186	185
50	43
179	178
262	215
97	96
310	309
253	252
36	35
96	95
643	642
145	144
66	65
119	118
38	37
287	286
796	795
100	99
327	326
89	88
98	97
250	249
155	154
238	237
479	478
64	63
349	348
278	277
294	293
495	494
549	566
98	97
430	429
205	312
255	254
36	35
304	303
384	383
532	531
253	252
289	288
422	421
405	404
119	118
202	201
169	168
107	106
121	101
768	1018
137	136
63	62
123	122
496	495
249	248
424	423
407	406
139	138
335	334
79	78
471	470
70	69
209	208
103	130
191	291
398	400
213	212
223	222
262	261
288	198
535	534
102	101
419	418
458	457
214	213
77	76
220	274
58	57
404	403
311	310
233	232
92	91
30	29
390	389
194	193
276	275
116	115
216	215
136	135
219	218
121	120
200	199
80	79
299	298
174	173
671	670
286	285
79	78
145	144
156	155
276	261
101	102
108	107
219	218
425	424
287	286
202	201
501	500
212	211
232	231
207	206
255	351
109	108
807	628
193	192
194	193
147	146
72	71
177	178
153	158
278	333
391	390
531	530
209	208
124	134
256	255
193	192
604	603
458	457
78	77
198	354
168	167
503	502
392	391
549	548
468	467
310	309
453	452
242	241
112	111
241	240
461	460
315	314
511	510
463	462
92	91
270	269
122	121
110	109
274	273
103	102
122	216
285	284
130	133
169	222
427	406
232	231
419	418
205	204
285	284
206	205
246	245
245	244
708	808
102	101
228	248
37	35
187	186
114	113
109	108
405	404
340	339
456	455
487	486
68	67
229	228
249	248
316	371
382	464
297	296
32	31
396	395
300	299
73	72
128	127
145	144
222	221
397	396
294	293
463	462
309	308
120	119
473	472
484	483
305	304
227	250
441	440
60	59
139	141
237	236
884	883
177	176
168	167
305	304
525	759
230	229
66	65
254	253
561	560
336	335
270	269
467	466
512	511
440	439
89	109
272	380
420	426
144	143
72	71
46	45
313	302
254	252
337	336
57	56
95	94
510	509
126	134
685	1015
181	180
275	274
463	462
1247	1246
515	514
232	231
236	235
298	297
33	32
282	281
190	189
401	378
500	499
354	353
701	700
79	78
173	172
150	149
78	77
58	57
431	474
256	259
314	313
338	337
382	381
469	468
57	56
668	667
179	178
299	351
93	99
223	222
198	197
331	330
327	326
180	179
75	74
213	228
132	101
204	207
448	447
308	307
98	97
90	76
60	59
177	176
251	257
84	83
220	219
260	254
267	266
485	1300
835	834
202	201
249	288
39	38
2868	1682
57	56
78	77
109	108
62	61
256	273
422	501
206	241
330	329
141	140
89	88
1175	1174
378	377
145	144
90	89
305	275
458	457
58	57
179	178
154	169
421	422
188	187
121	388
109	281
63	173
112	122
343	342
272	271
105	104
67	66
193	189
57	56
160	182
160	159
86	85
344	343
416	418
90	89
258	257
307	306
213	212
201	218
322	321
169	168
514	513
354	353
466	465
333	332
302	301
361	360
220	219
756	755
352	351
267	262
351	350
216	215
64	61
294	293
431	430
560	559
105	104
74	73
120	119
75	74
116	115
92	92
326	325
82	81
120	133
369	468
322	321
297	296
331	330
269	268
388	387
458	457
1036	1035
374	373
189	188
263	262
376	375
645	644
88	88
146	156
412	411
58	57
250	249
73	72
109	108
266	265
172	171
219	218
103	102
255	254
197	196
155	154
738	891
56	55
43	42
325	324
562	865
305	304
84	83
350	349
253	252
86	85
111	110
103	102
341	340
292	291
635	627
207	206
294	293
521	520
532	531
453	452
398	397
269	268
218	217
248	247
180	179
133	132
239	238
99	98
418	417
177	197
310	325
74	109
335	334
338	337
303	302
307	306
544	543
54	53
52	51
216	215
892	891
349	442
206	205
138	137
303	302
338	337
315	314
153	152
281	280
364	363
375	374
63	62
151	278
292	428
269	268
339	338
336	335
226	225
237	236
513	512
362	361
877	876
431	404
73	72
278	254
312	336
217	216
465	464
118	117
239	238
80	79
367	366
36	35
285	284
270	269
131	130
278	277
361	360
442	441
208	207
284	283
338	337
551	559
93	92
195	194
364	363
392	391
95	94
164	163
84	83
66	65
46	45
387	411
71	70
190	647
572	885
125	885
171	199
123	122
163	358
50	281
88	281
168	174
285	284
156	155
66	65
205	204
305	304
151	150
180	179
63	93
66	140
163	162
90	89
176	175
120	119
112	111
82	81
512	544
90	116
172	171
376	375
56	55
309	352
216	276
80	79
640	639
357	356
211	210
473	472
566	565
341	340
326	326
253	252
271	270
285	284
609	656
85	84
245	244
204	203
305	304
579	578
357	356
374	432
62	61
511	510
240	239
514	513
177	176
50	69
176	259
204	225
140	139
87	86
149	148
220	219
67	66
134	133
123	122
232	231
271	270
89	88
104	103
58	57
95	94
110	109
124	123
121	120
51	50
227	226
83	82
72	88
79	78
262	261
137	136
212	231
135	134
51	50
166	206
115	114
162	161
132	131
157	153
131	130
409	285
93	92
291	403
403	393
1091	1090
99	98
102	101
248	247
131	130
116	90
110	109
809	855
48	47
145	144
141	140
247	246
132	131
82	81
118	117
132	131
342	341
128	127
444	443
82	81
448	533
69	68
656	655
182	181
84	83
61	60
109	108
98	97
134	153
178	177
80	79
105	104
72	71
361	360
128	127
46	45
121	120
97	96
57	56
152	151
348	347
871	1302
305	360
234	233
125	124
179	339
180	179
77	76
230	229
342	341
150	149
69	68
99	98
262	261
227	226
61	60
38	37
94	93
74	73
109	108
80	79
79	78
381	380
417	416
218	217
154	153
224	223
134	133
214	213
457	456
209	223
462	461
342	373
409	408
128	128
246	245
288	287
89	88
144	143
98	97
93	92
688	687
200	199
987	1158
244	244
194	193
248	247
233	232
110	109
80	93
774	853
138	137
144	143
249	248
132	131
178	177
81	80
128	127
343	342
116	115
494	501
531	530
69	68
158	157
489	642
170	169
137	136
175	174
51	50
156	155
178	177
91	90
115	114
72	71
43	41
112	111
237	273
119	118
136	189
215	214
52	51
60	59
41	40
59	58
61	60
119	118
141	140
290	354
142	141
94	93
125	139
79	78
43	42
73	72
63	62
64	63
814	813
90	89
190	212
157	159
265	264
349	348
154	153
210	262
80	79
237	236
46	45
304	303
413	412
234	233
400	399
358	357
1173	1172
320	319
86	85
119	139
144	143
435	434
181	180
342	341
275	274
214	213
126	125
120	119
730	729
478	477
266	265
335	334
551	550
270	269
414	413
79	78
245	244
207	264
104	103
293	317
259	346
58	57
174	173
123	154
88	87
320	319
1062	1061
318	317
548	547
314	313
366	365
233	232
261	260
252	251
402	401
232	231
135	134
139	138
220	219
98	97
139	138
512	511
308	307
216	215
195	194
403	402
216	215
187	186
348	347
82	81
85	84
228	232
38	37
189	188
192	191
351	350
307	306
212	211
202	201
125	124
76	75
719	721
518	517
386	385
494	493
178	177
104	103
111	110
153	152
152	82
217	216
130	129
139	138
278	277
174	173
185	184
246	245
313	312
305	320
163	208
463	736
346	536
673	672
107	219
283	412
138	137
355	354
424	423
376	375
277	276
503	502
70	69
1321	1320
213	212
364	363
232	231
129	128
267	266
40	78
165	164
443	442
58	57
199	198
76	75
414	413
309	308
102	101
200	199
778	848
66	65
391	390
231	230
197	199
165	342
896	895
181	367
187	186
58	57
71	70
71	70
437	436
31	30
379	378
475	514
288	285
133	132
196	195
236	235
598	597
373	372
220	219
110	109
93	92
392	391
106	105
138	137
139	161
153	152
685	684
149	148
721	720
210	209
170	169
351	350
151	150
587	586
209	208
56	55
188	187
547	546
216	215
115	115
71	70
555	635
703	702
370	369
181	180
190	189
156	155
192	191
230	238
92	91
382	381
279	278
184	193
54	53
211	210
133	132
219	149
77	76
228	227
72	71
99	98
91	90
65	64
177	176
90	89
389	388
590	589
304	303
103	102
63	62
139	138
255	254
72	71
134	133
248	247
117	116
235	234
218	217
109	108
104	103
126	180
178	236
274	280
499	498
274	273
153	152
372	371
318	317
113	112
149	148
155	154
84	83
476	475
174	173
94	93
139	111
135	136
937	1070
295	294
71	70
385	384
199	198
116	115
368	367
193	192
560	524
63	86
205	204
161	160
191	190
86	145
871	870
414	400
467	466
363	362
397	396
216	215
183	182
616	615
1487	1486
235	234
441	440
262	261
260	259
298	297
249	248
61	60
411	410
329	328
583	582
755	754
95	94
558	557
228	227
255	254
428	427
363	362
231	230
428	427
143	156
399	398
761	760
85	84
106	151
227	205
160	159
460	605
337	361
92	91
173	172
397	396
159	158
126	125
193	192
843	871
177	176
303	302
116	115
212	211
151	150
157	155
53	57
142	141
142	141
166	165
98	97
68	67
122	125
248	247
358	357
285	284
591	590
330	344
91	139
40	139
244	243
169	168
381	380
665	759
92	91
75	74
101	100
75	74
167	166
57	65
119	118
83	82
185	232
154	216
266	265
383	382
209	208
288	287
142	205
815	814
431	430
429	447
208	207
214	242
1155	1368
189	188
357	356
589	588
574	573
39	38
145	234
73	72
308	307
84	63
64	63
160	159
93	92
157	175
205	204
118	197
78	197
276	275
66	65
168	167
126	125
122	121
215	214
74	73
159	158
160	159
82	81
273	272
252	251
500	499
297	629
90	89
273	331
142	146
491	1652
1160	1211
127	91
188	187
222	314
189	188
131	145
547	546
130	161
272	400
759	758
107	106
98	97
398	553
119	118
147	146
101	100
359	390
187	186
429	389
169	168
81	80
142	141
105	104
500	582
74	73
100	99
76	75
64	66
60	59
70	69
413	412
75	74
649	648
264	263
83	88
331	330
553	552
232	231
300	299
551	550
323	322
573	572
334	333
477	476
338	337
277	276
108	107
129	128
243	242
244	243
227	226
223	222
244	243
376	375
163	162
282	281
315	314
378	377
371	370
123	122
282	280
241	240
96	95
86	85
126	125
93	92
469	561
179	178
403	402
272	271
93	92
411	410
199	198
253	252
401	400
193	192
324	323
50	92
128	127
442	441
443	442
275	280
414	502
304	303
307	306
513	512
562	623
322	321
306	316
98	97
250	249
221	220
300	299
811	810
272	271
531	530
307	306
373	372
160	155
43	42
419	418
172	171
296	295
168	167
249	248
220	219
241	240
65	64
688	687
290	294
87	86
642	661
225	224
89	88
87	86
362	361
321	320
675	684
66	65
454	453
224	223
332	331
579	578
378	377
369	368
137	136
254	253
404	404
286	318
238	237
235	234
151	150
82	81
162	161
171	170
338	329
303	302
674	673
226	225
252	251
385	384
347	346
430	429
159	158
428	427
754	753
472	477
344	343
318	317
332	331
305	304
353	352
230	229
258	257
94	97
263	262
491	490
339	338
349	348
383	382
347	346
251	250
351	350
127	126
314	313
235	239
305	347
264	263
174	173
431	430
382	366
143	142
141	140
76	75
135	134
92	91
38	37
380	379
296	316
239	307
398	397
878	877
639	638
241	240
290	289
389	388
406	405
934	933
239	238
589	588
116	115
135	134
36	35
370	369
56	55
437	436
154	153
245	245
67	322
399	398
104	103
227	251
222	332
79	337
218	228
238	237
349	348
274	273
245	244
311	310
219	218
226	225
354	331
153	191
236	241
224	223
170	169
69	68
558	557
683	682
191	190
855	894
226	225
733	732
162	161
286	353
351	413
202	202
182	181
255	254
121	120
177	176
149	148
109	108
469	468
555	554
254	253
329	328
412	411
386	385
53	104
245	295
253	252
390	389
157	156
427	426
649	648
267	266
60	73
326	382
299	298
251	250
555	554
146	145
392	391
475	474
360	359
156	155
293	292
513	512
102	131
330	625
200	235
303	302
150	149
100	99
225	224
242	241
312	311
557	556
484	483
236	235
185	125
73	72
161	160
861	860
194	193
344	343
214	213
204	203
106	105
156	155
634	633
352	351
363	362
404	403
88	87
214	213
127	126
322	321
68	67
215	214
128	127
70	69
187	186
462	461
227	226
263	262
297	410
353	352
99	98
303	302
511	510
184	183
248	282
488	487
246	268
137	136
143	142
532	531
188	187
249	248
301	300
392	391
76	75
121	120
322	375
66	65
363	362
66	65
635	701
68	63
138	137
249	248
286	285
537	536
392	391
319	318
180	216
236	235
335	334
147	149
185	249
272	271
342	341
1294	1293
73	72
401	400
747	746
261	260
312	311
84	276
148	276
317	316
507	506
312	311
172	206
365	498
123	227
356	355
266	265
262	261
51	50
51	50
373	372
83	82
128	127
218	217
72	147
357	356
216	228
258	284
1048	1047
408	407
111	110
461	460
228	227
481	480
746	745
991	990
297	296
318	317
223	222
100	99
289	288
71	70
174	173
462	461
165	164
241	240
110	109
170	169
356	355
298	297
218	217
51	50
371	419
556	555
350	349
66	65
366	411
262	261
382	381
434	433
454	453
485	484
293	292
259	258
594	593
221	271
61	45
161	160
115	114
178	177
369	368
223	222
186	185
169	219
55	66
668	667
805	804
200	199
198	197
270	269
285	284
260	259
226	225
306	305
153	152
160	159
136	135
431	430
311	310
835	834
114	113
101	100
265	264
160	159
108	194
168	167
53	58
510	550
407	406
559	558
435	434
320	319
321	320
215	214
625	624
202	201
110	109
203	228
167	385
190	189
184	183
126	125
176	175
55	54
757	1120
365	416
216	215
398	397
1038	1037
125	124
73	72
148	147
116	115
517	516
118	117
104	103
191	190
287	286
429	428
51	50
59	58
594	593
357	590
240	249
64	63
39	38
273	272
567	566
232	231
133	132
124	123
624	623
91	90
456	784
179	279
153	152
425	424
208	207
433	432
105	104
193	192
383	394
316	315
664	663
205	204
110	109
297	296
455	454
164	163
488	487
483	482
81	80
300	299
237	236
403	402
325	324
173	172
326	325
140	139
157	156
368	367
150	149
180	179
295	294
116	115
324	323
605	615
111	110
376	375
357	356
194	193
297	374
310	308
394	419
440	439
432	431
230	229
401	400
773	1047
275	485
120	128
303	333
303	302
326	325
61	60
95	94
226	225
64	63
175	174
153	152
270	269
372	371
125	124
472	471
87	86
365	364
71	70
103	102
365	364
407	406
34	33
377	376
208	207
934	995
43	70
325	324
284	283
276	275
90	119
172	163
321	320
92	91
370	369
278	277
180	179
404	403
338	337
317	316
270	269
289	288
315	314
207	206
349	348
278	277
364	363
741	1024
257	411
418	417
81	206
428	427
420	419
629	628
484	483
390	389
297	296
328	358
199	210
92	91
211	210
350	349
461	460
317	316
473	472
516	515
288	287
202	201
166	165
311	310
363	362
144	143
534	677
196	195
491	490
557	556
94	93
346	363
184	183
764	763
223	222
156	155
476	475
240	239
285	284
442	556
198	197
290	289
286	285
1416	1415
90	90
165	192
330	329
298	297
309	308
86	165
224	293
381	380
34	33
89	88
47	46
181	180
212	211
223	222
490	489
369	405
548	547
126	125
152	218
205	204
44	111
264	258
307	306
202	260
818	954
195	512
546	545
329	332
157	156
418	417
368	367
352	351
134	133
415	414
153	152
192	191
307	306
205	204
380	379
125	124
313	313
40	39
308	307
288	287
239	238
156	155
354	353
104	103
131	130
92	107
348	427
305	304
281	280
326	325
310	309
459	458
100	99
367	366
247	246
158	158
122	159
246	245
286	400
238	237
144	143
112	111
246	245
93	92
143	142
311	310
813	812
134	133
144	180
116	115
132	131
145	144
447	464
237	236
337	336
549	548
114	113
329	328
284	283
124	123
251	250
91	90
254	260
138	164
234	379
698	697
202	226
247	246
256	255
193	192
502	814
310	348
149	148
257	256
247	246
156	155
241	240
252	251
407	406
257	256
275	274
185	201
88	91
268	267
85	84
147	152
51	50
283	334
218	217
272	271
135	134
236	235
573	572
275	274
237	236
141	140
182	181
67	66
87	86
144	253
194	193
130	129
714	713
320	319
563	1160
616	1160
199	198
383	382
263	262
152	151
342	341
162	161
394	398
414	436
451	450
286	285
232	231
399	398
186	185
242	241
284	283
242	241
265	264
891	890
275	274
129	128
386	385
365	364
444	505
233	232
146	172
208	207
115	114
474	473
427	426
525	660
144	143
297	296
266	265
750	749
66	94
227	244
826	825
198	234
189	188
842	841
810	809
177	176
188	212
152	151
309	308
455	454
160	159
195	194
247	246
603	602
265	272
191	190
181	181
199	198
418	417
225	224
284	283
66	65
67	306
241	302
127	126
410	409
147	146
257	256
284	283
221	220
183	182
797	796
517	516
103	102
297	296
265	264
121	120
381	424
483	865
588	587
383	382
93	96
631	630
84	85
809	887
255	254
97	96
97	96
97	96
95	94
594	593
457	456
285	284
184	183
298	297
147	146
462	461
401	400
348	347
116	115
96	95
248	247
66	65
133	132
902	901
196	195
306	305
384	383
421	420
277	276
307	306
492	491
356	355
415	414
439	438
361	360
453	452
496	495
120	119
470	588
122	121
249	254
153	152
335	334
119	118
575	574
315	314
524	523
364	363
467	466
202	201
44	43
406	551
131	130
328	327
537	536
233	232
255	254
158	233
320	495
146	145
318	317
308	307
207	206
138	144
282	281
567	566
501	500
232	231
784	783
969	968
220	219
272	271
117	127
669	784
434	428
330	329
292	290
126	125
283	282
95	94
78	77
160	159
621	620
177	176
444	443
96	95
429	428
314	313
257	256
265	277
237	236
381	380
406	405
423	444
96	95
175	187
90	89
197	196
132	131
73	72
968	1073
96	95
174	175
216	215
110	121
183	183
137	121
305	304
317	316
150	149
173	172
794	938
155	120
314	313
88	87
458	457
518	679
162	679
300	299
389	388
412	419
498	497
254	253
51	50
377	376
639	638
135	134
238	237
189	188
196	195
318	317
180	179
298	297
259	258
99	98
429	428
311	310
821	820
214	228
239	238
442	450
475	474
230	229
158	157
290	289
216	215
176	175
99	98
646	645
556	555
411	410
461	460
323	322
244	214
339	338
444	443
240	239
408	407
441	440
260	259
56	63
458	516
235	234
260	259
358	357
54	53
202	201
539	538
226	225
149	148
167	166
344	343
79	78
263	262
226	225
242	241
278	277
158	157
180	179
246	245
165	164
764	763
341	340
78	83
242	301
551	550
324	323
158	157
424	423
555	554
536	566
143	142
68	67
319	318
101	100
245	244
700	699
782	781
33	149
328	435
854	1087
226	1023
129	237
110	211
57	56
307	306
427	426
384	383
256	255
86	85
324	323
209	240
68	276
128	127
185	184
228	227
154	153
391	390
304	303
468	467
457	456
116	418
530	644
197	196
330	430
98	260
173	260
296	295
381	380
243	513
165	513
113	227
75	74
455	454
423	422
342	360
261	356
90	196
211	210
794	793
128	127
258	257
487	486
395	394
448	447
163	175
146	163
168	167
177	176
879	878
122	140
121	99
166	179
183	182
199	198
239	238
369	368
327	326
90	89
365	582
119	185
1572	1571
116	159
134	265
92	91
91	90
278	277
112	111
105	111
158	157
76	129
187	272
318	317
206	204
73	72
262	261
338	337
228	238
248	325
239	568
485	568
293	474
398	397
553	562
477	1044
166	165
107	106
293	292
423	422
340	339
501	500
361	360
360	359
504	503
148	147
952	951
230	349
167	395
168	167
139	138
335	334
151	150
229	241
128	396
48	71
315	314
335	334
468	467
163	162
59	58
312	311
154	153
129	128
899	898
316	315
101	99
374	402
67	66
466	551
713	712
155	154
129	128
451	450
184	183
458	457
333	332
332	331
341	340
501	500
319	318
177	176
114	113
82	81
1188	1259
578	577
191	209
448	447
69	68
186	185
247	246
595	647
108	107
36	35
287	286
322	321
221	220
471	470
207	206
213	212
216	215
264	263
281	280
259	258
514	513
683	690
426	425
222	253
169	168
164	163
150	149
76	75
105	104
132	131
92	91
229	228
285	284
217	216
155	154
102	101
466	465
355	354
252	251
250	249
110	109
92	91
542	541
388	387
232	230
133	132
220	219
233	232
134	133
104	120
151	150
844	813
89	103
433	432
66	65
335	334
420	419
427	426
103	102
317	316
559	615
66	78
444	443
154	153
167	196
352	356
380	379
182	181
351	350
323	322
1097	1107
101	100
486	500
326	325
603	602
245	244
132	131
120	119
335	334
178	177
106	105
49	48
42	41
189	188
343	342
290	289
118	117
549	548
98	97
419	418
159	158
479	478
434	433
113	112
566	565
192	191
169	168
352	351
445	444
716	715
486	485
506	505
99	98
91	90
181	180
389	700
458	799
272	271
60	59
197	241
78	74
355	431
919	1272
175	174
231	230
465	672
394	476
91	90
77	76
246	217
318	317
240	239
447	446
549	548
217	216
452	451
303	302
757	756
254	253
446	445
548	547
223	222
367	366
30	29
437	500
59	59
153	156
134	133
687	727
58	57
112	111
148	147
263	262
339	338
260	259
242	241
151	150
195	194
355	354
282	281
253	252
227	226
379	378
68	67
119	185
145	144
253	252
122	121
150	149
297	296
312	311
128	127
384	389
327	326
232	231
52	51
121	171
139	138
662	661
344	343
684	683
125	140
360	488
140	139
560	715
523	522
350	349
278	277
279	278
235	234
230	229
438	437
199	198
128	127
269	287
249	270
319	318
224	223
189	188
479	478
653	652
105	104
550	549
230	229
137	136
295	294
406	405
153	152
116	138
335	324
155	154
108	107
529	528
94	93
179	178
941	940
119	118
141	140
238	237
426	526
190	189
453	452
358	357
175	174
283	282
291	290
390	389
467	466
385	384
826	914
68	72
398	397
115	114
215	276
186	185
240	261
121	120
472	471
345	344
524	523
260	259
427	426
207	678
473	678
328	327
81	80
332	331
172	171
70	69
442	441
203	202
123	122
808	807
291	290
166	165
307	306
244	277
201	202
264	263
109	108
32	31
397	396
515	514
297	296
137	136
53	52
653	698
246	245
213	212
86	85
335	334
196	215
450	449
81	80
291	290
316	315
236	259
136	135
97	112
59	70
266	265
275	274
335	365
82	106
230	229
397	396
74	138
150	149
35	34
1228	1227
275	274
575	574
435	439
534	533
310	309
148	147
56	126
85	139
85	84
530	529
430	429
442	441
180	179
279	278
140	139
77	89
149	148
91	90
197	196
224	223
355	354
258	257
159	158
632	631
212	211
252	251
67	66
257	256
378	377
1408	1407
1343	1342
122	121
107	106
235	234
143	142
182	181
128	127
395	394
309	308
322	321
343	342
85	84
62	61
239	238
615	614
367	366
120	119
235	234
439	438
389	388
467	466
306	305
458	457
259	258
335	334
384	383
884	883
578	577
284	283
114	113
293	292
766	765
107	106
360	359
834	833
221	220
368	367
206	205
108	147
186	301
55	54
664	726
297	296
518	517
377	376
199	198
616	615
387	386
106	105
203	202
71	70
733	732
342	341
252	255
177	176
444	443
309	308
162	161
58	57
282	281
482	496
337	336
249	248
143	142
100	99
147	146
200	199
256	255
142	182
103	251
330	329
321	320
301	300
167	166
233	232
458	457
225	224
314	313
56	74
99	98
345	344
313	312
279	278
336	300
146	145
415	414
275	274
105	104
465	464
182	181
278	277
196	195
805	1016
301	300
212	211
310	309
43	41
81	80
283	282
247	246
73	72
93	92
74	73
97	96
104	103
303	302
314	313
146	145
291	290
200	199
156	209
141	207
278	263
478	477
337	336
296	295
293	292
299	298
263	262
608	607
470	469
350	349
470	469
37	36
458	457
142	141
211	210
929	928
81	80
311	310
406	425
72	71
145	150
65	49
329	328
90	89
195	194
176	175
85	84
182	181
484	483
205	204
444	443
730	729
388	387
234	233
498	497
163	162
261	260
259	258
172	171
90	89
547	546
202	201
252	251
476	475
256	255
39	86
297	334
210	209
325	324
169	168
497	496
255	254
270	269
32	31
80	176
156	183
109	108
133	132
394	450
124	174
492	491
319	318
130	129
408	407
231	230
247	260
666	665
503	502
77	185
111	123
754	753
318	317
300	299
267	266
341	340
207	206
287	286
207	206
612	611
290	289
156	155
297	296
127	126
317	316
255	254
301	300
721	720
239	238
299	298
236	235
253	274
42	34
68	67
78	77
107	106
849	848
321	320
247	246
37	31
366	399
399	398
100	195
109	196
465	464
412	411
431	430
247	246
451	450
241	359
120	119
417	416
367	376
225	224
294	293
356	355
421	420
332	331
284	344
66	65
335	334
420	419
110	109
362	361
110	107
386	488
674	673
94	93
492	491
320	319
479	514
663	616
140	139
188	187
88	87
549	548
507	506
113	112
280	279
85	84
231	230
476	475
331	330
310	309
297	296
322	321
502	501
140	139
537	622
84	83
499	498
385	412
82	81
331	330
153	152
148	147
630	629
208	207
127	126
227	226
80	79
157	156
178	177
514	513
288	287
461	460
140	139
457	456
610	609
347	346
320	319
297	296
258	257
242	241
231	230
625	624
280	291
199	289
539	538
390	389
241	240
196	195
156	155
222	221
446	445
189	188
250	249
324	323
282	282
110	88
401	415
472	471
455	454
489	548
60	113
109	108
47	46
468	467
367	366
358	357
805	804
133	132
271	270
219	218
230	229
293	292
206	205
383	382
431	430
367	366
405	416
100	86
138	137
143	142
158	144
405	425
289	288
572	571
121	120
230	334
136	135
116	115
121	120
166	165
395	394
563	562
97	96
287	286
197	196
501	500
440	439
460	459
589	588
445	444
151	150
108	107
120	119
413	412
98	97
273	272
308	307
166	165
346	345
461	460
773	772
518	517
157	156
105	104
364	363
259	283
287	286
311	310
227	226
570	569
464	463
70	69
347	346
694	693
230	229
604	644
97	96
92	91
208	207
196	195
356	368
206	205
44	43
222	244
239	238
214	213
199	198
153	152
407	406
223	222
79	78
56	55
96	95
62	157
112	111
160	159
114	113
312	311
314	340
375	374
266	265
266	265
360	359
340	339
339	338
233	232
314	299
229	227
123	131
422	421
320	319
349	348
311	310
399	398
342	341
345	344
320	319
420	419
515	514
144	143
84	83
156	155
340	339
274	273
158	157
416	396
167	230
552	551
1078	1447
359	211
227	226
100	102
70	69
219	251
383	382
374	465
264	314
121	120
379	378
203	202
424	454
36	66
580	614
384	383
432	431
466	512
658	657
467	466
272	271
260	234
287	286
221	220
499	498
329	328
426	425
156	155
93	94
225	306
155	154
333	332
283	282
158	157
290	289
677	676
275	274
393	392
394	393
514	513
331	330
441	440
485	484
114	113
146	145
313	301
100	99
304	303
690	689
51	50
71	70
97	96
237	236
325	324
220	219
778	777
147	146
188	187
255	254
403	402
564	563
536	535
340	339
301	300
328	327
335	334
424	423
36	35
36	35
36	35
560	559
64	63
51	65
457	519
63	62
251	250
186	185
317	323
373	488
770	769
369	368
1158	1157
650	662
429	428
499	498
310	309
256	255
294	276
327	350
441	440
338	337
324	323
201	200
550	549
466	465
467	466
272	274
219	218
94	93
1038	1037
339	338
176	175
191	190
111	110
113	112
192	191
257	256
319	318
208	207
165	164
446	445
316	277
661	660
343	342
92	91
86	85
179	236
92	91
142	141
72	71
447	446
281	280
681	680
251	250
490	489
145	144
92	91
333	332
144	530
398	397
355	354
202	201
204	203
912	911
375	374
284	283
90	89
287	498
234	269
453	452
94	93
158	157
249	248
32	31
134	133
269	268
255	254
278	277
82	123
216	216
525	524
196	195
350	349
420	419
186	185
222	221
82	81
733	732
209	208
120	119
90	89
199	198
499	498
223	222
353	352
285	284
368	367
89	88
176	175
128	127
397	396
309	308
426	425
169	168
81	113
117	121
101	100
439	438
296	295
235	238
46	65
357	356
248	247
104	146
578	577
163	162
346	345
232	231
332	331
176	175
447	446
78	177
519	698
222	416
227	400
198	197
368	367
454	728
291	290
658	657
432	431
478	477
816	815
94	129
247	333
161	300
256	255
202	201
502	501
109	108
277	276
253	252
112	111
149	148
902	901
798	797
695	694
439	438
192	191
228	227
257	256
121	120
79	78
774	773
76	75
774	773
159	158
240	239
451	450
541	540
575	574
383	382
293	292
134	133
223	222
360	363
341	505
187	186
851	850
260	259
169	168
147	146
135	134
403	402
226	225
363	362
201	200
233	232
215	223
226	225
253	252
335	334
306	305
121	120
388	387
409	408
293	292
118	117
435	434
362	361
56	55
458	457
269	268
109	108
848	847
191	190
223	222
153	152
201	200
188	187
407	406
697	696
211	210
135	134
136	141
73	72
302	301
638	637
108	107
77	76
320	333
279	278
67	66
197	196
73	72
271	270
241	240
50	49
80	115
120	119
96	95
125	124
157	156
705	704
395	394
901	900
159	158
172	171
52	113
154	153
388	387
328	327
196	195
126	125
170	169
146	145
303	377
49	61
494	493
651	650
272	271
490	489
140	139
104	103
210	209
202	201
101	100
143	142
93	92
111	110
234	233
137	136
64	63
85	84
124	123
105	104
180	179
102	101
131	130
178	177
118	117
168	167
60	59
145	144
444	443
39	38
119	118
130	129
207	206
330	329
128	127
123	122
142	141
73	72
123	136
459	458
101	131
330	429
316	315
70	69
100	99
375	374
158	157
181	180
184	184
273	272
86	85
185	184
85	84
253	252
368	367
394	393
264	263
62	61
74	73
196	282
361	566
507	502
386	385
221	220
60	59
295	294
99	98
322	321
294	293
484	483
81	80
319	318
272	271
285	284
297	296
500	499
330	329
223	320
97	136
294	348
450	449
157	156
325	324
647	646
348	347
368	367
163	162
198	197
490	489
1101	1100
167	166
482	481
310	309
68	67
311	310
656	655
91	90
88	87
157	156
313	312
356	355
412	455
54	53
133	132
376	375
143	142
131	130
213	212
166	165
261	260
298	297
497	496
230	229
292	291
155	154
149	166
332	317
688	1486
681	1517
77	78
310	309
779	778
101	100
95	94
243	242
211	210
91	90
285	284
164	163
96	95
478	477
242	241
186	185
192	191
189	188
46	45
294	293
236	235
270	269
261	260
175	174
223	222
98	97
90	89
64	85
351	419
93	92
324	323
104	103
86	85
297	321
391	390
478	477
159	158
98	97
210	209
648	647
283	282
446	445
111	110
506	518
448	447
151	150
145	151
336	335
891	890
134	133
315	314
90	89
596	711
295	294
630	629
415	414
336	335
293	292
332	331
175	174
168	167
101	100
148	147
173	172
212	211
347	346
192	191
197	196
132	131
679	678
288	287
238	237
264	263
268	267
159	158
287	286
385	384
378	377
145	144
293	292
260	259
158	157
427	426
187	186
89	88
155	154
112	111
524	523
445	444
257	256
297	296
382	381
313	312
330	329
444	443
64	63
340	402
765	764
130	129
354	355
111	110
444	443
437	436
55	54
234	233
299	298
123	122
175	194
161	160
100	99
135	134
102	101
123	122
128	127
221	220
259	258
433	432
471	470
84	83
389	388
65	64
109	108
79	78
351	350
322	321
329	328
231	230
168	167
379	378
105	104
139	138
295	294
391	391
784	783
357	356
478	477
150	149
964	1030
44	94
328	327
46	45
66	65
497	496
83	90
425	506
208	207
140	151
169	168
614	613
217	216
173	311
169	168
72	71
338	337
488	487
202	201
304	303
311	310
206	205
123	122
274	273
413	412
207	206
434	433
947	946
478	477
554	553
210	209
67	66
41	40
218	217
350	349
247	246
841	840
180	187
57	56
258	257
272	271
224	223
223	222
363	416
236	397
387	386
224	223
494	493
31	30
160	165
141	140
276	275
99	98
112	111
89	86
518	630
714	713
239	269
129	203
185	194
350	349
236	269
296	295
105	104
194	193
160	159
237	236
111	110
450	449
220	219
128	127
161	160
536	535
753	752
246	245
471	470
435	434
161	160
328	327
337	336
339	338
491	490
166	249
84	78
267	279
482	739
86	85
218	216
276	275
332	331
54	53
319	318
169	233
75	92
396	395
245	244
142	141
295	294
165	164
221	220
201	200
181	180
104	103
296	295
96	95
373	372
329	328
393	392
568	567
165	164
163	162
114	113
83	82
289	288
620	619
214	213
263	279
231	230
233	232
257	256
181	195
245	244
152	278
128	278
187	186
357	356
159	129
202	359
391	390
83	82
305	304
470	576
96	95
381	380
228	224
500	499
269	268
83	147
408	407
135	134
724	723
257	248
305	304
1519	1518
270	269
137	136
281	280
524	686
165	164
498	497
408	407
152	151
188	187
124	123
202	201
326	325
368	392
179	178
259	258
225	224
239	238
164	171
204	212
130	167
101	100
268	261
252	251
371	370
390	389
659	675
247	246
389	425
171	243
383	382
328	327
52	51
247	246
132	131
282	281
66	65
65	70
126	125
123	122
215	214
74	73
159	158
162	161
273	272
78	77
152	151
358	357
744	741
270	300
291	290
52	68
69	97
315	319
191	190
69	68
190	189
128	127
103	102
513	512
161	205
184	176
117	116
118	116
306	305
292	291
500	490
270	269
237	236
246	237
107	369
93	139
222	289
211	210
329	328
122	121
302	301
697	696
81	80
123	122
72	71
83	90
56	55
55	93
154	153
152	151
273	272
384	383
123	122
56	192
1296	1299
574	733
160	160
426	425
340	346
261	231
316	315
575	593
398	397
302	301
110	109
94	93
69	68
187	186
87	86
249	248
109	108
267	266
74	73
104	105
90	89
92	91
126	125
167	166
126	125
92	91
348	347
251	250
90	90
236	235
712	711
419	418
360	359
92	91
351	350
240	239
109	108
240	239
123	122
236	242
336	335
379	378
198	197
97	96
189	188
72	82
126	125
327	326
139	138
212	211
247	246
244	243
236	235
184	183
380	404
85	84
385	384
659	658
244	243
307	306
253	252
664	663
303	302
148	147
463	462
426	425
63	62
170	169
238	237
226	225
226	225
236	235
193	192
144	143
160	159
163	162
388	387
360	359
287	286
212	211
247	246
299	298
352	351
298	297
77	76
220	219
411	410
201	200
110	109
193	192
442	441
393	392
401	400
365	364
130	129
822	957
148	153
439	477
67	98
220	219
327	326
89	88
136	135
174	173
265	264
237	236
578	577
366	365
146	145
347	346
183	182
42	41
483	482
640	639
163	162
105	150
341	392
117	116
339	374
467	466
957	956
260	259
443	442
1033	1032
177	176
160	159
37	32
507	541
311	310
462	461
404	403
322	321
396	395
593	592
451	451
766	765
117	116
410	409
202	203
184	183
279	278
254	253
473	472
231	230
185	311
124	125
421	420
344	343
720	719
334	334
347	346
73	72
238	237
230	229
49	48
177	176
538	748
208	260
292	291
265	264
157	156
188	187
126	125
108	107
951	1122
269	268
697	962
232	232
85	179
855	926
609	608
444	443
418	417
275	274
152	151
372	509
296	391
120	119
84	83
316	315
266	389
194	259
143	142
179	178
360	359
587	586
111	110
138	158
240	353
88	126
546	545
751	1051
193	299
405	404
161	160
201	200
838	837
302	325
252	241
178	175
274	273
48	102
136	135
508	507
119	118
98	98
116	115
86	85
575	317
173	172
173	172
264	263
455	656
169	168
122	121
38	37
308	328
247	246
326	325
107	106
214	213
56	55
73	72
102	101
270	269
92	91
215	214
324	323
131	130
78	77
331	330
146	145
83	82
173	172
407	406
285	284
266	265
391	390
58	95
228	227
74	73
145	144
257	256
142	141
141	140
64	63
77	76
380	392
57	59
181	180
70	63
176	175
78	77
653	652
145	144
240	239
71	70
98	97
274	273
170	169
128	127
229	228
76	75
120	119
104	103
189	188
243	242
476	475
197	196
107	106
84	83
172	171
74	73
158	157
154	153
389	387
494	876
102	101
211	210
331	330
102	101
213	212
617	616
86	85
197	196
114	113
112	111
78	77
182	181
111	111
303	289
161	165
644	643
311	310
160	159
244	243
214	213
647	681
67	66
125	124
1632	1756
249	248
93	122
184	229
152	151
86	85
168	167
70	69
197	196
87	86
286	285
235	234
53	52
113	168
254	253
647	646
176	175
460	459
294	257
133	185
377	376
232	231
65	74
95	102
162	161
150	149
107	106
168	167
160	159
109	108
87	86
170	169
165	165
112	111
218	217
192	181
107	107
259	258
754	753
392	391
89	88
109	108
252	251
500	499
98	110
239	238
365	364
60	59
68	67
256	228
269	268
373	372
231	342
101	156
621	620
140	139
85	84
103	102
165	164
135	134
192	191
294	293
425	428
155	154
218	217
79	76
501	500
32	31
275	274
220	219
101	100
67	71
176	175
135	134
164	237
114	113
30	29
110	109
94	93
96	108
172	170
200	180
85	84
77	76
91	90
100	99
46	45
83	82
116	115
166	165
276	395
98	97
72	71
59	58
191	190
109	108
817	915
314	331
367	366
295	294
233	232
347	346
76	75
238	237
593	866
246	369
106	105
98	97
94	93
245	244
102	95
126	125
105	104
104	103
214	213
66	65
89	88
478	477
198	221
134	229
199	198
452	81
240	239
146	145
264	263
394	401
85	84
142	141
135	134
80	79
174	210
99	98
95	94
170	169
60	59
107	106
115	114
123	122
239	238
118	148
139	138
167	240
297	490
85	247
41	109
413	541
391	541
123	122
209	208
279	278
201	200
599	606
295	294
192	191
169	159
226	225
287	286
186	185
1002	1054
178	177
99	98
66	65
78	77
177	176
105	104
119	118
64	63
130	129
95	94
66	65
99	98
66	65
78	77
177	176
105	104
119	118
64	63
130	129
95	94
25	25
195	194
134	159
