85	84
176	175
195	194
90	89
329	328
209	208
477	476
311	310
81	80
929	928
211	210
170	169
458	457
37	36
470	469
350	349
470	469
608	607
263	262
299	298
293	292
296	295
337	336
478	477
427	449
296	295
200	199
291	290
146	145
314	313
303	302
104	103
97	96
74	73
93	92
73	72
247	246
283	282
81	80
43	41
310	309
212	211
301	300
805	1016
196	195
278	277
182	181
465	464
105	104
275	274
415	414
490	489
263	278
313	312
345	344
99	98
56	74
314	313
225	224
458	457
233	232
167	166
301	300
35	34
321	320
330	329
93	251
142	182
256	255
200	199
147	146
100	99
143	142
249	248
337	336
502	501
257	256
32	31
58	57
162	161
309	308
444	443
177	176
72	71
199	221
342	341
733	732
71	70
203	202
106	105
387	386
811	810
377	376
518	517
297	296
465	726
258	257
186	301
108	147
206	205
368	367
221	220
834	833
360	359
107	106
766	765
293	292
114	113
218	217
578	577
884	883
384	383
335	334
259	258
458	457
306	305
467	466
389	388
439	438
120	145
121	147
120	119
367	366
615	614
286	285
85	84
343	342
322	321
309	308
395	394
128	127
182	181
143	142
235	234
166	165
122	121
1343	1342
1408	1407
378	377
257	256
67	66
252	251
212	211
632	631
159	158
258	257
355	354
224	223
197	196
91	90
212	211
140	139
279	278
180	179
442	441
430	429
467	529
44	43
85	84
128	127
148	147
310	309
534	533
72	71
382	379
47	61
529	574
275	274
1228	1227
150	149
74	138
397	396
230	229
291	305
113	112
275	274
266	265
59	70
97	112
136	135
269	268
316	315
291	290
91	90
450	449
196	215
335	334
81	43
213	212
246	245
239	261
401	538
53	52
137	136
297	296
515	514
397	396
109	108
264	263
201	202
244	277
307	306
166	165
291	290
484	807
335	372
123	122
203	202
442	441
70	69
172	171
332	331
81	80
328	327
679	678
427	426
260	259
524	523
345	344
472	471
121	120
240	261
186	185
335	334
398	397
915	914
385	384
472	472
390	389
291	290
283	282
175	174
358	357
453	452
607	606
238	237
141	140
119	118
434	520
467	940
179	178
94	93
529	528
108	107
155	154
450	449
550	549
295	294
137	136
230	229
550	549
105	104
653	652
479	478
189	188
211	223
319	318
523	540
128	127
199	198
438	437
230	229
235	234
279	278
278	277
350	349
523	522
560	715
140	139
489	488
684	683
344	343
92	91
662	661
259	258
52	51
232	231
327	326
172	205
336	363
264	263
297	296
150	149
125	108
253	252
145	144
119	185
68	67
379	378
227	226
253	252
282	281
355	354
195	194
80	79
74	75
145	144
260	259
339	338
263	262
148	147
112	111
743	742
134	133
153	156
59	59
437	500
30	29
367	366
223	222
359	547
162	186
446	445
254	253
754	756
303	302
452	451
217	216
549	548
447	446
240	239
175	193
246	217
77	76
91	90
846	845
231	230
175	174
423	506
483	969
355	431
161	160
197	241
60	59
274	286
467	799
389	700
181	180
91	90
99	98
69	69
165	177
354	365
486	485
716	715
445	444
352	351
169	168
192	191
566	565
113	112
403	402
479	478
159	158
419	418
98	97
407	416
139	138
118	117
290	289
343	342
189	188
42	41
49	48
106	105
178	177
335	334
120	119
132	131
245	244
603	602
326	325
486	500
117	119
748	1029
363	385
323	322
88	87
263	259
182	181
380	379
511	515
154	153
443	443
66	78
559	615
317	316
103	102
427	426
267	288
168	418
335	334
66	65
433	432
142	141
844	813
151	150
104	120
134	133
233	232
220	219
133	132
213	212
388	387
542	541
92	91
110	109
250	249
252	251
355	354
466	465
102	101
155	154
217	216
285	284
229	228
92	91
132	131
105	104
76	75
150	149
164	163
169	168
222	253
426	425
145	311
475	653
340	339
187	159
259	258
281	280
264	263
216	215
213	212
207	206
471	470
221	220
322	321
287	286
127	126
648	647
247	246
186	185
69	68
448	447
213	212
578	577
199	198
601	1259
502	1259
114	113
177	176
319	318
501	500
341	340
332	331
175	174
141	140
458	457
184	183
451	450
129	128
155	154
713	712
466	551
67	66
474	473
320	335
899	898
129	128
154	153
312	311
59	58
163	162
468	467
335	334
315	314
48	71
128	396
229	241
151	150
335	334
139	138
168	167
396	395
952	951
148	147
504	503
360	359
361	360
560	559
340	339
197	196
92	91
72	71
185	254
300	299
506	505
148	185
188	337
156	174
222	231
59	58
296	295
31	30
79	78
338	337
332	387
125	124
302	294
261	260
35	34
219	218
426	425
53	52
300	328
366	365
273	272
101	100
138	137
81	80
86	85
256	255
319	318
333	332
301	300
775	774
318	317
58	57
121	120
70	69
453	452
462	461
116	115
130	129
154	153
134	133
190	189
69	68
201	200
43	42
60	60
238	237
79	78
206	213
252	251
218	237
487	948
53	52
273	272
158	157
159	158
74	73
38	37
123	122
126	125
163	162
59	58
52	51
142	141
117	116
194	194
332	331
114	113
240	272
397	396
580	579
429	428
434	440
259	253
85	84
420	419
372	371
214	213
335	334
329	328
282	333
118	115
608	655
320	319
263	262
123	122
120	103
211	210
144	143
269	268
99	217
333	338
93	92
374	373
87	86
249	248
91	183
100	183
86	85
348	347
327	326
369	368
239	238
132	131
201	200
199	198
183	182
166	165
242	241
879	878
177	176
168	167
301	300
448	447
395	394
487	486
258	257
193	192
131	130
99	98
198	197
391	390
154	153
116	115
185	184
393	392
99	133
221	267
86	85
256	255
384	383
427	426
411	410
319	318
266	356
214	273
55	54
113	112
1088	1087
43	43
296	307
540	539
389	388
96	95
101	100
319	318
68	67
143	142
540	578
445	554
454	453
182	226
126	124
341	340
764	763
165	164
246	245
180	179
158	157
278	277
242	241
226	225
263	262
79	78
344	343
167	166
149	148
226	225
539	538
202	201
54	53
358	357
260	259
235	234
517	516
260	259
441	440
408	407
240	239
88	87
312	338
268	214
323	322
288	292
161	172
411	410
160	159
71	70
139	138
266	265
337	336
203	205
556	555
646	645
99	98
172	171
96	143
95	94
290	289
103	102
230	229
391	388
86	145
427	426
239	238
229	228
821	820
311	310
429	428
99	98
259	258
477	476
318	317
196	195
189	188
238	237
135	134
123	127
517	638
377	376
51	50
254	253
247	318
252	297
142	181
202	239
389	388
300	299
162	679
518	679
458	457
88	87
221	226
94	93
74	73
848	847
165	164
150	149
317	316
305	304
68	121
80	83
274	273
216	215
174	175
96	95
317	481
671	1073
132	131
197	196
90	89
175	187
518	517
406	405
381	380
505	504
257	256
314	313
267	297
176	175
96	95
444	443
177	176
621	620
160	159
78	77
95	94
283	282
401	308
330	329
434	428
785	784
272	271
220	219
969	968
784	783
232	231
89	88
376	456
518	566
282	281
145	144
207	206
308	307
318	317
146	145
496	495
255	254
233	232
537	536
328	327
131	130
406	551
44	43
202	201
467	466
364	363
524	523
315	314
73	72
505	574
119	118
335	334
153	152
249	254
122	121
470	588
120	119
496	495
453	452
361	360
439	438
415	414
356	355
492	491
307	306
277	276
421	420
384	383
306	305
196	195
902	901
133	132
66	65
248	247
207	206
348	347
401	400
462	461
147	146
298	297
184	183
162	161
123	122
457	456
594	593
95	94
97	96
97	96
97	96
255	254
637	887
218	217
631	630
475	474
588	587
866	865
121	120
265	264
297	296
103	102
517	516
797	796
183	182
221	220
122	121
202	202
257	256
147	146
410	409
127	126
241	302
67	306
66	65
284	283
254	264
418	417
199	198
201	200
191	190
709	866
167	410
247	246
195	194
160	159
455	454
309	308
152	151
210	234
177	176
768	809
842	841
189	188
239	238
577	793
253	329
227	244
66	94
123	127
640	749
266	265
297	296
144	143
525	660
123	144
312	289
437	473
115	114
208	207
122	123
146	172
233	232
276	324
173	172
365	364
386	385
114	110
275	274
579	890
325	449
49	48
217	216
242	241
262	282
242	241
186	185
399	398
232	231
286	285
451	450
811	810
162	161
342	341
152	151
263	262
383	382
199	198
612	1160
546	1160
320	319
239	239
486	713
130	129
194	193
144	253
87	86
67	66
182	181
141	140
237	236
275	274
513	572
61	60
236	235
135	134
272	271
218	217
344	343
51	50
147	152
85	84
268	267
88	91
185	201
275	274
257	256
407	406
217	216
227	226
156	155
247	246
257	256
149	148
623	814
193	192
193	192
127	139
105	104
247	246
171	226
81	104
166	165
620	697
84	82
234	379
138	164
261	260
91	90
251	250
124	123
284	283
329	328
114	113
549	548
337	336
175	218
71	80
447	464
145	144
132	131
116	115
144	180
134	133
32	31
813	812
311	310
143	142
98	92
218	241
112	111
144	143
238	237
401	400
246	245
262	261
247	246
367	366
100	99
459	458
310	309
326	325
281	280
305	304
348	427
92	107
131	130
104	103
354	353
156	155
239	238
288	287
269	268
40	39
313	313
125	124
380	379
205	204
296	319
192	191
153	152
415	414
134	133
352	351
368	367
392	417
157	156
416	415
546	545
1033	1032
197	260
261	306
264	258
167	166
152	218
126	125
548	547
369	405
490	489
223	222
212	211
181	180
47	46
89	88
34	33
177	227
215	214
307	306
309	308
88	88
211	213
330	329
284	283
182	159
1238	1415
286	285
290	289
198	197
442	556
285	284
240	239
476	475
156	155
77	76
198	202
764	763
254	253
47	46
265	264
94	93
557	556
491	490
196	195
678	677
363	362
311	310
166	165
202	201
288	287
516	515
473	472
113	115
200	285
461	460
350	349
211	210
92	91
199	210
328	358
297	296
390	389
484	483
158	169
483	628
420	419
428	427
81	206
418	417
1025	1024
323	363
278	277
555	554
315	314
289	288
270	269
317	316
338	337
404	403
180	179
236	277
370	369
92	91
321	320
256	255
276	275
284	283
325	324
996	995
208	207
154	169
232	231
407	406
365	364
103	102
71	70
365	364
87	86
472	471
125	124
367	366
270	269
153	152
175	174
64	63
226	225
95	94
61	60
326	325
303	302
423	422
645	1047
393	392
401	400
230	229
432	431
440	439
458	457
310	308
209	296
89	106
194	193
357	356
376	375
111	110
605	615
324	323
116	115
295	294
180	179
150	149
368	367
157	156
140	139
326	325
173	172
325	324
403	402
237	236
300	299
81	80
483	482
197	196
304	303
164	163
455	454
223	222
110	109
205	204
664	663
316	315
492	491
153	179
105	104
433	432
208	207
425	424
785	784
91	90
624	623
124	123
133	132
232	231
567	566
273	272
153	152
272	271
192	182
166	165
594	593
59	58
51	50
429	428
287	286
191	190
104	103
118	117
517	516
157	156
184	183
73	72
125	124
270	276
773	1037
398	397
216	215
365	416
757	1120
55	54
176	175
126	125
184	183
431	481
160	159
110	109
202	201
625	624
215	214
311	318
320	319
435	434
559	558
407	406
551	550
168	167
228	266
161	182
265	264
101	100
114	113
835	834
311	310
431	430
136	135
159	170
153	152
306	305
226	225
260	259
285	284
144	225
142	128
198	197
200	199
119	118
679	804
668	667
42	66
186	219
186	185
186	194
369	368
309	308
161	160
61	45
221	271
594	593
259	258
293	292
485	484
454	453
434	433
382	381
262	261
366	411
66	65
350	349
556	555
87	116
285	333
51	50
218	217
298	297
356	355
170	169
110	109
183	182
165	164
462	461
174	173
71	70
289	288
100	99
144	143
318	317
297	296
991	990
746	745
349	480
133	132
228	227
461	460
111	110
408	407
1048	1047
473	472
416	415
218	217
128	127
83	82
373	372
51	50
51	50
262	261
266	265
356	355
345	353
104	132
207	206
195	305
87	138
438	506
82	74
317	316
148	276
84	276
312	311
261	260
747	746
401	400
73	72
390	389
905	1293
342	341
272	271
331	330
335	334
417	416
319	318
212	228
170	169
537	536
286	285
249	248
138	137
702	701
66	65
363	362
66	65
322	375
210	209
392	391
187	192
249	248
188	187
532	531
143	142
137	136
99	105
179	212
488	487
293	292
184	183
511	510
303	302
99	98
353	352
297	410
121	262
141	145
227	226
462	461
187	186
70	69
128	127
263	262
37	39
322	321
89	126
214	213
88	87
404	403
321	362
371	370
609	633
156	155
106	105
204	203
214	213
344	343
194	193
861	860
161	160
73	72
185	125
236	235
305	304
178	278
557	556
312	311
242	241
225	224
104	250
150	149
303	302
101	235
441	625
513	512
215	214
79	78
156	155
360	359
475	474
392	391
146	145
465	464
251	250
299	298
157	169
183	170
60	73
282	281
649	648
251	328
183	195
157	156
390	389
253	252
296	295
386	385
412	411
329	328
254	253
555	554
469	468
109	108
149	148
177	176
121	120
255	254
182	181
547	546
30	29
263	416
162	161
108	124
638	732
226	225
895	894
191	190
567	682
134	133
558	557
69	68
170	169
473	472
153	191
354	331
226	225
219	218
311	310
245	244
264	263
349	348
238	237
229	228
121	337
177	332
252	251
104	103
399	398
323	322
154	153
437	436
428	427
36	35
130	129
116	115
589	588
239	238
934	933
406	405
389	388
157	156
143	142
241	240
639	638
815	877
398	397
523	522
380	379
38	37
98	97
135	134
231	230
143	142
193	136
431	430
174	173
264	263
305	347
235	239
314	313
127	126
351	350
251	250
347	346
284	312
100	166
349	348
339	338
411	490
263	262
50	49
258	257
230	229
353	352
305	304
332	331
290	289
351	350
179	178
299	298
754	753
428	427
159	158
430	429
347	346
172	172
206	223
247	251
226	225
674	673
303	302
338	329
171	170
162	161
82	81
151	150
235	234
238	237
319	318
404	404
254	253
137	136
369	368
378	377
296	325
267	274
332	331
224	223
454	453
66	65
227	226
457	716
73	117
263	320
362	361
87	86
89	88
225	224
642	661
87	86
386	384
316	369
65	64
241	240
220	219
249	248
168	167
296	295
172	171
419	418
43	42
97	96
385	391
307	306
531	530
272	271
811	810
82	81
221	299
221	220
250	249
412	411
322	321
562	623
513	512
307	306
304	303
783	782
443	442
442	441
128	127
372	371
209	208
401	400
253	252
199	198
411	410
93	92
272	271
403	402
179	178
469	561
111	110
126	125
86	85
96	95
241	240
301	300
123	122
371	370
378	377
315	314
282	281
163	162
376	375
244	243
223	222
227	226
244	243
243	242
129	128
108	107
277	276
338	337
477	476
334	333
573	572
339	322
551	550
300	299
232	231
553	552
380	305
372	371
649	648
75	74
88	87
515	758
256	255
198	197
205	204
176	175
93	92
160	159
64	63
84	63
308	307
73	72
235	234
574	573
589	588
131	159
226	356
189	188
699	672
585	646
101	100
208	207
448	447
431	430
815	814
142	205
288	287
209	208
383	382
132	131
116	115
490	760
291	290
399	398
487	586
111	110
231	230
363	362
260	259
167	166
255	254
228	227
558	557
95	94
755	754
583	582
329	328
411	410
61	60
249	248
298	297
260	259
262	261
441	440
235	234
1487	1486
616	615
183	182
158	157
397	396
363	362
467	466
401	400
871	870
86	145
191	190
161	160
205	204
63	86
560	524
193	192
94	183
234	277
116	115
199	198
385	384
71	70
110	134
189	148
1071	1070
112	111
47	46
174	173
476	475
84	83
155	154
149	148
113	112
318	317
372	371
153	152
274	273
499	498
238	280
266	289
181	180
104	103
109	108
218	217
235	234
117	116
248	247
134	133
72	71
255	254
139	138
63	62
103	102
304	303
66	62
495	589
389	388
90	89
177	176
65	64
91	90
99	98
72	71
157	194
87	128
77	76
219	149
133	132
211	210
72	53
184	193
265	264
382	381
320	319
192	191
156	155
190	189
181	180
370	369
703	702
555	635
71	70
210	209
216	215
547	546
188	187
56	55
49	71
161	171
587	586
151	150
278	350
33	43
170	169
210	209
449	720
266	265
149	148
685	684
153	152
221	220
138	137
106	105
392	391
93	92
110	109
220	219
373	372
328	388
278	277
236	235
196	195
133	132
286	285
515	514
379	378
31	30
390	436
71	70
71	70
58	57
187	186
181	367
896	942
343	342
231	230
391	390
66	65
778	848
200	199
102	101
309	308
414	413
76	75
199	198
58	57
443	442
165	164
71	70
267	266
129	128
232	231
364	363
167	166
1321	1320
70	69
503	502
120	223
123	122
376	375
424	423
355	354
138	137
442	441
673	672
346	536
463	736
315	386
142	157
78	71
270	269
212	245
185	184
145	153
278	277
139	138
130	129
217	216
152	82
153	152
111	110
104	103
178	177
184	194
308	319
386	385
501	517
474	473
170	175
176	175
76	75
125	124
202	201
212	211
307	306
351	350
122	121
71	66
189	188
38	37
373	372
85	84
82	81
348	347
187	186
216	215
400	399
63	64
131	130
216	215
115	176
191	269
512	511
59	58
93	92
98	97
220	219
139	138
135	134
232	231
402	401
252	251
261	260
233	232
366	365
314	313
548	547
102	101
217	317
562	1061
498	497
320	319
190	207
174	173
58	57
347	346
318	317
104	103
207	264
245	244
79	78
263	262
152	151
270	269
551	550
335	334
266	265
478	477
730	729
120	119
126	125
214	213
275	274
342	341
181	180
435	434
144	143
49	67
119	139
86	85
320	319
1173	1172
313	312
266	265
135	134
234	233
413	412
304	303
274	273
263	262
154	153
349	348
265	264
373	372
90	89
814	813
64	63
63	62
73	72
43	42
79	78
140	139
94	93
142	141
329	354
141	140
119	118
61	60
59	58
41	40
60	59
52	51
350	349
119	118
274	273
112	111
63	62
54	53
72	71
115	114
91	90
178	177
156	155
51	50
175	174
137	136
170	169
378	364
146	514
142	143
69	68
531	530
494	501
116	115
343	342
128	127
118	117
178	177
132	131
249	248
144	143
138	137
774	853
80	93
110	109
68	53
166	175
248	247
194	193
323	325
909	1158
200	199
688	687
93	92
98	97
219	218
89	88
288	287
246	245
128	128
200	205
179	178
342	373
462	461
224	223
457	456
214	213
369	368
154	153
147	207
88	82
417	416
381	380
79	78
80	79
109	108
74	73
72	71
65	37
61	60
227	226
262	261
99	98
69	68
79	312
221	341
230	229
77	76
180	179
179	339
125	124
234	233
1244	1302
348	347
152	151
57	56
97	96
121	120
46	45
128	127
361	360
178	149
80	79
178	177
134	153
98	97
109	108
164	117
182	181
656	655
69	68
136	121
399	423
444	443
128	127
342	341
132	131
118	117
82	81
132	131
247	246
141	140
145	144
212	214
533	800
110	109
233	232
248	247
99	98
47	46
1047	1090
403	393
303	403
93	92
98	97
286	285
131	130
136	153
132	131
162	161
115	114
145	181
51	50
135	134
244	243
137	136
204	197
79	78
89	88
83	82
227	226
51	50
121	120
124	123
110	109
95	94
58	57
104	103
89	88
271	270
232	231
123	122
134	133
98	97
220	219
149	148
87	86
140	139
80	76
339	422
177	176
514	513
240	239
511	510
62	61
374	432
357	356
579	578
305	304
204	203
245	244
85	84
657	656
285	284
271	270
172	186
99	109
270	270
341	340
566	565
473	472
211	210
357	356
640	639
80	79
406	491
56	55
257	343
78	148
172	171
83	76
512	544
82	81
112	111
120	119
176	175
90	89
163	162
141	140
180	179
151	150
318	304
205	204
66	65
156	155
285	284
168	174
88	281
257	358
123	122
200	199
697	885
190	647
71	70
412	411
46	45
66	65
84	83
164	163
95	94
392	391
364	363
195	194
93	92
551	559
338	337
284	283
208	207
419	418
146	145
228	227
278	277
131	130
270	269
285	284
36	35
209	208
152	185
80	79
232	231
118	117
465	464
217	216
599	598
73	72
464	463
1248	1247
513	512
237	236
226	225
336	335
339	338
269	268
429	428
63	62
375	374
364	363
281	280
153	152
273	272
338	337
303	302
138	137
206	205
272	271
843	893
216	215
52	51
54	53
544	543
307	306
303	302
338	337
335	334
110	109
487	486
179	178
233	417
99	98
239	238
133	132
180	179
248	247
218	217
269	268
398	397
408	452
532	531
288	287
219	211
294	293
207	206
635	627
48	47
214	285
341	340
103	102
111	110
86	85
253	252
350	349
84	83
126	207
741	865
325	324
43	42
56	55
478	477
396	401
197	196
255	254
103	102
219	218
172	171
266	265
109	108
73	72
105	104
150	149
58	57
662	661
645	644
376	375
263	262
189	188
187	305
188	249
1036	1035
458	457
388	387
269	268
331	330
297	296
322	321
305	304
120	133
82	81
326	325
223	222
75	74
120	119
74	73
105	104
569	568
431	430
294	293
281	280
351	350
263	262
352	351
756	755
220	219
361	360
302	301
333	332
466	465
354	353
514	513
169	168
322	321
243	242
213	212
307	306
258	257
538	537
344	343
86	85
160	159
160	182
105	115
150	156
67	66
105	104
272	271
343	342
174	173
109	281
121	388
188	187
421	422
154	169
179	178
58	57
401	457
64	63
305	275
90	89
145	144
378	377
594	1174
569	1174
89	88
141	140
330	329
618	809
256	273
62	61
109	108
78	77
57	56
2868	1682
289	288
107	119
98	109
835	834
485	1300
267	266
260	254
220	219
84	83
251	257
177	176
60	59
56	55
98	97
308	307
448	447
536	551
75	74
180	179
327	326
331	330
198	197
223	222
93	99
299	351
179	178
668	667
57	56
469	468
382	381
338	337
314	313
265	264
475	474
58	57
78	77
150	149
173	172
79	78
701	700
354	353
500	499
379	378
190	189
282	281
33	32
298	297
212	225
232	231
515	514
1247	1246
463	462
275	274
181	180
804	1015
295	294
218	217
95	94
57	56
275	336
59	64
254	252
277	276
46	45
72	71
144	143
501	787
71	88
440	439
512	511
201	200
276	275
270	269
204	203
175	185
561	560
253	252
66	65
291	304
480	479
305	304
168	167
177	176
884	883
237	236
188	187
60	59
410	440
89	88
253	252
305	304
484	483
420	472
50	82
120	119
309	308
124	123
359	344
294	293
389	396
222	221
145	144
54	53
66	83
73	72
300	299
69	73
123	280
163	222
32	31
297	296
382	464
179	178
138	153
249	248
143	142
61	60
68	67
376	426
102	101
446	455
340	339
405	404
109	108
114	113
214	212
249	248
102	101
781	780
40	39
245	244
246	245
491	489
205	204
419	418
232	231
407	406
298	297
285	284
122	216
103	102
274	273
110	109
122	121
270	269
92	91
463	462
511	510
315	314
461	460
241	240
112	111
242	241
453	452
310	309
468	467
157	177
406	548
392	391
503	502
168	167
198	354
78	77
458	457
604	603
193	192
124	123
142	141
124	134
209	208
531	530
391	390
334	333
347	346
72	71
147	146
171	188
193	192
807	628
109	108
255	351
207	206
232	231
212	211
501	500
202	201
287	286
425	424
219	218
108	107
101	102
276	261
156	155
145	144
79	78
286	285
671	670
174	173
299	298
80	79
200	199
283	324
136	135
216	215
116	115
276	275
194	193
390	389
30	29
92	91
233	232
311	310
404	403
312	331
77	76
192	210
458	457
419	418
102	101
535	534
288	198
233	261
30	29
223	222
213	212
138	138
250	563
191	291
103	130
209	208
70	69
471	470
79	78
335	334
139	138
407	406
424	423
126	125
119	132
310	316
202	201
123	122
63	62
137	136
768	1018
121	101
107	106
169	168
202	201
119	118
405	404
292	291
147	146
289	288
239	238
532	531
384	383
304	303
255	254
313	312
430	429
98	97
514	513
793	792
278	277
349	348
64	63
479	478
228	227
155	154
250	249
184	183
327	326
100	99
758	795
328	327
119	118
66	65
145	144
643	642
96	95
36	35
253	252
310	309
97	96
262	215
179	178
223	222
197	196
464	463
88	87
754	753
253	252
451	450
280	279
117	116
453	452
107	106
113	112
276	275
296	295
192	191
162	161
323	322
388	427
61	60
493	492
345	344
407	406
269	268
237	236
226	225
235	234
183	182
389	388
512	511
218	217
424	435
207	206
136	135
91	90
448	447
652	651
348	347
184	183
295	361
302	301
123	236
190	189
150	149
214	213
276	316
177	173
253	252
327	326
316	315
279	278
348	347
460	459
359	358
91	90
138	137
332	331
295	294
95	97
163	284
249	248
645	644
428	427
201	200
305	341
265	264
80	99
131	146
179	180
273	272
143	138
240	239
35	34
85	84
311	313
83	82
61	60
120	119
213	212
372	371
584	583
194	193
162	161
111	110
535	534
116	115
80	79
60	59
344	453
118	149
193	192
455	454
251	250
285	284
486	518
324	323
267	266
302	259
153	152
189	188
297	269
70	69
96	95
80	79
264	263
367	362
92	91
294	293
683	682
233	232
184	183
428	427
878	877
413	481
70	94
79	78
92	91
219	218
118	117
234	290
125	124
77	76
173	164
46	46
221	220
152	157
537	536
220	219
119	118
97	96
393	392
214	213
604	603
492	491
50	49
136	135
144	187
174	173
313	337
332	331
441	440
329	328
252	251
262	261
201	200
65	64
337	336
77	76
124	123
201	200
174	173
247	246
148	147
505	590
99	153
189	188
191	190
132	131
248	247
324	323
810	809
367	366
222	221
189	188
578	577
79	130
693	692
234	262
150	149
215	214
130	129
350	349
287	286
40	39
514	513
53	52
133	146
655	654
213	212
97	96
296	295
193	192
117	116
143	142
475	474
267	266
329	328
311	310
195	194
330	329
168	167
84	83
108	107
166	165
80	79
404	403
222	221
140	139
348	347
75	74
130	129
193	243
350	546
94	93
171	170
330	388
167	185
130	129
395	394
209	208
307	306
130	129
301	300
179	178
227	226
112	126
140	139
345	344
110	109
284	435
94	435
268	308
183	216
78	77
314	314
284	626
102	101
77	98
82	81
160	159
37	85
128	127
224	223
98	97
199	198
79	59
205	213
78	77
163	162
202	201
117	141
119	117
296	307
263	262
74	73
39	38
75	74
104	103
79	78
137	136
475	471
234	251
75	74
159	158
138	137
107	106
523	738
215	293
190	189
61	60
88	87
339	338
183	182
611	610
219	218
75	74
241	240
227	242
181	180
42	41
329	328
286	285
83	82
102	101
240	239
350	349
472	471
131	136
122	121
212	215
285	295
138	137
92	68
321	344
78	77
166	165
90	89
183	182
83	82
184	183
111	110
105	104
553	552
332	331
229	228
142	154
309	308
148	147
64	63
314	364
155	154
335	334
138	137
111	110
147	174
109	108
90	89
262	261
41	40
159	207
63	62
76	75
272	271
527	564
61	60
306	305
324	323
157	156
473	472
232	231
30	29
372	371
284	283
453	452
256	255
138	137
335	334
212	211
201	200
65	64
217	216
266	265
421	420
365	364
265	267
152	172
384	424
206	205
146	190
434	505
320	319
334	333
713	2035
704	2035
262	272
1347	1346
1501	3163
162	161
367	366
117	132
107	106
526	525
674	673
154	249
421	420
159	158
351	350
253	295
174	173
485	484
239	238
485	484
317	316
306	305
312	311
360	359
145	247
109	108
181	180
314	313
393	392
43	42
215	214
408	407
218	217
399	398
175	174
244	250
39	38
90	89
59	147
242	241
253	252
322	321
345	344
238	238
146	172
134	133
197	196
67	66
399	398
133	117
201	200
173	172
341	340
156	131
253	261
139	138
86	85
221	255
353	352
330	329
722	721
68	69
78	78
795	794
302	301
357	356
161	159
137	136
273	272
82	81
158	157
159	158
74	73
215	214
123	122
125	124
65	64
110	109
353	352
158	157
389	388
476	475
153	152
453	454
297	316
275	274
85	84
84	83
300	299
435	434
357	356
356	355
197	196
246	245
259	258
204	203
86	84
326	325
389	388
469	468
186	185
166	189
167	163
134	134
206	219
207	337
223	222
322	321
420	419
181	180
293	292
300	299
227	253
146	168
298	297
354	464
131	130
248	247
131	153
316	426
493	492
465	464
152	151
297	296
479	478
408	407
161	160
322	321
198	197
170	172
183	182
249	248
407	406
406	405
163	162
280	279
721	720
148	147
380	379
129	127
400	411
618	617
194	193
214	213
954	1105
153	162
237	282
38	37
333	332
130	129
647	646
254	253
55	54
128	106
49	48
416	415
889	1040
389	429
436	656
202	273
506	471
125	150
298	297
241	240
70	69
454	453
73	72
106	114
227	205
160	159
816	815
92	91
173	172
397	396
137	396
268	408
176	175
478	911
434	596
177	176
303	302
116	115
214	213
262	261
80	79
156	155
53	52
142	141
142	141
166	165
94	93
122	125
215	247
37	72
325	357
123	125
150	172
591	590
345	344
356	355
355	354
273	358
56	214
762	761
92	91
75	74
100	99
75	74
167	166
52	56
92	91
100	99
255	252
84	105
106	105
300	299
165	164
76	73
306	342
89	88
384	383
95	94
151	150
421	420
285	284
351	350
426	425
335	334
94	137
242	233
249	248
125	160
118	117
267	266
263	262
91	90
275	274
113	112
215	214
130	129
827	826
225	224
166	165
94	93
370	369
678	677
716	1266
561	1266
1254	1253
81	80
289	381
829	1117
363	362
195	189
574	759
317	316
64	104
111	110
385	554
165	164
154	153
157	156
240	239
458	561
105	104
244	243
36	35
244	243
309	308
386	385
306	305
756	755
572	571
312	311
196	195
193	192
65	151
92	165
98	101
509	508
317	316
133	132
232	231
295	294
203	239
441	412
381	411
337	336
463	476
333	332
347	346
386	385
223	222
279	278
664	663
435	489
57	90
294	293
350	349
286	285
363	362
314	313
233	232
417	416
313	312
314	313
258	257
303	331
313	312
283	376
92	91
394	393
85	84
230	190
489	488
217	216
65	64
238	237
189	188
519	518
404	404
190	189
365	364
342	341
530	529
115	114
397	396
232	231
587	586
95	94
336	335
76	75
587	586
83	82
130	129
68	67
216	215
125	184
222	236
186	185
648	647
108	107
66	65
70	69
217	245
221	220
181	180
201	200
150	149
288	287
215	148
256	268
562	828
88	87
165	164
55	54
124	127
84	83
467	548
548	547
213	213
355	354
282	366
85	84
374	373
95	94
756	890
217	216
950	949
570	608
462	461
221	220
217	216
441	440
288	368
107	106
259	258
490	489
609	1464
857	1464
208	207
518	562
876	875
241	240
181	180
125	160
93	87
963	1252
311	430
762	761
377	376
105	84
217	216
359	358
453	452
543	542
420	419
397	396
333	332
268	267
430	429
402	401
261	260
401	400
181	180
142	141
201	200
386	385
124	216
210	209
117	106
359	555
168	199
195	296
103	237
369	550
183	182
112	111
129	128
89	88
452	451
280	320
286	285
253	252
557	556
432	431
102	101
154	153
108	109
215	305
581	580
324	323
168	167
486	485
510	509
614	613
101	100
185	184
181	180
326	325
852	908
446	445
167	166
601	600
221	220
148	147
55	54
221	220
406	405
200	199
611	610
217	216
165	164
152	151
401	400
715	714
507	506
181	180
146	145
215	214
144	143
121	120
298	297
108	107
105	125
34	32
239	238
229	228
261	260
261	260
190	189
496	505
196	196
221	220
423	422
305	304
220	219
175	174
94	93
140	139
138	168
52	51
270	309
116	150
332	331
393	392
407	406
290	337
391	518
93	92
183	182
64	63
207	206
275	274
170	169
191	205
311	310
184	183
70	210
158	215
176	175
160	159
164	163
251	250
464	770
335	782
70	112
189	188
162	161
715	714
437	436
95	94
61	60
384	394
252	251
274	273
392	391
317	316
294	293
91	90
86	85
294	536
516	895
137	136
79	78
197	196
335	334
287	286
76	75
312	311
141	140
295	294
443	442
513	512
388	387
205	204
1148	1147
382	381
315	314
240	239
333	326
417	416
211	210
92	91
81	80
307	306
413	412
566	565
245	244
286	285
832	831
346	345
362	361
416	415
109	108
322	321
419	418
109	108
413	412
401	400
812	811
120	119
124	123
472	471
295	294
419	418
197	277
82	111
255	254
309	308
333	332
73	72
672	671
310	309
254	253
324	323
86	85
44	43
499	575
170	169
284	283
123	122
304	303
366	365
292	291
278	277
339	338
264	263
299	298
475	474
300	299
192	191
150	149
142	141
208	207
301	300
351	350
167	166
220	219
296	295
454	453
468	467
409	408
396	395
279	278
256	255
192	213
96	95
112	111
235	234
104	114
268	267
234	233
160	159
112	111
760	759
317	316
668	667
333	332
192	191
660	659
180	179
392	391
291	349
331	629
413	432
119	118
376	375
67	66
233	232
672	671
116	115
177	177
238	237
77	76
345	344
99	98
167	209
191	190
157	156
354	353
383	401
120	119
249	248
430	429
209	208
346	345
213	212
689	688
514	513
619	680
120	119
51	50
64	63
161	164
180	179
111	110
416	463
489	488
201	200
257	455
244	273
1134	2693
1337	2693
331	330
725	724
72	71
491	490
393	392
207	206
209	218
225	224
373	372
223	335
113	112
385	384
144	143
759	770
491	1653
1165	1653
282	281
172	258
72	94
428	427
67	66
112	111
617	616
172	171
108	107
129	128
405	404
163	162
247	246
268	267
285	284
427	426
380	379
141	140
235	290
57	56
354	353
333	332
510	509
328	327
883	1093
209	208
275	274
110	165
153	172
252	271
397	396
113	112
445	445
238	237
461	460
1347	1347
519	518
208	207
212	211
283	282
76	86
127	126
244	243
187	221
302	301
227	226
325	324
600	599
160	159
319	318
217	216
192	191
118	117
440	540
246	245
344	352
88	415
294	293
196	195
128	127
230	229
346	345
132	139
233	232
887	886
452	451
91	90
433	432
85	84
237	236
616	692
244	243
327	326
246	245
114	113
387	386
374	373
357	356
121	120
173	172
409	408
105	104
116	115
256	255
183	182
83	82
454	453
289	288
414	413
198	197
293	292
554	553
114	113
97	96
150	149
166	173
410	409
101	102
299	304
620	578
250	344
104	103
206	392
270	494
439	601
114	101
177	176
89	191
99	92
123	122
157	156
93	92
136	135
417	416
886	885
175	174
255	254
222	221
64	163
117	116
81	80
117	116
79	78
99	98
105	104
110	109
326	325
356	355
483	482
427	426
467	466
221	220
150	149
53	52
100	99
175	174
135	134
150	149
115	114
110	109
82	81
137	136
715	714
224	313
79	78
332	370
355	354
331	330
395	394
178	207
112	111
177	176
391	390
513	512
236	235
371	370
172	171
519	518
138	137
189	188
264	228
62	61
877	876
167	166
354	353
166	165
86	79
349	348
188	187
320	319
124	123
260	259
98	119
258	257
86	85
237	321
505	504
480	479
371	377
72	71
162	235
523	637
176	175
68	67
116	112
140	139
156	155
137	136
256	255
181	180
570	569
308	307
601	608
204	203
154	153
117	116
291	290
91	90
374	373
337	336
693	692
143	142
115	114
52	51
37	36
730	853
219	218
256	255
303	302
219	238
213	212
54	62
210	258
455	454
348	347
184	183
331	330
380	379
209	208
254	253
350	349
160	159
237	236
104	103
108	107
202	201
476	475
303	302
346	345
35	34
51	50
245	244
571	570
43	42
569	568
122	121
424	423
87	86
192	191
287	286
260	259
470	469
485	484
227	226
483	484
235	311
258	256
64	51
248	247
506	505
457	456
205	231
255	325
336	335
224	223
36	35
291	290
433	432
546	545
122	121
137	148
745	1178
434	433
919	918
447	446
447	446
136	135
315	325
150	149
261	260
110	109
182	181
283	282
455	454
430	429
456	455
282	281
383	382
216	215
439	438
489	591
110	120
473	472
62	63
67	103
241	240
367	366
132	131
306	305
76	75
402	401
148	147
269	268
366	365
38	97
101	166
513	514
446	445
222	221
319	364
233	252
164	163
269	319
466	651
127	255
714	790
788	787
169	194
254	260
463	591
35	102
274	273
178	175
252	241
302	325
254	257
358	596
215	276
141	140
150	149
405	404
193	299
155	382
751	1051
68	109
479	536
389	472
111	110
56	81
531	586
360	359
179	178
107	106
194	259
266	389
316	315
199	198
392	391
372	509
135	151
275	274
418	417
444	443
609	608
861	926
85	179
232	232
963	962
1123	1122
108	107
126	125
188	187
157	156
265	264
292	291
105	96
510	748
144	164
177	176
49	48
230	229
238	237
73	72
347	346
268	407
131	130
720	719
344	343
421	420
337	311
231	230
473	472
254	253
279	278
394	393
410	409
117	116
766	765
451	451
593	592
396	395
399	398
404	403
462	461
311	310
507	541
37	32
160	159
177	176
1033	1032
443	442
260	259
501	956
452	956
467	466
439	438
190	189
162	257
105	150
163	162
640	639
483	482
42	41
183	182
347	346
146	145
294	293
578	577
237	236
265	264
174	173
66	93
70	69
89	88
327	326
220	219
67	98
439	477
161	153
814	957
130	129
365	364
401	400
393	392
442	441
193	192
110	109
201	200
411	410
220	219
77	76
298	297
352	351
299	298
247	246
212	211
287	286
360	359
388	387
340	339
144	143
193	192
236	235
226	225
226	225
238	237
170	169
63	62
426	425
463	462
148	147
303	302
664	663
253	252
307	306
244	243
659	658
385	384
465	464
184	183
236	235
64	63
179	178
247	246
212	211
139	138
327	326
126	125
72	82
173	172
97	96
198	197
379	378
256	323
236	242
82	98
240	239
109	108
240	239
167	204
181	180
92	91
360	359
419	418
712	711
236	235
207	217
164	167
82	81
54	53
162	161
58	57
148	147
367	806
453	860
220	247
102	101
78	77
76	75
294	293
61	60
155	174
122	177
149	51
137	136
128	127
190	189
65	64
69	68
191	190
72	71
69	68
327	339
291	290
277	318
697	756
66	65
860	838
152	151
513	512
116	115
98	98
273	272
162	161
159	158
74	73
123	122
163	162
66	65
289	288
88	87
109	108
90	90
251	250
348	347
100	99
126	125
167	166
126	125
100	99
189	189
74	73
267	266
109	108
249	248
87	86
187	186
143	142
122	121
302	301
398	397
575	593
82	88
207	259
261	231
214	218
258	215
169	178
734	733
1296	1299
56	192
123	122
384	383
273	272
152	151
154	153
187	187
56	55
83	90
72	71
123	122
81	80
331	330
304	350
307	306
110	109
142	196
203	207
245	244
222	289
93	139
107	369
246	237
237	236
270	269
403	402
91	227
292	291
306	305
142	141
117	116
184	176
161	205
507	510
98	102
125	124
190	189
69	68
54	53
109	112
411	496
79	78
218	256
270	300
421	447
325	329
242	243
117	118
152	151
78	77
273	272
162	161
159	158
74	73
215	214
83	114
126	125
65	70
66	65
282	281
77	103
247	246
52	51
328	327
383	382
559	558
247	246
676	675
390	389
277	295
252	251
268	261
101	100
364	415
164	171
223	238
225	224
259	258
179	178
368	392
326	325
202	201
124	123
188	187
152	151
408	407
282	340
228	227
687	686
281	280
137	136
270	269
1519	1518
305	304
257	248
724	723
135	134
408	407
83	147
269	268
500	499
228	224
319	318
71	70
85	84
470	576
305	304
83	82
391	390
202	359
159	129
239	294
110	109
154	186
128	278
152	278
450	449
257	256
233	232
108	109
104	103
500	499
620	619
289	288
83	82
114	113
163	162
165	164
568	567
393	392
329	328
373	372
96	95
296	295
104	103
174	173
201	200
221	220
165	164
295	294
142	141
245	244
396	395
234	233
319	318
54	53
332	331
276	275
309	308
86	85
487	724
267	279
84	78
166	249
491	490
57	50
229	232
337	336
328	327
161	160
435	434
471	470
246	245
169	175
495	752
88	87
536	535
161	160
131	130
220	219
321	320
129	128
237	236
160	159
123	122
66	65
105	104
296	295
306	305
361	349
115	114
61	127
129	203
228	227
714	713
518	630
89	86
112	111
99	98
276	275
141	140
127	170
31	30
494	493
224	223
387	386
236	397
363	416
223	222
224	223
272	271
258	257
57	56
188	187
841	840
247	246
350	349
218	217
100	99
67	66
210	209
520	508
478	477
947	946
434	433
207	206
413	412
274	273
123	122
206	205
311	310
304	303
202	201
488	487
338	337
72	71
169	168
173	311
217	216
458	457
159	158
169	168
255	254
112	121
65	207
115	119
314	506
83	90
497	496
66	65
46	45
328	327
44	94
610	676
373	397
150	149
478	477
357	356
784	783
391	391
295	294
139	138
105	104
379	378
168	167
231	230
329	328
322	321
415	414
109	108
65	64
496	495
471	470
433	432
259	258
221	220
128	127
123	122
36	55
67	82
135	134
100	99
161	160
175	194
123	122
299	298
234	233
55	54
437	436
444	443
111	110
354	355
130	129
75	783
687	686
141	158
199	268
64	63
444	443
330	329
313	312
382	381
226	286
72	91
257	256
433	432
524	523
112	111
155	154
89	88
187	186
139	138
298	378
158	157
260	259
245	244
145	144
378	377
385	384
287	286
159	158
268	267
264	263
238	237
288	287
679	678
132	131
197	196
192	191
86	101
261	217
212	211
173	172
148	147
101	100
168	167
175	174
332	331
293	292
288	276
63	60
415	414
630	629
296	295
712	711
70	69
315	314
134	133
283	282
611	890
336	335
145	151
151	150
448	447
396	458
106	244
111	110
446	445
283	282
648	647
210	209
98	97
159	158
478	477
391	390
322	321
86	85
104	103
324	323
93	92
420	419
90	89
98	97
223	222
175	174
261	260
270	269
326	325
294	293
46	45
189	188
192	191
186	185
146	190
478	477
96	95
164	163
285	284
91	90
211	210
243	242
95	94
101	100
779	778
310	309
77	78
681	1517
688	1486
473	472
155	154
213	291
230	229
497	496
298	297
261	260
166	165
213	212
131	130
143	142
376	375
133	132
54	53
412	455
356	355
313	312
157	156
88	87
91	90
656	655
311	310
68	67
310	309
482	481
167	166
1101	1100
273	272
78	95
154	153
198	197
163	162
368	367
348	347
647	646
325	324
157	156
450	449
294	348
187	228
126	90
330	329
201	200
299	298
297	296
285	284
272	271
319	318
81	80
484	483
294	293
322	321
99	98
200	191
554	553
119	118
51	50
148	147
98	97
66	112
41	66
372	411
187	186
389	388
282	281
115	114
590	589
71	70
65	64
337	354
237	236
95	94
310	309
409	408
284	283
60	59
221	220
386	385
507	502
347	841
193	192
74	73
342	341
158	187
237	236
368	367
253	252
85	84
185	184
86	85
273	272
173	190
181	180
158	157
375	374
170	169
316	315
430	429
459	458
138	137
73	72
142	141
123	122
128	127
330	329
207	206
130	129
119	118
39	38
444	443
145	144
60	59
168	167
118	117
178	177
131	130
102	101
180	179
105	104
124	123
85	84
64	63
137	136
234	233
111	110
93	92
105	142
87	104
202	201
210	209
104	103
140	139
486	489
272	271
651	650
494	493
399	398
146	145
170	169
126	125
196	195
131	186
111	183
388	387
123	122
57	56
172	171
159	158
901	900
395	394
705	704
125	124
88	102
96	95
120	119
129	128
241	240
271	270
73	72
197	196
67	66
237	244
378	348
77	76
108	107
638	637
302	301
73	72
136	141
144	143
135	134
211	210
697	696
407	406
188	187
201	200
56	55
191	190
394	393
848	847
112	108
269	268
174	173
287	286
56	55
362	361
435	434
103	108
293	292
409	408
388	387
121	120
306	305
335	334
253	252
226	225
239	238
429	428
363	362
226	225
268	386
140	191
79	78
147	146
169	168
260	259
851	850
187	186
364	505
360	363
223	222
134	133
293	292
383	382
294	574
230	352
58	57
541	540
451	450
240	239
159	158
774	773
76	75
774	773
79	78
121	120
257	256
228	227
192	191
439	438
552	550
80	79
798	797
902	901
149	148
112	111
253	252
277	276
109	108
502	501
105	99
256	255
161	300
247	333
80	129
816	815
377	462
432	431
658	657
291	290
407	493
48	47
384	383
198	197
401	400
75	74
526	698
78	177
447	446
176	175
332	331
232	231
346	345
163	162
578	577
104	146
248	247
357	356
282	281
296	295
439	438
238	237
81	113
169	168
426	425
309	308
397	396
128	127
176	175
89	88
368	367
285	284
353	352
223	222
455	498
199	198
90	89
120	119
209	208
733	732
82	81
222	221
186	185
420	419
350	349
196	195
59	58
525	524
315	314
278	277
255	254
269	268
134	133
32	31
249	248
158	157
94	93
453	452
503	502
90	89
280	283
375	374
192	213
721	911
356	355
355	354
411	393
500	499
112	111
145	144
490	489
251	250
681	680
281	280
451	450
72	71
140	139
92	91
179	236
86	85
92	91
343	342
661	660
278	277
446	445
165	164
208	207
319	318
257	256
192	191
113	112
111	110
191	190
176	175
110	109
339	338
474	504
482	1037
73	73
77	76
91	211
275	274
144	143
324	320
196	195
241	265
550	549
201	200
324	323
338	337
441	440
327	350
294	276
256	255
310	309
499	498
429	428
663	662
1158	1157
369	368
770	769
489	872
207	398
186	185
251	250
63	62
457	519
51	65
64	63
544	559
36	35
36	35
36	35
424	423
335	334
328	327
301	300
340	339
523	535
388	394
192	213
403	402
216	219
172	171
147	146
778	777
220	219
325	324
237	236
97	96
71	70
51	50
690	689
304	303
100	99
332	331
146	145
114	113
485	484
441	440
331	330
514	513
394	393
393	392
275	274
677	676
418	417
158	157
244	270
333	332
155	154
178	211
127	306
156	155
426	425
329	328
499	498
221	220
287	286
232	231
272	271
467	466
100	119
559	657
293	333
219	220
432	431
362	361
580	614
36	66
114	226
308	303
190	189
379	378
121	120
264	314
374	465
371	382
219	251
70	69
227	226
359	211
1078	1447
552	551
167	230
416	396
158	157
274	273
340	339
156	155
84	83
144	143
515	514
420	419
275	274
345	344
342	341
399	398
311	310
349	348
320	319
422	421
358	357
314	299
233	232
315	299
115	114
216	264
360	359
312	311
266	265
375	374
314	340
329	313
114	113
160	159
174	173
96	95
56	55
79	78
145	157
407	406
153	152
199	198
214	213
73	78
167	211
245	244
44	43
206	205
561	560
208	207
92	91
122	121
582	644
230	229
694	693
347	346
70	69
464	463
570	569
227	226
311	310
287	286
284	283
364	363
105	104
157	156
518	517
773	772
461	460
94	93
302	301
287	286
430	421
379	378
76	75
181	180
287	286
233	238
307	264
155	154
256	254
195	194
255	254
58	57
201	200
212	211
117	90
280	279
116	115
260	259
166	165
338	337
235	234
421	420
236	235
79	78
121	120
565	564
141	140
92	91
117	116
145	144
91	89
226	225
169	159
192	191
261	260
234	233
70	69
128	127
190	189
66	65
69	68
201	200
291	290
291	290
949	948
53	52
273	272
58	57
158	157
159	158
69	68
38	37
126	125
126	125
163	162
66	65
282	281
308	307
140	139
128	127
98	97
413	412
120	119
108	107
151	150
445	444
413	426
153	152
460	459
440	439
501	500
197	196
122	141
174	286
97	96
563	562
395	394
166	165
121	120
116	115
136	135
250	392
121	120
572	571
289	288
554	553
55	54
89	88
138	137
68	86
405	416
367	366
431	430
383	382
206	205
293	292
230	229
219	218
271	270
133	132
805	804
358	357
367	366
468	467
47	46
120	181
549	548
455	454
472	471
401	415
392	391
324	323
49	69
201	200
189	188
446	445
222	221
156	155
196	195
241	240
359	358
539	538
465	464
625	624
231	230
242	241
258	257
297	296
320	319
347	346
610	609
457	456
140	139
461	460
288	287
514	513
178	177
157	156
80	79
272	271
128	127
208	207
630	629
148	147
153	152
331	330
484	483
499	498
84	83
537	622
140	139
502	501
322	321
297	296
310	309
331	330
476	475
231	230
85	84
280	279
113	112
507	506
549	548
88	87
188	187
140	139
896	1000
235	241
305	304
492	491
94	93
674	673
495	494
362	361
110	109
420	419
335	334
66	65
284	344
332	331
421	420
356	355
294	293
117	224
95	177
367	376
417	416
95	94
241	359
256	488
212	253
247	246
462	461
412	411
465	464
197	196
399	398
363	405
247	246
321	320
849	848
107	106
78	77
68	67
42	34
253	274
236	235
141	140
158	161
239	238
397	396
342	369
301	300
255	254
317	316
127	126
297	296
156	155
290	289
612	611
207	206
287	286
207	206
341	340
267	266
300	299
318	317
754	753
186	185
503	502
85	156
599	665
164	202
108	125
143	230
92	148
408	407
130	129
319	318
368	474
128	238
520	519
287	286
173	176
32	31
270	269
255	254
497	496
169	168
325	324
210	209
335	334
256	255
476	475
252	251
202	201
547	546
90	89
172	171
259	258
261	260
163	162
165	162
308	372
234	233
388	387
730	729
444	443
205	204
109	108
367	366
182	181
74	81
109	108
87	86
170	169
106	106
218	217
208	181
95	107
259	258
754	753
392	391
89	88
109	108
252	251
500	499
94	93
553	507
119	118
93	92
116	115
86	85
248	252
119	118
218	217
173	172
173	172
264	263
455	656
169	168
122	121
38	37
241	307
70	69
247	246
326	325
107	106
214	213
56	55
68	66
102	101
158	132
125	148
92	91
215	214
324	323
131	130
78	77
331	330
146	145
83	82
173	172
407	406
285	284
266	265
391	390
68	67
228	227
74	73
145	144
257	256
142	141
141	140
64	63
176	175
78	77
653	652
145	144
240	239
71	70
98	97
274	273
170	169
128	127
229	228
76	75
93	119
104	103
189	188
224	223
289	286
203	220
197	196
107	106
84	83
172	171
74	73
158	157
154	153
389	387
494	876
102	101
211	210
331	330
97	101
213	212
251	264
367	421
86	85
197	196
114	113
112	111
78	77
182	181
96	95
111	111
146	145
158	289
161	165
644	643
311	310
160	159
244	243
214	213
43	46
605	681
67	66
125	124
230	290
605	1756
1066	1046
123	122
184	229
187	186
168	167
70	69
197	196
87	86
286	285
235	234
53	52
169	168
254	253
647	646
176	175
118	195
319	325
428	427
332	376
232	231
147	161
162	161
248	247
168	167
82	93
