85	84
280	279
113	112
507	506
549	548
88	87
188	187
140	139
663	616
479	514
320	319
492	491
94	93
674	673
47	46
340	451
110	107
362	361
110	109
420	419
335	334
66	65
284	344
332	331
133	130
293	307
356	355
294	293
225	224
377	376
417	416
241	359
451	450
247	246
431	430
412	411
465	464
109	196
100	195
399	398
366	399
37	31
247	246
321	320
215	214
661	848
107	106
78	77
68	67
280	274
236	235
299	298
239	238
721	720
301	300
231	254
317	316
127	126
127	126
297	296
156	155
290	289
612	611
207	206
122	286
125	284
207	206
341	340
267	266
300	299
318	317
754	753
186	185
503	502
666	665
282	281
231	230
408	407
130	129
319	318
492	491
520	519
133	132
109	108
173	176
32	31
270	269
255	254
497	496
169	168
325	324
210	209
297	334
39	86
256	255
476	475
252	251
202	201
547	546
43	65
48	89
172	171
259	258
261	260
163	162
498	497
234	233
388	387
730	729
444	443
205	204
103	108
400	385
182	181
85	84
176	175
195	194
90	89
329	328
91	125
61	75
44	43
408	425
311	310
79	78
224	231
698	928
211	210
170	169
458	457
37	36
470	469
350	349
470	469
608	607
263	262
299	298
293	292
296	295
337	336
478	477
427	449
296	295
200	199
291	290
146	145
314	313
303	302
104	103
97	96
74	73
93	92
73	72
247	246
283	282
81	80
43	41
310	309
212	211
301	300
805	1016
196	195
278	277
182	181
465	464
105	104
275	274
415	414
490	489
279	278
313	312
345	344
207	206
314	313
225	224
458	457
233	232
167	166
301	300
35	34
321	320
330	329
93	251
142	182
256	255
200	199
147	146
100	99
143	142
249	248
337	336
482	496
257	256
32	31
58	57
162	161
309	308
444	443
141	141
252	255
342	341
733	732
71	70
203	202
106	105
387	386
811	810
377	376
356	396
136	135
297	296
664	726
55	54
186	301
112	114
206	205
368	367
221	220
834	833
360	359
107	106
766	765
293	292
114	113
284	283
578	577
884	883
384	383
88	87
261	260
259	258
458	457
306	305
467	466
389	388
439	438
235	234
120	119
367	366
218	225
378	377
286	285
85	84
343	342
322	321
309	308
395	394
128	127
182	181
143	142
235	234
166	165
122	121
1343	1342
1408	1407
378	377
257	256
67	66
252	251
212	211
632	631
159	158
258	257
355	354
224	223
197	196
91	90
149	148
77	89
140	139
279	278
180	179
442	441
430	429
530	529
85	84
128	127
106	129
310	309
534	533
435	439
575	574
275	274
1228	1227
150	149
479	543
230	229
410	409
275	274
266	265
165	164
136	135
269	268
316	315
291	290
81	80
450	449
196	215
335	334
81	43
213	212
246	245
308	261
401	538
53	52
137	136
297	296
515	514
397	396
372	371
201	202
244	277
307	306
166	165
291	290
808	807
123	122
203	202
442	441
70	69
172	171
332	331
81	80
328	327
473	678
207	678
427	426
260	259
431	517
94	202
345	344
472	471
121	120
240	261
160	185
335	334
398	397
915	914
385	384
467	466
390	389
291	290
283	282
175	174
358	357
453	452
607	606
238	237
139	138
119	118
941	940
179	178
94	93
529	528
108	107
155	154
450	449
153	152
406	405
295	294
137	136
230	229
550	549
105	104
653	652
479	478
189	188
224	223
319	318
249	270
269	287
128	127
199	198
438	437
230	229
235	234
279	278
278	277
350	349
523	522
560	715
140	139
494	493
684	683
344	343
92	91
662	661
259	258
52	51
232	231
327	326
172	205
209	214
128	127
312	311
297	296
150	149
119	118
253	252
145	144
119	185
68	67
379	378
227	226
253	252
282	281
355	354
195	194
151	150
145	144
150	173
101	118
339	338
263	262
148	147
112	111
743	742
240	292
85	76
437	500
30	29
89	181
265	265
223	222
548	547
446	445
254	253
754	756
303	302
452	451
217	216
549	548
447	446
240	239
318	317
246	217
77	76
91	90
846	845
231	230
175	174
919	1272
355	431
78	74
197	241
60	59
272	271
249	594
464	700
181	180
91	90
99	98
506	505
486	485
716	715
116	115
328	345
352	351
169	168
192	191
566	565
113	112
434	433
479	478
159	158
419	418
98	97
549	548
118	117
290	289
343	342
189	188
42	41
49	48
106	105
178	177
335	334
120	119
132	131
245	244
521	520
71	70
326	325
486	500
101	100
1097	1107
200	218
130	141
88	87
263	259
182	181
324	379
279	307
197	188
154	153
444	443
439	438
155	244
317	316
103	102
427	426
420	419
335	334
66	65
433	432
142	141
814	813
151	150
104	120
50	49
85	84
233	232
220	219
133	132
213	212
388	387
542	541
92	91
110	109
250	249
252	251
57	56
306	354
226	225
227	226
102	101
155	154
217	216
285	284
229	228
92	91
132	131
105	104
76	75
150	149
164	163
169	168
222	253
426	425
683	690
514	513
228	258
281	280
264	263
236	215
213	212
207	206
471	470
221	220
322	321
287	286
36	35
108	107
648	647
247	246
186	185
69	68
448	447
213	212
578	577
1257	1259
114	113
84	83
105	104
177	176
319	318
501	500
341	340
332	331
175	174
141	140
458	457
184	183
264	271
191	190
129	128
155	154
713	712
552	551
292	291
95	193
101	99
316	315
899	898
129	128
154	153
312	311
132	131
238	237
85	84
151	150
424	423
113	112
335	334
139	138
168	167
399	398
952	951
148	147
504	503
360	359
361	360
560	559
340	339
197	196
92	91
72	71
255	254
300	299
94	190
398	505
148	185
188	337
156	174
222	231
59	58
296	295
31	30
79	78
142	141
117	116
194	194
332	331
338	337
332	387
125	124
302	294
261	260
35	34
219	218
426	425
53	52
300	328
366	365
273	272
101	100
138	137
81	80
86	85
256	255
319	318
333	332
301	300
775	774
318	317
58	57
121	120
70	69
453	452
462	461
116	115
127	126
79	78
145	144
134	133
190	189
69	68
201	200
43	42
306	305
79	78
206	210
553	576
249	248
514	513
407	416
53	52
273	272
158	157
159	158
74	73
38	37
123	122
77	67
142	141
117	116
194	194
332	331
163	162
59	58
52	51
142	141
338	498
181	239
397	396
178	177
402	412
429	428
434	440
259	253
85	84
101	100
211	210
420	419
372	371
214	213
335	334
329	328
314	333
118	115
608	655
320	319
263	262
123	122
120	103
211	210
144	143
269	268
99	217
333	338
93	92
374	373
87	86
249	248
91	183
100	183
86	85
211	210
111	110
261	260
437	436
55	54
234	233
299	298
123	122
175	194
161	160
100	99
135	134
102	101
123	122
128	127
221	220
259	258
433	432
471	470
496	495
65	64
109	108
79	78
351	350
322	321
329	328
231	230
168	167
379	378
105	104
139	138
295	294
391	391
784	783
357	356
478	477
150	149
964	1030
44	94
328	327
46	45
66	65
497	496
507	506
208	207
234	240
169	168
614	613
396	395
169	168
72	71
338	337
488	487
202	201
304	303
311	310
206	205
123	122
274	273
413	412
207	206
434	433
947	946
478	477
520	508
210	209
67	66
218	217
350	349
247	246
841	840
180	187
57	56
258	257
272	271
224	223
223	222
363	416
236	397
387	386
224	223
494	493
31	30
127	170
141	140
276	275
65	98
112	111
631	630
714	713
239	269
328	327
350	349
162	161
121	120
296	295
105	104
194	193
160	159
237	236
129	128
321	320
220	219
131	130
161	160
536	535
84	87
668	752
246	245
471	470
435	434
161	160
328	327
337	336
339	338
491	490
166	249
84	78
267	279
322	561
167	228
86	85
218	216
276	275
332	331
54	53
319	318
234	233
396	395
245	244
142	141
295	294
165	164
347	346
296	295
96	95
373	372
329	328
393	392
568	567
165	164
163	162
114	113
83	82
289	288
620	619
500	499
231	230
233	232
258	257
450	449
275	274
154	186
110	109
239	238
360	359
391	390
83	82
305	304
470	554
85	84
71	70
319	318
228	224
500	499
269	268
83	147
408	407
135	134
724	723
251	248
305	304
1519	1518
270	269
137	136
281	280
524	686
165	164
228	227
282	340
408	407
152	151
188	187
124	123
202	201
326	325
368	392
179	178
259	258
225	224
192	230
164	171
204	212
130	167
101	100
268	261
154	251
277	295
390	389
659	675
247	246
559	558
383	382
328	327
52	51
247	246
132	131
282	281
66	65
65	70
126	125
123	122
215	214
74	73
159	158
162	161
273	272
78	77
152	151
358	357
590	1042
142	141
117	116
194	194
332	331
182	266
178	217
218	256
79	78
155	202
190	371
191	190
69	68
174	173
128	127
103	102
513	512
161	253
184	176
117	116
142	141
306	305
292	291
491	490
270	269
237	236
246	237
95	102
93	139
80	289
143	175
245	244
203	207
142	196
122	121
302	301
304	350
331	330
81	80
120	119
72	71
83	90
68	67
187	187
154	153
152	151
273	272
384	383
123	122
56	192
500	1282
781	1295
734	733
169	178
218	215
135	218
158	259
261	231
316	315
575	593
398	397
143	142
187	186
87	86
249	248
109	108
59	58
187	186
74	73
189	189
100	99
126	125
348	347
251	250
90	90
236	235
712	711
419	418
360	359
92	91
181	180
167	169
240	239
109	108
240	239
123	122
236	242
336	335
434	433
168	167
329	328
379	378
198	197
97	96
189	188
235	234
327	326
139	138
188	187
247	246
179	178
64	63
236	235
152	151
465	464
385	384
659	658
244	243
307	306
253	252
664	663
247	231
148	147
463	462
426	425
259	258
170	169
238	237
226	225
226	225
236	235
193	192
144	143
340	339
388	387
360	359
287	286
212	211
247	246
92	91
98	97
104	103
216	351
125	137
298	297
77	76
220	219
411	410
201	200
110	109
203	192
442	441
393	392
401	400
365	364
130	129
822	957
148	153
478	477
67	98
220	219
327	326
89	88
70	69
66	93
174	173
265	264
237	236
229	215
348	407
366	365
506	505
183	182
42	41
483	482
631	639
163	162
105	150
341	392
439	438
467	466
452	956
501	956
260	259
443	442
1033	1032
177	176
92	91
126	125
160	159
37	32
507	541
311	310
462	461
404	403
399	398
396	395
593	592
451	451
766	765
117	116
410	409
394	393
279	278
254	253
473	472
231	230
312	311
421	420
344	343
720	719
75	74
279	334
44	43
347	346
73	72
238	237
230	229
49	48
177	176
749	748
292	291
265	264
157	156
188	187
136	135
108	107
1123	1122
822	962
158	157
232	232
85	179
855	926
609	608
444	443
418	417
275	274
152	151
372	509
364	362
199	198
316	315
266	389
194	259
107	106
179	178
360	359
587	586
111	110
138	158
240	353
88	126
546	545
601	600
249	248
514	513
441	559
405	404
150	149
201	200
585	699
254	257
269	325
355	401
178	175
274	273
793	792
169	194
788	787
714	790
879	878
164	163
172	186
399	451
222	221
446	445
513	514
101	166
38	97
366	365
269	268
148	147
161	200
255	254
76	75
306	305
132	131
367	366
241	240
138	137
473	472
573	591
439	438
216	215
383	382
282	281
456	455
430	429
455	454
283	282
182	181
110	109
261	260
150	149
315	325
136	135
447	446
447	446
919	918
434	433
745	1178
165	148
88	121
546	545
433	432
291	290
36	35
90	137
150	202
336	335
468	469
457	456
506	505
165	247
64	51
493	492
426	425
262	261
485	484
470	469
260	259
287	286
192	191
87	86
424	423
122	121
600	599
571	570
245	244
51	50
35	34
346	345
303	302
476	475
202	201
108	107
104	103
237	236
160	159
350	349
254	253
209	208
380	379
331	330
98	183
348	347
455	454
210	258
54	62
213	212
209	224
219	238
303	302
256	255
219	218
854	853
115	114
143	142
693	692
337	336
374	373
91	90
291	290
117	116
154	153
204	203
601	608
308	307
570	569
181	180
214	239
137	136
151	155
140	139
146	145
176	175
523	637
162	235
72	71
378	377
435	479
47	46
505	504
237	321
86	85
258	257
120	119
260	259
124	123
320	319
188	187
362	361
120	79
166	165
354	353
167	166
793	792
93	92
62	61
217	145
189	188
138	137
519	518
172	171
371	370
236	235
513	512
391	390
177	176
112	111
178	207
395	394
331	330
355	354
401	400
320	319
268	348
435	714
137	136
82	81
110	109
115	114
150	149
135	134
175	174
100	99
53	52
150	149
221	220
467	466
427	426
483	482
356	355
326	325
166	173
150	149
97	96
114	113
554	553
293	292
198	197
137	147
278	277
289	288
454	453
83	82
183	182
256	255
116	115
128	160
409	408
173	172
122	121
357	356
374	373
387	386
114	113
246	245
327	326
244	243
50	49
799	798
85	84
433	432
91	90
452	451
230	229
653	652
233	232
140	139
346	345
230	229
128	127
196	195
148	150
136	280
206	220
243	242
246	245
541	540
192	191
217	216
319	318
160	159
600	599
325	324
227	226
302	301
243	242
244	243
127	126
87	86
283	282
212	211
168	167
519	518
1347	1347
461	460
238	237
445	445
113	112
397	396
418	417
398	397
213	208
883	1093
328	327
510	509
333	332
354	353
57	56
235	290
141	140
380	379
427	426
285	284
268	267
247	246
163	162
134	133
265	264
129	128
108	107
172	171
617	616
112	111
67	66
428	427
72	94
172	258
282	281
135	134
1520	1653
759	770
144	143
385	384
336	335
373	372
425	424
207	206
393	392
48	47
454	490
72	71
725	724
331	330
2694	2693
313	455
144	154
489	488
526	525
180	179
172	171
64	63
51	50
120	119
280	408
359	408
514	513
689	688
213	212
346	345
160	186
430	429
249	248
120	119
399	401
354	353
157	156
191	190
293	292
345	344
77	76
238	237
288	287
672	671
233	232
67	66
376	375
119	118
497	1037
542	541
549	548
660	659
192	191
333	332
668	667
249	248
760	759
112	111
160	159
234	233
268	267
104	114
235	234
112	111
96	95
192	213
256	255
279	278
396	395
409	408
468	467
454	453
296	295
220	219
167	166
351	350
301	300
208	207
142	141
150	149
192	191
300	299
475	474
299	298
264	263
339	338
278	277
292	291
366	365
304	303
123	122
284	283
170	169
499	575
44	43
86	85
324	323
254	253
333	332
672	671
73	72
333	332
309	308
255	254
82	111
197	277
218	217
202	233
295	294
472	471
124	123
120	119
812	811
361	360
48	47
413	412
109	108
419	418
322	321
109	108
416	415
362	361
346	345
832	831
286	285
245	244
566	565
413	412
307	306
81	80
92	91
211	210
417	416
565	564
315	314
382	381
791	969
358	422
205	204
388	387
513	512
132	131
314	219
295	294
141	140
275	263
76	75
287	286
335	334
197	196
137	136
516	895
400	536
294	293
317	316
392	391
274	273
252	251
447	446
95	94
437	436
715	714
162	161
189	188
70	112
335	782
464	770
251	250
164	163
160	159
176	175
70	210
184	183
311	310
362	361
275	274
185	184
64	63
183	182
93	92
392	518
290	337
407	406
393	392
184	183
129	128
309	378
338	337
271	270
86	71
143	219
305	304
423	422
221	220
163	162
506	505
190	189
116	118
104	112
261	260
229	228
239	238
34	32
196	195
298	297
121	120
144	143
215	214
146	145
181	180
507	506
515	714
175	174
401	400
152	151
165	164
217	216
611	610
200	199
406	405
313	312
148	147
221	220
601	600
167	166
446	445
909	908
326	325
181	180
185	184
101	100
614	613
510	509
486	485
168	167
324	323
581	580
306	305
66	65
95	124
102	101
432	431
557	556
253	252
286	285
280	320
452	451
89	88
129	128
112	111
183	182
369	550
103	237
201	194
133	132
405	555
117	106
323	322
71	70
285	385
201	200
142	141
181	180
159	162
242	400
261	260
402	401
430	429
268	267
74	73
332	331
397	396
360	419
543	542
453	452
359	358
217	216
105	84
377	376
762	761
311	430
235	526
604	1252
126	247
241	240
876	875
563	562
149	148
927	1534
609	1464
550	549
259	258
107	106
174	238
118	117
441	440
217	216
221	220
462	461
609	608
950	949
217	216
764	890
95	94
374	373
367	366
355	354
207	196
548	547
549	548
163	162
55	54
165	164
88	87
562	828
256	268
232	231
288	287
150	149
201	200
179	180
221	220
246	245
70	69
66	65
108	107
648	647
186	185
351	350
216	215
68	67
130	129
83	82
587	586
76	75
336	335
95	94
185	204
352	364
232	231
397	396
115	114
530	529
342	341
365	364
605	604
519	518
189	188
238	237
329	328
489	488
191	190
85	84
394	393
377	376
313	312
564	563
314	313
313	312
56	55
351	407
233	232
314	313
363	362
286	285
350	349
294	293
490	489
447	446
223	222
279	278
223	222
339	385
347	346
333	332
507	506
337	336
412	411
413	412
80	79
203	239
295	294
195	194
36	39
133	132
317	316
479	508
254	253
193	192
196	195
314	310
295	294
289	288
756	755
306	305
347	385
309	308
244	243
36	35
244	243
562	561
240	239
157	156
154	153
165	164
385	554
111	110
64	104
91	316
208	316
760	759
363	362
62	61
225	224
540	1210
289	381
81	80
1254	1253
1267	1266
678	677
370	369
94	93
181	180
225	224
827	826
130	129
215	214
113	112
275	274
72	70
263	262
267	266
273	272
249	248
242	233
94	137
335	334
419	418
331	350
285	284
421	420
151	150
95	94
230	229
222	221
347	346
260	259
300	299
126	125
454	453
70	69
241	240
298	297
125	150
506	471
1026	1497
1041	1040
416	415
166	188
55	54
254	253
647	646
130	129
333	332
283	282
153	162
954	1105
214	213
194	193
618	617
400	411
129	127
380	379
148	147
721	720
280	279
163	162
406	405
407	406
249	248
183	182
374	373
322	321
161	160
302	301
122	121
479	478
297	296
152	151
465	464
493	492
316	426
407	406
131	130
354	464
298	297
146	168
227	253
300	299
293	292
181	180
420	419
322	321
223	222
207	337
206	219
134	134
167	163
166	189
186	185
469	468
389	388
326	325
86	84
204	203
259	258
246	245
197	196
356	355
357	356
435	434
300	299
84	83
85	84
275	274
128	120
190	189
453	454
153	152
476	475
389	388
158	157
236	236
92	91
126	125
110	109
110	109
65	64
125	124
123	122
215	214
74	73
159	158
158	157
82	81
191	256
332	331
194	194
117	116
142	141
37	42
137	136
90	89
249	248
321	320
192	206
73	125
129	178
238	266
302	301
795	794
78	78
68	69
722	721
330	329
353	352
256	255
86	85
382	381
156	131
318	317
173	172
201	200
69	68
51	52
399	398
67	66
174	173
134	133
146	172
238	238
345	344
322	321
253	252
242	241
148	147
39	38
244	250
175	174
399	398
218	217
408	407
215	214
43	42
393	392
314	313
181	180
248	247
84	90
269	308
312	311
306	305
317	316
485	484
160	159
485	484
439	438
351	350
159	158
421	420
51	82
154	249
674	673
526	525
268	267
126	125
1912	2234
1347	1346
1703	2035
334	333
320	319
571	600
601	600
427	426
435	434
421	420
266	265
217	216
333	435
212	211
335	334
138	137
256	255
453	452
284	283
372	371
30	29
232	231
473	472
157	156
307	306
306	305
61	60
565	564
219	271
68	67
76	75
63	62
159	207
41	40
262	261
90	89
246	245
122	121
138	137
335	334
155	154
325	375
64	63
148	147
296	300
142	154
229	228
332	331
553	552
105	104
111	110
184	183
83	82
183	182
90	89
128	130
40	39
40	39
402	401
138	137
496	495
122	121
137	136
472	471
350	349
240	239
184	183
286	285
329	328
223	222
251	250
241	240
75	74
219	218
611	610
183	182
339	338
88	87
61	60
190	189
215	293
523	738
107	106
138	137
77	76
159	158
75	74
252	251
277	471
181	471
137	136
79	78
104	103
75	74
39	38
74	73
263	262
296	307
104	114
117	141
202	201
163	162
78	77
214	213
79	59
199	198
98	97
224	223
128	127
91	90
121	159
82	81
189	188
284	626
314	314
78	77
183	216
268	308
143	369
284	435
110	109
345	344
140	139
112	126
227	226
179	178
301	300
130	129
307	306
209	208
395	394
130	129
167	185
325	388
171	170
42	93
350	546
186	243
130	129
75	74
258	257
55	54
140	139
222	221
404	403
80	79
166	165
108	107
84	83
168	167
330	329
505	504
329	328
267	266
475	474
143	142
117	116
193	192
296	295
309	308
266	259
369	368
168	167
554	553
40	39
287	286
186	185
160	159
130	129
215	214
150	149
234	262
693	692
131	130
578	577
189	188
222	221
126	125
92	91
379	378
810	809
324	323
248	247
132	131
191	190
112	111
88	89
99	153
505	590
148	147
247	246
174	173
201	200
188	187
337	336
65	64
201	200
262	261
252	251
329	328
441	440
332	331
481	480
144	187
136	135
50	49
492	491
604	603
214	213
393	392
97	96
119	118
37	36
220	219
537	536
152	157
221	220
46	46
173	164
77	76
125	124
234	290
57	56
118	117
219	218
92	91
79	78
482	481
878	877
428	427
184	183
233	232
683	682
294	293
458	457
264	263
80	79
96	95
70	69
242	269
189	188
153	152
284	283
267	266
324	323
519	518
533	532
455	454
193	192
454	453
60	59
100	99
116	115
127	126
406	534
111	110
232	231
194	193
584	583
372	371
213	212
120	119
61	60
83	82
311	313
85	84
116	115
394	393
273	272
47	46
103	102
147	146
497	496
492	491
428	427
645	644
249	248
163	284
95	97
295	294
332	331
138	137
91	90
359	358
460	459
348	347
279	278
316	315
327	326
253	252
177	173
276	316
214	213
339	338
237	236
619	618
184	183
277	347
64	63
133	142
535	651
448	447
91	90
136	135
207	206
436	435
218	217
512	511
389	388
183	182
235	234
226	225
237	236
269	268
407	406
345	344
474	473
61	60
388	427
323	322
162	161
192	191
296	295
276	275
113	112
107	106
453	452
117	116
280	279
454	453
203	169
754	753
88	87
464	463
197	196
223	222
179	178
262	215
97	96
342	341
253	252
36	35
96	95
643	642
145	144
66	65
119	118
328	327
796	795
100	99
327	326
184	183
250	249
155	154
238	237
479	478
64	63
349	348
278	277
294	293
495	494
549	566
98	97
430	429
313	312
255	254
304	303
384	383
532	531
253	252
289	288
147	146
292	291
405	404
119	118
233	232
107	106
913	1018
137	136
63	62
123	122
496	495
249	248
424	423
407	406
139	138
335	334
79	78
471	470
70	69
209	208
103	130
191	291
387	386
213	212
223	222
30	29
233	261
255	254
535	534
102	101
419	418
458	457
214	213
77	76
275	274
172	171
223	222
255	310
233	232
92	91
30	29
390	389
194	193
276	275
116	115
216	215
136	135
366	365
200	199
80	79
299	298
174	173
312	311
328	327
286	285
79	78
145	144
156	155
370	369
108	107
219	218
425	424
287	286
202	201
501	500
212	211
232	231
207	206
255	351
109	108
807	628
193	192
166	188
48	48
147	146
72	71
347	346
334	333
391	390
531	530
117	116
111	208
124	134
256	255
193	192
604	603
157	156
302	301
78	77
355	354
503	502
392	391
549	548
468	467
310	309
453	452
242	241
112	111
241	240
461	460
315	314
511	510
463	462
92	91
270	269
122	121
110	109
274	273
103	102
122	216
80	284
205	226
298	297
407	406
232	231
419	418
205	204
155	154
131	130
206	205
246	245
245	244
541	808
168	167
102	101
249	248
187	186
114	113
109	108
405	404
340	339
456	455
487	486
68	67
229	228
207	206
316	371
382	464
297	296
32	31
396	395
300	299
73	72
128	127
145	144
222	221
397	396
294	293
463	462
309	308
96	119
473	472
484	483
305	304
227	250
89	88
381	380
60	59
188	187
237	236
405	425
479	763
177	176
168	167
305	304
723	732
66	65
254	253
561	560
386	385
270	269
467	466
512	511
440	439
381	280
420	426
144	143
72	71
46	45
313	302
254	252
337	336
57	56
95	94
510	509
804	1015
181	180
275	274
463	462
315	301
940	1130
515	514
232	231
227	226
298	297
33	32
282	281
190	189
379	378
500	499
354	353
701	700
79	78
101	100
58	57
150	149
78	77
58	57
475	474
265	264
314	313
338	337
126	131
264	381
333	454
123	140
57	56
668	667
64	45
121	178
299	351
93	99
223	222
198	197
331	330
32	37
296	326
180	179
75	74
536	551
448	447
308	307
98	97
56	55
58	57
177	176
251	257
84	83
220	219
260	254
267	266
485	1300
835	834
98	109
107	119
249	288
39	38
2839	2838
57	56
78	77
109	108
62	61
256	273
618	809
330	329
141	140
89	88
569	1174
594	1174
378	377
145	144
74	73
305	275
458	457
58	57
179	178
154	169
411	410
188	187
121	388
109	281
174	173
343	342
272	271
105	104
67	66
251	250
317	316
86	85
344	343
373	418
166	177
258	257
307	306
213	212
243	242
322	321
169	168
514	513
354	353
466	465
333	332
302	301
361	360
220	219
756	755
352	351
267	262
351	350
281	280
294	293
431	430
560	559
105	104
74	73
120	119
75	74
223	222
326	325
82	81
120	133
369	468
322	321
297	296
331	330
269	268
393	387
408	407
51	118
251	250
781	1035
374	373
189	188
263	262
373	375
645	644
662	661
58	57
150	149
105	104
73	72
109	108
266	265
172	171
219	218
103	102
255	254
197	196
155	154
738	891
56	55
43	42
325	324
866	865
84	83
350	349
253	252
86	85
111	110
103	102
341	340
292	291
632	627
207	206
294	293
219	211
173	194
101	101
532	531
408	452
398	397
269	268
186	185
57	56
90	89
144	143
30	29
262	261
178	177
176	175
477	496
246	245
249	248
321	320
190	206
153	152
72	71
763	1157
323	319
194	193
248	247
233	232
114	113
338	355
710	709
70	69
169	168
214	188
115	114
149	148
117	116
109	108
777	833
74	73
646	645
554	553
179	178
122	121
67	66
72	71
165	164
44	43
178	177
91	90
115	114
72	71
618	617
112	111
350	349
66	65
167	166
127	126
352	351
71	70
222	221
142	141
257	256
249	248
113	112
186	234
142	141
239	238
79	78
43	42
73	72
63	62
64	63
824	823
264	233
213	212
248	247
180	179
133	132
239	238
99	98
418	417
195	213
292	291
110	109
335	334
338	337
303	302
307	306
559	558
54	53
52	51
216	215
841	891
172	171
237	401
206	205
138	137
303	302
338	337
315	314
153	152
281	280
364	363
375	374
63	62
429	428
269	268
339	338
336	335
226	225
237	236
513	512
362	361
877	876
431	404
73	72
278	254
312	336
217	216
465	464
118	117
239	238
80	79
367	366
36	35
285	284
270	269
131	130
278	277
361	360
419	418
208	207
284	283
338	337
551	559
93	92
195	194
364	363
392	391
95	94
164	163
84	83
66	65
46	45
412	411
71	70
190	647
697	885
200	199
123	122
257	358
88	281
300	284
156	155
66	65
134	130
305	304
151	150
180	179
141	140
163	162
90	89
176	175
120	119
112	111
82	81
512	544
87	116
172	171
78	148
257	343
56	55
309	352
216	276
80	79
640	639
357	356
211	210
473	472
566	565
341	340
185	184
143	142
253	252
271	270
285	284
657	656
85	84
245	244
204	203
305	304
579	578
357	356
374	432
62	61
511	510
240	239
505	513
177	176
423	422
140	139
87	86
149	148
220	219
67	66
134	133
123	122
232	231
271	270
89	88
104	103
58	57
95	94
110	109
213	218
121	120
51	50
227	226
83	82
89	88
79	78
204	197
137	136
244	243
135	134
51	50
52	51
253	252
166	206
115	114
276	275
157	153
131	130
286	285
98	97
93	92
674	673
1091	1090
177	209
200	199
233	232
110	109
547	546
220	204
100	99
145	130
141	140
247	246
132	131
82	81
82	81
118	117
133	132
342	341
111	110
440	439
534	533
69	68
656	655
182	181
84	83
61	60
109	108
98	97
154	153
66	65
107	106
102	101
230	229
46	45
121	120
97	96
57	56
152	151
348	347
332	331
194	194
117	116
142	141
989	1421
364	372
234	233
335	334
180	179
77	76
252	251
69	68
99	98
262	261
227	226
61	60
94	93
74	73
109	108
80	79
79	78
309	303
417	416
218	217
154	153
235	234
134	133
214	213
457	456
224	223
462	461
342	373
409	408
128	128
246	245
286	285
265	264
349	348
154	153
263	262
80	79
274	273
304	303
413	412
234	233
400	399
128	312
185	338
1173	1172
320	319
86	85
119	139
144	143
94	98
326	419
181	180
342	341
275	274
214	213
126	125
120	119
730	729
478	477
266	265
335	334
551	550
270	269
414	413
79	78
103	123
163	162
207	264
104	103
318	317
347	346
58	57
174	173
208	207
320	319
1062	1061
318	317
548	547
314	313
325	324
233	232
261	260
252	251
402	401
232	231
135	134
139	138
220	219
98	97
139	138
512	511
308	307
216	215
195	194
403	402
216	215
187	186
348	347
82	81
85	84
373	372
38	37
189	188
71	66
122	121
351	350
307	306
409	408
125	124
76	75
176	175
137	175
529	847
134	145
368	339
386	385
494	493
178	177
104	103
111	110
153	152
152	82
217	216
130	129
139	138
278	277
174	173
185	184
246	245
351	312
76	108
456	455
808	807
284	290
404	471
381	412
138	137
355	354
424	423
376	375
277	276
503	502
70	69
1321	1320
213	212
364	363
260	259
103	128
267	266
40	78
165	164
443	442
58	57
199	198
76	75
414	413
307	306
102	101
200	199
778	848
66	65
391	390
231	230
343	342
891	942
181	367
187	186
58	57
71	70
71	70
437	436
31	30
379	378
515	514
275	285
133	132
196	195
236	235
598	597
373	372
220	219
110	109
93	92
164	244
231	272
106	105
138	137
221	220
77	76
77	76
685	684
149	148
98	93
615	720
205	209
170	169
351	350
151	150
587	586
209	208
56	55
188	187
547	546
216	215
178	209
71	70
555	635
703	702
370	369
181	180
206	189
152	206
192	191
320	319
124	136
241	381
265	264
256	255
871	870
401	400
467	466
363	362
162	181
223	222
216	215
183	182
616	615
1487	1486
235	234
441	440
262	261
260	259
298	297
249	248
61	60
411	410
329	328
583	582
755	754
95	94
558	557
228	227
249	248
130	129
219	149
77	76
87	128
157	166
72	71
99	98
91	90
65	64
177	176
90	89
389	388
590	589
106	105
307	306
103	102
63	62
119	118
255	254
72	71
134	133
243	242
117	116
236	235
217	216
109	108
104	103
182	181
290	289
238	237
499	498
238	237
153	152
315	306
57	56
318	317
113	112
149	148
155	154
84	83
476	475
174	173
47	46
139	111
611	818
296	295
295	294
71	70
385	384
199	198
116	115
234	280
100	183
193	192
416	415
148	147
205	204
161	160
191	190
167	166
260	259
363	362
229	228
111	110
487	586
399	398
761	760
247	246
383	382
209	208
288	287
142	205
815	814
331	330
114	113
174	173
132	140
64	63
117	116
93	92
81	80
38	37
137	136
68	67
89	88
100	99
77	76
122	121
432	454
502	940
320	319
105	104
281	280
175	174
93	92
269	268
584	583
266	265
351	350
84	131
181	206
165	164
85	84
108	107
131	130
179	182
552	625
148	147
215	214
194	193
117	116
299	298
177	176
662	661
178	177
176	175
262	261
200	199
163	162
306	332
634	935
125	124
171	170
395	394
247	246
124	123
87	86
47	46
431	430
448	447
204	203
1369	1368
189	188
322	321
589	588
574	573
235	234
73	72
759	758
88	87
75	74
649	648
372	371
331	330
553	552
232	231
300	299
551	550
323	322
573	572
334	333
477	476
338	337
277	276
94	57
129	128
243	242
244	243
227	226
223	222
244	243
376	375
163	162
282	281
315	314
378	377
371	370
159	158
301	300
241	240
96	95
86	85
126	125
111	110
469	561
179	178
403	402
272	271
93	92
411	410
199	198
253	252
401	400
193	192
372	371
128	127
442	441
443	442
275	280
414	502
304	303
307	306
513	512
624	623
322	321
306	316
98	97
250	249
221	220
300	299
811	810
272	271
531	530
307	306
373	372
97	96
43	42
528	527
172	171
296	295
168	167
249	248
220	219
241	240
65	64
316	369
390	745
208	207
87	86
761	760
225	224
89	88
87	86
362	361
321	320
675	684
66	65
454	453
224	223
332	331
329	320
251	250
378	377
369	368
137	136
254	253
404	404
319	318
238	237
235	234
151	150
69	81
162	161
171	170
330	329
303	302
674	673
226	225
247	251
206	223
172	172
347	346
430	429
159	158
126	125
92	91
151	165
678	677
246	245
200	199
1166	1165
99	98
102	101
248	247
233	232
110	109
755	853
100	97
145	130
141	140
247	246
132	131
82	81
118	117
133	132
342	341
111	110
440	439
534	533
69	68
656	655
182	181
137	136
175	174
51	50
156	155
166	165
72	71
361	360
128	127
46	46
121	120
97	96
57	56
152	151
286	657
350	657
249	233
335	334
180	179
76	75
162	161
33	70
269	309
126	125
69	68
99	98
262	261
227	226
53	52
251	250
72	71
74	73
184	183
56	55
257	256
428	427
754	753
478	477
351	350
290	289
332	331
305	304
353	352
230	229
258	257
98	97
263	262
56	55
436	490
339	338
61	56
289	288
383	382
347	346
251	250
250	350
109	102
127	126
314	313
240	239
305	347
264	263
174	173
431	430
356	366
143	142
231	230
135	134
98	97
38	37
380	379
523	522
398	397
815	877
639	638
241	240
143	142
157	156
394	393
406	405
934	933
239	238
589	588
116	115
135	134
36	35
428	427
437	436
154	153
245	245
67	322
399	398
104	103
252	251
222	332
121	337
229	228
238	237
349	348
264	263
245	244
311	310
219	218
226	225
354	331
153	191
473	472
170	169
69	68
531	557
134	133
567	682
191	190
177	190
716	894
226	225
733	732
162	161
263	416
30	29
547	546
182	181
255	254
126	129
177	176
149	148
109	108
469	468
555	554
254	253
329	328
412	411
386	385
296	295
253	252
390	389
157	156
83	94
345	426
649	648
267	266
60	73
326	382
407	406
251	250
555	554
146	145
392	391
475	474
360	359
156	155
293	292
513	512
360	625
200	235
303	302
251	250
225	224
242	241
312	311
557	556
484	483
236	235
185	125
73	72
161	160
861	860
194	193
344	343
214	213
204	203
106	105
156	155
634	633
371	370
363	362
404	403
88	87
214	213
322	321
37	39
263	262
128	127
70	69
187	186
462	461
227	226
263	262
297	410
353	352
99	98
303	302
511	510
184	183
248	282
488	487
269	268
137	136
143	142
532	531
188	187
249	248
301	300
392	391
76	75
121	120
249	375
138	161
363	362
66	65
702	701
138	137
249	248
286	285
537	536
392	391
228	318
417	416
335	334
147	149
185	249
272	271
342	341
629	1293
276	308
462	719
362	400
747	746
261	260
312	311
84	276
148	276
317	316
507	506
312	311
207	206
505	514
356	355
266	265
262	261
51	50
51	50
373	372
83	82
128	127
218	217
416	415
216	228
258	284
1048	1047
408	407
111	110
461	460
228	227
481	480
746	745
991	990
218	268
83	109
318	317
223	222
100	99
289	288
71	70
174	173
462	461
165	164
241	240
110	109
170	169
356	355
298	297
272	271
51	50
285	333
87	116
556	555
350	349
66	65
366	411
262	261
272	277
434	433
454	453
485	484
293	292
259	258
594	593
221	271
61	45
161	160
259	248
369	368
186	194
186	185
169	219
55	66
668	667
805	804
200	199
198	197
270	269
285	284
260	259
226	225
306	305
153	152
159	170
136	135
324	376
100	118
311	310
835	834
114	113
101	100
265	264
161	182
228	266
38	78
147	167
551	550
407	406
559	558
435	434
320	319
321	320
215	214
625	624
202	201
110	109
203	228
178	441
264	298
184	183
126	125
176	175
55	54
1121	1120
216	215
398	397
1038	1037
125	124
73	72
184	183
157	156
222	221
296	373
118	117
104	103
191	190
287	286
429	428
51	50
59	58
594	593
338	361
272	271
153	152
273	272
567	566
232	231
133	132
124	123
624	623
91	90
634	633
153	152
425	424
208	207
433	432
105	104
193	192
492	491
316	315
664	663
205	204
110	109
297	296
455	454
164	163
304	303
197	196
483	482
81	80
300	299
237	236
403	402
325	324
173	172
326	325
140	139
157	156
368	367
150	149
180	179
295	294
116	115
324	323
605	615
111	110
376	375
357	356
194	193
89	106
209	296
310	308
458	457
440	439
432	431
230	229
401	400
773	1047
275	485
379	394
303	302
326	325
61	60
95	94
226	225
64	63
175	174
153	152
60	75
195	194
372	371
88	124
472	471
87	86
365	364
71	70
103	102
365	364
397	396
34	33
386	385
208	207
996	995
325	324
284	283
276	275
256	255
321	320
92	91
370	369
236	277
180	179
404	403
338	337
317	316
270	269
289	288
216	224
555	554
278	277
364	363
1025	1024
418	417
81	206
428	427
420	419
629	628
484	483
390	389
297	296
529	528
92	91
211	210
350	349
461	460
317	316
473	472
516	515
288	287
202	201
166	165
311	310
363	362
92	91
126	125
678	677
196	195
491	490
557	556
94	93
207	206
265	264
47	46
254	253
764	763
223	222
156	155
85	115
142	141
117	116
194	194
332	331
419	426
240	239
285	284
442	556
198	197
290	289
286	285
111	110
211	210
1165	1415
126	125
92	91
89	88
47	46
181	180
206	205
223	222
490	489
369	405
548	547
237	236
159	158
259	258
307	306
197	260
1033	1032
546	545
329	332
157	156
418	417
368	367
352	351
134	133
415	414
153	152
192	191
307	306
187	186
406	405
125	124
313	313
40	39
168	169
117	166
288	287
239	238
156	155
354	353
104	103
131	130
92	107
348	427
305	304
281	280
326	325
310	309
459	458
100	99
367	366
247	246
262	261
246	245
401	400
238	237
144	143
112	111
246	245
93	92
143	142
311	310
813	812
32	31
134	133
144	180
116	115
132	131
145	144
447	464
237	236
337	336
549	548
114	113
329	328
284	283
124	123
251	250
91	90
261	260
136	164
234	379
698	697
202	226
247	246
256	255
193	192
815	814
149	148
257	256
247	246
156	155
241	240
252	251
407	406
257	256
275	274
305	304
268	267
85	84
147	152
51	50
344	343
218	217
177	176
135	134
236	235
61	60
513	572
275	274
237	236
141	140
182	181
67	66
87	86
244	253
194	193
130	129
714	713
320	319
1161	1160
199	198
383	382
263	262
152	151
342	341
162	161
394	398
414	436
451	450
286	285
232	231
399	398
186	185
242	241
262	282
242	241
265	264
891	890
275	274
129	128
386	385
365	364
444	505
233	232
146	172
122	123
208	207
115	114
474	473
427	426
525	660
144	143
297	296
266	265
383	447
377	421
337	336
826	825
198	234
189	188
842	841
810	809
177	176
210	234
152	151
309	308
521	454
195	194
247	246
603	602
265	272
191	190
201	200
199	198
418	417
254	264
284	283
66	65
307	306
127	126
410	409
147	146
257	256
284	283
221	220
183	182
797	796
517	516
103	102
297	296
265	264
121	120
866	865
588	587
475	474
631	630
888	887
255	254
97	96
97	96
97	96
95	94
594	593
457	456
123	122
162	161
184	183
298	297
147	146
380	379
33	32
401	400
348	347
116	115
96	95
248	247
66	65
133	132
902	901
196	195
306	305
384	383
421	420
277	276
307	306
492	491
356	355
415	414
439	438
64	63
299	298
453	452
496	495
120	119
470	588
122	121
244	254
153	152
335	334
119	118
575	574
315	314
524	523
364	363
467	466
202	201
44	43
552	551
328	327
537	536
233	232
255	254
496	495
146	145
318	317
308	307
207	206
145	144
282	281
567	566
501	500
232	231
784	783
969	968
220	219
272	271
647	784
144	149
434	428
330	329
292	290
126	125
283	282
95	94
78	77
160	159
621	620
177	176
444	443
96	95
176	175
267	297
314	313
257	256
265	277
237	236
381	380
406	405
423	444
96	95
175	187
90	89
197	196
132	131
968	1073
102	109
383	382
274	273
80	83
68	121
305	304
317	316
150	149
165	164
939	938
314	313
88	87
458	457
518	679
162	679
300	299
389	388
420	419
498	497
254	253
51	50
105	104
233	224
639	638
135	134
238	237
189	188
196	195
318	317
477	476
259	258
99	98
429	428
311	310
821	820
229	228
239	238
442	450
475	474
230	229
158	157
290	289
216	215
176	175
99	98
646	645
556	555
411	410
472	471
323	322
244	214
339	338
242	443
240	239
408	407
441	440
260	259
309	336
202	214
288	287
261	260
358	357
54	53
202	201
539	538
226	225
149	148
132	166
344	343
79	78
263	262
226	225
242	241
278	277
158	157
180	179
246	245
165	164
764	763
341	340
126	124
157	156
454	453
555	554
579	578
143	142
68	67
319	318
101	100
96	95
359	388
509	539
34	81
435	434
1088	1087
113	112
55	54
332	331
194	194
117	116
142	141
471	470
319	318
411	410
427	426
384	383
256	255
86	85
324	323
277	275
128	127
185	184
116	115
154	153
391	390
304	303
131	130
193	192
242	241
65	64
487	486
395	394
448	447
301	300
168	167
177	176
162	161
671	878
122	121
121	99
166	165
183	182
199	198
173	172
407	406
132	131
239	238
369	368
327	326
348	347
125	124
211	210
153	152
111	110
354	355
130	129
765	764
141	158
199	268
64	63
444	443
330	329
313	312
310	335
73	72
297	296
257	256
445	444
524	523
112	111
111	109
45	44
89	88
187	186
139	138
298	378
158	157
260	259
293	292
145	144
378	377
385	384
287	286
159	158
268	267
264	263
238	237
288	287
679	678
132	131
197	196
192	191
347	346
212	211
173	172
148	147
101	100
168	167
175	174
332	331
293	292
336	335
415	414
630	629
295	294
596	711
70	69
315	314
101	122
34	95
891	890
496	495
151	150
448	447
506	518
111	110
446	445
283	282
648	647
210	209
98	97
159	158
226	225
235	291
391	390
297	321
86	85
104	103
324	323
93	92
420	419
77	97
223	222
175	174
261	260
270	269
326	325
329	328
189	188
192	191
186	185
242	241
478	477
96	95
164	163
285	284
91	90
211	210
243	242
95	94
101	100
779	778
310	309
77	78
681	1517
688	1486
473	472
155	154
213	291
230	229
497	496
298	297
261	260
166	165
213	212
131	130
143	142
376	375
133	132
412	455
356	355
313	312
157	156
88	87
91	90
233	292
424	472
311	310
68	67
310	309
482	481
167	166
1101	1100
490	489
198	197
163	162
368	367
348	347
647	646
325	324
157	156
450	449
340	337
187	228
126	90
330	329
201	200
315	298
297	296
285	284
272	271
319	318
81	80
484	483
294	293
325	324
99	98
284	283
60	59
221	220
347	352
507	502
347	841
193	192
74	73
342	341
394	393
368	367
253	252
91	90
85	84
185	184
86	85
273	272
173	190
181	180
158	157
375	374
170	169
316	315
430	429
459	458
123	136
73	72
142	141
123	122
128	127
330	329
207	206
130	129
119	118
39	38
303	302
149	148
145	144
60	59
168	167
118	117
178	177
131	130
102	101
180	179
105	104
124	123
85	84
64	63
137	136
234	233
111	110
93	92
143	142
101	100
202	201
210	209
104	103
142	139
490	489
272	271
151	146
505	650
494	493
49	61
277	398
55	63
146	145
170	169
126	125
196	195
328	327
388	387
123	122
114	113
159	158
901	900
395	394
705	704
157	156
125	124
96	95
120	119
129	128
241	240
271	270
73	72
197	196
67	66
602	601
77	76
108	107
638	637
302	301
73	72
136	141
144	143
135	134
211	210
697	696
407	406
188	187
201	200
56	55
191	190
394	393
848	847
109	108
269	268
174	173
287	286
56	55
362	361
435	434
118	117
293	292
409	408
388	387
121	120
306	305
335	334
253	252
226	225
298	297
429	428
149	169
178	177
226	225
268	386
130	171
135	134
147	146
169	168
260	259
851	850
187	186
712	711
223	222
134	133
293	292
383	382
466	574
109	132
541	540
451	450
240	239
159	158
774	773
76	75
774	773
79	78
121	120
257	256
228	227
192	191
439	438
526	550
111	111
798	797
902	901
149	148
112	111
253	252
277	276
109	108
502	501
202	201
256	255
41	42
161	300
332	333
816	815
377	462
432	431
658	657
682	728
48	47
384	383
198	197
432	431
519	698
78	177
403	402
176	175
332	331
232	231
346	345
163	162
578	577
104	146
248	247
357	356
282	281
296	295
439	438
238	237
256	255
426	425
309	308
397	396
128	127
176	175
89	88
368	367
285	284
353	352
223	222
455	498
199	198
90	89
120	119
209	208
733	732
82	81
222	221
186	185
420	419
350	349
196	195
59	58
525	524
290	296
278	277
255	254
269	268
134	133
32	31
249	248
158	157
94	93
453	452
503	502
90	89
284	283
375	374
912	911
356	355
355	354
411	393
500	499
112	111
145	144
490	489
251	250
681	680
281	280
451	450
72	71
142	141
92	91
189	188
86	85
92	91
343	342
661	660
305	304
446	445
165	164
208	207
319	318
257	256
192	191
113	112
111	110
191	190
176	175
339	338
1038	1037
94	93
219	218
272	274
467	466
196	195
266	265
550	549
201	200
324	323
338	337
441	440
327	350
294	276
256	255
310	309
499	498
429	428
650	662
641	1157
517	491
369	368
773	772
690	872
169	178
252	251
63	62
520	519
64	63
544	559
36	35
36	35
36	35
424	423
335	334
328	327
301	300
340	339
523	535
161	160
564	563
403	402
255	254
172	171
147	146
778	777
220	219
325	324
237	236
97	96
71	70
51	50
690	689
304	303
100	99
332	331
146	145
114	113
485	484
441	440
331	330
514	513
394	393
386	385
275	274
677	676
290	289
158	157
271	270
333	332
155	154
307	306
156	155
426	425
329	328
499	498
221	220
287	286
251	234
272	271
467	466
100	119
559	657
513	512
432	431
384	383
580	614
36	66
424	454
203	202
379	378
121	120
264	314
374	465
383	382
219	251
70	69
100	102
227	226
359	211
1078	1447
552	551
167	230
371	396
158	157
274	273
340	339
156	155
82	81
144	143
515	514
420	419
275	274
345	344
342	341
399	398
311	310
349	348
320	319
422	421
126	227
126	125
92	91
314	299
233	232
315	299
340	339
360	359
266	265
266	265
375	374
314	340
312	311
114	113
160	159
270	269
56	55
79	78
223	222
552	551
199	198
214	213
239	238
288	287
206	205
369	368
196	195
208	207
92	91
122	121
582	644
230	229
694	693
347	346
70	69
464	463
570	569
227	226
311	310
235	286
284	283
364	363
105	104
157	156
518	517
773	772
461	460
346	345
166	165
308	307
273	272
98	97
154	220
260	259
120	119
108	107
151	150
445	444
589	588
460	459
440	439
501	500
197	196
163	162
44	43
97	96
563	562
273	272
122	121
166	165
121	120
116	115
136	135
250	392
121	120
572	571
289	288
405	425
158	144
143	142
138	137
68	86
405	416
367	366
431	430
383	382
206	205
293	292
230	229
219	218
271	270
133	132
805	804
358	357
367	366
468	467
47	46
109	108
549	548
455	454
472	471
61	60
364	363
392	391
324	323
250	249
189	188
446	445
222	221
156	155
196	195
241	240
390	389
539	538
199	289
280	291
625	624
231	230
242	241
258	257
297	296
320	319
347	346
610	609
457	456
140	139
461	460
288	287
514	513
178	177
157	156
80	79
227	226
127	126
208	207
630	629
148	147
153	152
331	330
484	483
499	498
84	83
537	622
140	139
437	438
52	51
322	321
297	296
310	309
331	330
476	475
231	230
64	63
141	140
142	141
276	275
145	144
74	73
228	227
309	308
250	215
389	388
252	251
269	268
102	101
73	72
332	331
298	297
126	125
92	91
704	1038
331	338
424	423
74	137
462	483
74	73
127	126
60	59
120	119
125	124
106	105
327	326
30	29
247	236
213	214
311	310
78	77
126	125
92	91
68	67
123	122
113	140
326	325
40	39
247	246
348	307
38	37
72	70
98	103
235	234
111	110
86	85
218	217
286	285
83	82
197	196
70	69
167	167
78	77
42	41
226	225
71	70
152	151
249	248
1689	1756
66	65
67	66
469	518
149	214
47	46
142	141
117	116
194	194
144	348
199	198
127	213
259	258
166	165
311	398
66	223
508	941
81	79
161	165
303	289
132	131
105	104
182	181
95	94
112	111
114	113
146	147
86	85
617	616
213	212
102	101
331	330
211	210
102	101
494	876
206	388
184	182
116	115
73	72
78	77
74	73
172	171
106	105
189	188
211	250
289	276
224	230
189	188
104	103
120	119
132	131
230	229
128	127
170	169
274	273
99	98
81	80
108	107
72	71
105	104
240	239
145	144
653	652
78	77
176	175
208	207
402	401
198	197
64	63
141	140
142	141
83	82
257	256
145	144
74	73
228	227
299	298
141	140
303	326
127	91
107	107
235	234
230	144
46	54
188	187
454	453
77	76
145	130
70	69
178	177
309	308
73	72
305	304
171	170
57	55
