69	65
116	249
73	193
74	138
65	63
72	167
128	411
141	188
144	143
222	236
76	143
42	143
418	649
89	97
89	84
177	176
160	159
542	541
311	310
462	461
404	403
399	398
396	395
593	592
451	451
766	765
78	81
117	116
410	409
394	393
279	278
229	253
473	472
231	230
337	311
421	420
344	343
720	719
357	356
41	40
347	346
73	72
149	148
90	89
230	229
49	48
177	176
366	508
187	742
109	135
69	330
68	67
85	169
116	78
157	156
163	172
136	135
108	107
136	154
547	1122
459	1122
480	962
111	189
261	360
41	53
56	142
111	232
85	179
565	926
72	111
146	191
100	94
58	85
74	73
108	122
40	254
198	226
162	166
59	110
77	184
97	151
173	328
162	248
174	391
113	151
88	83
85	144
197	187
62	58
42	63
409	410
249	248
215	214
244	443
107	106
179	178
111	191
233	359
531	586
56	81
111	110
138	158
333	353
546	545
58	67
693	1051
155	382
193	299
405	404
150	149
213	212
612	835
229	241
269	325
69	380
173	241
150	175
274	273
720	792
91	71
63	140
516	644
103	369
463	667
114	160
158	133
222	255
637	878
188	143
231	252
87	364
228	192
99	144
125	221
130	138
251	327
513	514
53	150
38	97
58	92
307	338
160	157
93	121
53	109
96	110
146	160
176	384
31	44
38	60
60	76
175	175
127	126
56	58
71	123
96	116
198	240
90	122
63	149
138	137
68	67
74	372
235	396
408	447
184	202
438	438
216	215
388	382
146	281
276	264
166	165
430	429
123	126
240	358
103	85
269	282
182	181
110	109
261	260
150	149
173	173
146	163
61	60
377	420
183	182
265	375
919	918
434	433
745	1178
264	263
546	545
433	432
291	290
36	35
114	155
84	125
336	335
468	469
194	371
61	293
136	419
71	79
110	154
117	239
118	314
170	197
187	247
54	51
161	256
98	332
209	217
426	415
213	257
92	82
132	171
117	218
105	90
89	88
117	96
110	112
83	191
129	132
210	257
61	172
268	286
36	66
192	191
87	86
427	423
132	121
151	151
143	442
112	220
101	568
45	59
194	235
344	337
91	90
86	154
106	106
41	50
41	34
346	345
145	144
175	189
447	475
202	201
108	107
116	115
237	236
57	52
84	159
227	249
97	177
46	69
43	100
143	167
52	51
160	159
153	196
95	112
331	330
184	183
348	347
71	70
94	164
273	271
210	258
54	62
134	212
460	459
303	302
70	69
176	255
219	218
854	853
60	59
137	116
143	142
438	455
130	363
337	336
88	112
289	297
208	364
79	116
117	116
154	153
77	64
124	203
167	268
131	181
108	107
33	32
177	219
104	124
167	269
243	242
181	180
144	173
64	69
137	136
156	155
62	61
62	89
96	99
95	116
69	145
68	67
176	175
523	637
231	235
257	377
121	120
480	479
505	504
237	321
87	87
258	257
120	119
260	259
124	123
222	319
68	67
188	187
397	396
80	79
166	165
354	353
167	166
877	876
62	61
30	29
217	145
189	188
122	137
128	132
377	410
172	171
371	370
161	235
513	512
391	390
177	176
112	111
106	105
120	132
395	394
128	149
216	268
355	354
401	400
320	319
268	348
435	714
137	136
82	81
110	109
115	114
150	149
135	134
175	174
100	99
53	52
150	149
221	220
467	466
427	426
483	482
108	355
234	224
326	325
166	173
60	158
100	99
97	96
114	113
478	568
96	95
263	268
65	64
58	97
158	157
114	147
278	277
96	102
163	176
50	54
294	326
111	110
83	82
183	182
256	255
116	115
138	137
409	408
173	172
122	121
357	356
374	373
387	386
114	113
246	245
327	326
144	158
121	243
126	146
164	310
355	595
143	161
85	84
433	432
91	90
452	451
887	886
220	232
140	139
92	101
192	199
230	229
128	127
196	195
294	293
177	415
243	242
246	245
440	540
118	117
192	191
217	216
171	169
160	159
76	102
78	91
600	599
51	50
86	90
168	232
227	226
302	301
158	185
244	243
127	126
87	86
283	282
220	211
36	132
134	167
519	518
1106	1347
247	246
204	203
209	208
238	237
445	445
113	112
55	54
252	250
119	118
45	95
105	271
108	120
136	390
46	140
119	133
142	183
167	377
556	1093
108	144
328	327
510	509
333	332
218	205
148	186
57	56
139	247
141	140
104	103
268	267
248	431
225	284
268	267
247	246
163	162
120	153
135	274
139	150
129	128
108	107
172	171
617	616
85	84
67	66
64	69
342	427
77	76
170	169
282	281
494	1653
243	555
319	343
491	1653
733	770
144	143
225	220
140	160
113	112
167	335
70	69
308	340
68	81
115	224
190	218
207	206
146	145
105	129
116	115
100	99
123	283
78	163
473	724
238	497
69	168
60	330
148	330
83	175
447	1051
72	1051
793	2693
821	2693
149	1053
221	1053
208	273
349	455
85	138
378	525
87	130
58	102
191	250
67	61
170	204
156	418
436	259
100	99
78	72
145	305
55	305
222	273
37	250
88	87
51	50
152	194
77	76
67	66
120	114
160	277
126	260
115	114
71	82
121	180
92	240
80	194
71	65
100	170
164	163
50	49
195	289
123	122
113	112
225	224
112	172
352	359
140	139
47	68
560	559
99	98
232	231
329	328
146	145
112	111
202	201
458	626
329	656
155	154
79	177
110	181
744	837
111	117
342	600
72	277
227	318
559	824
56	141
99	98
71	53
125	210
145	231
86	85
225	673
467	673
135	134
173	209
38	209
161	160
159	158
161	164
64	63
51	50
120	119
577	747
48	50
323	322
75	200
119	142
430	450
274	279
213	212
346	345
184	177
430	429
249	248
120	119
348	401
354	353
137	156
191	190
167	209
99	98
345	344
238	237
127	130
161	187
653	671
158	179
53	52
67	66
125	141
261	220
90	131
245	256
228	267
199	235
133	260
129	128
141	306
82	190
59	136
285	264
242	407
131	130
79	107
32	55
109	118
60	92
69	145
61	60
116	172
105	120
43	42
86	105
109	156
56	64
427	494
54	57
192	253
112	111
160	159
143	163
78	77
268	267
104	114
160	170
43	74
98	97
96	95
468	467
61	73
113	165
71	176
368	395
409	408
468	467
311	303
148	147
296	295
220	219
167	166
351	350
289	288
208	207
87	88
142	141
111	110
192	191
310	299
397	474
79	161
105	246
183	213
264	263
289	338
47	115
171	178
117	115
103	109
191	212
308	307
58	72
83	110
111	104
119	144
123	122
284	283
170	169
52	51
350	415
67	143
44	43
62	59
62	61
182	181
178	192
49	48
251	309
102	112
166	165
371	370
67	120
151	150
311	308
255	254
305	277
225	217
217	233
53	52
295	294
472	471
124	123
120	119
815	811
401	400
413	412
109	108
419	418
322	321
82	81
416	415
224	181
139	204
46	63
103	164
186	189
505	831
335	334
246	285
47	47
183	199
74	73
321	322
224	224
53	52
413	412
231	229
78	68
81	80
43	91
89	120
73	72
103	102
313	353
103	102
130	261
348	345
305	353
325	331
46	45
180	246
91	120
156	268
338	446
265	283
142	142
64	63
274	365
65	64
248	263
167	166
443	442
307	345
126	140
275	263
74	89
74	73
159	158
102	115
273	272
427	426
168	581
110	225
297	332
291	290
637	1229
253	371
145	144
84	193
72	71
163	200
231	545
512	770
33	770
49	311
50	311
99	209
318	317
225	224
183	205
331	335
98	91
69	68
39	231
62	62
179	196
134	199
310	199
253	69
68	67
34	33
173	172
50	109
208	279
89	88
310	342
33	342
103	142
245	301
67	275
88	275
443	367
205	484
285	484
529	551
90	119
367	535
97	96
94	94
102	101
116	115
361	388
85	84
42	41
224	223
98	119
92	128
105	305
80	174
84	246
101	246
223	398
96	95
150	188
121	147
74	91
103	341
72	317
77	89
126	125
100	99
121	429
210	341
53	52
51	176
388	491
306	397
153	360
304	438
101	135
130	268
217	520
169	520
199	198
144	348
194	194
117	116
142	141
339	338
399	565
322	486
89	99
127	126
175	200
203	191
124	150
255	273
71	71
182	184
60	136
103	363
66	446
191	115
80	126
107	140
93	93
47	143
93	140
106	163
134	488
110	296
136	136
162	161
119	131
60	83
121	113
126	125
109	101
281	769
324	516
145	201
251	250
164	163
160	159
176	175
158	215
70	210
184	183
311	310
190	188
193	199
215	274
270	269
117	142
93	92
59	58
228	313
149	140
48	49
53	50
84	251
104	197
154	153
136	170
157	405
46	143
148	183
100	99
155	150
237	309
338	337
254	253
84	71
143	219
220	219
103	102
350	422
76	78
221	220
163	162
101	215
256	433
167	184
58	59
203	164
116	118
127	123
261	260
229	228
248	247
34	32
182	257
54	89
298	297
71	96
216	215
198	214
110	146
39	38
46	46
94	133
493	506
112	127
380	504
139	139
98	86
439	431
152	151
165	164
217	216
611	610
200	199
91	144
316	350
313	312
148	147
221	220
601	600
113	122
196	226
214	213
909	908
326	325
181	180
136	162
101	100
614	613
510	509
486	485
142	141
273	293
215	580
337	530
78	152
137	305
108	109
66	65
95	124
39	49
97	152
336	431
557	556
253	252
282	268
157	195
106	320
271	289
175	188
89	88
129	128
112	111
199	230
155	287
226	550
297	296
661	660
181	180
133	216
386	385
201	200
142	141
170	180
401	400
261	260
402	401
430	429
64	110
197	196
82	81
265	331
54	55
121	205
237	255
87	98
343	419
356	383
185	233
38	57
453	452
359	358
217	216
85	84
377	376
762	761
132	928
124	226
235	526
171	503
163	601
212	376
166	247
161	167
81	80
73	72
190	293
128	144
454	531
563	562
208	207
192	154
685	1464
456	618
172	171
383	489
67	66
110	107
132	258
107	106
174	238
118	117
97	137
225	330
124	127
149	220
73	86
246	310
174	198
459	608
152	151
57	111
159	207
77	71
65	102
131	218
98	94
41	49
168	172
355	390
486	890
374	373
367	366
150	165
206	211
69	70
116	189
548	547
549	548
163	162
55	54
165	164
88	87
664	828
236	463
96	170
85	74
288	287
102	134
59	64
139	138
89	88
102	128
115	129
105	127
70	130
84	83
70	69
160	159
267	258
398	406
150	149
48	53
351	350
216	215
68	67
214	213
105	128
191	259
249	269
76	75
184	205
87	115
120	137
342	508
174	173
134	130
55	70
397	396
123	114
530	529
342	341
88	87
268	285
605	604
197	221
211	322
111	117
154	153
238	237
304	307
421	488
158	157
394	393
377	376
313	312
564	563
314	313
313	312
56	55
382	478
233	232
314	313
355	362
286	285
350	349
294	293
490	489
664	663
76	75
208	207
107	106
101	107
60	58
272	385
55	67
78	77
94	192
148	157
144	148
87	134
126	256
128	161
89	88
74	148
199	329
515	411
227	362
49	229
150	200
79	78
203	239
84	118
207	197
172	183
57	56
133	132
95	116
91	126
67	107
81	98
387	508
101	100
47	46
198	253
193	192
164	163
235	254
54	53
295	294
149	288
81	80
62	72
45	105
190	270
172	286
377	376
306	305
166	217
185	223
309	308
206	205
36	35
244	243
128	155
77	227
340	347
240	239
157	156
154	153
165	164
385	554
111	110
64	104
91	316
208	316
683	759
363	362
62	61
183	197
121	174
487	1210
229	381
90	164
615	909
323	559
181	157
113	198
455	1266
648	1266
96	95
551	677
370	369
94	93
166	165
225	224
160	158
668	826
130	129
215	214
113	112
275	274
72	70
263	262
267	266
281	281
249	248
242	233
94	137
335	334
419	418
351	350
296	284
270	269
170	197
151	150
95	94
452	451
347	346
260	259
300	299
106	105
454	453
70	69
241	240
468	467
472	471
1026	1497
196	205
458	553
301	311
104	105
119	111
108	112
125	125
227	226
480	646
167	162
130	129
239	255
301	300
85	84
151	206
86	117
65	179
421	581
177	177
204	203
155	192
110	161
246	270
264	294
359	390
179	165
141	135
220	219
67	147
721	720
280	279
149	162
406	405
390	385
59	112
66	248
50	75
155	159
61	99
65	172
71	187
102	123
451	384
99	175
84	175
75	119
102	104
452	478
140	119
69	162
58	122
195	212
418	426
39	49
134	133
359	358
427	426
407	406
104	119
354	464
298	297
385	384
300	299
294	293
186	185
390	415
46	58
238	292
389	388
119	330
176	330
373	372
128	147
155	157
131	158
329	468
389	388
126	141
181	230
86	84
204	203
259	258
113	170
64	65
92	91
91	105
356	355
296	337
127	126
311	310
300	299
84	83
48	47
55	52
224	233
96	88
161	160
453	454
372	371
382	371
115	114
353	352
110	109
190	206
321	320
249	248
65	64
125	124
123	122
74	73
159	158
158	157
49	48
274	273
137	136
131	121
75	109
161	175
160	325
84	88
98	144
203	305
196	250
152	201
67	72
95	145
68	78
181	179
197	434
66	411
70	145
90	125
128	224
77	90
64	100
92	155
197	190
256	255
86	85
139	138
253	196
156	131
389	411
128	172
62	61
118	117
81	67
133	133
399	398
332	331
194	194
117	116
142	141
67	66
92	76
93	133
134	133
137	172
107	149
96	238
269	268
75	77
322	321
184	183
242	241
148	147
39	38
141	257
175	174
292	379
101	176
218	217
98	54
117	237
98	113
215	214
42	42
126	173
70	241
139	313
161	145
89	122
89	91
248	247
360	359
204	227
306	305
337	316
440	547
108	107
142	146
372	371
132	131
89	93
345	369
265	264
96	95
126	125
159	158
148	188
356	420
149	158
417	670
259	258
272	297
242	172
268	267
367	366
619	3163
111	184
100	264
197	413
255	421
204	316
1107	1346
241	252
362	425
365	574
680	906
361	433
146	145
153	266
259	227
195	248
142	121
79	78
127	211
370	459
346	363
89	434
170	263
193	209
103	149
263	294
266	265
86	126
148	243
106	105
68	67
213	316
121	204
438	434
50	62
63	62
55	54
59	57
57	56
52	51
94	93
111	87
172	153
131	291
141	140
81	88
61	60
59	58
172	171
71	70
131	130
352	351
101	117
51	64
196	229
72	71
120	114
178	177
155	154
117	116
161	160
34	43
326	397
242	284
61	60
84	66
321	324
104	120
114	113
402	401
63	62
37	93
77	76
113	112
149	148
115	114
252	251
178	223
345	377
305	254
177	257
151	184
114	113
233	232
157	161
183	182
1087	1086
72	71
200	199
376	375
425	799
94	93
347	346
96	95
217	216
212	211
335	334
138	137
261	260
453	452
284	283
109	108
244	216
122	121
179	164
38	103
171	354
64	102
67	89
160	161
78	202
44	57
99	205
83	119
38	41
69	70
63	62
153	152
502	558
272	271
76	75
63	62
208	207
262	261
90	89
135	222
96	95
122	121
138	137
335	334
155	154
314	364
148	147
83	82
297	358
79	101
229	228
332	331
484	552
67	66
105	104
111	110
73	102
42	145
49	48
234	233
99	89
78	77
78	71
156	235
77	81
69	85
520	495
88	105
46	53
90	100
302	301
96	103
66	165
180	436
123	208
154	169
79	73
184	183
118	116
172	193
330	328
223	222
165	160
91	122
83	82
144	238
75	74
159	158
60	69
140	134
489	610
183	182
293	221
159	168
255	270
80	79
166	165
121	118
84	83
168	167
223	239
119	118
505	504
329	328
455	585
133	196
93	117
112	142
117	116
193	192
296	295
43	42
53	96
195	194
266	259
368	368
168	167
554	553
76	51
287	286
342	349
130	129
215	214
77	75
263	262
465	470
194	679
70	108
303	411
72	284
148	190
142	168
88	139
379	378
124	108
698	809
324	323
120	149
149	128
113	131
126	125
112	111
88	89
415	491
161	185
69	147
163	174
85	92
96	106
64	63
69	77
124	123
69	65
101	104
117	196
99	97
65	65
152	185
223	234
37	76
122	183
58	67
38	167
77	119
71	115
130	138
87	306
134	154
86	77
75	100
93	92
88	94
30	30
141	189
125	182
174	168
144	187
136	135
50	49
52	51
288	355
144	143
604	603
214	213
54	56
133	289
157	223
42	96
67	96
119	118
227	226
89	103
409	536
152	157
221	220
219	218
77	76
125	124
187	186
57	56
38	117
219	218
178	179
147	178
334	333
91	401
110	137
468	877
130	129
103	106
328	427
189	183
233	232
640	671
66	71
138	192
117	166
161	160
264	309
264	263
80	79
96	95
39	46
255	269
189	188
153	152
46	45
238	237
258	260
99	104
216	220
70	69
519	518
533	532
455	454
193	192
118	149
344	453
60	59
100	99
116	115
127	126
406	534
122	127
89	96
162	161
126	125
87	102
70	120
244	292
254	378
372	371
57	56
213	212
45	44
75	74
61	60
83	82
311	341
85	84
116	115
212	210
88	93
165	273
69	248
149	148
68	89
63	63
377	376
88	91
295	341
51	70
114	149
428	427
261	260
373	369
249	248
190	189
95	97
295	294
334	331
122	121
91	90
359	358
460	459
87	93
234	280
279	278
300	315
327	326
253	252
177	173
276	316
226	213
150	149
151	151
237	236
418	471
196	195
184	183
121	120
74	163
79	188
82	81
188	197
339	532
448	447
91	90
101	100
52	51
65	64
160	264
240	239
126	215
172	217
47	52
174	217
152	220
76	117
152	186
31	76
81	119
63	182
142	219
82	135
123	144
75	82
67	131
63	75
88	149
317	357
129	175
113	158
151	180
87	86
95	94
57	56
338	336
101	204
140	250
86	279
78	257
80	89
46	45
72	71
190	142
73	137
516	733
220	242
124	92
155	227
80	67
58	89
163	303
157	171
47	46
65	178
59	56
162	120
56	268
50	49
374	406
315	344
163	246
123	311
72	146
178	189
180	378
410	541
162	161
76	115
105	191
82	108
196	225
115	133
87	114
73	88
51	112
107	106
111	105
185	359
145	420
117	116
45	41
123	134
85	141
63	62
105	103
175	254
109	162
160	169
182	265
173	243
86	82
168	230
88	87
42	41
66	111
198	359
153	159
191	190
99	161
50	43
104	119
99	71
64	75
148	152
97	96
238	309
95	161
36	35
127	95
52	99
96	166
519	642
145	144
94	93
328	327
225	224
65	117
311	432
202	205
100	99
157	156
163	167
89	88
98	97
202	232
131	128
156	177
180	409
87	127
64	63
349	348
227	226
294	293
203	359
57	108
190	226
248	513
111	266
138	186
85	72
351	429
125	123
192	156
192	239
47	45
46	47
224	223
131	137
107	129
93	92
50	50
105	363
38	109
131	257
104	95
146	191
59	201
95	87
79	282
73	126
101	110
420	419
119	118
54	98
99	98
80	159
70	42
80	47
186	238
104	433
162	204
211	366
131	136
123	122
128	153
309	366
249	248
442	423
234	270
159	161
139	138
64	63
71	70
202	201
79	78
210	230
249	271
70	69
209	208
177	190
118	194
250	563
138	138
81	63
138	212
107	184
191	261
255	254
242	296
296	454
102	101
52	51
145	144
99	418
128	127
458	457
214	213
77	76
312	331
404	403
86	85
202	201
306	305
54	53
30	29
390	389
194	193
276	275
116	115
216	215
123	122
269	324
33	32
200	199
80	79
299	298
174	173
290	311
389	670
286	285
79	78
145	144
156	155
276	261
101	102
108	107
219	218
425	424
287	286
202	201
501	500
101	99
232	231
207	206
257	351
109	108
308	177
500	438
193	192
146	173
48	48
147	146
72	71
177	178
153	158
103	102
157	216
172	291
183	244
531	530
343	342
142	141
124	123
193	192
538	603
93	270
304	345
102	185
265	315
168	167
372	388
142	232
128	127
178	189
158	151
124	276
274	300
59	102
103	194
106	176
180	181
92	155
158	174
187	206
144	180
63	83
173	239
112	111
241	240
343	357
125	125
120	128
210	209
78	100
111	185
321	384
263	289
201	200
345	344
122	121
110	109
274	273
91	90
122	216
250	258
298	297
80	75
170	244
165	164
232	231
155	169
277	296
205	204
285	284
206	205
211	245
245	244
40	39
87	135
496	662
112	142
102	101
170	229
187	186
114	113
109	108
83	83
117	129
199	205
96	99
80	125
271	297
102	101
299	426
85	150
68	67
210	288
249	248
647	681
40	46
179	296
117	253
199	264
68	72
128	127
71	62
222	221
78	85
312	396
155	159
121	144
55	51
170	230
66	109
124	123
281	288
254	287
84	107
148	97
36	54
91	275
54	313
110	109
143	142
69	70
139	187
131	318
65	84
148	218
96	174
142	517
305	304
95	82
292	359
66	83
60	70
234	293
85	84
331	356
187	186
246	274
400	449
75	128
137	214
157	254
231	230
126	125
110	262
195	284
300	309
271	322
289	288
83	82
111	113
163	162
165	164
204	203
345	399
393	392
329	328
373	372
96	95
263	278
48	47
347	346
165	164
295	294
142	141
245	244
133	142
186	260
61	97
75	92
152	217
319	318
54	53
332	331
150	150
140	153
218	217
86	85
261	273
230	346
267	279
43	78
196	249
164	264
192	490
52	92
136	280
85	84
85	84
147	217
53	104
165	276
82	183
57	63
73	90
104	118
332	393
115	264
471	470
196	195
125	149
637	752
477	535
51	57
161	160
117	130
96	219
105	104
428	449
111	110
237	236
69	77
145	144
105	104
76	76
222	295
276	315
133	422
151	246
300	302
192	227
96	102
276	378
71	183
61	62
112	155
195	257
75	256
69	61
160	159
276	275
141	140
67	66
103	114
494	493
224	223
200	199
205	204
255	397
326	416
140	139
219	223
62	79
94	142
62	164
44	64
38	50
153	213
47	53
57	56
188	187
73	177
279	374
454	551
247	246
344	301
218	217
67	66
145	145
252	251
269	306
156	155
190	222
129	140
258	206
140	201
325	424
123	240
98	111
439	433
56	59
76	86
85	125
87	51
155	202
80	114
274	273
123	122
162	180
311	310
59	64
257	265
202	201
203	202
295	293
35	38
193	226
117	141
72	71
376	375
201	216
551	613
68	67
168	167
234	240
208	207
115	119
412	506
497	496
66	65
46	45
328	327
44	94
964	1030
102	101
322	318
171	171
357	356
152	151
653	783
391	391
295	294
67	66
71	70
41	69
197	211
191	190
168	167
231	230
329	328
48	85
274	321
234	233
206	302
67	71
65	64
389	388
84	83
471	470
433	432
259	258
39	38
198	220
128	127
123	122
102	101
135	134
100	99
160	160
319	328
123	122
296	295
202	201
55	54
378	436
43	42
254	260
161	179
37	36
111	110
302	355
131	129
217	249
236	404
70	128
271	270
159	158
99	112
64	63
421	420
114	153
99	91
156	155
80	79
95	145
241	291
119	118
110	180
72	91
266	265
445	444
215	290
295	354
112	111
155	154
89	88
187	186
427	426
158	157
220	258
293	292
145	144
378	377
385	384
142	141
124	156
122	121
56	55
92	91
188	187
264	263
83	71
174	237
288	287
679	678
132	131
197	196
109	108
94	93
347	346
198	211
245	231
101	100
168	167
175	174
51	50
282	331
293	292
232	280
116	144
287	263
210	209
370	369
275	258
295	294
247	272
480	522
90	89
96	102
181	257
101	122
34	95
107	140
196	254
382	566
100	85
53	86
148	208
284	283
136	150
305	337
156	188
396	458
93	92
111	110
446	445
145	170
155	165
133	142
514	647
210	209
98	97
159	158
450	455
40	39
391	390
322	321
86	85
67	82
324	323
93	92
420	419
53	52
98	97
83	222
154	211
175	174
261	260
266	265
326	325
294	293
46	45
189	188
192	191
186	185
231	230
347	422
96	95
55	81
105	104
270	273
91	90
211	210
243	242
95	94
101	100
300	326
477	512
310	309
77	78
681	1517
688	1486
332	317
149	166
155	154
221	291
75	63
171	170
476	496
49	57
283	297
261	260
166	165
213	212
131	130
143	142
308	375
153	136
54	53
412	455
272	355
85	249
161	160
157	156
105	104
91	90
91	90
564	563
107	111
222	310
68	67
310	309
289	284
83	210
123	122
73	95
86	166
103	820
352	621
143	268
86	268
97	268
146	182
233	237
68	220
104	82
62	74
146	195
139	153
193	207
166	187
348	347
346	633
273	284
325	324
157	156
450	449
349	348
193	228
126	90
330	329
221	326
264	298
297	296
285	284
277	276
319	318
77	80
469	425
292	280
294	314
99	98
284	283
60	59
221	220
401	389
307	309
203	365
218	841
193	192
312	341
136	155
108	116
85	100
255	276
250	249
79	90
85	84
185	184
68	85
61	111
212	272
184	184
144	137
158	157
103	102
220	340
35	46
117	150
36	37
65	130
63	64
144	217
77	166
96	131
94	93
307	381
91	90
123	136
58	57
75	77
110	122
53	56
58	62
89	111
87	199
65	108
75	117
70	118
77	127
139	155
147	144
60	59
112	141
66	207
50	55
39	46
141	177
87	86
69	67
76	87
37	35
134	125
64	63
115	126
110	105
65	66
31	30
111	110
53	70
143	142
121	120
99	99
62	61
132	131
182	199
42	59
104	103
117	125
490	489
74	93
137	146
112	219
421	498
272	321
137	172
312	398
42	55
97	145
170	169
126	125
160	195
335	334
388	387
150	153
52	113
172	171
108	120
52	51
709	894
395	394
65	64
293	367
197	345
54	155
89	88
65	55
125	124
78	95
67	119
66	119
69	68
50	49
142	131
113	126
189	213
73	72
197	196
67	66
508	601
90	107
77	76
108	107
626	637
303	340
57	68
136	141
114	143
43	44
135	134
69	71
115	140
48	48
184	192
235	431
245	350
334	378
94	93
188	187
201	200
160	170
151	160
245	244
168	185
44	51
265	341
122	619
244	243
112	108
112	161
169	184
405	450
56	55
362	361
435	434
103	108
293	292
409	408
388	387
121	120
306	305
149	161
199	187
253	252
226	225
215	223
429	428
363	362
226	225
268	386
130	171
135	134
127	146
169	168
260	259
151	222
376	510
323	385
33	47
155	154
518	517
178	192
221	222
134	133
133	159
124	145
361	382
87	443
575	574
541	540
340	411
108	107
240	239
159	158
376	354
406	405
76	75
774	773
79	78
121	120
257	256
228	227
192	191
460	427
122	154
450	694
111	111
798	797
894	901
137	138
112	111
51	200
172	171
70	69
207	230
109	108
502	501
182	188
168	223
61	184
189	300
89	178
94	129
816	815
377	462
134	133
175	310
137	120
94	156
564	657
578	728
170	168
334	367
148	183
114	113
125	120
191	190
148	365
180	429
277	269
447	446
176	175
332	331
232	231
326	345
138	162
223	222
295	357
54	88
195	247
34	61
38	37
160	356
84	100
134	136
254	281
38	63
252	295
219	260
160	159
122	128
100	253
94	94
77	76
94	119
56	100
101	66
64	99
55	138
109	81
71	76
61	60
60	175
43	88
48	40
368	367
236	233
227	226
58	74
223	222
263	262
156	199
135	121
76	75
90	89
101	97
209	208
208	295
228	374
150	147
84	81
48	110
58	68
186	185
256	255
317	349
196	195
59	58
145	227
376	382
290	296
149	277
53	113
62	68
104	102
166	170
269	268
134	133
32	31
60	59
185	248
109	140
94	93
262	261
191	190
234	269
287	502
87	89
284	283
375	374
78	160
432	550
396	438
135	158
181	180
68	314
198	326
87	116
411	393
500	499
69	69
45	60
88	87
391	489
108	107
79	143
167	168
450	680
232	145
281	280
451	450
72	71
140	139
92	91
179	236
142	162
343	342
475	660
206	222
209	187
93	92
299	341
165	164
208	207
331	330
257	256
168	187
113	112
111	110
191	190
159	158
49	48
339	338
474	504
561	1037
94	93
91	211
275	274
467	466
196	195
266	265
550	549
201	200
324	323
262	272
152	146
269	301
141	472
348	384
148	175
170	169
241	309
75	77
342	399
174	173
429	428
364	374
165	307
42	66
108	114
153	152
140	298
93	181
200	374
115	315
182	307
88	1163
231	267
68	67
181	742
258	477
189	248
169	168
332	604
136	194
143	142
251	250
63	62
136	157
174	365
89	135
82	512
64	63
75	93
110	199
350	536
36	35
36	35
36	35
197	216
67	242
136	423
55	120
233	335
56	217
104	103
96	107
194	211
156	196
328	327
301	300
340	339
76	75
391	398
148	149
432	563
96	91
397	396
88	87
127	232
188	187
147	146
97	91
136	326
125	222
348	361
176	219
354	324
142	107
143	184
97	96
71	70
51	50
122	121
85	95
174	173
690	689
272	271
88	129
274	331
174	145
114	113
284	484
131	130
39	67
215	272
118	127
331	330
514	513
394	393
160	134
179	178
275	274
441	616
211	210
418	417
158	157
244	270
333	332
155	154
307	306
156	155
278	295
148	292
228	227
108	107
499	498
221	220
84	121
199	286
260	234
255	265
110	109
349	466
165	340
498	657
513	512
379	431
384	383
591	614
69	76
100	226
237	303
68	115
203	202
91	99
100	131
68	136
76	73
121	120
638	637
383	382
219	251
70	69
100	102
227	226
178	211
1017	1447
333	392
193	200
108	177
437	396
158	157
274	273
340	339
156	155
84	83
159	143
515	514
420	419
234	274
345	344
342	341
158	160
73	127
202	212
283	310
52	51
302	301
320	319
145	148
272	271
358	357
149	159
34	56
257	232
339	338
340	339
304	359
76	169
267	266
266	265
311	374
115	116
251	291
201	200
154	181
241	194
146	173
96	95
47	46
79	78
41	41
88	165
50	40
300	406
173	551
81	80
108	107
85	93
98	97
73	78
106	120
229	244
44	43
206	205
116	188
92	93
114	113
106	76
231	207
33	43
86	96
435	514
67	287
93	107
41	37
129	188
61	94
55	90
96	175
60	256
372	509
303	309
62	62
73	67
391	418
586	569
106	105
141	135
311	310
287	286
284	283
364	363
157	156
518	517
423	772
185	268
132	133
267	295
205	196
346	345
166	165
308	307
140	139
128	127
98	97
118	220
260	259
96	119
108	107
151	150
248	247
222	221
575	588
460	459
440	439
501	500
197	196
92	91
126	125
100	96
563	562
273	272
122	121
166	165
121	120
49	115
66	44
164	256
335	334
572	571
189	181
52	145
310	317
158	144
55	54
89	88
138	137
68	86
405	416
367	366
195	254
229	256
383	382
206	205
522	1041
205	218
271	270
133	132
627	804
179	228
358	357
367	366
468	467
47	46
109	108
60	113
483	548
455	454
472	471
416	415
392	391
233	232
250	249
77	76
114	113
446	445
93	221
99	126
156	155
196	195
241	240
57	56
172	389
38	62
42	45
97	194
174	201
166	166
462	464
575	624
63	62
279	278
242	241
258	257
221	296
86	105
320	319
373	346
610	609
457	456
140	139
308	466
129	149
288	287
514	513
178	177
157	156
80	79
227	226
124	122
208	207
324	384
258	260
148	147
153	152
331	330
250	249
115	216
135	106
221	239
280	264
84	83
101	254
438	475
61	158
68	139
43	56
470	501
218	217
84	83
297	296
200	199
54	53
94	127
127	128
109	108
272	419
64	110
57	67
113	121
95	95
85	84
256	279
113	112
425	458
55	55
78	80
247	282
79	479
88	87
310	309
545	616
121	98
243	261
205	484
305	304
455	491
94	93
607	673
68	77
260	312
255	254
33	65
238	281
112	176
110	109
97	116
314	313
368	367
349	348
332	331
421	420
356	355
66	53
190	293
206	205
377	376
417	416
95	94
105	141
52	69
451	450
50	49
199	198
462	461
72	61
186	257
183	411
55	59
552	551
109	196
100	195
399	398
341	409
247	246
321	320
713	712
130	129
107	106
78	77
68	67
265	259
244	243
299	298
138	238
721	720
301	300
255	254
38	37
317	316
127	126
128	127
297	296
156	155
290	289
612	611
207	206
211	286
207	206
341	340
267	266
300	299
318	317
754	753
186	185
503	502
142	156
368	665
134	178
153	157
94	301
223	230
391	407
130	129
319	318
492	491
334	519
171	331
180	286
80	78
223	222
32	31
239	269
177	196
50	43
97	178
175	288
224	319
169	168
315	324
210	209
297	334
39	86
256	255
429	475
252	251
151	154
36	35
421	546
87	86
90	89
187	186
259	258
261	260
163	162
296	295
185	171
234	233
82	113
307	334
726	757
444	443
205	204
109	108
367	366
182	181
85	84
176	175
145	191
63	54
90	89
313	328
209	208
477	476
311	310
81	80
466	477
472	928
211	210
142	141
458	457
37	36
474	472
350	349
470	469
608	607
231	230
468	467
166	451
296	313
710	678
270	269
73	72
211	252
414	413
293	292
299	298
299	298
95	95
187	187
200	199
291	290
118	117
314	313
121	176
132	155
97	96
54	54
93	92
73	72
247	246
258	264
81	80
43	42
310	309
212	211
272	300
43	41
805	1016
196	195
279	278
337	611
252	611
769	768
348	347
496	582
357	356
350	481
63	45
75	148
40	65
71	72
354	457
105	104
275	274
415	419
490	489
196	278
299	312
125	157
239	213
207	206
314	313
225	224
458	457
233	232
167	166
301	300
35	34
321	320
330	329
103	251
142	182
256	255
200	199
147	146
100	99
143	142
249	248
337	336
482	496
282	281
58	57
162	161
309	308
356	417
63	102
177	176
252	255
342	341
733	732
71	70
203	202
106	105
333	332
58	57
811	810
130	217
147	224
397	396
136	135
297	296
712	711
186	301
108	147
206	205
368	367
221	220
834	833
360	359
107	106
227	226
554	765
171	170
115	114
144	143
284	283
475	577
68	72
884	883
384	383
148	147
188	260
259	258
458	457
306	305
467	466
178	183
227	265
439	438
42	41
201	200
120	119
367	366
186	185
376	564
52	54
286	285
85	84
64	63
343	342
322	321
369	368
395	394
128	127
182	181
143	142
235	234
166	165
122	121
675	2867
663	1342
1408	1407
385	377
324	323
252	251
212	211
632	631
159	158
258	257
355	354
224	223
197	196
91	90
149	148
77	89
140	139
159	278
183	179
442	441
430	429
530	529
85	84
128	127
148	147
310	309
534	533
410	409
47	61
123	180
166	383
157	159
275	274
370	528
485	843
385	384
150	149
397	396
230	229
319	333
92	112
275	274
223	242
59	70
97	112
136	135
257	268
127	126
184	253
113	127
149	304
54	63
74	101
291	316
196	215
335	334
86	85
213	212
226	245
303	370
361	409
53	52
137	136
231	230
51	166
94	220
159	187
168	267
170	172
372	371
447	446
307	306
132	165
291	290
203	202
203	255
51	135
258	869
123	122
135	163
262	287
104	186
71	105
172	171
98	97
93	134
68	155
46	45
47	80
68	67
184	280
71	88
391	678
210	332
78	401
160	401
131	426
45	141
107	134
92	106
176	170
108	286
83	202
109	202
76	344
228	344
56	81
96	95
33	45
127	125
130	171
40	171
143	276
152	151
241	397
44	45
107	229
645	914
385	384
269	472
212	294
390	389
293	290
260	282
208	240
111	116
111	264
96	336
378	452
84	231
560	606
238	237
141	140
119	118
106	104
264	376
467	940
179	178
94	93
480	528
108	107
155	154
450	449
153	152
406	405
295	294
137	136
230	229
550	549
105	104
653	652
117	113
380	396
189	188
224	223
319	318
522	540
66	127
199	198
221	220
234	499
180	179
318	234
279	278
278	277
350	349
523	522
126	146
407	470
150	139
360	390
100	100
684	683
327	343
92	91
111	145
483	481
99	138
224	223
232	231
327	326
390	389
128	127
55	54
264	263
204	260
74	100
150	149
119	118
253	252
145	144
109	185
68	67
379	378
517	516
282	281
327	354
195	194
80	79
242	241
260	259
192	221
118	289
263	262
74	73
106	109
271	270
350	566
87	141
134	133
153	156
77	76
338	337
30	29
367	366
184	188
56	99
260	279
202	176
446	445
116	115
138	141
51	165
145	244
99	327
167	203
75	157
114	176
108	107
206	244
143	136
160	307
107	120
72	216
77	105
113	90
92	91
143	213
78	102
199	264
67	304
202	216
240	239
318	317
246	217
98	98
91	90
286	476
465	845
247	234
171	170
923	1283
355	431
78	74
197	241
60	59
297	271
430	1041
490	700
91	90
99	98
62	61
506	505
486	485
564	728
138	214
116	115
192	299
115	114
352	351
181	512
192	191
593	592
54	50
403	402
53	52
148	202
265	264
159	158
419	418
98	97
549	548
129	128
290	289
343	342
70	69
118	172
42	41
49	48
106	105
178	177
395	420
120	119
132	131
245	244
468	471
44	93
212	222
75	74
486	500
1097	1107
77	92
242	242
351	350
205	204
142	165
241	259
279	307
180	188
74	79
80	79
444	443
616	615
182	181
121	120
103	102
427	426
420	419
335	334
66	65
433	432
142	141
209	208
608	813
151	150
104	120
134	133
233	232
220	219
133	132
213	212
388	387
542	541
92	91
110	109
250	249
252	251
355	354
466	465
102	101
155	154
217	216
89	77
212	271
185	184
44	43
35	36
132	131
105	104
76	75
150	149
164	163
169	168
222	253
323	361
92	91
126	125
75	116
130	311
562	653
340	339
152	159
152	194
133	258
283	282
264	263
245	227
156	165
55	70
133	148
231	230
60	72
142	150
221	220
152	234
142	144
287	286
70	126
50	40
112	78
72	198
344	432
59	68
64	47
199	246
119	118
81	81
438	447
219	209
80	180
63	105
340	355
256	315
124	168
141	621
101	200
161	874
88	301
75	134
105	150
170	1899
132	131
276	274
43	52
66	108
403	500
111	127
219	209
405	404
168	174
141	140
276	257
218	242
178	176
272	358
186	190
71	79
75	91
155	154
669	712
466	551
474	473
264	315
492	898
424	447
129	128
66	77
312	311
45	44
163	162
76	137
167	265
238	467
335	334
315	314
48	71
284	406
72	116
151	150
134	132
193	211
139	138
168	167
396	395
952	951
148	147
504	503
309	327
361	360
466	559
88	87
333	332
440	439
235	241
31	254
196	195
155	144
188	187
340	339
264	308
313	539
226	416
270	303
98	97
118	217
130	228
608	607
211	226
592	989
177	228
70	158
167	166
285	344
220	222
99	98
359	358
210	209
100	99
98	97
275	274
337	518
122	156
199	218
55	54
101	90
98	97
344	343
148	147
96	95
34	38
54	98
265	284
85	84
338	337
258	257
71	168
125	124
307	306
97	95
171	198
104	163
349	350
473	472
116	115
76	75
79	78
154	153
134	133
190	189
66	65
71	70
69	68
201	200
59	265
208	258
105	98
83	120
65	306
54	43
108	168
127	120
249	248
514	513
427	412
157	157
53	52
273	272
269	284
159	158
74	73
38	37
104	122
126	125
163	162
59	58
52	51
142	141
541	540
397	396
580	579
429	428
78	113
371	437
259	253
85	84
420	419
310	369
211	213
82	81
273	272
191	266
119	228
226	304
75	89
140	274
514	655
96	130
188	250
118	198
145	145
123	122
128	103
211	210
144	143
269	268
438	437
54	53
374	373
65	83
249	248
184	183
75	74
75	99
51	69
163	158
538	542
117	116
142	141
115	114
327	326
154	202
216	460
239	238
132	131
201	200
199	198
183	182
166	165
121	99
116	121
424	423
449	878
177	176
168	167
142	163
176	175
448	447
114	113
203	255
73	91
81	81
391	390
65	64
181	241
70	103
126	125
92	91
281	280
131	130
304	303
171	170
120	119
154	153
228	227
185	184
222	127
181	180
324	323
86	85
256	255
384	383
427	426
420	419
98	97
70	69
87	95
101	100
150	137
68	67
174	173
305	455
119	144
555	554
157	156
289	278
182	218
126	124
60	59
149	255
108	107
748	763
89	113
61	63
217	237
180	179
158	157
136	135
128	152
242	241
79	105
159	160
102	112
160	195
79	78
81	80
246	245
244	275
53	52
226	225
539	538
202	201
54	53
358	357
261	260
190	234
202	214
242	344
102	96
141	140
123	147
112	110
153	233
56	72
163	239
99	239
60	135
68	58
231	236
88	87
339	338
215	214
307	318
436	471
411	410
111	110
95	94
556	555
134	134
455	645
99	98
172	171
96	143
95	94
290	289
103	102
230	229
474	474
451	450
239	238
92	40
135	228
281	300
507	820
311	310
90	118
316	315
99	98
259	258
477	476
318	317
196	195
189	188
238	237
481	638
125	124
377	376
254	253
247	318
166	297
86	155
104	92
324	331
262	261
135	134
287	299
162	679
282	679
96	679
88	106
297	457
157	169
62	61
221	226
72	291
300	354
85	219
81	133
323	329
165	164
150	149
208	226
80	91
305	304
137	121
274	273
102	102
276	376
96	95
317	481
218	261
449	448
62	64
132	131
134	133
90	89
175	187
518	517
207	326
203	205
117	349
245	239
505	504
257	256
314	313
429	428
96	95
185	184
260	259
177	176
621	620
160	159
78	77
105	104
274	280
126	125
274	273
180	179
102	149
434	428
669	784
117	127
272	271
220	219
90	89
83	137
126	193
198	199
32	494
232	305
70	147
89	114
104	127
58	235
133	284
226	267
120	217
129	205
232	231
502	500
66	550
189	188
164	266
73	162
141	129
145	144
174	353
79	187
233	307
91	272
50	317
147	145
52	128
282	495
94	233
42	233
255	254
82	81
157	618
70	183
122	217
119	161
150	149
159	327
175	199
115	153
153	167
467	466
202	232
155	181
407	419
131	147
315	314
213	238
184	457
182	193
164	163
130	153
217	216
39	38
120	119
162	211
122	121
450	481
120	119
496	495
453	452
77	78
222	298
64	63
439	438
415	414
356	355
293	292
95	193
83	115
307	306
277	276
421	420
384	383
306	305
196	195
902	901
133	132
66	65
248	247
207	206
348	347
195	226
202	306
462	461
147	146
298	297
104	108
89	97
76	157
98	161
123	122
149	198
222	333
104	100
366	449
247	238
95	94
97	96
97	96
97	96
192	204
707	887
190	202
593	630
38	45
135	134
68	190
236	259
68	79
105	104
232	555
238	225
33	58
515	814
204	304
124	123
62	74
70	89
265	264
298	296
103	102
127	126
391	516
359	362
118	246
134	212
183	182
142	204
52	51
210	212
109	108
191	256
48	47
138	146
410	409
106	110
68	67
137	136
104	240
68	67
284	283
277	276
418	417
199	198
201	200
191	190
265	272
445	602
111	105
247	246
195	194
160	159
213	263
240	251
259	308
152	151
196	195
136	135
727	809
268	276
158	144
181	238
190	236
44	247
189	188
101	100
136	238
575	793
253	329
337	336
750	749
266	265
125	177
128	127
144	143
350	485
183	197
399	426
474	473
115	114
208	207
122	123
146	172
233	232
35	133
391	413
365	364
386	385
129	128
275	274
500	890
360	449
265	264
242	241
106	158
82	81
238	241
111	110
88	112
110	159
160	213
95	113
170	192
89	87
127	133
125	213
142	222
248	246
82	166
101	243
117	163
154	705
101	100
102	137
69	74
94	122
111	99
88	113
89	127
141	213
88	93
136	135
142	262
116	104
141	198
68	110
98	146
224	275
353	508
135	291
58	91
177	213
187	178
151	165
169	168
562	713
130	129
162	193
144	253
87	86
67	66
182	181
141	140
70	69
74	118
94	196
275	274
354	352
234	255
104	103
58	124
83	104
177	176
212	211
344	343
51	50
147	152
85	84
64	63
268	267
88	91
65	72
103	50
134	274
58	85
69	82
85	178
53	55
324	337
77	76
178	190
83	100
241	240
156	155
247	246
257	256
48	47
109	108
815	814
193	192
256	255
115	128
80	79
81	54
69	84
580	579
168	169
40	39
249	313
65	64
151	150
342	344
205	204
307	306
192	191
153	152
195	238
202	216
134	133
251	258
102	104
368	367
418	417
157	156
416	415
546	545
1033	1032
197	260
261	306
264	258
112	111
205	204
153	218
143	236
149	148
159	187
260	297
369	405
120	164
306	305
223	222
124	123
187	186
63	63
47	46
93	92
34	33
86	85
215	214
224	293
86	165
309	308
88	88
211	213
330	329
165	192
99	90
182	181
583	739
390	659
253	659
241	211
290	289
162	197
153	152
277	257
285	284
69	57
182	222
135	133
76	136
128	276
113	127
79	86
70	155
146	175
130	188
154	292
96	96
291	442
171	253
364	363
97	101
38	44
94	93
557	556
319	490
173	170
196	195
659	677
40	39
123	128
131	156
68	68
251	250
166	165
202	201
114	113
122	139
440	515
81	86
37	113
122	223
234	283
120	119
133	285
61	320
213	210
167	249
221	278
120	149
112	111
74	99
92	91
92	127
205	446
148	147
243	242
55	54
390	389
153	152
333	372
629	628
420	419
383	427
78	77
46	203
124	119
166	191
272	411
613	1019
40	35
141	140
238	256
203	244
72	107
102	96
88	188
329	382
43	42
61	60
147	184
184	178
46	65
270	269
161	160
113	112
338	337
86	123
293	292
180	179
236	277
370	369
92	91
321	320
256	255
165	164
112	113
284	283
325	324
43	70
934	995
208	207
386	385
407	406
365	364
103	102
46	45
365	364
87	86
278	290
187	213
125	124
204	225
164	222
62	140
208	269
153	152
175	174
64	63
215	190
95	94
61	60
326	325
303	302
83	70
143	142
300	299
275	485
773	1047
401	400
230	229
211	216
222	244
409	408
394	419
225	308
225	345
89	106
194	193
357	356
376	375
59	58
313	365
288	302
70	69
91	187
103	120
162	184
111	156
46	45
61	44
52	43
280	314
71	85
39	43
93	145
69	177
75	74
194	251
102	101
173	172
95	94
246	241
217	231
156	229
237	236
106	150
147	187
45	44
77	80
483	482
180	196
214	255
164	163
369	454
80	79
252	251
58	59
116	115
61	100
229	241
228	342
179	198
48	98
81	158
46	167
132	151
492	491
153	179
105	104
433	432
208	207
339	346
153	152
179	279
456	784
91	90
574	623
59	65
124	123
133	132
232	231
568	566
273	272
101	148
64	63
91	90
124	242
357	590
397	439
207	206
113	112
429	428
287	286
191	190
104	103
118	117
296	516
222	221
105	104
52	51
184	183
77	76
105	107
43	97
183	276
823	1037
398	397
228	227
303	1135
79	195
104	103
279	361
356	355
55	54
89	72
35	34
126	125
184	183
78	89
570	643
110	109
202	201
392	451
91	467
157	156
215	214
311	318
158	164
164	263
435	434
559	558
407	406
551	550
168	167
157	194
161	182
265	264
114	113
632	834
204	203
311	310
431	430
111	110
206	407
153	152
306	305
223	225
260	259
177	176
116	148
144	225
142	128
213	191
103	119
100	99
604	804
56	257
159	158
406	652
113	376
221	219
169	189
112	115
122	133
84	185
94	223
369	368
181	248
88	87
116	160
43	57
244	271
594	593
259	258
202	201
89	88
485	484
367	361
108	99
434	433
236	235
165	164
84	83
126	125
92	91
178	173
366	411
66	65
350	349
539	555
87	116
334	333
136	151
65	64
298	297
356	355
170	169
110	109
183	240
165	164
462	461
174	173
71	70
289	288
209	208
223	222
318	317
297	296
991	990
182	185
581	745
481	480
228	227
375	460
96	102
111	110
345	407
1048	1047
258	284
125	228
91	132
135	134
285	265
129	143
95	99
128	127
158	176
205	263
51	50
51	50
89	103
174	244
266	265
356	355
500	514
207	206
312	311
507	506
317	316
149	155
312	311
142	219
710	709
287	374
73	72
149	257
1070	1293
378	377
169	165
121	199
132	216
147	149
329	328
417	416
228	266
392	391
383	536
154	178
286	285
249	248
138	137
117	116
601	701
66	65
363	362
66	65
322	375
121	120
76	75
407	406
301	300
206	248
64	85
188	187
532	531
100	104
137	136
239	268
84	83
135	160
143	149
139	171
79	181
119	124
162	183
48	47
468	462
179	302
139	180
99	98
338	337
169	168
205	216
201	200
227	226
462	461
128	127
70	69
113	110
215	214
66	78
37	39
222	224
112	105
39	38
110	124
88	87
121	127
275	294
363	362
371	370
634	633
157	156
106	105
204	203
214	213
99	136
260	238
194	193
260	259
602	601
161	160
73	72
185	125
47	105
78	122
484	483
557	556
312	311
242	241
205	204
104	250
150	149
127	131
165	302
166	235
178	547
176	625
63	72
457	512
69	115
165	214
79	78
156	155
360	359
55	82
119	198
292	301
392	391
146	145
294	579
126	160
151	138
179	179
220	219
188	178
383	382
133	132
138	137
649	648
427	426
120	156
79	164
133	243
180	368
253	252
245	295
53	104
386	385
87	91
288	321
329	328
98	98
151	182
555	554
469	468
109	108
149	148
177	176
121	120
255	254
159	181
547	546
263	416
162	161
733	732
226	225
716	894
137	190
191	190
567	682
134	133
298	358
69	241
204	208
66	68
170	169
473	472
153	191
354	331
226	225
528	971
237	236
210	263
349	348
234	237
216	228
60	337
68	332
222	332
252	251
104	103
319	398
87	390
67	322
93	245
47	166
69	166
48	95
154	153
437	436
44	109
128	155
227	224
61	69
134	129
116	115
42	96
71	152
89	95
67	88
57	143
80	143
45	105
83	108
43	56
52	81
81	128
235	252
120	224
294	445
160	222
96	147
406	405
389	388
290	289
241	240
169	246
459	458
815	877
230	267
126	380
123	108
86	110
313	316
278	337
115	132
38	37
68	68
135	134
159	174
82	81
143	142
94	77
97	149
93	216
271	279
136	173
110	263
64	111
172	195
47	59
201	266
218	185
35	56
77	68
105	185
154	164
217	224
256	313
92	91
383	382
349	348
151	150
188	198
491	490
83	85
199	228
98	97
49	95
229	204
209	229
144	143
217	232
189	188
332	331
204	289
82	78
318	350
173	200
299	298
754	753
311	310
81	80
193	158
402	410
347	346
205	384
184	223
163	147
225	205
674	673
303	302
330	329
171	170
162	161
82	81
151	150
59	58
149	148
238	237
319	318
157	166
252	251
254	253
137	136
369	368
101	100
281	319
189	188
245	320
93	92
165	164
146	140
197	196
454	453
66	65
675	684
321	320
206	205
162	195
87	86
96	95
226	225
642	661
87	86
290	294
30	40
418	461
91	107
57	57
137	142
110	150
220	219
249	248
137	149
296	295
172	171
419	418
43	42
58	72
83	85
390	391
307	306
513	531
272	271
811	810
300	299
221	220
250	249
98	97
306	316
180	186
146	145
241	240
396	443
513	512
307	306
304	303
303	286
143	254
225	280
61	60
443	442
442	441
128	127
110	121
181	371
52	51
193	192
324	374
78	77
124	123
199	198
411	410
93	92
137	150
122	118
403	402
179	178
469	561
93	92
126	125
86	85
96	95
241	240
301	300
123	122
296	296
90	91
116	127
182	313
76	75
315	314
282	281
163	162
332	375
114	113
124	123
223	222
80	100
153	166
244	243
123	122
86	134
41	82
96	105
67	67
216	200
115	208
287	373
59	62
107	129
210	217
268	271
287	318
83	224
161	191
376	490
48	184
129	144
137	140
222	220
35	34
201	231
69	76
207	206
372	371
50	57
110	167
172	333
231	251
69	68
107	106
135	159
417	605
157	184
73	72
180	198
85	132
39	38
489	573
83	82
352	390
161	188
125	124
92	163
112	135
189	188
1370	1368
204	203
448	447
431	430
643	814
145	144
113	152
288	287
209	208
90	91
293	374
203	215
39	38
613	612
166	165
399	398
143	156
387	402
61	73
229	228
185	184
150	149
62	114
162	259
113	166
273	254
228	227
558	557
95	94
261	260
455	754
290	381
135	329
115	117
188	187
79	148
108	97
217	350
62	60
165	184
103	217
238	237
76	88
93	106
100	98
260	261
159	185
205	256
65	68
337	399
183	511
78	128
140	213
676	1486
113	121
200	221
414	446
144	182
216	215
196	195
211	208
363	362
467	466
371	400
522	870
343	342
256	255
162	180
409	471
56	55
320	319
192	191
133	155
190	189
52	51
67	116
74	139
370	369
703	702
555	635
71	70
322	376
400	546
126	125
188	187
56	55
49	71
161	171
109	129
178	195
124	155
102	138
137	150
312	350
135	375
170	169
138	138
41	58
142	138
479	720
61	77
122	131
85	84
430	654
177	205
77	76
77	76
221	220
139	137
106	105
120	122
76	97
62	125
104	98
220	219
112	46
199	275
35	38
145	178
150	149
153	222
110	108
98	98
143	235
189	195
133	132
201	285
292	260
128	172
97	100
257	257
130	161
31	30
57	62
313	436
82	95
71	70
71	70
58	57
187	186
199	366
823	910
64	77
168	241
194	197
88	101
116	151
59	75
344	390
66	65
111	161
291	469
242	370
88	160
232	175
118	78
62	246
194	226
90	151
115	206
115	233
58	56
195	217
54	31
186	165
151	171
172	176
326	364
39	91
252	266
115	128
124	123
364	363
213	212
1321	1320
70	69
141	183
266	469
277	276
376	375
221	220
71	77
42	79
251	354
113	112
138	137
161	271
122	280
98	158
71	158
404	471
205	202
171	198
250	536
252	290
149	208
172	320
126	157
82	63
72	67
86	211
139	138
131	126
122	160
185	184
172	173
142	190
123	125
139	138
90	89
217	216
94	152
111	110
75	74
178	177
90	85
77	113
72	70
223	227
334	313
86	85
359	398
539	847
202	210
76	75
125	124
130	365
216	207
307	306
252	251
106	138
192	191
189	188
38	37
328	345
85	84
82	81
45	42
221	273
95	97
187	186
216	215
69	68
321	357
195	194
216	215
290	307
171	274
284	326
51	50
69	68
98	97
123	156
99	102
52	51
44	42
71	69
100	131
33	32
258	401
252	251
116	128
140	155
99	102
125	124
89	100
221	287
74	74
149	187
72	71
206	205
70	69
165	164
103	80
149	148
44	43
1027	1061
117	118
161	160
208	207
174	173
58	57
131	148
128	310
247	273
86	82
54	103
70	165
142	143
163	162
103	123
79	78
449	413
270	269
341	340
214	213
335	334
266	265
150	191
326	347
371	418
67	109
269	274
117	122
126	125
186	185
275	274
73	161
68	172
38	84
80	113
86	90
49	104
62	83
155	154
110	98
188	187
68	82
42	41
102	219
42	38
100	101
146	214
53	114
98	124
120	127
62	91
364	599
57	122
108	161
46	1172
185	338
54	120
69	68
70	70
166	227
75	74
51	56
220	233
167	166
247	246
97	116
226	271
274	273
263	262
154	153
349	348
265	264
373	372
90	89
407	772
164	372
234	278
68	67
63	62
270	284
125	124
51	50
136	135
69	68
184	183
168	175
318	180
257	256
131	130
99	98
154	153
46	78
92	91
126	125
235	234
178	177
49	48
44	43
153	152
80	41
92	99
164	117
170	169
378	406
121	255
158	157
69	68
531	530
502	501
116	115
151	161
211	238
125	124
130	129
149	191
132	131
251	250
144	143
138	137
94	161
153	136
387	502
122	178
62	72
99	98
233	232
118	119
170	169
73	74
129	130
73	68
212	489
122	399
91	114
188	154
217	294
134	172
298	336
303	292
127	125
141	114
81	231
89	88
288	287
379	378
230	227
179	178
298	351
105	104
357	381
224	223
443	456
193	213
152	386
183	208
154	153
147	207
417	416
302	303
48	47
80	79
73	72
72	71
64	63
59	58
227	226
272	261
65	71
66	68
126	125
269	309
59	70
162	161
76	75
180	179
335	334
234	233
101	100
119	116
462	508
88	330
253	257
152	151
57	56
102	109
121	120
46	45
128	127
361	360
72	71
166	165
148	147
125	124
61	60
183	182
123	139
210	428
142	152
69	68
461	463
46	59
502	501
116	115
343	342
125	124
130	129
106	109
82	81
121	123
247	246
141	140
145	130
319	302
144	164
396	544
110	109
233	232
248	247
191	190
599	614
481	985
403	385
259	403
142	141
117	116
194	194
144	348
199	198
93	92
98	97
134	143
126	166
45	44
65	64
115	194
111	110
239	275
124	313
166	206
33	31
126	209
151	417
73	118
72	78
65	65
83	82
136	283
63	62
85	84
51	50
121	120
124	123
110	109
95	94
58	57
104	103
89	88
141	140
95	156
232	231
123	122
134	133
98	97
220	219
149	148
87	86
140	139
80	76
339	422
194	171
514	513
166	181
87	88
336	331
62	61
178	236
197	196
69	76
280	282
271	272
291	308
127	126
180	179
204	203
245	244
85	84
50	49
65	107
371	486
189	191
231	230
56	53
132	131
116	130
253	252
117	142
185	184
230	285
111	137
444	565
126	158
473	472
142	207
70	100
357	356
83	156
192	321
65	110
135	163
117	76
73	75
98	90
203	267
147	173
93	343
78	148
127	104
83	76
352	496
53	75
70	69
92	91
69	110
111	175
83	82
138	162
46	118
50	140
63	93
120	145
73	131
82	72
305	304
205	204
66	65
48	69
136	284
143	299
88	281
187	281
120	184
68	102
124	199
698	885
190	647
71	70
287	411
70	389
62	79
63	59
66	65
84	83
281	267
95	94
229	285
81	90
188	187
186	178
195	194
93	92
71	102
171	282
109	293
135	162
112	111
89	192
73	124
130	128
91	110
53	141
122	215
80	119
109	145
120	169
92	316
255	383
77	87
181	180
131	133
40	33
36	35
122	127
61	156
138	137
75	75
405	464
217	216
53	77
101	177
409	440
73	72
464	463
877	876
362	361
513	512
50	49
81	132
99	107
226	225
336	335
339	338
269	268
139	428
80	428
151	278
63	62
122	140
375	374
138	363
240	363
281	280
153	152
315	314
338	337
303	302
138	137
206	205
349	442
841	891
248	247
86	180
486	543
307	306
303	302
338	337
335	334
110	109
248	260
167	221
83	82
95	94
179	178
233	417
131	130
153	153
133	132
180	179
248	247
218	217
269	268
398	397
346	397
63	116
229	233
283	301
101	101
96	420
85	167
94	211
134	202
162	190
71	94
207	206
418	634
229	247
309	291
341	340
34	87
92	91
126	125
64	102
111	110
86	85
253	252
350	349
121	107
33	76
96	95
782	865
325	324
43	42
56	55
738	891
155	154
197	196
255	254
205	218
172	171
266	265
109	108
73	72
105	104
150	149
58	57
610	661
621	644
91	148
265	375
263	262
182	182
374	373
980	1035
56	55
51	118
408	407
197	198
69	215
117	164
269	268
333	330
175	167
132	98
322	321
369	468
120	133
82	81
311	325
223	222
75	74
120	119
74	73
105	104
158	212
334	462
88	90
431	430
284	283
251	280
298	350
73	74
263	262
293	292
198	176
256	256
315	349
220	219
251	262
122	132
76	113
139	172
65	263
58	50
236	236
118	91
151	149
220	262
95	94
354	353
506	513
50	49
67	59
263	307
75	79
172	168
128	135
79	78
270	306
258	257
278	276
97	175
56	55
284	282
88	86
89	88
82	72
154	182
57	56
193	192
67	66
105	104
272	271
343	342
112	122
72	194
77	282
133	132
188	187
234	241
102	101
310	327
58	57
75	56
72	75
301	344
305	275
103	102
168	167
90	89
145	144
191	370
164	212
282	307
164	249
129	483
69	161
96	107
267	426
168	167
89	88
134	133
78	171
80	155
34	39
48	56
243	445
244	257
256	273
173	172
70	77
181	270
1006	126
489	1537
193	804
59	804
87	859
30	2867
66	1525
64	663
59	160
71	473
172	188
89	125
95	119
117	159
54	86
106	345
203	272
324	403
352	351
267	266
260	254
220	219
84	83
251	257
177	176
60	59
50	49
98	97
281	280
298	256
153	263
258	332
65	147
163	174
75	74
180	179
327	326
310	340
116	159
79	95
85	93
65	109
71	70
86	99
175	390
94	97
70	69
101	97
112	225
172	249
67	214
63	106
37	56
68	67
168	208
300	456
222	173
178	231
210	209
138	337
314	313
265	264
273	313
94	438
56	56
207	215
57	60
79	78
112	111
187	305
104	205
166	165
74	157
58	181
147	183
87	90
99	167
60	162
237	292
58	57
127	189
58	132
215	269
71	73
33	32
291	297
122	123
152	224
86	103
225	259
131	131
112	112
87	235
96	132
270	269
276	335
73	125
561	560
104	145
96	170
112	116
76	606
111	264
187	266
116	196
89	133
69	106
168	167
56	55
75	67
104	182
163	382
88	163
100	221
256	280
53	61
72	136
74	215
98	128
97	121
93	175
150	150
90	89
59	62
187	192
40	177
159	362
71	121
438	432
61	65
31	29
183	182
506	505
300	293
554	577
237	236
284	286
174	173
136	135
53	52
50	49
327	326
220	219
104	103
478	477
148	153
822	957
130	129
365	364
401	400
393	392
442	441
193	192
110	109
88	97
151	150
411	410
220	219
77	76
298	297
352	351
104	103
98	97
92	91
247	246
212	211
287	286
360	359
112	111
271	283
221	243
127	127
144	143
193	192
236	235
226	225
226	225
238	237
170	169
322	321
426	425
399	462
76	112
148	147
303	302
664	663
253	252
284	283
244	243
54	53
168	213
419	512
385	384
465	464
152	151
73	79
171	166
244	243
247	246
212	211
139	138
346	345
235	234
189	188
97	96
198	197
379	378
336	335
236	235
123	122
240	239
109	108
64	63
165	239
129	169
181	350
92	91
175	162
170	347
36	25
77	132
294	349
372	441
316	340
236	235
411	421
142	141
117	116
350	348
199	198
60	63
266	241
92	91
142	184
135	138
120	119
101	91
78	93
275	136
70	71
226	273
80	79
96	95
89	88
71	63
217	215
152	151
154	153
187	187
141	140
68	67
92	90
72	71
109	122
81	80
62	33
487	696
97	74
89	88
204	198
50	69
51	50
142	196
203	207
180	159
44	43
176	175
126	139
95	102
147	156
137	139
78	63
180	206
77	216
210	263
252	307
80	79
123	189
297	285
142	141
113	116
184	176
161	205
507	510
39	61
125	127
93	129
85	95
65	64
47	46
69	68
136	158
48	69
375	399
108	107
250	258
444	428
519	540
91	91
154	149
374	410
195	194
152	151
78	77
92	91
191	190
162	161
159	158
74	73
159	103
57	56
127	126
126	125
162	162
79	65
138	281
136	171
132	131
306	305
52	51
436	499
187	186
328	327
173	190
212	211
64	64
107	243
198	341
207	237
247	246
659	675
399	398
99	165
97	81
486	485
539	1107
389	599
224	223
259	258
46	178
137	178
299	392
276	325
202	201
124	123
133	187
52	121
152	151
408	407
498	497
71	70
533	615
79	114
320	319
137	136
270	269
190	216
190	562
700	1135
217	375
222	252
140	160
133	304
208	183
165	195
269	347
294	354
135	134
36	52
173	219
171	171
86	216
52	92
112	115
160	159
147	145
167	309
186	211
119	118
98	98
116	115
86	85
253	252
318	317
173	172
62	61
94	128
332	331
194	194
117	116
142	141
71	70
264	263
278	319
92	140
106	103
72	70
38	37
308	328
247	246
326	325
107	106
214	213
56	55
73	72
102	101
108	107
168	192
92	91
215	214
265	288
131	130
78	77
266	265
391	390
197	212
110	102
146	145
83	82
173	172
407	406
224	269
228	227
74	73
145	144
257	256
142	141
141	140
64	63
159	158
154	166
111	83
107	63
95	78
176	135
78	77
145	220
238	342
180	179
134	154
146	144
67	57
71	70
47	65
114	120
161	161
89	130
64	73
128	127
124	123
76	75
120	119
64	63
193	188
224	223
476	475
197	196
107	106
78	77
119	171
74	73
94	73
78	77
154	153
150	162
96	187
104	140
196	670
225	254
97	100
211	210
229	228
110	109
102	101
230	212
218	264
367	421
86	85
248	247
112	111
78	77
182	181
96	95
131	130
303	289
167	166
644	643
311	310
112	111
55	54
244	243
132	164
102	131
43	46
240	230
403	437
67	66
66	65
94	93
510	732
238	395
48	131
301	456
103	189
376	400
97	96
156	164
287	286
187	186
86	85
154	153
70	69
136	113
174	173
128	169
218	217
86	85
111	110
437	436
74	73
157	156
235	234
126	125
100	99
39	52
92	92
77	72
172	181
647	646
176	175
460	459
426	423
332	376
232	231
65	74
102	102
162	161
152	247
107	106
93	102
160	159
92	91
99	74
80	115
99	98
73	89
123	191
101	113
107	107
208	208
50	70
354	569
134	258
117	116
392	391
96	101
