85	84
280	279
113	112
507	506
549	548
88	87
188	187
140	139
663	616
561	611
38	37
407	482
57	56
94	93
393	392
289	288
47	46
340	451
110	107
204	227
58	219
153	176
110	109
114	113
274	273
287	286
349	348
234	331
98	97
421	420
356	355
294	293
225	224
377	376
417	416
95	94
241	359
246	488
100	202
143	167
247	246
431	430
412	411
465	464
109	196
100	195
399	398
361	399
247	246
321	320
127	125
659	848
107	106
78	77
68	67
170	144
121	134
236	235
314	313
239	238
721	720
217	230
57	72
255	254
317	316
127	126
127	126
297	296
156	155
290	289
612	611
207	206
287	286
207	206
341	340
97	96
140	139
283	299
318	317
718	753
111	123
79	185
450	502
69	156
599	665
247	260
147	230
54	148
408	407
130	129
808	491
520	519
251	286
213	222
32	31
270	269
255	254
497	496
499	389
210	209
335	334
256	255
476	475
252	251
202	201
547	546
91	89
73	83
107	171
259	258
190	260
125	131
382	395
117	116
234	233
385	387
730	729
444	443
205	204
169	146
265	326
81	73
182	181
85	84
176	175
195	194
90	89
329	328
150	125
61	75
477	476
311	310
81	80
929	928
211	210
79	78
458	457
37	36
470	469
350	349
470	469
608	607
247	246
299	298
293	292
296	295
337	336
478	477
428	449
296	295
200	199
291	290
118	117
273	272
303	302
104	103
97	96
74	73
93	92
73	72
247	246
258	264
81	80
43	41
310	309
212	211
301	300
805	1016
196	195
278	277
182	181
465	464
105	104
275	274
117	136
303	358
146	145
336	300
263	278
299	312
345	344
207	206
314	313
225	224
458	457
233	232
167	166
301	300
35	34
321	320
330	329
93	251
142	182
256	255
200	199
147	146
100	99
143	142
249	248
298	297
567	507
229	228
58	57
58	57
162	161
309	308
444	443
177	176
192	222
73	80
342	341
619	732
129	128
71	70
203	202
106	105
387	386
811	810
377	376
171	179
357	446
297	296
727	726
270	297
206	205
179	218
165	231
221	220
834	833
360	359
49	47
49	48
766	765
227	227
114	113
284	283
475	577
884	883
124	123
269	268
335	334
86	84
158	170
458	457
306	305
501	466
389	388
439	438
42	41
201	200
120	119
343	366
615	614
286	285
343	342
322	321
309	308
395	394
128	127
148	147
143	142
229	211
107	106
122	121
625	2867
691	1342
117	116
1279	1407
378	377
324	323
252	251
212	211
587	631
48	42
159	158
194	207
355	354
152	151
72	72
197	196
91	90
149	148
77	89
140	139
279	278
180	179
349	348
97	104
430	429
530	529
85	84
128	127
65	129
310	309
534	533
435	434
376	375
216	258
235	274
1228	1227
150	149
479	543
230	229
82	106
327	365
275	274
247	257
59	70
97	112
136	135
269	268
196	195
121	160
163	162
125	124
81	80
450	449
485	549
66	65
81	43
213	212
246	245
262	261
401	538
53	52
137	136
297	296
515	514
397	396
239	238
134	133
201	202
244	277
307	306
166	165
291	290
357	424
456	807
123	122
203	202
442	441
70	69
172	171
306	331
81	80
328	327
679	678
427	426
260	259
524	523
345	344
472	471
53	52
262	261
160	185
215	276
115	114
398	397
46	45
826	914
385	384
467	466
390	389
291	290
283	282
208	240
358	357
453	452
190	189
426	526
96	95
134	133
161	160
109	108
844	914
179	178
94	93
492	508
65	194
65	86
139	154
335	324
116	138
113	94
406	405
295	294
137	136
230	229
550	549
105	104
653	652
479	478
189	188
224	223
319	318
362	457
168	163
128	127
199	198
289	364
156	187
230	229
235	234
279	278
278	277
185	329
165	186
523	522
560	715
167	156
489	488
684	683
327	343
109	91
177	176
133	195
325	504
259	258
52	51
232	231
327	326
511	510
312	311
297	296
150	149
119	118
253	252
145	144
137	185
419	424
208	226
253	252
282	281
355	354
195	194
151	150
145	144
260	259
339	338
211	257
58	50
148	147
112	111
743	742
134	133
100	152
251	268
258	259
30	29
367	366
223	222
561	547
446	445
254	253
757	756
303	302
320	319
121	120
217	216
191	190
321	366
447	446
240	239
318	317
246	217
77	76
91	90
394	476
465	672
231	230
175	174
919	1272
355	431
161	160
197	241
60	59
272	271
207	594
644	1309
91	90
99	98
58	57
52	51
404	414
486	485
716	715
116	115
328	345
513	512
192	191
289	391
304	592
64	63
434	433
479	478
159	158
419	418
98	97
549	548
118	117
290	289
343	342
189	188
42	41
49	48
106	105
178	177
389	388
120	119
132	131
250	249
521	520
71	70
326	325
486	500
716	1029
377	385
237	257
64	64
351	350
205	204
380	379
352	356
150	196
154	153
323	321
118	117
108	107
321	487
155	244
317	316
103	102
427	426
420	419
335	334
66	65
433	432
142	141
225	224
448	813
123	123
151	150
104	120
134	133
233	232
220	219
133	132
161	212
388	387
257	238
303	315
92	91
110	109
250	249
252	251
355	354
466	465
102	101
155	154
217	216
285	284
229	228
92	91
132	131
105	104
76	75
150	149
164	163
169	168
204	203
160	176
262	261
145	311
475	653
514	513
228	258
281	280
264	263
216	215
156	165
207	206
471	470
248	247
322	321
268	286
36	35
108	107
648	647
247	246
76	118
80	81
69	68
448	447
213	212
578	577
1188	1259
82	81
114	113
177	176
293	318
501	500
341	340
332	331
333	332
135	134
339	353
184	183
451	450
129	128
155	154
713	712
102	101
381	551
67	66
292	291
95	193
101	99
194	206
118	151
696	695
205	204
129	128
154	153
242	245
84	75
59	58
127	149
54	88
76	137
388	467
335	334
311	310
48	71
128	396
229	241
151	150
335	334
139	138
168	167
396	395
952	951
148	147
504	503
360	359
202	224
171	170
501	500
340	339
423	422
293	292
107	106
166	165
1045	1044
398	397
293	474
724	568
127	325
128	325
228	238
129	337
219	337
262	261
73	72
205	204
217	317
273	272
158	157
105	111
112	111
278	277
91	90
92	91
231	265
36	148
112	107
1433	1571
119	185
352	582
90	89
327	326
154	153
190	460
95	94
124	129
130	129
67	202
183	182
166	179
105	101
142	140
441	440
449	878
177	176
168	167
141	163
163	175
448	447
395	394
487	486
258	257
129	127
794	793
211	210
89	196
261	356
361	360
99	100
246	422
353	454
88	280
75	74
167	227
73	443
185	513
93	511
110	164
81	225
145	126
37	295
260	295
167	260
91	90
580	579
383	644
152	327
90	418
457	456
468	467
319	318
391	390
78	90
73	102
116	115
51	50
185	184
128	127
277	276
165	286
163	198
86	85
256	255
384	383
427	426
307	306
57	56
55	54
122	211
129	237
1088	1087
98	435
356	435
782	781
700	699
228	244
101	100
285	284
51	50
143	142
553	566
139	138
89	88
218	228
178	196
222	259
158	157
151	166
123	224
429	429
129	127
99	171
95	136
52	83
60	56
116	163
75	74
34	33
208	207
332	310
165	164
246	245
180	179
158	157
278	277
242	241
226	225
261	260
79	78
344	343
138	137
149	148
226	225
539	538
202	201
54	53
358	357
260	259
235	234
517	516
260	259
458	463
408	407
240	239
444	443
339	338
244	214
323	322
436	471
411	410
556	555
393	392
266	265
99	98
176	175
216	215
290	289
103	102
230	229
107	110
291	390
345	447
112	111
239	238
229	228
821	820
311	310
429	428
99	98
259	258
76	75
254	402
156	155
318	317
196	195
189	188
238	237
135	134
123	127
517	638
377	376
51	50
254	253
498	497
420	419
331	363
300	299
162	679
518	679
62	61
256	394
157	169
88	87
309	313
138	120
429	938
250	277
134	133
165	164
150	149
317	316
111	110
194	269
68	121
80	83
183	183
110	121
383	382
96	95
968	1073
62	64
132	131
197	196
90	89
175	187
248	288
192	228
406	405
362	380
237	236
265	277
257	256
314	313
429	428
96	95
287	352
158	193
177	176
621	620
160	159
78	77
95	94
283	282
126	125
292	290
330	329
434	428
465	784
213	106
272	271
220	219
969	968
343	411
404	379
232	231
501	500
131	125
166	252
207	209
42	60
241	281
159	225
207	206
200	307
106	307
55	272
249	317
146	145
496	495
255	254
233	232
130	142
256	422
328	327
552	551
56	42
202	201
226	245
253	276
364	363
524	523
251	294
213	238
346	345
119	118
335	334
153	152
138	137
131	164
122	121
470	588
120	119
496	495
301	309
169	235
257	212
97	96
439	438
415	414
97	291
108	226
156	202
152	142
300	366
44	78
68	97
205	256
78	200
107	98
169	189
70	57
193	254
126	125
380	383
306	305
196	195
902	901
133	132
66	65
248	247
207	206
348	347
401	400
404	379
113	112
298	297
178	183
273	284
431	456
594	593
95	94
77	70
97	96
97	96
255	254
781	887
631	630
475	474
588	587
483	865
381	424
121	120
265	264
308	308
103	102
517	516
114	115
479	627
183	182
183	182
221	220
284	283
97	103
144	143
151	150
410	409
127	126
307	306
66	65
284	283
225	224
418	417
199	198
201	200
191	190
265	272
502	602
111	105
247	246
195	194
160	159
455	454
309	308
152	151
210	234
177	176
810	809
842	841
189	188
109	234
113	106
464	712
86	329
166	165
337	336
123	127
640	749
274	279
297	296
144	143
417	539
102	101
427	426
474	473
115	114
208	207
122	123
78	164
233	232
262	320
173	172
365	364
275	288
116	115
129	128
275	274
263	271
244	432
365	449
265	264
238	237
262	282
242	241
186	185
399	398
232	231
286	285
134	133
162	213
154	437
165	223
164	338
495	810
161	161
342	341
48	64
110	111
244	243
233	231
155	154
199	198
874	1160
278	277
320	319
714	713
130	129
194	193
144	253
87	86
67	66
182	181
141	140
237	236
182	274
67	92
288	403
145	208
61	60
76	75
174	162
135	134
272	271
224	230
259	276
92	91
61	64
147	152
85	84
71	101
268	267
88	91
185	201
260	259
231	235
453	452
241	240
156	155
247	246
257	256
48	120
109	108
86	85
99	122
95	204
235	234
114	113
193	192
140	139
105	104
247	246
202	226
506	697
104	85
234	379
106	112
83	178
195	260
91	90
98	110
154	250
124	123
284	283
329	328
114	113
549	548
337	336
56	64
182	183
447	464
145	144
126	124
116	115
144	180
134	133
32	31
206	168
431	670
180	575
311	310
121	142
93	92
246	245
112	111
144	143
216	215
100	118
286	400
246	245
262	261
182	192
80	104
367	366
45	51
61	96
179	145
343	307
230	309
152	325
164	325
61	116
69	74
246	273
348	427
92	107
131	130
104	103
232	353
130	137
156	155
239	238
288	287
117	166
168	169
40	39
174	225
151	163
125	124
586	520
388	438
153	152
415	414
134	133
352	351
368	367
392	417
157	156
178	266
546	545
612	1032
351	510
167	260
261	306
259	258
167	166
94	95
126	125
548	547
842	841
223	222
206	205
181	180
47	46
89	88
34	33
381	380
224	293
86	165
223	277
101	137
218	212
330	329
276	283
182	159
261	257
355	932
302	659
225	659
286	285
78	121
207	258
198	197
442	556
247	279
182	222
184	258
293	334
232	231
128	130
293	324
478	626
154	183
47	46
265	264
216	215
94	93
557	556
491	490
196	195
678	677
363	362
311	310
166	165
202	201
288	287
516	515
346	472
159	431
182	181
129	142
461	460
350	349
211	210
92	91
529	528
297	296
390	389
484	483
629	628
420	419
428	427
78	203
81	206
418	417
257	411
741	1024
364	363
278	277
532	554
216	224
289	288
270	269
317	316
338	337
404	403
180	179
236	277
370	369
92	91
321	320
244	207
165	164
112	113
284	283
158	173
185	184
43	70
93	160
292	409
509	995
208	207
154	169
232	231
397	396
365	364
103	102
71	70
365	364
59	58
472	471
75	74
365	362
270	269
153	152
175	174
64	63
226	225
95	94
61	60
326	325
303	302
353	362
227	226
136	306
216	634
528	1047
401	400
230	229
464	431
440	439
458	457
310	308
190	277
89	106
194	193
176	186
127	154
376	375
111	110
605	615
324	323
116	115
295	294
180	179
150	149
368	367
157	156
140	139
326	325
173	172
325	324
173	172
231	266
237	236
300	299
81	80
483	482
197	196
304	303
164	163
455	454
297	296
110	109
205	204
664	663
183	182
152	151
383	394
153	179
105	104
51	51
156	228
219	303
208	207
425	424
153	152
255	336
384	405
91	90
624	623
124	123
133	132
232	231
567	566
273	272
153	152
177	242
357	590
594	593
59	58
51	50
403	428
287	286
191	190
104	103
118	117
296	373
222	221
157	156
148	147
73	72
125	124
532	1049
519	530
398	397
216	215
1055	1120
55	54
176	175
126	125
184	183
190	189
178	441
203	228
110	109
140	139
63	62
625	624
243	254
203	229
129	157
320	319
435	434
115	160
445	444
407	406
489	550
168	167
249	266
161	182
224	264
36	35
114	113
835	834
311	310
431	430
136	135
160	159
152	151
306	305
226	225
260	259
285	284
270	269
198	197
200	199
494	804
284	299
175	253
205	531
247	376
55	66
169	219
186	185
84	185
94	223
369	368
309	308
161	160
272	271
594	593
259	258
293	292
485	484
454	453
434	433
382	381
262	261
338	411
86	86
350	349
556	555
87	116
285	333
51	50
272	271
298	297
356	355
59	105
65	64
110	109
183	182
165	164
236	211
128	338
117	132
174	173
71	70
289	288
82	99
102	101
141	140
84	92
318	317
295	296
145	138
268	298
180	317
295	297
468	745
279	299
481	480
228	227
461	460
111	110
217	344
170	191
595	636
452	467
258	284
216	228
416	415
218	217
88	97
83	82
373	372
51	50
51	50
124	261
129	178
266	265
356	355
505	514
207	206
195	305
111	138
438	506
55	74
317	316
148	276
84	276
312	311
261	260
747	746
362	400
73	72
527	1293
356	524
385	598
342	341
272	271
185	249
147	149
255	334
80	81
207	206
208	216
228	318
392	391
480	479
59	58
286	285
199	248
138	137
117	116
601	701
66	65
363	362
387	386
210	209
407	406
301	300
249	248
188	187
532	531
130	142
137	136
246	268
471	487
74	189
209	244
184	183
146	145
369	369
274	302
99	98
83	78
241	240
169	168
205	216
201	200
227	226
231	258
114	194
100	99
193	186
70	69
119	135
263	262
68	67
36	35
129	234
89	74
208	213
42	46
395	394
235	349
78	77
97	96
255	277
262	290
317	439
156	155
106	105
145	135
558	957
194	193
567	860
313	312
50	49
98	97
73	72
185	125
236	235
484	483
557	556
261	311
53	56
242	241
182	185
61	52
251	250
127	131
177	302
410	625
216	242
513	512
215	214
79	78
156	155
360	359
475	474
392	391
146	145
555	554
251	250
407	406
236	245
165	168
267	266
649	648
427	426
157	156
390	389
243	252
195	295
95	104
386	385
412	411
329	328
104	253
118	182
555	554
188	187
173	172
108	107
109	108
149	148
177	176
121	120
255	254
182	181
547	546
286	353
162	161
102	179
474	655
170	157
226	225
662	894
177	190
191	190
252	251
100	99
200	356
134	133
145	144
86	413
78	246
250	294
69	68
170	169
473	472
153	191
354	331
42	50
174	225
193	192
311	310
245	244
264	263
72	71
295	321
122	237
119	237
229	228
79	337
222	332
252	251
104	103
399	398
321	322
154	153
437	436
428	427
36	35
135	134
116	115
589	588
239	238
204	203
697	933
406	405
389	388
157	156
109	142
227	240
549	638
94	93
99	103
325	709
83	709
138	756
89	168
73	91
398	397
523	522
380	379
38	37
92	91
135	134
231	230
143	142
382	366
431	430
174	173
264	263
305	347
235	239
314	313
110	126
332	350
251	250
347	346
383	382
349	348
339	338
436	490
56	55
263	262
98	97
258	257
67	66
161	160
353	352
305	304
332	331
290	289
344	343
478	477
164	207
611	753
428	427
68	67
430	429
347	346
172	172
206	223
247	251
226	225
674	673
303	302
323	329
171	170
162	161
66	81
151	150
44	58
196	207
238	237
297	320
406	404
187	183
137	136
319	318
137	165
231	319
136	135
460	578
332	331
224	223
454	453
66	65
698	698
73	117
263	320
362	361
87	86
89	88
225	224
761	760
87	86
308	308
390	745
316	369
65	64
241	240
220	219
249	248
168	167
296	295
172	171
335	483
133	167
43	42
58	72
97	96
373	372
266	265
531	530
272	271
781	810
300	299
221	220
250	249
412	411
277	321
657	659
513	512
307	306
304	303
414	502
275	280
221	220
239	334
442	441
128	127
372	371
193	192
164	191
230	229
253	252
199	198
411	410
93	92
272	271
403	402
179	178
469	561
111	110
126	125
86	85
96	95
241	240
282	280
159	158
371	370
378	377
315	314
282	281
163	162
376	375
244	243
223	222
227	226
244	243
158	157
97	96
129	128
41	112
94	76
277	276
108	140
249	309
477	476
334	333
181	188
311	348
166	181
172	191
386	490
159	158
300	299
232	231
553	552
331	330
86	88
70	145
213	217
331	333
285	284
75	74
88	87
239	238
520	758
73	72
235	234
509	573
83	82
589	588
322	321
189	188
458	417
549	963
210	242
130	129
208	207
448	447
431	430
338	363
314	487
145	144
142	205
97	96
183	182
209	208
383	382
247	246
176	175
574	760
399	398
143	156
428	427
229	228
123	172
246	267
260	259
167	166
255	254
228	227
196	195
379	430
95	94
398	621
177	382
130	133
583	582
112	269
219	328
411	410
61	60
249	248
298	297
260	259
231	230
395	440
188	219
1487	1486
145	148
470	615
118	182
216	215
384	396
363	362
467	466
349	400
344	415
524	870
256	255
265	264
382	381
92	91
162	238
73	72
192	191
156	155
190	189
181	180
370	369
703	702
555	635
71	70
115	115
104	209
216	215
547	546
188	187
56	55
209	208
607	586
151	150
351	350
170	169
210	209
721	720
149	148
685	684
77	76
77	76
221	220
138	137
106	105
349	396
93	92
110	109
220	219
373	372
598	597
236	235
164	163
97	101
209	285
515	514
42	41
341	340
31	30
110	101
276	275
71	70
71	70
48	47
44	88
143	170
310	900
347	579
256	224
343	342
231	230
276	329
93	92
168	184
229	389
149	228
194	179
120	150
97	96
88	130
195	226
60	61
208	255
164	313
76	75
199	198
58	57
361	442
118	122
40	78
127	181
105	128
260	259
237	236
77	67
59	58
504	1320
536	1320
313	342
70	69
503	502
120	223
123	122
267	255
117	119
65	64
353	423
355	354
138	137
161	271
122	280
107	219
493	472
346	536
463	736
163	208
164	320
142	157
82	63
313	312
246	245
185	184
174	173
278	277
139	138
348	208
139	79
153	152
67	67
75	74
178	177
380	379
172	186
81	129
233	255
283	289
665	847
176	175
76	75
125	124
409	408
278	306
351	350
162	191
189	188
38	37
363	372
85	84
82	81
162	152
207	285
187	186
216	215
403	402
195	194
216	215
308	307
332	365
199	247
139	138
86	85
220	219
139	138
135	134
232	231
86	85
258	401
252	251
261	260
233	232
204	226
64	96
314	313
548	547
246	317
213	489
373	942
398	397
257	254
151	150
174	173
58	57
255	346
195	216
112	112
310	309
262	244
79	78
193	262
152	151
238	237
106	128
451	550
335	334
234	221
44	43
159	165
326	347
721	730
120	119
126	125
214	213
275	274
342	341
181	180
297	351
94	98
94	93
106	105
119	139
60	55
320	319
993	1148
180	221
313	312
340	339
57	56
234	233
413	412
304	303
46	45
237	236
80	79
232	262
154	153
349	348
254	253
286	285
379	378
307	312
109	130
298	351
462	461
50	49
191	173
442	456
214	213
134	133
235	234
154	153
147	207
88	82
417	416
262	303
79	78
80	79
109	108
74	73
94	93
61	60
159	161
74	69
262	261
99	98
69	68
252	251
77	76
180	179
179	204
125	124
234	233
364	372
990	1421
348	347
152	151
57	56
97	96
76	120
46	45
230	229
102	101
159	158
134	150
98	97
109	108
61	60
84	83
182	181
656	655
69	68
299	336
205	204
440	439
111	110
187	211
89	93
81	64
33	90
193	192
132	131
247	246
141	140
145	130
48	47
765	853
110	109
233	232
248	247
177	209
1091	1090
674	673
93	92
98	97
286	285
286	285
285	284
115	114
166	206
253	252
52	51
51	50
135	134
197	243
137	136
259	403
79	78
72	65
83	82
227	226
51	50
121	120
172	218
42	41
110	109
95	94
58	57
104	103
89	88
79	102
157	235
232	231
123	122
134	133
53	52
67	66
220	219
149	148
87	86
140	139
423	422
194	171
361	359
173	138
240	239
336	331
433	432
357	356
579	578
299	298
204	203
245	244
85	84
609	656
285	284
271	270
253	252
143	142
185	184
341	340
568	565
473	472
142	207
70	100
357	356
426	441
219	327
80	79
216	276
165	341
104	113
56	55
376	375
47	64
85	86
87	116
512	544
112	111
120	119
176	175
90	89
163	162
141	140
180	179
151	150
318	304
205	204
66	65
156	155
203	284
88	281
382	457
158	199
697	885
190	647
71	70
366	411
46	45
66	65
93	135
164	210
122	68
82	81
325	391
297	319
58	57
105	104
93	92
564	559
242	243
210	212
95	94
163	162
419	418
361	360
278	277
131	130
270	269
285	284
36	35
367	366
80	79
224	223
118	117
405	464
54	53
217	216
182	181
435	440
73	72
431	404
1248	1247
297	296
237	236
226	225
336	335
339	338
269	268
429	428
63	62
375	374
364	363
281	280
153	152
314	314
338	337
303	302
138	137
206	205
402	401
841	891
216	215
52	51
54	53
544	543
307	306
303	302
338	337
335	334
110	109
292	291
195	213
179	178
233	417
131	130
216	238
133	132
180	179
248	247
218	217
269	268
398	397
453	452
532	531
521	520
302	301
207	206
635	627
292	291
341	340
103	102
111	110
86	85
253	252
350	349
84	83
305	304
564	870
325	324
43	42
56	55
738	891
155	154
197	196
255	254
103	102
219	218
172	171
266	265
109	108
73	72
105	104
150	149
58	57
412	411
216	404
645	644
326	325
263	262
189	188
374	373
204	208
450	679
415	433
51	118
408	407
368	387
269	268
331	330
304	296
322	321
369	468
120	133
82	81
326	325
223	222
75	74
120	119
74	73
105	104
134	124
230	354
213	346
431	430
284	283
281	280
351	350
263	262
352	351
59	65
410	486
196	349
87	86
220	219
361	360
302	301
333	332
466	465
354	353
514	513
169	168
322	321
243	242
41	99
79	78
307	306
258	257
110	109
416	418
344	343
86	85
317	316
57	56
193	189
105	104
272	271
343	342
112	122
63	173
109	281
57	388
188	187
270	269
136	196
154	169
179	178
58	57
160	153
306	290
305	275
90	89
145	144
378	377
652	1174
191	484
227	257
37	43
134	134
108	107
148	155
52	51
48	56
64	160
161	260
95	304
173	257
80	95
175	167
73	104
78	77
125	237
80	244
74	73
164	202
183	152
198	140
78	82
496	804
437	761
310	761
39	38
123	191
110	125
174	201
133	165
55	123
423	613
110	149
313	366
41	47
137	136
113	112
140	137
336	479
84	83
136	132
69	67
131	176
43	42
56	55
105	119
272	280
448	447
163	206
359	358
75	74
144	138
47	63
327	326
331	330
198	197
223	222
81	87
283	283
179	178
347	462
334	436
57	56
123	140
333	454
285	284
95	94
338	337
138	137
83	82
265	264
475	474
58	57
78	77
150	149
58	57
101	100
79	78
701	700
354	353
500	499
379	378
190	189
282	281
33	32
194	297
68	57
236	235
232	231
515	514
619	1246
298	364
315	301
187	215
257	267
275	274
129	158
804	1015
295	294
53	67
155	220
108	107
256	336
74	73
254	252
313	302
46	45
72	71
49	78
111	109
420	426
360	380
440	439
512	511
467	466
270	269
154	335
175	185
561	560
254	253
66	65
230	229
443	479
305	304
168	167
93	137
75	67
884	883
98	100
60	59
441	440
89	88
227	250
139	138
484	483
473	472
96	119
81	83
226	255
463	462
294	293
389	396
222	221
71	69
72	71
128	127
73	72
126	127
174	210
117	116
107	105
163	222
32	31
297	296
417	464
168	210
207	206
229	228
68	67
487	486
456	455
340	339
405	404
109	108
114	113
65	67
127	126
249	248
102	101
661	662
119	146
62	64
169	228
52	244
41	80
240	245
81	116
123	198
177	184
89	92
122	207
87	133
369	418
232	231
407	406
86	85
212	227
418	417
103	102
47	46
228	227
110	109
108	113
270	269
92	91
463	462
511	510
275	307
287	357
241	240
112	111
215	215
453	452
104	149
98	309
77	76
280	279
173	194
549	548
392	391
109	132
389	388
168	167
143	354
78	77
458	457
604	603
193	192
256	255
124	134
111	208
117	116
531	530
391	390
319	318
347	346
72	71
147	146
48	48
84	121
79	78
193	192
500	438
308	177
106	105
257	351
207	206
232	231
212	211
501	500
202	201
287	286
425	424
219	218
108	107
101	102
276	261
157	154
145	144
79	78
97	130
156	155
98	97
572	670
174	173
299	298
80	79
190	189
121	120
67	66
99	144
136	135
141	149
88	99
116	115
276	275
194	193
390	389
30	29
83	74
54	53
233	232
230	295
149	148
245	268
109	108
71	117
77	76
116	115
72	81
213	207
224	223
166	418
75	172
98	51
118	101
36	75
45	80
118	265
169	226
90	68
84	84
149	184
213	212
393	705
167	291
57	187
70	69
238	237
231	230
79	78
106	105
170	249
139	138
202	215
226	270
424	423
249	248
74	167
410	412
123	122
63	62
137	136
270	366
539	1018
107	101
169	168
202	201
119	118
326	322
231	282
62	291
147	146
300	288
168	238
532	531
124	129
261	288
304	303
255	254
205	312
430	429
98	97
514	513
495	494
294	293
246	245
349	348
64	63
378	409
106	105
228	227
155	154
250	249
98	97
89	88
327	326
103	99
732	795
69	89
262	261
119	118
145	144
365	429
285	274
96	95
36	35
173	192
246	309
65	71
97	96
262	215
179	178
50	43
186	185
173	179
464	463
279	316
486	753
203	169
451	450
280	279
117	116
453	452
107	106
113	112
276	275
296	295
192	191
162	161
708	541
61	60
396	443
98	116
345	344
209	204
70	96
269	268
237	236
218	217
233	234
183	182
389	388
221	220
267	307
218	217
345	435
87	86
207	206
136	135
91	90
448	447
201	200
65	64
572	651
81	84
82	81
260	283
136	183
595	618
56	220
123	236
323	322
214	213
276	316
177	173
253	252
78	86
248	288
93	93
211	247
279	278
348	347
460	459
359	358
91	90
122	121
332	331
295	294
163	284
249	248
66	75
595	644
428	427
486	491
497	496
131	146
103	102
47	46
273	272
196	195
199	198
35	34
85	84
342	341
83	82
61	60
120	119
213	212
191	209
178	192
49	59
536	583
194	193
232	231
111	110
394	534
127	126
115	114
100	99
60	59
454	453
193	192
455	454
533	532
498	518
324	323
267	266
284	283
153	152
189	188
188	240
96	95
70	69
96	95
80	79
264	263
367	362
92	91
294	293
640	671
162	161
189	183
109	100
66	166
238	237
878	877
73	140
421	479
79	78
92	91
212	218
114	113
57	56
234	290
125	124
77	76
173	164
46	46
221	220
152	157
537	536
220	219
119	118
97	96
393	392
146	160
75	65
483	603
127	142
492	491
123	135
144	187
376	375
121	120
332	331
441	440
329	328
252	251
262	261
93	87
125	160
65	64
81	80
337	336
204	203
201	200
174	173
247	246
148	147
591	590
88	89
112	111
191	190
68	67
393	320
324	323
810	809
367	366
222	238
191	190
578	577
131	130
515	692
134	162
138	162
106	262
150	149
215	214
130	129
350	349
287	286
40	39
554	553
168	167
655	654
309	308
296	295
193	192
117	116
143	142
57	117
395	474
267	266
329	328
505	504
330	329
59	53
115	114
84	83
108	107
166	165
80	79
241	270
159	168
222	221
140	139
182	347
137	128
75	74
193	243
350	546
94	93
120	170
68	56
333	388
167	185
130	129
242	301
156	181
209	208
229	269
130	129
138	147
160	169
227	226
127	126
140	139
345	344
55	103
247	435
127	435
310	308
256	524
78	77
314	314
284	626
189	188
82	81
160	159
61	85
128	127
145	223
80	221
98	97
164	198
79	59
112	146
62	77
31	77
152	162
68	201
47	91
179	202
168	188
263	262
74	73
39	38
75	74
104	103
75	78
73	81
184	471
292	471
81	251
156	251
62	74
159	158
138	137
107	106
265	317
136	420
215	293
114	189
61	60
88	87
263	277
183	182
302	301
316	341
219	218
75	74
241	240
220	242
223	222
329	328
286	285
184	183
240	239
350	349
417	466
74	64
137	136
124	121
496	495
138	137
402	401
40	39
40	39
166	165
90	89
183	182
266	265
184	183
111	110
105	104
173	172
398	486
332	331
229	228
142	154
309	308
148	147
64	63
325	375
155	154
129	127
220	237
138	137
122	121
147	174
109	108
90	89
262	261
159	207
63	62
76	75
68	67
219	271
277	331
322	355
77	80
306	305
324	323
157	156
473	472
232	231
30	29
365	364
284	283
453	452
261	260
138	137
248	316
99	111
212	211
322	429
81	80
217	216
55	190
274	273
135	237
97	97
93	92
299	417
271	634
109	112
986	1132
104	147
47	46
183	182
157	161
233	232
124	123
151	184
177	257
708	1079
224	223
252	251
115	114
58	62
113	112
102	101
81	80
402	401
208	215
68	67
328	357
61	60
153	152
401	418
107	106
117	116
67	66
80	79
103	155
178	177
105	104
72	71
174	229
53	77
120	119
111	110
174	214
107	107
90	373
199	373
198	197
71	70
342	341
141	140
331	356
142	141
81	80
176	147
79	78
57	56
73	72
63	62
64	63
57	30
208	299
530	823
68	67
232	345
266	265
45	103
136	224
71	241
104	126
75	88
94	109
358	346
322	358
81	82
127	125
49	159
60	88
258	211
99	98
208	248
196	174
320	319
117	116
206	205
455	539
296	365
436	493
530	2035
445	445
768	767
152	151
173	198
1308	3163
162	161
337	366
117	132
107	106
526	525
674	673
154	249
421	420
159	158
363	350
423	411
485	484
160	159
380	484
92	174
317	316
306	305
312	311
357	356
145	247
109	108
181	180
176	170
139	313
54	118
340	374
43	42
55	55
123	84
408	407
218	217
399	398
175	174
141	147
39	38
90	89
316	315
253	252
322	321
77	77
277	276
238	238
146	172
58	53
190	189
67	66
399	431
133	117
201	200
231	230
341	340
156	131
349	381
86	85
256	255
353	352
330	329
722	721
68	69
78	78
401	463
370	369
302	301
357	356
161	159
137	136
273	272
82	81
158	157
159	158
38	37
90	242
144	143
123	122
125	124
65	64
110	109
353	352
158	157
389	388
476	475
153	152
453	454
234	245
96	88
275	274
85	84
64	63
300	299
435	434
357	356
356	355
197	196
246	245
259	258
204	203
86	84
326	325
389	388
469	468
188	187
212	212
167	163
202	201
154	188
207	337
383	382
322	321
420	419
108	129
293	292
300	299
242	253
133	135
298	297
354	464
169	168
56	87
131	153
427	426
508	459
465	464
152	151
297	296
479	478
343	380
81	80
161	160
322	321
374	373
126	109
249	248
407	406
406	405
163	162
255	255
357	385
326	485
148	147
380	379
129	127
400	411
93	95
527	617
194	193
204	208
89	88
1016	1105
283	282
451	450
647	646
254	253
55	54
166	188
49	48
416	415
506	505
556	1040
1015	1497
472	471
707	693
70	69
454	453
126	125
264	299
260	259
347	346
56	55
408	407
95	94
151	150
421	420
285	284
351	350
419	418
335	334
99	137
202	201
214	213
53	52
91	160
170	281
100	153
182	172
236	262
91	90
275	274
113	112
215	214
114	129
195	194
108	339
491	826
225	224
166	165
94	93
370	369
80	79
474	677
195	644
444	644
595	1266
510	1244
80	177
636	909
382	381
685	1117
136	197
62	61
283	362
84	97
239	216
508	759
33	37
189	316
91	316
64	104
326	493
99	599
79	164
154	153
157	156
240	239
169	168
243	263
47	51
82	104
244	243
36	35
178	205
309	308
132	164
108	164
124	248
756	755
62	140
174	288
77	252
32	53
130	191
66	71
163	293
107	149
196	195
193	192
254	253
109	516
422	508
317	316
133	132
36	39
195	194
128	175
119	118
61	86
154	201
80	79
441	412
381	411
337	336
448	476
333	332
347	346
89	88
160	295
133	132
223	222
279	278
464	663
194	193
490	489
294	293
78	115
252	342
286	285
363	362
343	313
233	232
389	407
313	312
314	313
153	152
564	563
286	312
283	376
92	91
394	393
85	84
191	190
489	488
329	328
185	237
53	60
189	188
519	518
605	604
365	364
342	341
530	529
115	114
397	396
232	231
180	180
83	123
97	188
83	83
95	94
336	335
76	75
116	93
490	586
83	82
130	129
68	67
216	215
351	350
186	185
398	406
220	431
108	107
66	65
70	69
217	245
281	220
115	141
201	200
150	149
288	287
215	230
458	828
352	383
88	87
165	164
55	54
163	162
84	83
467	466
541	547
213	213
206	211
150	165
367	366
374	373
95	94
764	890
217	216
166	169
116	218
664	949
609	608
410	411
177	189
217	216
441	440
118	117
174	238
107	106
259	258
430	442
1535	1534
113	112
518	562
876	875
241	240
278	313
432	519
235	526
311	430
762	761
377	376
105	84
217	216
352	358
453	452
521	542
360	419
397	396
317	316
268	267
430	429
402	401
261	260
218	400
184	176
103	130
92	103
130	120
201	200
386	385
323	322
117	106
420	555
133	132
297	296
380	380
183	182
112	111
129	128
89	88
452	451
290	320
286	285
253	252
557	556
432	431
102	101
95	124
66	65
306	305
581	580
324	323
168	167
486	485
510	509
547	613
44	43
101	100
185	184
181	180
219	238
112	140
909	908
446	445
167	166
396	442
206	234
221	220
148	147
289	282
406	405
200	199
611	610
217	216
165	164
152	151
401	400
715	714
493	506
181	180
39	38
146	145
68	67
134	133
144	143
121	120
298	297
258	257
239	238
229	228
261	260
146	145
116	118
190	189
506	505
163	162
221	220
423	422
305	304
220	219
271	270
338	337
379	378
292	291
393	392
407	406
290	337
359	518
93	92
183	182
64	63
185	184
275	274
362	361
311	310
184	183
70	210
158	215
176	175
160	159
164	163
233	250
464	770
436	845
189	188
162	161
715	714
437	436
95	94
61	60
384	394
252	251
311	310
392	391
317	316
175	177
91	90
400	536
516	895
137	136
79	78
197	196
67	193
135	193
287	286
312	311
446	445
105	104
333	342
92	91
386	386
388	387
205	204
644	1147
468	611
382	381
315	314
565	564
417	416
211	210
92	91
81	80
295	306
48	52
299	338
114	110
566	565
245	244
286	285
613	831
144	143
346	345
323	361
416	415
109	108
322	321
419	418
109	108
413	412
48	47
361	360
812	811
120	119
124	123
472	471
295	294
419	418
75	87
102	181
82	111
255	254
313	308
207	245
145	152
73	72
672	671
333	332
86	147
184	192
324	323
86	85
44	43
509	585
170	169
34	36
80	71
166	208
123	122
304	303
366	365
292	291
278	277
339	338
264	263
299	298
475	474
288	299
192	191
150	149
142	141
87	88
208	207
301	300
351	350
167	166
220	219
296	295
454	453
468	467
409	408
90	116
306	395
279	278
468	467
96	95
112	111
75	74
264	263
268	267
234	233
160	159
112	111
760	759
249	248
223	190
98	138
375	399
180	200
174	188
192	191
306	317
346	338
566	566
515	1037
113	629
413	432
119	118
376	375
67	66
233	232
672	671
72	71
216	215
238	237
77	76
345	344
293	292
191	190
60	59
101	100
354	353
472	471
120	119
249	248
430	429
209	208
346	345
213	212
689	688
514	513
359	408
280	408
120	119
51	50
64	63
172	171
180	179
143	153
386	415
383	415
90	95
144	154
349	455
1377	2693
1337	2693
331	330
725	724
72	71
491	490
393	392
207	206
209	218
225	224
373	372
223	335
113	112
385	384
94	96
61	59
678	779
82	94
125	124
383	721
1082	1653
85	134
282	281
172	258
79	94
428	427
67	66
112	111
617	616
172	171
108	107
144	142
404	404
163	162
39	38
89	134
63	52
306	267
190	279
386	426
178	198
224	287
141	140
291	290
130	222
128	127
56	63
137	186
160	182
392	410
68	119
92	123
127	165
65	76
214	522
402	779
153	184
209	208
398	397
418	417
397	396
113	112
445	445
238	237
416	415
537	1295
749	1295
519	518
168	167
212	211
283	282
87	86
127	126
244	243
243	242
100	99
209	216
197	203
325	324
500	599
82	86
160	159
319	318
217	216
192	191
541	540
246	245
243	242
206	220
294	293
196	195
128	127
230	229
346	345
140	139
233	232
887	886
452	451
87	90
433	432
799	798
50	49
244	243
327	326
246	245
114	113
67	52
359	383
374	373
357	356
119	118
173	172
123	143
224	223
160	160
116	115
111	110
88	113
183	182
83	82
114	129
341	326
106	138
95	102
414	413
180	179
101	77
84	88
569	568
114	113
97	96
159	158
126	174
326	325
182	195
108	355
140	139
342	388
393	426
467	466
179	220
150	149
53	52
100	99
103	128
133	132
150	149
115	114
110	109
82	81
137	136
291	290
145	298
268	348
320	319
241	328
99	98
355	354
331	330
395	394
178	207
112	111
177	176
208	209
170	169
257	300
232	231
140	223
100	45
257	370
109	108
73	72
88	114
422	518
138	137
189	188
232	145
146	235
417	660
152	681
130	129
142	153
75	74
277	294
130	165
80	79
236	238
132	131
168	160
160	165
119	125
260	259
98	119
155	192
58	87
87	85
121	213
120	321
276	305
206	211
47	46
473	479
269	305
68	107
72	71
162	235
523	637
176	175
68	67
146	145
137	136
62	61
156	155
137	136
214	239
181	180
570	569
308	307
65	67
542	608
204	203
154	153
117	116
291	290
91	90
374	373
337	336
693	692
143	142
100	114
115	114
854	853
219	218
81	137
191	255
762	459
134	212
221	258
455	454
348	347
73	183
64	105
120	119
184	172
313	312
206	208
254	253
350	349
160	159
237	236
104	103
108	107
202	201
476	475
303	302
346	345
51	50
245	244
571	570
600	599
122	121
424	423
87	86
192	191
287	286
260	259
470	469
485	484
286	286
426	425
493	492
53	37
217	247
506	505
457	456
468	469
155	154
110	181
73	90
84	125
36	35
54	62
433	432
64	65
114	252
296	408
48	240
166	185
105	139
532	1178
62	74
99	188
92	104
155	250
129	127
697	892
61	87
40	39
423	446
447	446
136	135
315	325
150	149
183	198
110	109
111	110
298	282
455	454
430	429
456	455
252	281
49	58
383	382
216	215
439	438
592	591
473	472
138	137
241	240
367	366
132	131
183	179
131	133
76	75
402	401
148	147
267	266
97	96
241	338
167	166
454	514
446	445
196	221
90	150
467	468
164	163
879	878
775	774
633	644
131	144
153	197
793	792
274	273
176	175
252	241
302	325
254	257
309	596
215	276
89	108
93	64
345	375
174	198
560	1051
180	182
546	545
88	126
389	472
111	110
56	81
418	477
114	136
360	359
179	178
107	106
151	150
114	50
215	214
79	92
247	283
199	198
392	391
372	509
135	151
183	199
93	129
369	381
91	447
444	443
96	97
520	608
773	926
85	179
232	232
963	962
951	1122
108	107
136	135
188	187
157	156
265	264
292	291
757	748
177	176
49	48
230	229
238	237
73	72
347	346
54	43
334	334
720	719
344	343
421	420
125	125
170	143
231	230
473	472
229	253
101	100
97	96
100	386
245	300
91	101
310	317
117	116
766	765
339	451
115	121
593	592
352	372
212	183
117	333
79	78
404	403
141	126
322	335
311	310
248	267
283	293
160	159
177	176
1033	1032
443	442
260	259
501	956
452	956
467	466
439	438
341	392
105	150
163	162
640	639
483	482
42	41
183	182
458	457
64	63
366	365
578	577
237	236
265	264
174	173
66	93
70	69
89	88
327	326
220	219
104	103
439	477
148	153
822	957
130	129
365	364
165	164
249	248
393	392
442	441
193	192
110	109
201	200
411	410
220	219
77	76
232	297
125	137
216	351
104	103
98	97
63	91
247	246
81	103
141	186
287	286
360	359
388	387
340	339
160	143
193	192
236	235
226	225
226	225
238	237
170	169
131	140
130	154
426	425
463	462
148	147
303	302
664	663
253	252
307	306
244	243
504	658
154	166
334	382
142	160
324	323
152	151
236	235
124	154
91	90
247	246
188	187
139	138
327	326
126	125
72	82
189	188
97	96
198	197
379	378
329	328
168	167
434	433
336	335
349	348
240	239
109	108
64	63
165	189
167	204
181	180
92	91
360	359
419	418
712	711
236	235
109	106
98	189
145	146
139	128
213	241
459	484
249	248
54	53
324	323
148	170
1097	1126
700	1034
323	322
462	461
459	963
67	93
122	179
121	120
56	68
51	50
307	316
69	873
575	873
103	873
149	166
102	240
265	264
71	70
196	286
92	301
437	436
780	1464
211	1464
364	1464
329	328
196	337
355	327
83	327
699	698
558	911
356	911
392	387
71	70
78	77
34	37
76	78
229	512
127	182
116	115
153	82
172	332
126	332
115	114
237	236
44	229
178	229
511	510
55	55
123	84
411	410
56	52
164	163
96	240
866	851
265	359
102	101
119	118
251	300
163	198
53	198
124	144
231	631
148	274
243	631
73	97
163	226
199	203
272	257
96	95
78	77
266	322
291	290
710	709
84	83
206	479
165	479
161	405
114	405
77	78
79	159
243	402
702	701
95	68
40	87
30	29
145	144
78	77
69	104
60	83
62	61
283	390
55	51
36	37
240	344
221	220
58	57
145	163
277	415
78	77
157	80
77	270
125	315
82	247
217	216
116	115
359	369
116	188
237	410
176	175
102	226
37	51
90	185
96	185
138	137
38	60
338	337
332	438
125	124
175	174
128	111
261	260
78	77
187	186
149	243
62	63
83	82
157	301
255	375
286	239
59	58
227	226
34	168
93	92
97	96
104	103
89	98
191	201
160	159
159	158
74	73
144	214
125	124
126	125
163	162
66	65
181	281
102	130
210	262
295	410
97	96
328	327
383	382
64	64
495	558
247	246
666	675
210	193
198	411
139	138
104	208
74	112
843	1137
197	1137
221	220
259	258
179	178
151	392
198	392
326	325
202	201
108	123
34	33
188	187
91	90
80	79
260	259
164	163
192	245
86	170
228	227
388	461
312	300
77	76
237	319
137	136
270	269
287	437
520	1520
642	1520
561	560
724	723
135	134
408	407
311	350
341	340
140	121
179	189
70	61
319	318
76	81
697	893
114	169
83	82
391	390
212	305
139	129
239	238
110	109
187	186
279	278
245	244
158	157
257	256
233	232
231	230
500	499
568	619
289	288
83	82
114	113
163	162
165	164
568	567
393	392
329	328
373	372
96	95
296	295
347	346
147	146
207	206
72	71
142	141
245	244
346	325
61	97
182	181
300	299
54	53
132	221
193	203
276	275
205	279
92	117
40	39
110	215
217	440
137	263
149	148
166	249
68	67
377	490
281	289
337	336
328	327
161	160
51	63
167	264
78	97
40	39
312	311
95	94
196	195
169	175
255	348
195	229
88	87
331	385
218	288
161	160
131	130
42	72
173	219
450	449
165	164
237	236
160	159
145	144
105	104
296	295
132	162
172	161
350	349
115	114
204	206
113	137
126	128
171	169
554	713
631	630
194	193
276	275
141	140
171	170
494	493
224	223
330	334
236	397
363	416
200	222
224	223
105	104
105	85
258	257
57	56
188	187
73	177
591	840
247	246
344	349
218	217
67	66
210	209
520	508
478	477
947	946
401	433
207	206
138	156
279	292
274	273
123	122
214	213
311	310
304	303
202	201
488	487
338	337
72	71
169	168
173	311
217	216
614	613
169	168
238	258
112	121
65	207
507	506
272	266
243	245
66	65
46	45
328	327
111	125
625	1030
166	259
67	76
95	94
188	187
303	302
225	356
121	336
784	783
270	309
320	307
139	138
41	69
379	378
168	167
231	230
329	328
86	85
224	321
351	350
79	78
109	108
65	64
389	388
84	83
471	470
247	295
112	137
81	120
212	219
215	217
128	127
80	122
43	42
102	101
135	134
100	99
161	160
175	194
123	122
299	298
234	233
55	54
437	436
444	443
111	110
354	355
130	129
217	249
549	764
340	402
64	63
444	443
319	318
313	312
382	381
297	296
266	265
445	444
524	523
112	111
155	154
89	88
156	186
139	138
55	78
250	337
158	157
260	259
245	244
145	144
63	64
336	377
415	386
268	286
159	158
268	267
264	263
238	237
288	287
679	678
132	131
197	196
65	100
146	191
86	101
261	217
212	211
173	172
148	147
101	100
168	167
175	174
332	331
293	292
336	335
220	263
195	167
630	629
297	294
175	722
571	712
90	89
315	314
134	133
891	890
336	335
145	151
151	150
448	447
396	458
106	244
111	110
159	185
291	290
283	282
648	647
210	209
98	97
159	158
226	225
207	455
40	39
150	149
217	289
151	150
147	171
86	85
73	75
324	323
93	92
263	419
109	142
66	102
77	97
212	211
175	174
261	260
196	257
69	120
141	189
100	99
158	293
46	45
189	188
249	366
137	129
195	194
48	46
113	198
161	160
226	256
91	90
178	195
34	52
144	143
95	94
101	100
531	778
129	171
337	309
128	150
121	128
100	145
112	147
92	164
102	220
594	1486
473	472
92	91
75	74
213	291
230	229
497	496
125	124
145	157
261	260
166	165
213	212
131	130
143	142
172	196
159	148
133	132
423	455
356	355
143	149
161	160
157	156
88	87
91	90
100	143
564	563
311	310
68	67
310	309
482	481
749	1266
521	1266
334	333
102	153
47	57
198	197
163	162
368	367
348	347
647	646
268	264
57	102
157	156
450	449
349	348
187	228
126	90
297	297
500	499
297	296
94	111
174	223
277	276
319	318
484	483
294	293
322	321
99	98
121	57
126	283
60	59
89	98
136	169
386	385
494	502
150	164
90	841
193	192
74	73
342	341
293	393
51	50
107	138
152	276
253	252
85	84
153	133
86	85
273	272
173	190
147	138
76	80
92	95
152	151
218	217
100	99
70	69
316	315
330	429
97	131
94	93
344	457
40	39
138	137
73	72
131	141
123	122
128	127
330	329
207	206
130	129
123	122
39	38
430	443
145	144
60	59
168	167
118	117
178	177
87	98
96	99
180	179
105	104
124	123
85	84
64	63
137	136
234	233
111	110
93	92
143	142
87	104
120	119
83	82
210	209
104	103
117	125
490	489
272	271
71	86
546	561
406	321
68	67
285	398
112	114
146	145
170	169
126	125
160	195
131	186
191	334
388	387
154	153
114	113
114	113
159	158
901	900
395	394
705	704
157	156
125	124
96	95
120	119
129	128
241	240
253	252
73	72
197	196
67	66
222	247
320	333
77	76
108	107
638	637
302	301
73	72
290	289
135	134
211	210
206	227
500	696
407	406
188	187
201	200
56	55
191	190
394	393
848	847
109	108
269	268
458	457
56	55
362	361
435	434
118	117
293	292
409	408
388	387
121	120
180	177
335	334
253	252
226	225
184	223
427	427
363	362
202	201
357	372
135	134
147	146
169	168
265	264
684	850
165	220
66	114
93	107
689	711
223	222
134	133
293	292
269	343
90	95
67	66
466	574
109	132
440	508
113	112
340	411
108	107
240	239
159	158
774	773
76	75
774	773
79	78
121	120
257	256
228	227
192	191
406	405
122	154
386	426
111	111
242	240
72	370
473	472
902	901
149	148
112	111
253	252
277	276
109	108
502	501
137	201
256	255
412	442
94	129
816	815
478	477
432	431
658	657
244	290
493	493
384	383
198	197
350	400
519	698
78	177
447	446
80	81
85	120
337	314
252	231
85	90
247	263
163	162
185	198
384	577
104	146
248	247
357	356
46	65
235	238
296	295
174	355
202	198
238	237
76	242
169	168
426	425
309	308
397	396
128	127
176	175
89	88
318	317
285	284
353	352
223	222
455	498
199	198
90	89
120	119
209	208
363	449
317	336
82	81
222	221
186	185
284	323
350	349
205	204
525	524
315	314
272	277
255	254
269	268
134	133
32	31
249	248
158	157
94	93
453	452
503	502
90	89
284	283
375	374
744	911
172	295
250	249
123	102
355	354
398	397
471	530
92	91
120	119
347	368
144	143
217	216
681	680
281	280
451	450
72	71
142	141
92	91
179	236
151	150
343	342
661	660
278	277
93	92
362	445
165	164
56	55
172	207
319	318
257	256
216	215
113	112
111	110
191	190
176	175
339	338
571	570
33	151
434	456
77	76
142	211
275	274
274	278
196	193
466	465
91	90
466	549
151	150
49	48
602	329
441	440
687	686
256	255
310	309
499	498
429	428
663	662
641	1157
517	491
309	368
760	769
313	345
394	590
186	185
251	250
63	62
520	519
64	63
560	559
36	35
36	35
36	35
424	423
335	334
328	327
301	300
340	339
536	535
161	160
46	72
519	563
403	402
255	254
66	65
118	169
147	146
778	777
220	219
325	324
237	236
97	96
51	50
690	689
304	303
122	129
237	301
146	145
114	113
318	484
441	440
331	330
514	513
394	393
393	392
191	190
441	616
196	237
389	416
30	52
158	157
271	270
333	332
114	154
178	211
93	94
156	155
57	224
358	394
329	328
195	241
109	255
103	142
108	156
85	184
97	121
191	279
232	231
277	265
467	466
100	119
559	657
513	512
432	431
384	383
277	287
303	472
36	66
154	153
311	454
203	202
379	378
121	120
264	314
374	465
383	382
140	144
70	69
121	120
227	226
289	211
911	1448
185	190
552	551
167	230
400	396
158	157
120	119
138	137
340	339
156	155
84	83
144	143
515	514
81	93
322	427
320	319
345	344
342	341
360	398
311	310
349	348
320	319
422	421
233	242
124	162
284	283
147	176
97	204
66	194
196	224
340	339
360	359
312	311
266	265
375	374
255	254
107	106
201	200
112	311
114	113
160	159
124	122
158	157
47	46
79	78
145	157
37	60
383	382
153	152
199	198
214	213
239	238
288	287
211	210
355	368
211	211
208	207
92	91
97	96
619	644
230	229
694	693
307	382
70	69
464	463
440	569
75	97
76	115
227	226
311	310
287	286
151	111
364	363
105	104
157	156
409	501
107	203
92	110
236	365
313	383
77	75
364	429
99	98
346	345
166	165
59	121
75	79
360	272
139	130
413	412
120	119
108	107
151	150
445	444
589	588
460	459
440	439
501	500
197	196
163	162
97	96
563	562
395	394
166	165
121	120
116	115
393	392
121	120
572	571
289	288
405	425
158	144
143	142
138	137
89	86
405	416
301	336
195	254
229	256
49	48
177	342
145	144
206	205
293	292
43	42
178	229
79	102
137	151
271	270
133	132
415	421
391	390
358	357
367	366
468	467
47	46
109	108
60	113
472	548
455	454
472	471
61	60
364	363
392	391
324	323
120	162
144	151
189	188
446	445
222	221
103	72
196	195
241	240
390	389
539	538
465	464
625	624
231	230
242	241
54	53
195	202
297	296
192	225
347	346
51	50
558	609
457	456
140	139
102	141
303	302
293	287
514	513
178	177
157	156
80	79
227	226
128	127
208	207
630	629
148	147
153	152
57	50
263	291
484	483
187	239
163	188
172	171
623	622
140	139
502	501
322	321
297	296
310	309
331	330
476	475
231	230
149	168
247	246
326	325
107	106
214	213
56	55
73	72
102	101
270	269
92	91
215	214
324	323
131	130
83	82
300	313
129	128
83	82
173	172
407	406
224	252
266	265
214	236
178	178
68	67
228	227
74	73
145	144
257	256
42	46
101	100
141	140
64	63
160	160
77	76
277	253
154	166
181	180
70	63
176	175
78	77
653	652
145	144
87	85
158	175
71	70
98	97
274	273
170	169
128	127
229	228
76	75
120	119
104	103
189	188
224	223
289	286
203	220
157	155
107	106
84	83
172	171
74	73
158	157
154	153
184	182
210	387
494	876
102	101
211	210
320	315
102	101
105	110
106	105
495	616
99	105
86	85
146	147
114	113
112	111
182	181
131	130
146	145
158	289
126	166
579	941
356	381
160	159
244	243
145	164
394	393
316	340
66	65
848	1647
800	1756
249	248
123	122
200	229
74	80
98	85
86	85
168	167
70	69
197	196
68	75
286	285
235	234
53	52
92	92
78	77
254	253
647	646
176	175
460	459
426	423
377	376
197	165
51	50
65	74
102	102
162	161
248	247
168	167
500	499
252	251
84	83
92	91
81	88
392	391
754	753
259	258
95	107
208	181
218	217
95	70
165	165
170	169
87	86
109	108
160	159
508	507
125	122
98	98
116	115
86	85
505	252
106	105
173	172
173	172
65	74
218	254
455	656
169	168
110	109
158	307
