97	131
67	163
135	226
50	83
76	75
148	834
76	282
118	160
114	174
61	61
69	68
93	102
157	156
103	88
108	107
340	411
175	179
82	298
78	130
157	112
109	132
184	374
58	99
51	92
51	574
67	66
102	172
116	118
327	369
59	51
31	29
226	237
77	96
265	306
239	315
62	667
46	36
81	80
106	186
108	96
115	224
108	156
177	617
167	191
186	222
97	180
64	63
192	137
122	121
135	134
188	191
119	144
110	109
141	143
87	77
178	177
156	169
182	232
215	235
226	225
253	252
186	187
140	161
282	282
63	120
53	63
200	292
190	222
106	111
68	145
197	335
74	156
119	118
155	166
91	92
71	70
259	319
97	113
268	304
56	55
163	179
128	199
174	173
237	256
109	108
350	381
102	171
222	264
53	52
150	190
93	149
53	58
147	170
182	200
104	162
268	406
142	143
368	442
113	315
170	180
251	255
42	40
94	110
161	161
85	89
69	68
119	320
116	142
189	229
118	350
249	265
184	183
592	591
67	66
197	196
73	72
224	252
241	240
129	128
120	119
96	95
125	124
157	156
705	704
92	91
304	303
203	192
699	894
42	51
132	123
134	133
52	113
154	153
350	387
184	183
131	186
160	106
126	125
170	169
146	145
399	398
402	448
96	109
505	650
151	146
272	271
157	156
295	465
104	103
210	209
202	201
101	100
256	255
93	92
111	110
84	80
110	105
137	136
64	63
85	84
124	123
105	104
101	100
85	84
33	42
131	130
174	219
93	109
34	33
168	167
61	59
81	86
106	104
82	195
226	236
110	108
86	108
73	154
84	110
164	213
64	125
128	127
95	122
142	141
73	72
123	136
459	458
101	131
157	429
169	217
316	315
170	169
218	217
92	88
158	157
171	180
173	190
273	272
86	85
185	184
85	84
64	63
79	90
253	252
348	367
394	393
342	341
74	73
193	192
290	841
63	80
443	472
380	385
221	220
60	59
45	44
162	213
99	98
322	321
294	293
484	483
81	80
319	318
277	276
285	284
297	296
299	298
201	200
209	208
102	131
126	90
150	149
94	93
161	222
450	449
157	156
54	53
325	324
647	646
369	347
368	367
139	138
198	197
326	388
103	112
671	1266
427	820
167	166
482	481
310	309
91	90
174	169
77	136
84	103
225	267
431	436
91	90
105	104
157	156
302	312
38	53
338	348
412	455
54	53
97	96
185	305
172	196
143	142
131	130
183	182
166	165
196	260
76	103
238	203
78	85
309	296
182	181
333	229
195	219
155	154
149	166
332	317
175	185
608	1957
732	1486
310	309
478	513
291	278
108	108
89	128
90	133
129	128
159	195
91	90
215	256
73	72
147	181
96	95
208	280
197	217
81	82
122	190
80	138
152	130
68	86
94	94
34	46
50	45
102	159
73	147
49	74
113	194
61	84
261	260
117	119
212	211
77	97
111	102
79	142
96	90
181	212
93	92
190	215
111	110
104	103
152	214
41	40
75	74
150	149
252	455
134	166
100	99
80	79
66	97
101	101
124	123
141	224
295	421
121	127
283	282
104	124
314	348
111	110
195	225
174	214
419	447
63	122
63	46
31	58
35	44
228	464
161	155
257	307
142	139
283	282
134	133
315	314
90	89
90	89
596	711
295	294
123	162
193	351
293	292
415	414
63	60
134	172
170	155
293	292
261	331
175	174
123	122
64	167
98	100
122	135
107	112
52	91
68	83
67	162
229	336
58	161
61	66
112	107
51	242
72	155
93	157
67	74
135	159
85	84
183	199
141	158
246	286
45	52
385	384
101	102
70	112
153	377
65	64
145	144
155	156
53	141
256	258
158	157
298	378
123	122
169	151
117	133
155	154
112	111
138	145
75	139
137	198
55	173
144	153
325	319
128	127
257	256
297	296
73	72
117	172
183	274
313	312
129	128
205	216
444	443
403	402
591	764
125	124
130	129
328	355
128	155
153	152
280	279
125	124
278	278
222	269
164	218
56	55
44	54
58	84
188	196
299	298
123	122
329	328
131	130
100	99
135	134
102	101
123	122
48	47
77	76
221	220
259	258
433	432
471	470
95	83
229	341
62	81
88	108
65	64
70	144
42	41
416	414
322	321
255	328
37	36
258	230
122	150
379	378
50	69
139	138
270	257
233	399
168	230
784	783
357	356
141	155
342	357
150	149
373	397
273	461
390	588
125	211
136	192
46	45
78	65
152	133
92	235
95	259
139	135
94	290
98	208
88	141
80	206
65	55
145	240
72	91
105	143
54	53
173	549
108	292
51	102
94	110
67	61
111	216
235	344
53	71
74	67
103	159
104	193
35	38
82	110
126	173
45	141
73	92
84	705
67	130
87	86
162	292
59	64
188	187
111	123
214	213
123	122
187	186
88	147
180	179
233	232
113	125
105	104
130	134
288	433
162	167
229	395
214	331
234	308
68	67
337	352
158	155
290	508
105	147
120	119
67	66
138	154
64	102
285	301
247	246
765	840
180	187
57	56
258	257
105	95
163	262
224	223
200	222
89	107
94	217
131	217
211	210
257	397
57	178
79	178
375	386
224	223
494	493
210	209
107	118
176	175
112	111
82	86
190	285
194	219
67	59
259	325
111	191
330	378
135	227
73	45
120	203
121	100
346	345
92	161
87	270
57	83
99	99
197	208
105	104
95	122
48	69
170	159
82	215
139	159
129	128
314	342
173	186
42	72
131	130
161	160
289	288
148	181
283	286
480	752
246	245
344	350
104	125
40	39
435	434
161	160
99	118
237	276
181	336
113	112
339	338
491	490
80	106
82	249
84	78
131	148
237	340
161	172
120	119
96	267
86	85
68	73
162	279
171	170
98	98
309	316
54	53
335	318
255	233
134	175
268	264
245	244
364	294
134	94
347	346
296	295
53	57
373	372
277	289
353	361
345	399
168	203
57	50
165	164
109	162
105	66
83	82
289	288
472	619
99	127
151	172
142	287
143	187
43	68
104	103
233	232
259	257
99	106
216	242
64	66
170	186
151	150
165	157
243	293
233	285
171	192
83	82
160	169
99	60
202	517
175	174
94	200
96	95
124	112
273	285
175	224
52	49
500	499
139	164
211	243
271	322
148	165
135	134
75	97
245	281
111	419
154	162
131	195
47	58
132	183
186	412
135	227
568	1518
298	646
334	372
187	184
61	110
156	280
126	125
103	114
247	293
165	164
68	80
105	227
108	170
176	195
348	407
45	44
80	104
44	34
169	168
114	123
58	201
145	189
197	279
360	392
192	191
259	258
174	224
192	230
107	107
69	176
176	203
78	127
83	234
268	261
252	251
277	295
171	307
210	193
676	675
247	246
559	558
383	382
328	327
184	246
61	77
132	131
167	180
70	158
66	61
66	65
162	162
126	125
83	114
215	214
74	73
69	68
91	88
162	161
273	272
72	77
159	160
320	357
53	143
66	116
485	631
428	300
218	256
79	78
155	202
69	101
82	371
166	183
101	112
90	90
54	68
66	70
65	64
109	108
70	69
108	113
103	102
513	512
164	75
184	176
117	116
142	141
255	285
139	189
80	79
226	232
287	402
270	269
237	236
237	237
95	102
92	139
140	289
135	139
77	159
44	100
69	196
142	196
77	76
50	69
269	279
236	216
61	141
228	387
114	135
70	63
69	80
122	82
43	119
76	71
68	67
141	140
55	93
155	153
114	116
63	175
78	81
345	344
38	37
54	57
93	86
647	1282
189	192
74	113
636	733
70	96
374	417
58	57
125	218
69	157
318	308
269	259
538	593
113	287
113	129
85	93
62	68
167	186
87	86
119	234
121	120
144	348
194	194
117	116
142	141
96	371
148	368
143	239
74	73
100	143
126	125
86	97
47	46
70	69
96	95
128	159
112	221
98	90
317	295
48	52
162	173
156	155
211	359
180	243
123	126
87	88
121	337
186	184
56	55
313	335
81	80
32	31
181	180
167	169
240	239
122	108
236	238
123	122
236	242
204	276
248	269
200	199
168	167
235	328
101	101
89	185
144	198
159	164
139	155
60	68
97	96
165	172
235	234
281	260
67	66
139	138
212	211
317	316
179	178
64	63
236	235
166	165
466	464
108	403
303	325
259	284
106	379
101	100
244	243
307	306
194	193
56	55
98	153
507	663
119	178
303	302
145	144
307	370
138	170
426	425
259	258
170	169
238	237
195	225
226	225
236	235
193	192
144	143
95	93
190	243
137	136
251	250
360	359
287	286
212	211
247	246
63	91
98	97
104	103
286	351
298	297
77	76
232	231
199	224
281	227
151	150
110	109
203	192
327	326
121	169
407	392
401	400
233	215
133	208
130	129
167	166
581	957
157	174
198	202
276	477
99	103
220	219
156	155
164	216
89	88
114	93
174	173
68	112
100	158
186	327
85	107
129	166
183	215
105	195
73	194
236	238
225	251
82	326
64	63
83	147
370	553
163	182
42	41
59	65
148	210
65	279
162	141
213	392
133	292
86	144
58	57
59	62
89	151
339	526
190	202
83	92
90	192
73	215
58	136
167	166
63	61
100	153
164	196
57	119
86	162
101	259
67	65
111	379
97	193
82	85
89	93
154	154
92	121
136	188
95	135
362	444
64	95
123	171
61	60
114	376
155	261
117	139
101	133
87	183
37	32
120	138
180	167
61	123
35	41
240	254
193	211
51	132
193	191
102	78
60	131
137	178
65	63
68	75
77	113
112	191
91	270
82	167
97	96
115	165
120	304
92	208
86	79
93	92
620	765
56	55
86	129
151	151
180	199
394	393
109	108
60	62
165	164
79	149
61	81
166	354
166	171
144	142
139	183
43	42
91	109
198	419
95	346
122	245
169	125
126	135
155	376
270	392
131	130
173	223
70	72
253	216
95	94
62	66
167	203
73	72
89	112
74	81
65	84
49	48
369	408
99	147
69	450
118	258
97	96
232	219
96	115
172	172
55	26
94	267
97	144
72	187
136	135
98	102
91	90
195	232
117	308
85	226
349	649
175	300
69	67
36	131
53	116
135	258
166	203
81	126
129	180
160	877
102	101
239	338
95	230
135	285
373	580
62	160
98	113
178	176
289	458
174	202
306	235
183	185
38	53
281	447
154	161
130	129
52	97
88	151
240	328
75	248
71	73
105	185
64	196
101	196
113	151
323	315
61	60
138	184
48	50
72	213
121	70
143	142
98	122
78	56
102	179
165	300
149	461
380	477
96	140
186	184
208	303
88	126
143	167
133	299
500	545
92	278
134	600
112	111
111	107
292	293
174	206
86	141
63	196
155	382
138	198
72	299
231	377
158	154
101	126
50	106
77	73
106	142
215	276
46	212
333	596
254	257
172	206
163	380
139	205
69	205
51	273
60	72
247	342
434	448
63	140
788	787
576	790
158	133
879	878
164	163
549	550
227	221
130	138
271	332
513	514
101	166
257	338
139	163
194	266
48	68
110	112
275	401
111	110
76	75
306	305
132	131
204	174
170	169
129	129
138	137
131	121
249	396
91	129
575	591
325	324
114	113
114	113
70	181
70	90
93	146
186	257
64	63
252	251
456	455
100	103
205	302
80	78
127	126
233	319
238	246
111	110
66	100
261	260
150	149
326	325
57	371
79	78
251	254
86	103
99	98
197	176
241	223
40	39
326	340
103	126
91	389
267	266
228	250
189	188
33	32
53	193
406	497
89	90
50	49
152	153
102	101
244	254
114	252
47	46
67	93
115	114
50	409
37	38
70	315
199	268
36	35
90	137
84	125
336	335
139	148
203	231
180	293
243	427
226	239
208	197
113	247
169	169
161	256
312	332
415	425
227	226
485	484
470	469
260	259
287	286
181	180
88	129
221	423
212	423
122	121
348	337
269	303
273	272
175	316
150	144
245	244
51	50
140	154
77	208
143	170
129	128
103	183
141	136
67	122
92	292
122	196
72	71
95	215
107	106
47	56
252	396
77	73
40	116
83	113
75	106
70	79
52	51
125	130
167	143
165	215
63	68
91	79
75	97
110	105
83	183
54	115
49	144
178	177
274	271
146	95
67	59
173	212
141	159
66	212
219	238
279	302
38	36
65	64
195	255
88	218
100	116
197	504
504	853
115	192
37	36
47	46
60	124
102	101
116	156
322	363
204	203
142	132
137	136
129	90
91	90
291	290
117	116
154	153
204	203
609	608
308	307
70	64
72	116
135	210
301	310
58	57
134	133
49	81
165	239
115	110
156	155
62	61
140	139
82	116
84	145
68	67
176	175
72	103
134	106
116	115
208	614
83	235
67	745
181	234
81	87
54	78
136	195
203	294
74	107
61	97
117	201
55	66
71	149
67	321
153	234
86	85
134	191
120	119
54	81
70	76
106	123
30	46
168	200
132	131
349	348
120	79
166	165
354	353
35	49
127	166
57	56
98	159
175	346
185	215
149	177
113	110
118	53
112	111
90	84
90	137
73	132
73	177
89	92
120	221
65	114
172	171
157	270
74	270
100	120
103	102
89	223
70	122
182	218
147	270
90	183
84	128
71	70
125	204
121	186
59	104
55	75
144	81
145	139
39	77
85	65
175	188
101	169
136	125
46	57
88	125
107	208
66	68
159	173
103	92
174	258
52	150
71	101
125	124
53	52
109	109
82	81
133	149
42	63
93	118
100	99
53	52
148	159
93	152
99	75
116	118
347	398
427	426
103	129
358	482
358	355
326	325
161	160
146	145
97	96
65	64
501	553
35	34
293	292
180	179
137	147
278	277
96	102
163	176
454	453
83	82
184	183
256	255
116	115
128	160
350	407
55	53
173	172
120	118
357	356
374	373
110	127
270	269
114	113
130	137
121	121
327	326
244	243
613	612
222	236
85	84
64	63
433	432
91	90
452	451
887	886
396	249
136	212
200	199
230	229
128	127
196	195
133	132
176	293
162	311
463	285
422	540
138	151
79	76
60	94
41	48
217	216
319	318
160	159
289	301
191	288
86	85
51	50
233	232
227	226
279	293
187	221
129	128
127	126
87	86
82	94
110	149
61	86
63	62
150	149
126	167
43	43
291	330
143	142
161	170
139	185
297	528
387	427
80	133
194	201
93	226
112	103
148	399
62	61
175	292
235	235
119	156
47	94
59	87
219	333
36	43
245	237
153	172
103	390
55	188
90	291
139	133
86	96
51	79
170	339
385	779
75	113
192	224
65	63
158	244
61	60
42	43
178	210
241	410
115	129
82	111
98	97
120	127
98	123
110	222
134	171
191	190
225	224
105	89
217	228
165	187
285	284
268	267
106	121
101	100
67	66
85	84
198	197
226	244
129	128
108	107
172	171
617	616
85	84
67	66
428	427
72	94
172	258
282	281
424	627
683	1653
504	1653
94	94
157	172
520	770
144	143
385	384
113	112
136	337
106	137
373	372
425	424
173	206
393	392
36	38
293	369
162	168
72	71
120	188
220	585
117	185
168	497
238	330
83	175
348	382
105	175
94	1051
215	514
101	414
285	1640
158	1535
132	1535
249	1053
293	1053
190	1053
194	139
127	257
201	200
109	164
127	222
187	200
77	80
41	47
96	164
189	211
111	110
102	103
172	171
96	63
51	50
120	119
280	408
359	408
147	146
371	427
98	97
128	208
110	143
91	138
75	99
67	135
130	229
64	127
129	144
257	307
55	89
69	68
87	186
428	402
120	141
34	46
71	83
207	309
193	209
354	353
157	156
159	158
293	292
211	289
77	76
238	237
288	287
672	671
233	232
67	66
376	375
119	118
561	1037
215	369
279	349
129	128
261	349
180	179
660	659
192	191
152	215
223	407
341	340
261	321
400	316
55	54
692	759
112	111
37	36
142	159
54	53
198	233
260	267
339	338
112	111
96	95
192	213
256	255
267	264
37	36
115	158
144	181
150	129
140	140
149	189
458	457
311	303
148	147
296	295
205	206
167	166
168	165
50	150
117	374
78	83
170	243
208	207
142	141
72	115
87	85
84	118
75	66
126	219
122	308
85	84
273	279
39	57
165	246
46	298
60	43
73	94
47	52
57	125
64	261
74	125
148	327
219	289
96	103
223	211
143	135
134	269
39	58
88	122
61	60
74	115
162	243
144	230
62	133
80	137
92	118
289	357
52	51
122	151
49	170
114	138
36	53
290	290
333	332
243	256
429	671
73	72
333	332
311	308
255	254
210	216
93	133
159	149
78	155
202	233
53	52
295	294
169	214
323	351
131	130
120	119
812	811
401	400
413	412
109	108
398	397
116	115
169	168
82	81
416	415
362	361
164	222
128	153
832	831
286	285
245	244
566	565
353	364
265	306
81	80
92	91
211	210
417	416
393	412
112	578
102	102
139	151
229	357
92	106
122	212
95	142
138	222
67	71
464	1147
54	53
134	134
163	179
222	225
118	175
198	263
92	91
234	246
117	116
446	445
124	141
70	140
113	166
76	75
167	279
128	286
335	334
60	196
156	182
127	103
161	341
63	164
224	536
93	282
199	198
350	348
117	116
142	141
91	90
175	177
120	219
195	316
234	391
166	391
93	92
190	224
252	251
214	363
196	310
95	94
437	436
715	714
162	161
186	188
253	250
128	313
487	770
251	250
164	163
160	159
176	175
186	215
70	210
184	183
311	310
189	188
170	169
267	274
185	184
64	63
183	182
93	92
152	313
255	518
290	337
101	92
288	287
195	212
146	392
184	183
129	128
116	150
270	309
338	337
271	270
220	219
305	304
423	422
221	220
163	162
506	505
190	189
167	143
61	112
256	260
229	228
95	111
153	157
34	32
151	176
54	89
201	297
54	207
45	93
121	120
67	66
145	172
184	184
158	173
88	87
82	124
149	240
78	85
220	252
82	273
85	117
173	172
81	80
105	179
96	103
112	149
60	59
135	161
177	222
157	209
104	195
162	235
94	93
121	120
109	144
176	325
70	102
162	160
124	125
55	54
61	60
77	94
95	134
38	55
65	54
76	139
44	44
367	385
77	88
196	226
68	195
138	137
909	908
112	140
219	238
60	59
280	243
135	134
417	448
384	509
116	165
192	146
303	364
96	95
49	49
110	237
173	291
67	65
152	196
134	530
100	214
41	582
119	305
97	109
42	118
78	124
73	68
59	43
90	152
106	222
100	153
116	257
128	114
78	100
67	66
61	32
217	543
243	259
280	320
115	255
171	339
98	140
54	56
38	44
84	126
102	111
124	130
70	81
148	222
52	134
101	95
84	102
91	77
240	305
209	321
124	216
138	137
130	169
90	154
107	185
62	141
58	99
71	87
65	154
45	45
69	105
69	84
118	179
79	83
45	147
199	248
33	130
126	130
125	165
213	224
81	78
190	267
84	128
64	73
75	108
79	142
55	228
139	291
64	174
172	194
109	116
165	282
84	144
173	172
101	207
107	124
157	173
87	157
78	207
59	110
105	152
90	129
135	134
57	84
153	178
128	203
79	103
301	330
191	228
79	95
51	50
62	213
121	928
91	342
94	335
68	71
72	194
63	503
72	168
85	173
265	381
63	105
46	159
199	198
127	172
110	497
72	387
189	779
42	840
44	46
243	302
130	188
144	167
79	118
73	96
140	224
111	363
137	303
94	284
81	174
130	230
173	174
87	217
106	133
104	154
239	186
260	339
145	243
164	168
64	63
103	106
174	238
118	117
55	54
166	385
211	211
62	98
170	169
173	220
37	36
418	395
529	608
480	949
210	343
62	94
188	204
97	119
41	67
100	105
121	227
297	655
255	358
95	94
162	214
230	329
85	84
236	366
355	354
61	60
145	213
501	500
53	62
142	124
314	437
163	162
55	54
182	164
79	78
121	192
137	248
70	153
87	137
137	186
285	515
213	250
39	54
73	134
58	162
65	64
139	138
179	180
72	220
159	193
217	245
44	56
160	159
35	34
387	420
262	249
177	178
350	350
96	108
79	99
68	67
140	129
83	82
158	157
234	259
212	204
76	75
336	335
95	94
232	256
376	364
169	210
228	220
115	114
272	258
53	128
114	137
65	91
312	341
69	68
112	130
52	106
56	63
39	52
118	189
109	125
41	312
188	279
318	317
205	197
70	81
78	144
305	307
157	158
158	225
135	176
230	190
85	84
394	393
348	376
122	125
192	191
269	277
34	50
266	257
190	187
57	62
117	125
160	185
56	55
229	416
69	116
121	122
80	104
48	97
89	238
120	302
172	213
39	38
65	98
86	209
136	136
311	323
77	249
214	175
490	489
378	369
260	317
42	41
279	278
223	222
129	150
173	293
89	88
78	77
267	346
333	332
448	476
337	336
348	372
476	606
71	70
240	239
228	294
72	115
243	231
133	132
194	203
137	191
94	114
72	137
363	398
237	253
88	106
196	195
117	149
168	164
82	83
236	398
87	211
173	202
37	87
540	765
72	117
116	115
172	230
104	164
54	50
250	279
244	243
36	35
216	228
102	116
260	360
68	161
130	148
240	239
64	64
102	223
154	153
165	164
241	470
47	42
64	104
91	316
125	147
179	1135
180	402
327	479
49	54
131	151
65	177
113	151
41	40
62	61
131	197
490	1210
230	381
81	80
100	148
465	909
80	177
94	559
287	559
121	149
194	198
380	622
397	644
131	644
55	54
96	95
558	677
370	369
94	93
181	180
72	72
155	154
275	270
345	356
154	153
345	344
113	112
275	274
91	90
120	262
132	131
267	266
68	67
152	160
249	248
242	233
94	137
110	109
174	173
94	93
340	339
330	350
201	200
91	270
74	73
115	133
70	100
103	127
126	133
95	94
230	229
222	221
347	346
61	55
60	149
102	101
175	183
93	106
106	105
345	366
120	142
111	110
68	67
131	139
431	467
472	471
466	744
567	577
132	155
220	219
451	682
230	231
465	464
49	48
166	188
55	54
196	199
140	230
98	241
65	336
84	357
227	357
130	129
201	332
127	186
73	72
226	282
66	65
136	186
90	206
57	116
398	581
70	71
153	163
58	67
196	181
60	75
328	356
106	117
150	162
189	390
66	107
152	271
71	97
122	117
84	97
105	109
77	125
72	65
60	161
89	145
35	63
97	520
69	82
50	69
264	279
170	162
63	61
103	238
54	102
63	62
69	68
100	144
193	227
56	105
180	199
67	71
98	182
141	172
101	159
101	123
131	468
161	160
161	160
169	168
144	301
105	104
106	154
290	355
209	296
83	84
81	81
136	152
76	131
110	110
87	83
55	109
46	138
136	284
99	229
92	135
101	100
329	426
131	153
73	129
127	136
50	119
42	156
152	215
96	131
93	104
89	208
47	109
32	42
385	384
51	50
141	140
163	171
186	180
90	139
202	298
122	192
100	100
69	109
163	211
295	296
207	337
146	188
202	201
167	163
66	84
80	92
68	118
136	508
212	210
130	185
389	388
156	157
123	261
46	65
186	203
64	63
136	176
60	71
136	245
229	189
72	140
50	184
53	61
93	108
33	38
69	68
81	156
65	211
221	290
71	93
144	204
53	63
39	69
42	34
63	117
192	189
91	90
114	151
85	71
124	163
71	75
151	151
142	189
189	347
31	34
41	40
53	99
300	298
53	79
71	70
38	55
54	49
88	90
68	67
69	68
219	272
94	93
325	317
120	119
72	71
81	102
107	110
51	50
316	296
67	66
197	196
170	138
238	238
342	297
229	268
184	183
305	301
90	89
39	38
78	77
141	147
90	63
175	174
141	176
50	165
96	176
94	149
78	54
86	196
147	244
123	84
111	150
43	42
67	68
88	118
223	313
96	97
55	54
37	36
145	247
126	143
194	257
116	131
96	194
117	166
103	291
75	64
83	101
104	298
239	223
32	70
192	364
182	196
93	72
140	331
88	194
40	110
117	211
106	668
176	188
278	316
87	172
105	172
76	272
201	542
137	143
287	432
188	187
108	107
211	198
227	271
269	493
286	318
174	339
62	61
49	48
43	91
184	183
185	184
37	71
73	102
175	179
90	90
74	73
99	206
53	186
78	105
70	90
135	134
44	89
43	126
63	77
43	96
141	112
85	109
45	61
90	181
144	239
230	230
251	371
132	131
73	62
151	209
115	151
114	117
165	234
139	267
53	88
72	82
78	89
71	89
95	200
372	550
95	94
187	256
94	231
146	145
219	218
213	343
99	160
70	126
148	195
110	217
75	231
131	184
96	95
52	78
245	274
279	349
75	89
145	144
66	65
119	118
302	301
294	325
227	432
78	162
89	83
44	43
57	56
82	81
99	136
77	86
95	134
151	160
64	63
64	128
238	237
197	195
237	409
64	63
88	87
128	127
95	94
278	277
290	351
81	378
146	156
190	226
231	277
347	442
98	97
436	429
313	312
255	254
59	58
304	303
342	356
41	48
444	482
202	191
715	421
252	322
135	135
66	65
201	201
169	168
107	106
422	597
437	495
137	136
63	62
123	122
202	201
287	277
170	180
91	112
424	423
104	114
214	254
99	114
68	67
81	80
98	102
96	166
92	134
99	77
79	78
314	366
130	128
70	69
62	66
77	208
183	219
78	76
116	201
125	240
95	93
222	223
105	65
118	117
255	254
117	96
150	426
287	286
102	101
155	154
190	274
71	106
458	457
82	81
118	215
77	76
193	193
118	117
76	141
221	236
44	77
92	133
178	163
30	29
46	44
95	197
112	191
33	73
52	116
38	38
79	92
208	275
102	115
130	128
95	135
100	387
87	141
238	217
40	55
51	50
61	60
175	248
235	355
366	299
94	92
66	144
156	155
370	369
108	107
207	218
421	424
148	147
156	188
62	60
101	153
63	63
515	500
212	211
232	231
207	206
257	351
69	49
84	69
240	177
153	393
322	323
193	192
166	188
48	48
147	146
133	132
133	178
207	256
103	102
223	222
86	142
230	380
186	458
262	267
343	342
102	101
124	190
119	120
77	78
52	51
152	197
118	165
149	148
207	205
271	285
78	77
143	354
117	167
52	51
294	369
125	199
85	105
343	391
61	59
436	474
92	91
62	63
116	194
102	176
171	173
175	263
206	319
81	149
180	216
195	239
31	30
130	208
33	72
152	156
123	208
68	48
269	307
39	37
168	176
343	384
241	289
121	354
109	108
35	34
53	75
270	269
122	121
91	90
114	124
165	227
123	132
143	216
205	258
107	197
84	60
74	95
45	103
120	164
85	239
146	149
84	310
91	257
167	185
144	204
54	52
176	176
103	181
96	86
91	245
149	158
180	244
56	72
50	49
101	174
76	562
193	245
125	256
62	64
102	101
87	86
61	126
154	186
43	42
119	116
87	73
36	36
134	360
214	232
189	187
152	205
56	48
403	427
487	486
68	67
229	228
162	168
79	92
624	625
75	108
297	296
163	222
222	243
58	57
184	264
115	139
87	113
59	58
222	221
429	396
180	248
302	304
162	160
222	255
71	83
96	95
473	472
484	483
265	264
239	260
71	94
150	214
260	340
60	59
141	141
62	56
56	55
114	166
275	349
172	407
194	311
136	124
177	176
168	167
305	304
368	479
208	214
101	116
66	65
171	191
435	560
134	165
336	335
270	269
154	153
140	173
201	200
512	511
91	233
150	147
360	380
239	301
147	146
144	143
72	71
46	45
549	565
87	86
256	336
57	56
95	94
218	217
295	294
804	1015
181	180
275	274
463	462
1247	1246
515	514
232	231
236	235
298	297
33	32
282	281
190	189
101	100
212	215
54	53
423	430
354	353
106	67
337	387
316	340
88	78
101	100
58	57
150	149
78	77
103	117
90	123
214	315
169	174
265	264
314	313
59	73
305	337
80	94
218	284
68	81
432	454
57	56
171	668
67	214
135	214
59	301
103	232
79	124
62	83
95	178
41	78
91	90
106	139
156	201
223	222
198	197
331	330
339	326
180	179
61	59
78	83
384	440
236	263
210	211
281	280
98	97
50	49
44	42
177	176
186	220
84	83
454	479
267	266
302	301
358	403
262	640
360	360
202	201
229	288
39	38
906	2642
129	804
431	804
926	126
342	270
64	63
78	77
100	104
62	61
256	273
285	566
239	350
95	73
363	311
134	140
89	88
158	167
71	69
131	339
219	368
98	148
124	249
73	88
160	330
76	1179
378	377
145	144
90	89
73	59
91	102
37	33
113	162
68	381
48	131
52	235
91	116
66	75
77	195
206	205
137	137
208	176
73	73
63	59
146	187
133	388
72	245
68	91
139	145
72	262
30	36
151	171
77	76
127	188
43	70
57	119
180	171
86	85
81	67
90	164
113	156
339	360
84	219
110	109
223	257
144	276
58	136
51	330
163	208
243	242
245	293
73	88
57	59
92	89
164	198
77	115
288	287
87	303
88	105
111	108
78	102
82	140
252	259
42	41
163	328
58	50
252	263
52	80
107	202
49	57
127	222
114	126
67	106
678	755
57	102
352	351
69	130
94	81
73	74
298	299
204	212
129	127
261	260
178	177
269	346
286	568
105	104
74	73
120	119
75	74
223	222
311	325
82	81
548	547
322	321
304	296
331	330
165	236
103	102
388	387
248	261
209	209
56	55
82	132
254	374
634	1035
250	249
111	305
185	184
263	262
150	120
159	375
393	392
272	271
207	404
412	411
58	57
125	124
105	104
73	72
51	50
109	108
266	265
172	171
219	218
103	102
255	254
197	196
892	891
43	42
325	324
866	865
84	83
350	349
253	252
197	196
103	102
341	340
292	291
250	581
359	462
207	206
71	94
249	307
521	520
282	281
229	263
114	131
312	397
398	397
269	268
46	45
163	123
134	148
57	56
90	89
144	143
30	29
91	139
188	215
170	175
178	177
262	261
217	203
246	245
249	248
321	320
85	134
109	107
153	152
72	71
296	1086
189	213
88	131
61	125
109	152
354	319
199	198
189	348
162	161
117	116
142	141
177	186
217	192
213	212
83	75
59	101
224	281
65	534
99	709
180	185
375	451
57	56
70	69
169	168
227	188
142	146
149	148
42	46
70	67
75	74
155	130
174	220
387	425
46	42
54	53
145	145
156	169
330	305
64	177
98	465
148	203
146	134
102	101
208	202
75	89
41	29
68	63
50	50
165	164
117	120
107	108
114	112
209	470
259	259
112	111
134	133
168	167
151	94
274	273
127	126
57	66
71	139
147	133
69	143
56	91
232	223
172	171
59	68
85	234
103	111
142	141
169	238
79	78
57	56
73	72
63	62
64	63
333	340
102	41
119	371
61	102
115	114
56	53
161	177
77	58
116	171
182	247
126	175
96	95
116	153
90	91
113	112
105	276
125	143
123	146
137	259
236	226
110	109
65	328
193	262
49	54
63	132
127	176
36	138
55	138
55	45
68	76
241	259
111	110
152	184
370	351
118	230
86	180
54	53
52	51
216	215
125	178
214	286
533	891
172	171
204	463
206	205
50	49
100	133
40	38
203	248
39	76
152	151
140	165
58	56
160	159
134	128
144	143
281	280
91	363
287	363
154	285
156	264
151	200
88	278
92	278
76	428
68	268
151	268
312	338
335	335
199	202
181	146
497	512
51	50
207	266
61	82
254	455
140	187
233	242
85	94
32	78
313	312
73	72
83	107
351	440
85	93
150	153
36	53
75	117
68	128
67	128
133	207
75	75
78	110
78	115
37	76
51	50
98	131
70	156
54	140
59	83
33	35
46	137
163	170
147	177
62	61
278	277
228	227
146	145
261	322
178	215
191	205
95	94
148	199
338	337
346	332
207	206
93	92
85	84
118	117
356	362
309	391
95	94
282	267
93	135
66	65
46	45
107	401
121	389
70	389
68	70
533	885
135	647
269	885
66	74
123	122
257	358
88	281
164	262
139	284
120	121
66	65
205	204
305	304
151	150
180	179
142	141
117	116
350	348
199	198
61	93
66	140
163	162
90	89
104	175
69	110
62	95
65	70
112	111
106	75
93	99
254	496
60	273
124	273
85	86
87	103
212	349
64	173
56	55
129	265
88	81
282	327
274	321
298	356
65	79
58	58
86	207
78	210
123	145
95	146
90	134
196	195
176	158
438	408
156	176
75	74
224	270
151	211
94	130
179	178
273	256
398	397
271	292
85	84
291	302
204	203
193	192
54	71
149	266
232	286
99	72
61	90
97	91
56	125
69	76
100	124
69	173
100	174
95	106
128	149
154	265
114	154
136	135
73	72
136	205
40	39
518	505
177	176
50	69
373	410
137	139
87	86
147	148
68	148
75	93
108	133
53	101
63	64
37	39
65	64
62	98
54	77
92	94
203	195
145	120
51	50
85	84
129	128
171	283
63	82
89	88
99	90
107	197
125	136
135	134
51	50
118	254
66	123
166	206
107	110
72	76
87	87
145	130
38	44
231	231
47	46
59	60
93	92
193	192
123	429
232	335
36	31
133	171
62	52
99	422
81	81
119	165
187	497
119	142
46	264
97	113
47	46
107	176
80	111
78	115
57	112
192	188
66	69
150	277
45	62
57	442
84	123
84	163
100	77
111	108
141	140
161	188
101	100
132	131
69	81
76	75
118	117
80	131
58	57
131	142
129	177
74	78
177	367
66	61
43	85
153	424
257	236
69	68
264	655
127	124
109	216
145	79
37	36
108	51
137	61
50	95
50	44
72	83
66	65
107	106
230	229
121	120
48	43
57	56
37	40
60	84
317	328
117	271
106	110
273	272
122	358
242	268
47	111
134	263
239	486
224	290
119	111
64	130
97	96
124	134
180	179
77	76
130	180
107	106
69	68
114	113
262	261
74	73
160	161
61	60
65	37
72	71
109	108
80	79
79	78
313	303
417	416
218	217
154	153
89	389
313	368
214	213
412	421
33	36
91	111
126	125
448	473
128	91
48	195
54	178
61	156
98	117
166	178
179	205
81	210
216	364
235	237
265	264
338	348
136	135
232	262
80	79
157	159
59	167
73	72
233	303
41	44
348	412
57	57
172	214
110	109
92	227
43	51
173	322
65	89
136	338
257	313
837	1148
87	68
136	185
84	83
85	85
91	67
59	129
49	67
144	143
166	187
234	240
181	180
180	215
62	83
103	102
108	107
178	274
92	122
90	96
135	125
102	116
376	528
168	278
259	258
159	165
266	265
123	334
90	148
91	104
61	67
73	70
132	247
88	346
103	260
118	263
140	124
111	162
93	165
106	105
110	177
170	188
57	56
68	93
93	193
97	106
58	57
126	125
110	109
88	87
121	155
81	82
191	205
827	1061
318	317
173	209
81	45
114	137
95	216
152	172
64	96
188	213
89	100
233	232
261	260
252	251
402	401
232	231
135	134
139	138
220	219
98	97
152	163
169	326
183	275
276	269
47	74
216	215
75	123
117	100
243	237
216	215
178	186
143	171
103	224
130	125
85	84
344	372
38	37
189	188
192	191
146	192
179	178
296	306
196	301
195	556
105	124
34	43
76	75
101	175
152	382
57	73
93	169
210	438
95	213
94	141
41	59
200	259
89	159
233	255
137	138
262	277
200	227
215	308
77	170
79	134
104	103
111	110
153	152
85	84
145	151
130	129
139	138
219	230
69	68
145	153
185	184
246	245
313	312
76	108
140	157
319	386
808	807
284	290
274	281
71	158
372	412
138	137
193	262
424	423
56	55
78	83
227	255
79	296
219	218
503	502
122	116
205	227
140	139
321	471
504	1320
167	166
364	363
232	231
129	128
252	266
39	91
125	163
165	164
443	442
58	57
199	198
76	75
273	413
152	151
307	306
102	101
161	191
54	58
57	65
793	865
134	141
276	329
87	85
109	86
47	46
72	71
181	245
55	317
106	471
111	224
626	910
181	367
143	170
44	88
58	57
71	70
71	70
390	436
31	30
379	378
414	413
101	95
122	121
162	285
133	132
196	195
236	235
273	277
328	388
373	372
220	219
110	109
86	92
315	314
34	33
83	104
138	137
139	161
77	76
77	76
685	684
149	148
266	265
458	720
86	191
119	136
170	169
79	78
278	350
151	150
587	586
155	159
170	182
223	222
296	365
216	215
104	209
71	70
71	70
287	385
288	287
98	105
439	702
182	180
356	369
140	139
52	51
193	327
152	206
192	191
176	233
154	196
205	202
172	171
265	264
76	76
109	191
83	145
235	234
651	870
93	95
180	202
133	128
130	129
173	195
233	235
86	146
82	123
183	208
174	192
88	215
72	104
43	42
183	182
287	285
51	116
277	282
165	161
702	1486
158	181
238	248
101	186
129	135
142	142
70	81
365	372
231	230
260	259
298	297
300	248
61	60
138	408
292	410
80	102
248	328
503	582
134	133
258	496
295	383
62	62
558	557
228	227
249	248
130	129
219	149
87	128
157	166
72	71
99	98
155	90
96	108
87	82
42	41
60	63
225	289
62	69
400	533
80	91
102	105
266	306
42	184
63	62
119	118
189	225
68	72
72	71
181	214
50	106
75	78
75	65
149	171
217	216
109	108
122	103
182	181
77	80
201	289
165	266
93	96
76	73
398	410
271	273
135	148
301	345
42	50
37	36
191	214
91	116
90	112
60	92
55	48
155	154
84	83
176	223
290	290
56	57
128	129
72	62
53	52
81	103
142	199
102	143
178	284
249	658
74	71
110	153
71	70
223	246
88	99
81	102
47	95
75	74
107	102
79	43
121	140
79	90
96	68
203	204
135	156
92	145
260	259
120	113
171	211
62	61
62	129
36	96
73	117
132	350
127	191
198	217
311	310
358	377
228	341
160	244
55	71
56	55
60	59
132	131
346	374
209	208
268	287
142	205
145	144
643	814
152	320
197	194
114	113
174	173
104	140
64	63
117	116
81	80
106	105
44	43
61	60
107	126
122	121
220	235
438	678
95	184
78	154
58	67
158	168
162	189
74	104
162	204
175	174
93	92
269	268
584	583
266	265
351	350
267	266
165	164
60	59
102	101
131	130
167	170
626	625
156	155
215	214
194	193
117	116
299	298
177	176
164	188
394	455
126	125
55	54
76	93
178	177
138	137
43	42
143	147
163	162
93	92
607	935
225	238
125	124
134	133
395	394
247	246
119	123
87	86
47	46
236	312
83	159
75	74
448	447
198	198
285	284
209	296
699	1368
128	142
31	37
129	192
81	80
131	159
175	188
135	134
115	157
90	225
65	64
113	127
140	222
172	351
114	131
235	234
73	72
100	130
225	245
494	747
49	86
107	106
75	74
136	140
373	480
59	57
126	125
252	253
331	330
553	552
232	231
300	299
551	550
323	322
304	318
181	188
334	333
848	807
60	113
227	226
108	107
129	128
243	242
244	243
239	238
67	95
147	161
244	243
178	175
214	259
163	162
282	281
316	314
188	245
132	127
75	242
278	296
123	122
301	300
241	240
96	95
75	71
126	125
235	234
338	348
179	178
376	375
272	271
93	92
411	410
199	198
253	252
401	400
193	192
52	51
313	312
128	127
442	441
443	442
275	280
237	312
196	251
138	145
88	166
226	256
101	83
513	512
447	623
121	215
63	60
322	321
65	116
120	248
133	157
98	97
250	249
221	220
88	84
165	164
154	153
670	810
38	38
117	142
147	146
85	84
212	357
241	330
307	306
322	372
87	82
43	42
419	418
117	131
281	273
149	149
249	248
220	219
176	183
350	786
259	460
375	294
87	86
83	93
99	177
192	330
141	278
249	248
225	224
89	88
87	86
311	361
68	67
321	320
372	471
304	323
66	65
454	453
224	223
83	82
263	293
164	163
177	241
136	135
74	78
275	345
290	318
123	130
184	253
154	162
115	166
64	83
86	67
234	245
183	209
215	234
151	150
82	81
61	48
85	82
64	63
75	73
89	80
124	84
125	106
233	251
38	57
674	673
112	121
114	123
175	238
56	55
182	223
183	172
272	346
75	91
307	429
68	67
56	158
222	321
152	211
194	152
599	634
57	70
386	423
82	178
327	361
79	78
253	252
173	173
159	162
94	176
47	110
59	68
72	103
158	157
154	153
89	132
204	203
52	97
179	228
86	85
176	176
332	490
339	338
349	348
157	156
243	242
92	91
256	313
143	142
91	130
351	350
131	126
314	313
235	239
180	195
62	107
44	44
176	205
174	173
73	114
114	99
144	149
90	115
68	87
143	142
66	80
180	98
44	96
93	91
38	37
194	262
99	98
71	92
99	201
216	379
80	79
398	397
98	97
92	91
58	91
324	756
54	82
120	205
68	103
33	57
133	164
224	242
86	52
100	240
119	240
153	185
68	109
90	303
101	98
203	257
51	73
107	117
87	217
89	113
79	150
93	77
88	140
35	78
64	440
210	252
89	42
68	111
39	122
59	158
74	143
116	158
64	95
142	153
58	57
135	134
36	35
31	30
85	88
103	191
53	167
103	109
106	185
320	402
154	153
121	233
56	166
83	245
67	322
399	398
104	103
152	251
101	251
222	332
116	332
205	228
238	237
280	286
264	263
245	244
311	310
219	218
226	225
354	331
153	191
473	472
170	169
69	68
30	29
558	557
99	133
214	356
314	401
191	190
177	190
444	673
236	235
216	215
170	157
581	655
162	161
263	353
30	29
103	133
101	346
105	114
157	155
255	254
177	176
100	100
86	107
89	99
111	172
69	187
136	130
93	91
90	98
48	144
180	208
51	47
126	182
70	98
45	69
80	328
74	125
148	137
152	321
35	91
129	117
112	295
58	92
101	240
81	106
84	124
214	368
79	164
148	156
169	195
46	328
146	166
44	63
37	120
135	309
154	308
164	138
234	266
156	143
81	262
163	169
101	103
157	239
91	93
171	202
63	62
151	138
106	251
43	81
158	174
100	87
137	93
153	209
133	391
31	39
117	158
237	350
116	512
63	77
58	134
142	141
41	82
102	116
30	27
78	86
114	114
90	133
83	164
78	202
193	332
154	170
141	547
200	235
298	302
78	106
100	246
52	99
225	224
201	177
113	73
113	275
157	204
190	177
76	167
151	352
130	129
62	61
240	379
40	38
115	122
185	125
73	72
98	97
50	57
892	907
134	133
63	62
558	957
181	203
113	112
156	155
291	285
290	290
89	88
285	284
234	233
87	86
82	58
328	327
88	87
214	213
72	109
322	321
68	67
263	262
128	127
70	69
187	186
462	461
227	226
151	158
121	262
297	410
180	234
99	98
231	202
140	348
362	361
146	145
95	94
88	89
214	282
155	171
76	149
159	144
68	67
246	268
137	136
143	142
532	531
188	187
140	139
99	104
180	269
128	109
139	219
137	136
62	129
121	120
249	375
73	137
41	42
327	360
48	47
66	65
702	701
121	117
249	248
286	285
375	374
160	191
276	277
129	129
234	299
127	216
251	348
335	334
147	149
74	133
272	271
192	200
174	173
182	204
227	304
88	256
141	206
148	308
184	334
427	719
334	400
165	164
514	599
105	119
261	260
292	311
30	311
84	276
118	124
215	316
87	191
55	74
213	476
53	167
108	246
184	311
129	133
160	206
174	173
218	353
123	227
85	198
278	331
227	265
49	48
262	261
51	50
51	50
373	372
83	82
128	127
144	143
146	154
261	260
216	228
258	284
452	467
595	636
250	407
153	193
93	110
392	460
59	80
228	227
481	480
279	299
468	745
462	462
518	888
77	86
236	296
63	71
218	217
94	240
102	101
82	99
289	288
71	70
174	173
310	300
121	197
165	164
155	180
86	85
110	109
65	64
113	129
356	355
268	267
65	64
208	207
334	333
87	116
285	301
63	98
128	148
174	232
176	222
66	65
108	126
44	115
136	216
43	60
146	145
165	164
87	139
155	188
83	82
141	351
207	351
110	131
180	145
125	90
167	166
319	343
131	148
145	144
259	258
558	593
39	38
221	271
145	144
56	55
137	136
69	104
74	161
223	368
93	92
121	138
86	81
91	66
162	376
223	376
78	531
147	253
122	132
372	659
163	288
119	118
198	198
219	218
142	128
144	225
69	89
305	246
482	424
306	305
152	151
121	159
136	135
221	297
200	200
126	125
149	177
118	149
715	757
78	97
265	264
160	159
434	266
498	550
73	72
209	208
79	164
85	84
559	558
183	186
87	204
171	209
320	319
275	284
39	79
215	214
625	624
213	201
110	109
118	143
86	92
192	407
114	189
62	61
184	183
126	125
176	175
58	54
184	198
100	161
101	187
147	249
257	542
287	316
116	116
89	88
330	329
74	73
53	52
990	1049
125	124
77	76
184	183
105	104
185	181
111	141
172	171
118	117
104	129
191	190
287	286
429	428
51	50
59	58
521	523
90	93
213	236
391	396
86	85
60	59
136	135
77	92
194	191
313	358
63	58
152	151
73	134
38	37
124	123
46	65
162	215
174	278
103	175
91	90
110	101
62	155
79	155
136	156
125	171
177	209
65	64
156	188
99	193
178	211
75	74
64	80
45	44
302	303
82	131
105	104
75	99
60	69
323	312
150	151
132	211
73	91
67	134
140	289
108	221
106	176
60	51
199	200
160	252
467	520
55	130
60	115
118	177
75	74
145	181
51	122
73	72
155	165
83	261
68	191
152	93
84	107
112	187
68	67
50	66
93	352
125	186
36	80
158	187
165	172
212	155
108	314
64	162
155	64
120	122
78	106
134	85
79	82
147	199
46	45
287	286
108	115
197	202
70	66
252	302
238	309
108	141
111	110
307	342
70	82
267	272
194	193
79	106
123	183
100	296
310	308
256	256
157	156
59	68
66	65
306	439
58	83
183	204
135	212
62	64
105	117
55	132
96	74
90	89
142	297
161	313
314	840
153	219
83	77
75	164
294	333
246	298
326	325
91	93
95	94
86	164
142	143
83	59
73	84
87	82
46	59
104	133
60	75
244	318
257	256
107	76
51	50
300	315
185	184
87	86
365	364
71	70
103	102
316	364
65	64
212	276
142	127
58	57
167	231
124	164
112	111
86	85
45	46
100	139
69	179
258	559
118	145
113	288
146	201
37	70
336	335
284	283
143	146
152	106
172	207
231	230
93	93
92	91
370	369
159	252
78	82
180	179
404	403
338	337
317	316
270	269
289	288
270	274
61	60
555	554
168	281
112	111
364	363
1025	1024
418	417
81	67
78	203
428	427
373	389
49	46
107	150
212	299
152	249
158	169
484	483
371	389
297	296
328	358
120	446
90	137
72	65
224	223
292	349
63	62
415	460
35	82
317	316
317	316
170	185
156	159
168	280
185	203
252	287
87	99
60	57
142	141
311	310
363	362
96	123
125	332
146	244
165	187
196	195
151	157
207	266
213	212
331	531
94	93
128	127
72	206
265	264
47	46
85	107
180	183
193	227
583	763
198	188
105	70
156	155
434	433
60	72
240	239
182	279
77	76
442	556
92	91
98	97
144	180
289	289
286	285
253	659
130	435
535	1415
71	165
210	257
188	188
88	90
165	192
330	329
298	297
309	308
307	306
215	214
177	227
34	33
89	88
106	105
38	46
75	149
91	89
147	153
158	166
197	280
78	192
62	292
68	194
92	134
135	106
107	221
288	298
94	88
115	296
167	166
44	111
94	198
164	242
89	306
182	270
132	260
253	510
712	1032
386	518
92	479
72	479
395	415
157	156
418	417
66	65
180	202
78	82
224	315
126	130
134	133
342	414
50	45
153	152
69	70
128	191
71	69
255	421
191	186
298	302
151	150
198	201
157	142
168	169
117	166
288	287
401	238
354	353
104	103
131	130
92	107
231	322
115	110
305	304
281	280
326	325
310	309
296	307
179	145
100	99
125	119
258	257
215	214
271	261
167	182
89	94
211	330
238	237
144	143
97	96
175	241
64	61
98	92
56	58
86	138
311	310
87	87
366	575
339	486
32	31
134	133
116	115
132	131
145	144
343	405
106	95
129	183
337	336
549	548
82	113
378	328
64	68
58	121
54	283
114	123
220	242
56	87
147	82
114	178
106	112
89	177
74	160
391	298
405	498
69	84
81	54
247	246
221	255
132	146
75	77
117	143
365	538
309	348
149	148
257	256
247	246
143	155
223	240
217	216
453	452
257	256
104	116
176	274
293	304
268	267
151	100
85	84
191	190
344	343
212	211
154	153
121	120
135	134
236	235
61	60
81	263
391	423
196	274
119	196
88	105
96	95
182	181
67	66
45	51
123	142
105	223
170	175
98	89
389	592
302	308
39	68
73	113
133	180
48	62
97	96
107	301
129	144
34	76
52	95
116	209
138	137
219	303
147	158
67	208
109	198
45	56
198	199
210	403
72	66
48	110
232	290
67	137
249	518
165	337
389	436
72	81
103	168
223	271
276	275
253	252
399	398
186	185
242	241
262	282
72	77
188	237
229	251
109	155
72	71
114	113
210	318
37	57
315	250
49	48
89	94
88	112
275	288
205	226
109	343
67	128
58	55
224	309
52	81
100	133
76	234
38	37
164	163
146	172
118	117
82	107
120	130
115	114
81	80
183	197
120	163
427	426
459	539
169	152
95	282
80	79
107	106
67	154
86	141
386	447
110	301
94	146
99	85
114	113
227	244
166	165
386	712
288	496
177	234
169	160
125	247
291	291
77	423
114	242
53	65
144	149
684	809
168	176
210	234
152	151
309	308
348	354
82	159
195	194
247	246
66	105
502	602
265	272
133	190
38	88
201	200
95	156
106	173
92	89
182	329
145	329
81	105
105	137
51	50
158	158
138	171
54	65
67	306
187	136
127	126
357	409
67	66
151	150
64	64
191	206
202	202
55	56
52	51
79	78
120	75
183	182
481	796
151	616
114	208
517	516
72	85
297	296
265	264
121	120
774	865
81	80
551	587
80	79
132	259
110	231
82	96
593	618
218	217
132	242
121	292
386	385
80	79
95	94
97	96
51	71
97	96
80	79
95	94
98	116
73	132
249	449
67	66
67	66
267	317
138	198
73	72
227	284
170	183
223	264
78	77
147	146
286	379
401	400
348	347
91	91
96	95
64	35
185	197
58	65
122	118
63	70
180	284
41	129
143	219
205	189
117	282
81	144
132	130
188	326
133	135
228	239
99	122
43	34
279	389
101	100
85	84
205	185
161	319
68	97
116	115
38	111
58	80
129	292
126	142
136	126
88	239
74	80
58	57
98	99
137	336
85	84
127	126
242	312
46	83
66	68
299	298
453	452
44	61
446	495
86	77
409	377
122	121
56	103
212	211
88	87
66	65
335	334
119	118
245	318
99	250
213	238
73	72
106	150
95	93
73	88
108	211
68	189
181	180
121	139
208	227
73	72
97	163
117	283
165	465
93	85
54	81
50	49
56	42
131	153
282	347
56	55
154	327
176	432
173	422
54	224
78	54
130	142
99	119
82	138
73	73
94	118
49	64
42	233
49	179
100	368
55	128
131	145
95	312
137	272
269	307
211	206
155	144
236	277
42	60
142	162
105	120
135	157
155	174
223	279
199	218
186	186
533	784
183	205
99	114
247	237
121	477
61	101
179	299
483	1092
183	177
108	134
229	228
77	295
108	330
156	134
228	227
94	113
116	139
128	210
65	67
147	146
123	145
144	144
52	51
95	94
142	199
95	94
78	77
197	196
420	427
100	266
136	135
74	73
75	113
71	105
264	373
111	125
63	80
53	52
95	112
82	99
182	236
64	91
133	159
66	65
114	131
411	446
188	205
113	298
84	85
152	150
80	198
159	158
454	459
67	66
87	110
72	74
46	45
197	196
132	131
62	64
80	94
138	159
523	522
36	316
229	316
42	93
62	61
174	175
212	261
274	273
80	83
51	121
305	304
322	316
42	44
71	109
75	59
140	172
47	46
323	329
136	203
68	148
188	295
155	218
98	93
106	194
56	87
88	87
68	169
332	457
171	679
348	679
77	679
280	299
193	247
131	161
420	419
252	297
247	318
254	253
88	96
51	50
142	1095
233	224
517	638
120	120
135	134
183	237
56	92
189	188
196	195
178	201
154	155
65	51
383	476
63	90
106	202
75	72
99	98
231	422
198	197
84	68
70	219
112	113
52	56
45	82
62	97
114	179
86	296
133	218
246	224
235	261
84	108
162	161
442	450
121	145
263	287
91	108
150	225
114	113
290	289
132	135
61	71
78	111
68	103
99	98
124	147
192	254
67	170
157	156
88	87
154	222
130	215
189	188
314	356
78	471
71	110
110	292
77	176
236	322
49	44
125	124
107	106
258	257
75	79
207	222
220	443
632	407
104	121
356	457
260	259
56	63
239	297
234	231
288	287
167	201
467	357
54	53
202	201
539	538
226	225
99	98
103	135
344	343
92	91
263	262
159	160
307	453
128	152
324	408
180	179
246	245
165	164
192	191
344	504
75	159
70	85
43	60
38	277
76	157
76	157
60	54
126	124
182	226
144	146
269	286
76	82
207	266
49	137
76	113
139	138
229	267
88	140
139	578
89	85
90	389
123	156
95	149
87	96
101	100
96	95
245	388
91	101
186	244
81	162
228	239
435	434
980	1087
113	112
55	54
471	470
319	318
411	410
201	199
203	336
384	383
256	255
86	85
178	198
68	67
374	392
185	184
228	227
73	102
78	90
167	166
240	239
198	197
99	98
84	83
193	192
70	103
181	226
61	62
487	486
166	166
216	256
204	256
230	234
301	300
168	167
177	176
152	161
150	178
336	423
84	83
122	121
121	99
166	165
102	126
91	132
87	117
122	131
89	91
173	172
407	406
132	131
239	238
369	368
169	257
150	293
103	105
242	242
125	124
273	272
86	85
106	183
67	98
146	219
87	86
359	373
54	53
333	338
79	90
64	109
80	118
48	49
84	95
190	210
261	260
263	262
320	319
560	655
109	282
96	100
75	240
194	304
74	57
267	266
335	334
214	213
168	360
159	239
198	260
129	144
90	84
259	253
197	347
150	158
109	108
281	320
67	103
355	415
177	166
87	146
93	189
85	77
48	231
106	186
79	101
143	141
52	51
235	208
126	125
54	53
135	158
69	68
137	137
60	59
115	308
53	46
84	115
150	150
98	104
90	158
68	103
94	94
128	226
142	154
182	217
183	306
116	115
156	222
46	45
43	42
112	195
174	68
47	46
65	64
101	110
93	92
58	47
145	144
79	78
118	119
116	115
46	40
94	142
142	161
67	66
119	126
71	245
84	225
121	163
70	69
62	61
92	91
128	127
180	179
177	224
95	187
120	177
155	170
76	102
192	190
101	182
219	217
131	130
319	318
256	255
86	85
81	80
138	137
94	93
273	272
310	372
77	133
189	248
53	52
145	147
100	140
118	88
35	34
59	59
68	67
90	137
97	95
133	136
170	197
440	438
281	337
125	124
280	279
199	198
144	348
194	194
117	116
142	141
296	295
108	107
197	195
184	174
188	337
80	112
57	128
123	294
43	190
94	190
103	299
121	224
62	224
182	254
57	71
91	91
164	161
47	49
294	293
210	187
139	347
54	393
59	122
97	559
98	121
82	287
115	148
50	49
343	383
83	80
148	142
67	98
99	185
71	48
44	66
282	1109
583	789
106	129
157	182
89	88
86	75
139	138
256	334
99	133
64	70
412	423
74	62
85	241
69	101
238	237
72	71
72	71
249	248
154	153
41	55
62	61
206	204
77	695
239	621
194	397
192	211
316	315
151	164
299	294
552	551
211	240
113	313
175	192
72	104
129	128
191	190
153	271
136	152
184	183
458	457
333	332
164	163
141	202
116	132
199	230
284	370
187	166
264	271
177	176
105	104
84	83
114	113
52	55
419	480
559	1259
232	231
578	577
213	212
448	447
69	68
132	133
75	87
199	202
64	37
92	82
562	647
60	54
77	89
287	286
235	267
86	85
221	220
151	150
312	367
111	127
97	97
171	212
236	215
187	263
151	250
144	179
172	194
152	159
292	330
59	103
46	31
418	474
174	244
126	161
135	278
77	78
134	203
85	147
111	168
71	168
136	157
150	149
76	75
63	70
68	126
92	91
175	176
63	72
63	85
239	242
56	56
181	146
73	72
83	82
102	101
465	465
76	81
94	122
102	164
57	56
69	68
184	183
250	249
110	109
63	82
274	325
225	238
35	154
69	110
70	279
420	602
130	129
220	219
81	138
80	149
133	117
225	225
114	112
272	290
89	317
50	54
76	192
137	140
89	103
44	47
239	403
162	159
66	65
70	78
155	165
153	201
214	210
140	148
132	274
103	102
129	96
214	234
129	128
252	487
155	217
45	35
99	98
118	163
95	101
80	79
74	79
47	65
152	211
246	307
331	379
205	204
91	88
251	251
94	141
159	332
1097	1107
89	119
54	108
486	500
276	279
71	70
521	520
230	229
116	115
120	119
389	388
149	148
106	105
49	48
42	41
187	188
343	342
290	289
118	117
549	548
98	97
419	418
159	158
479	478
196	175
173	258
80	86
64	63
425	592
60	203
170	588
192	191
101	146
168	70
65	282
58	71
237	111
84	133
97	139
81	81
117	122
40	39
69	71
47	52
58	78
68	62
110	158
107	164
176	175
133	116
142	173
385	440
135	204
111	259
101	97
43	42
136	94
128	164
82	77
77	76
110	122
70	69
159	158
69	68
137	136
286	359
46	70
426	516
344	261
171	135
153	142
126	130
98	135
92	313
69	124
183	182
295	213
120	72
114	124
79	78
100	99
92	150
71	88
97	96
134	513
134	426
62	228
88	152
273	233
76	75
199	218
163	221
154	181
216	405
121	164
64	63
114	193
294	363
263	301
168	209
81	80
235	278
132	131
220	192
284	283
165	195
30	29
30	89
89	88
134	184
214	508
81	261
41	194
360	415
330	538
173	185
359	345
132	118
112	111
75	89
64	128
72	97
66	65
327	461
51	86
72	125
72	263
118	205
115	494
333	922
375	476
113	132
265	353
84	169
159	318
224	647
160	371
107	364
95	135
81	78
224	248
187	362
78	106
51	77
113	172
92	89
78	77
187	186
189	188
443	442
269	292
178	166
256	314
98	202
105	109
134	133
128	221
89	155
67	206
57	206
155	154
157	152
47	191
214	228
67	520
128	244
248	697
80	119
169	358
76	264
135	303
247	384
86	85
343	447
137	294
93	92
95	94
93	92
100	86
130	172
75	272
138	188
289	295
92	91
84	181
160	178
78	97
104	130
84	275
118	229
243	242
194	194
117	116
142	141
60	59
118	117
179	232
99	155
134	134
83	82
134	167
87	96
317	316
306	325
76	72
166	158
220	260
78	77
92	91
191	203
102	161
159	158
74	73
146	145
112	124
163	162
79	62
237	236
252	251
500	499
512	511
169	168
279	351
66	65
445	444
338	442
58	89
302	314
498	498
206	162
241	309
83	195
58	57
99	98
79	76
56	44
108	123
305	700
110	311
272	594
169	241
70	74
333	431
113	145
788	1272
175	174
231	230
56	48
136	556
394	476
100	111
77	76
196	194
211	353
113	550
78	104
447	446
549	548
217	216
111	110
349	451
316	311
757	756
105	95
149	163
176	186
63	121
230	244
110	109
431	523
223	222
367	366
30	29
412	500
91	92
245	248
68	67
479	727
271	270
112	111
148	147
263	262
290	289
256	255
145	144
151	150
195	194
355	354
282	281
48	47
182	252
183	182
53	79
104	113
189	163
72	72
119	185
95	129
109	199
70	82
93	123
78	118
159	158
298	297
249	263
128	127
165	291
125	205
89	91
93	81
236	235
232	231
198	283
99	138
162	194
126	314
179	195
111	126
96	95
344	343
248	225
440	636
170	214
119	186
113	149
80	79
150	275
124	264
58	146
168	216
87	346
104	190
47	105
163	248
55	101
242	261
234	278
167	234
52	240
217	229
386	407
92	209
199	198
110	127
152	221
362	457
168	240
117	93
211	223
130	145
35	28
296	310
127	170
109	151
130	247
58	93
195	244
43	42
105	104
146	237
53	70
84	117
246	302
230	229
65	134
90	136
201	246
92	110
348	352
81	120
116	138
335	324
155	154
45	51
68	67
529	528
94	93
154	178
43	53
148	124
446	577
361	360
119	118
55	140
238	237
238	242
231	357
120	119
310	452
104	198
167	227
162	357
208	240
242	240
291	290
124	121
108	210
137	171
130	148
62	178
88	178
52	122
33	78
144	149
63	235
104	235
100	149
92	232
228	254
134	422
192	422
95	118
107	263
102	397
140	117
56	276
656	277
64	137
53	52
472	471
345	344
263	326
121	286
77	170
46	106
470	401
138	401
196	291
218	678
105	274
275	327
46	45
183	164
180	252
30	33
138	140
59	105
442	441
245	244
60	67
64	59
103	139
76	96
305	554
206	240
291	290
132	131
307	306
196	243
200	202
92	91
293	356
32	31
397	396
103	135
213	267
212	215
145	144
168	167
106	89
364	538
75	180
206	269
246	245
159	158
92	109
191	186
120	193
175	290
80	95
288	316
133	132
91	90
202	205
108	127
69	51
116	192
61	111
48	47
159	139
84	119
85	104
70	69
165	164
90	121
91	121
67	70
175	191
104	122
240	333
81	76
230	229
397	396
82	138
69	71
66	65
1228	1227
143	142
102	129
216	258
139	193
69	69
33	56
322	336
72	71
173	175
353	533
194	197
98	139
128	127
85	84
564	550
77	76
354	429
442	441
459	458
140	139
212	211
91	90
197	196
101	100
140	151
330	354
210	207
56	55
159	158
544	631
212	211
252	251
67	66
89	88
162	171
378	377
78	104
1315	1407
1343	1342
122	121
115	114
99	124
151	150
47	46
46	49
152	181
66	102
304	303
92	91
390	358
322	321
343	342
85	84
62	61
242	241
167	166
402	437
87	108
221	366
71	102
120	119
235	234
439	438
254	388
70	128
47	56
191	247
75	138
216	221
127	139
131	207
54	63
145	117
219	368
114	139
210	243
39	36
189	260
69	116
70	87
76	97
88	103
79	150
271	251
50	83
92	369
431	430
306	411
116	119
284	283
114	113
68	73
205	200
227	226
305	529
187	299
39	51
49	48
37	39
81	105
111	141
197	205
63	77
163	292
120	260
66	72
255	358
104	123
52	76
43	83
141	241
59	57
62	80
90	93
138	353
149	205
119	279
100	143
193	197
127	163
375	395
94	92
168	203
84	127
234	339
187	200
270	224
157	217
175	248
146	318
170	159
48	57
82	207
196	199
98	120
74	196
61	59
58	70
733	732
72	100
147	270
127	164
192	284
177	176
227	269
79	122
149	160
162	161
58	57
32	31
130	129
70	38
396	481
62	81
337	336
93	91
164	248
62	101
49	56
44	48
57	68
184	199
51	76
133	239
103	182
58	73
285	284
87	123
143	241
90	89
322	300
124	104
137	136
235	235
223	222
225	224
251	257
85	75
195	203
92	91
263	263
299	312
263	278
64	126
221	367
70	69
31	43
87	267
100	136
39	38
214	261
40	48
69	104
354	457
103	190
185	181
278	277
81	80
132	180
123	206
179	249
81	168
212	206
177	231
110	109
43	42
60	126
118	117
158	243
87	41
146	246
73	72
93	92
54	54
63	79
99	75
85	155
121	176
174	173
140	149
100	117
280	287
200	199
227	207
142	203
228	237
191	253
297	289
337	336
75	74
131	221
100	110
218	292
90	90
299	298
153	187
102	238
608	607
470	469
171	188
181	180
473	472
37	36
458	457
170	169
212	210
249	274
675	674
79	78
166	140
163	189
385	425
44	43
86	211
128	156
155	159
92	150
59	77
86	107
102	109
111	110
80	169
85	84
231	230
230	228
248	247
192	234
105	119
200	199
118	174
159	191
37	37
84	83
139	217
83	63
52	51
298	384
105	116
160	159
116	172
491	622
172	171
200	219
125	124
115	114
135	216
96	134
82	81
230	233
153	152
152	147
136	159
130	297
91	96
107	179
39	57
100	177
89	94
144	148
73	72
227	226
80	79
157	156
109	137
51	57
266	265
144	143
288	287
461	460
171	139
457	456
610	609
347	346
229	241
297	296
80	80
164	199
242	241
231	230
96	179
78	251
373	624
211	291
241	289
539	538
185	317
71	251
138	190
237	240
196	195
156	155
144	221
84	67
446	445
189	188
201	200
320	323
392	391
168	167
243	257
472	471
455	454
142	156
270	406
142	195
109	108
47	46
119	108
120	97
80	79
86	85
261	290
98	167
182	267
161	178
376	419
157	213
93	146
61	78
45	43
122	132
303	307
219	218
230	229
293	292
206	205
364	362
229	256
134	350
98	126
171	244
80	109
99	105
114	209
77	156
102	137
88	86
147	137
89	88
55	54
281	382
129	128
289	288
284	283
116	234
178	156
112	120
393	392
116	115
121	120
69	76
102	165
395	394
47	42
116	218
185	281
124	204
39	62
37	36
44	43
137	141
197	196
501	500
164	163
293	392
50	49
77	100
68	244
216	276
99	152
134	182
62	96
40	55
78	142
78	295
103	101
89	54
153	86
132	236
77	80
184	298
72	220
52	65
84	127
57	135
58	91
116	115
44	74
84	83
137	178
124	201
210	330
83	86
251	343
218	227
76	84
100	117
165	243
180	194
125	709
64	106
447	466
157	156
103	104
364	363
284	283
287	286
311	310
141	135
106	105
570	569
125	124
327	377
98	116
303	309
255	282
174	245
251	254
189	188
654	702
45	44
208	207
106	83
470	560
180	179
44	43
229	244
74	73
106	120
61	192
214	213
199	198
153	152
407	406
125	117
100	128
56	55
242	269
160	159
118	117
235	239
255	254
243	267
97	176
266	265
124	169
155	153
136	169
215	359
340	339
339	338
77	204
147	176
132	173
116	107
229	227
123	131
216	217
51	103
257	300
238	278
125	124
117	115
202	255
113	112
48	81
259	258
342	341
110	114
147	337
182	238
64	97
202	427
167	183
72	40
72	78
60	95
116	148
105	180
59	107
85	87
67	83
36	38
99	98
129	134
225	437
90	165
106	119
143	142
400	396
81	95
105	177
218	217
333	392
1078	1447
359	211
227	226
87	86
70	69
219	251
234	241
169	211
62	61
106	162
151	474
70	333
264	314
121	120
379	378
203	202
308	303
154	153
36	66
205	279
71	219
277	287
232	292
134	181
432	431
65	111
344	333
658	657
449	466
272	271
129	234
425	1120
221	220
256	255
43	172
139	222
329	328
426	425
129	127
38	35
127	306
178	211
114	154
66	65
242	332
109	107
57	85
132	131
158	157
418	417
207	341
92	243
275	274
172	178
114	134
394	393
47	46
97	405
166	261
111	145
52	70
230	240
348	415
108	132
318	484
83	90
154	173
208	91
116	847
88	104
119	105
53	371
132	337
59	91
97	96
237	236
292	324
220	219
195	212
168	367
74	141
159	229
115	111
67	52
58	136
54	53
34	46
114	236
123	152
92	91
50	79
135	261
199	545
127	577
123	146
77	188
56	134
74	167
115	120
90	117
45	47
40	40
55	78
62	200
86	422
116	193
80	80
116	185
142	158
121	567
143	188
55	54
337	398
94	91
89	184
48	149
71	88
119	163
88	184
113	130
82	90
111	370
43	118
98	146
54	167
40	114
70	261
280	363
40	47
382	387
84	101
151	255
56	102
100	145
263	374
114	150
77	76
92	92
87	117
96	105
54	72
57	83
110	169
122	121
184	178
34	117
84	117
74	272
174	188
104	99
97	137
61	82
59	120
62	60
68	112
74	73
125	124
95	72
128	200
193	234
64	106
102	195
116	142
75	81
114	116
144	143
155	169
81	101
77	63
152	123
144	218
280	378
120	458
100	209
110	187
92	86
164	216
80	159
49	48
123	122
37	195
162	170
127	72
67	96
144	143
198	216
47	147
189	188
143	330
208	207
71	70
32	32
187	274
125	150
94	187
260	281
105	138
118	142
343	342
92	91
123	85
179	236
92	91
142	141
72	71
451	450
281	280
251	270
270	269
119	148
131	143
401	400
43	48
78	80
58	99
45	44
364	530
119	142
63	76
71	70
181	285
121	170
59	116
282	314
202	201
204	203
496	911
205	307
60	77
117	160
48	47
106	171
49	117
99	179
76	96
127	129
158	128
58	89
33	51
503	502
308	367
94	93
158	157
192	200
32	31
134	133
194	268
70	69
255	254
96	126
74	130
302	314
186	185
99	159
170	241
47	58
196	195
120	119
155	177
87	87
221	234
112	190
58	79
186	185
163	221
58	47
113	92
474	546
206	301
276	253
221	89
157	156
282	368
98	419
63	80
52	147
141	163
141	121
67	90
148	148
83	77
188	184
159	158
210	209
89	88
176	175
128	127
189	188
114	211
96	99
225	247
202	279
236	262
184	194
39	80
43	43
41	63
162	159
218	230
188	187
109	118
105	109
110	205
78	77
275	274
95	96
217	247
581	577
163	162
118	127
198	197
232	231
236	235
68	101
77	81
422	421
169	177
136	291
154	429
68	429
68	74
142	349
94	120
83	87
114	113
368	367
94	93
410	493
96	139
158	290
33	77
135	166
475	657
173	172
156	240
121	124
154	222
130	145
376	497
136	497
87	285
95	212
94	97
73	129
89	203
63	300
71	114
46	42
174	184
157	145
55	138
167	198
91	138
85	107
56	54
59	68
54	85
84	82
249	436
74	152
118	243
59	92
60	461
49	90
205	181
89	174
78	376
79	92
106	112
101	275
45	99
70	191
68	47
136	447
93	208
109	120
243	275
71	76
166	165
135	204
35	70
82	87
58	56
50	49
109	272
79	78
68	168
97	96
87	89
41	106
52	51
136	132
85	202
166	165
57	56
127	197
167	258
465	511
89	88
141	217
154	215
92	213
216	239
200	264
87	100
58	74
153	167
47	185
92	198
179	210
257	340
68	108
131	503
95	106
143	142
194	213
184	183
263	302
111	712
198	214
181	236
73	371
157	201
74	90
74	110
44	57
95	96
156	391
145	152
37	36
103	105
116	288
81	80
198	255
43	63
83	80
85	126
103	129
350	347
260	295
120	164
299	358
62	57
91	90
61	60
160	186
160	159
91	144
175	250
95	97
163	284
249	248
92	91
131	275
115	180
58	57
428	427
101	140
126	141
71	81
280	376
131	146
173	180
174	248
76	75
394	393
114	115
85	84
311	313
83	82
61	60
120	119
213	212
57	56
372	371
49	59
536	583
194	193
232	231
507	634
72	71
116	115
75	99
60	59
398	415
52	51
85	94
124	192
455	454
251	250
285	284
107	106
426	517
47	46
97	134
104	168
67	70
58	72
210	221
85	55
105	144
70	106
174	174
62	95
70	69
96	95
80	79
210	263
55	54
254	309
223	468
122	115
35	91
136	174
683	682
233	232
184	183
133	132
191	208
238	218
641	877
425	506
70	94
79	78
92	91
219	218
118	117
57	56
243	243
88	87
77	76
219	218
221	220
559	686
79	103
220	219
37	36
131	130
97	96
393	392
185	213
337	336
271	252
144	143
239	274
136	135
38	37
64	64
103	204
87	86
136	135
360	359
324	323
223	220
111	138
106	105
90	141
258	328
252	251
232	231
82	86
89	89
58	57
81	80
198	197
149	148
204	203
95	90
68	67
143	143
247	246
148	147
505	590
99	153
189	188
191	190
68	67
72	131
205	213
324	323
411	449
172	328
217	780
127	144
272	378
88	139
169	248
90	94
314	428
167	190
553	679
134	107
207	231
131	169
79	158
150	214
108	108
235	234
120	119
272	271
115	114
154	133
166	217
134	133
133	146
204	221
192	208
80	161
294	358
97	96
129	292
146	143
74	89
130	162
36	35
82	142
221	302
203	200
44	229
82	229
146	176
100	151
143	87
124	403
38	130
40	80
85	125
102	338
74	83
161	239
80	98
69	105
73	72
49	27
80	100
37	173
84	180
75	72
98	117
72	102
122	144
56	176
112	143
141	139
102	54
92	257
92	128
75	74
90	126
186	243
91	298
260	546
94	93
171	170
405	445
85	112
130	129
306	367
65	181
164	208
203	269
105	306
130	129
301	300
179	178
66	226
134	226
112	126
82	134
39	135
345	344
110	109
109	435
126	435
94	435
268	308
87	77
421	445
176	189
102	101
75	159
86	90
97	127
204	223
100	97
165	198
89	59
136	213
59	103
78	77
65	133
68	201
147	201
117	141
104	114
58	150
296	307
202	262
71	73
43	38
75	74
104	103
79	78
137	136
428	471
181	251
75	74
159	158
70	130
106	106
107	317
300	618
130	162
87	176
58	176
88	87
220	338
88	203
181	181
217	216
58	216
254	357
124	828
191	193
75	74
239	238
222	221
211	210
250	328
70	69
135	134
160	152
83	180
57	71
141	140
105	105
85	69
137	349
94	103
66	67
159	269
70	379
95	94
66	61
74	91
122	121
66	75
142	193
187	293
108	116
92	102
34	33
343	342
78	71
40	39
40	39
87	124
131	89
33	32
36	265
59	86
42	145
91	94
105	104
229	239
322	378
111	140
185	191
242	241
142	154
168	274
145	130
48	43
104	148
147	201
133	208
95	364
90	85
117	171
82	321
56	55
154	190
96	95
106	162
53	58
83	82
214	209
64	62
61	60
63	62
80	79
64	271
178	285
82	78
104	277
101	144
85	80
86	66
149	212
83	82
84	171
50	57
57	75
157	156
63	65
103	102
234	250
54	99
41	41
62	121
282	360
143	164
124	45
125	359
105	181
73	92
112	151
131	246
82	61
52	68
94	93
142	185
138	91
53	69
212	227
404	792
109	108
103	200
99	80
108	107
88	87
100	302
89	121
311	318
58	145
58	98
93	107
43	42
160	215
165	190
103	102
110	125
67	157
98	240
77	91
215	211
162	160
236	234
75	74
58	62
88	92
51	50
83	112
70	106
59	90
148	201
259	258
109	197
36	122
60	122
96	272
97	199
75	127
54	53
101	97
125	181
85	163
75	86
117	116
82	40
74	97
70	80
104	109
96	122
37	39
50	43
83	51
112	111
121	106
86	130
121	120
169	296
46	59
37	36
59	58
39	60
81	80
83	153
119	112
181	234
72	71
42	61
37	36
53	84
79	78
55	56
73	72
55	54
48	39
199	198
345	349
117	116
142	141
32	63
125	124
62	99
80	106
160	128
110	108
162	209
64	356
85	252
66	252
169	241
104	154
55	68
49	41
106	109
158	260
131	164
248	257
102	467
396	424
97	165
56	83
143	190
68	206
69	114
291	276
228	319
112	88
280	279
97	96
129	198
182	267
79	53
367	349
88	87
188	187
140	139
99	98
298	401
277	1000
126	142
174	456
86	75
129	198
95	88
178	322
220	251
107	93
272	271
265	321
99	196
41	46
94	99
122	221
130	185
69	107
359	340
110	109
39	38
100	108
176	175
143	241
114	112
177	156
76	75
87	86
70	113
98	170
55	70
227	226
91	141
289	355
67	75
160	296
95	177
377	376
121	120
205	337
88	124
120	119
205	359
396	407
247	246
462	461
88	61
412	411
465	464
109	196
61	195
399	398
400	399
133	246
131	246
173	223
57	70
114	125
259	617
243	820
112	106
78	77
68	67
167	160
106	134
165	178
119	143
161	278
137	232
108	167
192	232
370	498
165	164
106	146
170	142
101	244
119	239
51	94
30	23
113	115
149	147
41	43
131	130
180	163
127	126
94	125
204	203
47	95
110	387
162	173
99	101
207	206
195	286
106	284
115	116
71	96
389	376
155	266
169	170
107	57
137	295
77	76
34	41
172	328
171	283
312	279
114	123
56	185
71	205
132	205
160	502
45	502
157	156
102	236
75	291
103	178
282	281
231	230
154	179
196	325
64	90
130	129
109	120
214	183
55	54
438	491
62	67
183	391
95	207
135	126
109	132
117	114
127	142
104	105
107	210
40	39
198	217
356	377
101	71
169	168
215	287
115	140
80	72
86	127
157	334
81	80
49	74
75	76
271	417
37	40
57	119
71	76
95	154
104	109
80	99
154	316
128	124
102	180
54	54
91	90
259	258
72	196
190	260
72	71
100	99
118	138
269	468
43	56
81	156
80	93
120	243
176	180
234	308
144	135
222	299
433	636
97	118
65	59
350	366
181	181
96	84
243	260
63	68
97	100
86	95
74	73
205	204
102	101
216	198
321	315
316	352
87	86
197	218
177	176
164	165
98	97
107	106
86	77
182	181
96	95
132	131
129	145
77	107
167	177
168	284
189	423
384	561
144	148
121	161
177	216
444	214
448	518
67	66
281	271
64	98
116	453
94	97
148	196
168	254
291	406
188	334
162	1397
219	244
287	267
187	186
89	86
142	141
117	116
538	542
60	63
85	84
121	120
85	80
51	50
59	58
144	143
76	75
86	85
87	86
189	188
246	245
252	251
235	234
41	40
129	132
163	173
236	264
235	234
164	163
79	104
194	193
232	236
169	159
218	217
228	218
253	252
243	273
233	232
302	301
173	172
217	216
165	136
277	285
68	65
139	139
74	68
244	242
84	83
184	273
108	107
159	177
77	253
220	219
112	153
92	91
39	52
39	50
143	137
254	253
385	522
277	319
176	175
460	459
133	134
168	257
146	185
51	119
289	308
232	231
81	85
81	102
162	161
150	149
107	106
72	80
160	159
109	108
87	86
99	108
69	68
79	79
112	111
32	31
147	113
61	89
105	131
67	150
164	199
159	190
100	244
70	244
291	340
486	424
91	97
109	108
160	159
130	177
303	357
119	118
93	92
116	115
86	85
253	252
218	217
49	49
113	172
96	202
142	141
117	116
538	542
71	70
56	73
58	137
97	138
96	217
68	105
83	140
78	103
122	136
38	37
126	210
188	168
198	230
40	39
250	249
61	60
85	122
68	67
100	99
126	125
78	77
311	310
476	475
30	29
327	326
106	105
125	124
63	84
62	94
60	59
127	126
87	59
160	162
281	338
82	137
214	221
139	230
68	155
566	1038
195	300
147	320
158	202
92	140
126	125
256	240
295	331
38	35
73	72
63	62
135	157
148	147
148	158
183	182
138	180
174	215
134	138
66	108
94	145
164	199
228	227
74	73
145	144
276	275
98	140
57	60
141	140
60	59
167	140
77	76
209	199
154	153
119	117
84	124
81	63
151	111
77	77
199	298
112	401
255	279
184	226
59	59
653	652
145	144
58	53
163	148
174	173
271	270
71	70
360	309
59	79
72	73
33	22
243	225
91	74
31	23
80	125
117	201
126	120
178	159
168	209
140	152
51	71
120	119
90	81
74	73
35	34
149	185
276	280
107	170
