85	84
176	175
195	194
90	89
329	328
91	125
113	134
72	71
406	425
311	310
81	80
929	928
211	210
170	169
458	457
37	36
470	469
350	349
470	469
608	607
263	262
299	298
293	292
296	295
337	336
478	477
427	449
296	295
200	199
291	290
146	145
314	313
303	302
104	103
97	96
74	73
93	92
73	72
247	246
283	282
81	80
43	41
310	309
212	211
301	300
805	1016
196	195
278	277
182	181
465	464
105	104
275	274
415	414
490	489
279	278
313	312
345	344
207	206
314	313
225	224
458	457
233	232
167	166
301	300
35	34
321	320
330	329
93	251
142	182
256	255
200	199
147	146
100	99
143	142
249	248
337	336
482	496
257	256
32	31
80	79
443	442
162	161
309	308
444	443
177	176
252	255
342	341
733	732
71	70
203	202
106	105
333	332
58	57
811	810
377	376
518	517
297	296
727	726
186	301
112	114
206	205
368	367
221	220
834	833
360	359
107	106
766	765
293	292
114	113
284	283
578	577
884	883
384	383
335	334
259	258
458	457
306	305
467	466
389	388
439	438
235	234
120	119
367	366
218	225
378	377
286	285
85	84
343	342
322	321
309	308
395	394
128	127
182	181
143	142
235	234
166	165
122	121
1343	1342
1408	1407
378	377
257	256
67	66
252	251
212	211
632	631
159	158
258	257
355	354
224	223
197	196
91	90
149	148
77	89
140	139
279	278
180	179
442	441
430	429
530	529
85	84
73	112
56	126
148	147
310	309
534	533
435	439
575	574
275	274
1228	1227
35	34
150	149
74	138
397	396
230	229
410	409
275	274
266	265
59	70
97	112
136	135
269	268
316	315
291	290
91	90
450	449
196	215
335	334
81	43
213	212
246	245
59	59
630	698
53	52
137	136
297	296
515	514
397	396
372	371
201	202
244	277
307	306
166	165
291	290
808	807
123	122
203	202
442	441
70	69
172	171
332	331
81	80
328	327
679	678
427	426
260	259
524	523
345	344
472	471
121	120
240	261
186	185
335	334
398	397
915	914
385	384
472	472
390	389
291	290
283	282
175	174
358	357
436	452
607	606
238	237
141	140
119	118
941	940
179	178
94	93
529	528
108	107
155	154
450	449
550	549
295	294
137	136
230	229
550	549
105	104
653	652
479	478
189	188
224	223
319	318
523	540
128	127
199	198
438	437
230	229
235	234
279	278
278	277
350	349
523	522
560	715
140	139
489	488
684	683
344	343
92	91
662	661
259	258
52	51
232	231
327	326
384	389
128	127
312	311
297	296
150	149
119	118
253	252
145	144
119	185
68	67
379	378
227	226
253	252
282	281
355	354
195	194
151	150
242	241
260	259
339	338
263	262
148	147
112	111
743	742
134	133
153	156
77	76
437	500
30	29
367	366
223	222
548	547
446	445
254	253
756	755
303	302
452	451
217	216
549	548
447	446
240	239
318	317
246	217
77	76
91	90
846	845
231	230
175	174
919	1272
355	431
78	74
197	241
60	59
272	271
862	1309
181	180
91	90
99	98
58	57
506	505
486	485
716	715
445	444
352	351
169	168
192	191
566	565
113	112
434	433
479	478
159	158
419	418
98	97
549	548
118	117
290	289
343	342
189	188
42	41
49	48
106	105
178	177
335	334
120	119
132	131
245	244
275	288
120	130
326	325
486	500
117	119
1097	1107
323	322
351	350
182	181
380	379
352	356
167	196
154	153
444	443
66	78
559	615
317	316
103	102
427	426
420	419
335	334
66	65
433	432
142	141
814	813
151	150
104	120
134	133
233	232
220	219
133	132
213	212
388	387
542	541
92	91
110	109
250	249
252	251
355	354
466	465
102	101
155	154
217	216
285	284
229	228
92	91
132	131
105	104
76	75
150	149
164	163
169	168
222	253
426	425
691	690
514	513
259	258
281	280
264	263
216	215
213	212
207	206
471	470
221	220
322	321
287	286
36	35
108	107
595	647
247	246
186	185
69	68
448	447
191	209
578	577
1185	1259
82	81
114	113
177	176
319	318
501	500
341	340
332	331
333	332
135	134
339	353
184	183
451	450
129	128
155	154
713	712
552	551
474	473
316	315
899	898
129	128
154	153
312	311
163	162
468	467
335	334
311	310
48	71
359	406
151	150
335	334
139	138
168	167
396	395
952	951
148	147
504	503
360	359
361	360
501	500
340	339
423	422
293	292
107	106
166	165
477	1044
553	562
398	397
293	474
159	474
569	568
248	325
228	238
338	337
262	261
73	72
206	204
318	317
273	272
158	157
105	111
112	111
278	277
91	90
92	91
231	265
36	148
1572	1571
119	185
365	582
90	89
327	326
369	368
239	238
199	198
183	182
166	179
121	99
122	140
879	878
177	176
168	167
146	163
163	175
448	447
395	394
487	486
242	241
128	127
794	793
211	210
90	196
266	356
361	360
423	422
455	454
64	74
113	227
408	513
381	380
296	295
261	260
382	430
197	196
645	644
457	456
468	467
304	303
171	170
78	90
73	102
139	138
185	184
128	127
277	276
324	323
86	85
256	255
384	383
427	426
307	306
57	56
127	211
129	237
1088	1087
436	435
782	781
700	699
245	244
101	100
319	318
68	67
143	142
536	566
555	554
424	423
158	157
324	323
551	550
302	301
341	340
764	763
165	164
246	245
180	179
158	157
278	277
208	207
226	225
263	262
79	78
344	343
167	166
149	148
226	225
539	538
202	201
54	53
358	357
260	259
235	234
458	516
56	63
260	259
339	327
104	121
408	407
240	239
242	443
207	222
339	338
244	214
323	322
472	471
411	410
556	555
646	645
99	98
176	175
216	215
290	289
158	157
230	229
389	390
442	450
239	238
235	261
821	820
311	310
429	428
99	98
259	258
477	476
318	317
196	195
189	188
238	237
135	134
639	638
377	376
51	50
254	253
498	497
420	419
389	388
300	299
162	679
518	679
458	457
88	87
314	313
155	120
794	938
165	164
150	149
317	316
305	304
68	121
80	83
274	273
383	382
96	95
968	1073
132	131
197	196
90	89
175	187
518	517
406	405
381	380
505	504
257	256
314	313
429	428
96	95
444	443
177	176
621	620
160	159
78	77
95	94
283	282
126	125
274	273
245	329
73	72
434	428
785	784
272	271
220	219
969	968
784	783
232	231
501	500
567	566
282	281
145	144
207	206
308	307
318	317
146	145
496	495
255	254
233	232
537	536
328	327
552	551
56	42
202	201
467	466
364	363
524	523
315	314
575	574
164	163
335	334
153	152
249	254
122	121
470	588
120	119
496	495
453	452
299	298
64	63
439	438
415	414
356	355
492	491
307	306
277	276
421	420
384	383
306	305
196	195
594	901
308	307
133	132
66	65
248	247
207	206
348	347
401	400
462	461
147	146
298	297
184	183
162	161
123	122
457	456
594	593
95	94
97	96
97	96
97	96
255	254
781	887
631	630
475	474
588	587
866	865
121	120
265	264
308	308
103	102
517	516
797	796
183	182
221	220
284	283
257	256
147	146
410	409
127	126
241	302
67	306
66	65
284	283
277	276
418	417
199	198
201	200
191	190
265	272
603	602
247	246
195	194
160	159
455	454
309	308
152	151
188	212
177	176
810	809
842	841
189	188
239	238
826	825
337	336
750	749
100	111
167	175
170	177
128	127
144	143
525	660
427	426
474	473
115	114
208	207
267	266
233	232
444	505
365	364
386	385
129	128
275	274
891	890
49	48
217	216
242	241
284	283
242	241
186	185
399	398
232	231
250	249
451	450
811	810
162	161
342	341
152	151
263	262
383	382
199	198
1161	1160
320	319
714	713
130	129
194	193
244	253
87	86
67	66
182	181
141	140
237	236
275	274
573	572
236	235
135	134
272	271
218	217
344	343
51	50
147	152
85	84
268	267
305	304
275	274
257	256
407	406
252	251
241	240
156	155
247	246
257	256
149	148
815	814
193	192
256	255
247	246
202	226
698	697
234	379
106	112
261	260
91	90
251	250
124	123
284	283
329	328
114	113
549	548
337	336
237	236
447	464
145	144
132	131
116	115
144	180
134	133
32	31
813	812
311	310
143	142
93	92
241	245
112	111
382	237
401	400
246	245
262	261
247	246
367	366
100	99
459	458
310	309
326	325
281	280
305	304
348	427
92	107
131	130
104	103
354	353
156	155
239	238
288	287
157	166
153	169
40	39
249	313
65	64
125	124
406	405
187	186
307	306
105	191
153	152
415	414
134	133
352	351
368	367
392	417
157	156
416	415
546	545
1033	1032
197	260
307	306
259	258
112	111
167	166
94	95
126	125
548	547
369	405
490	489
223	222
196	195
181	180
47	46
89	88
34	33
381	380
224	293
86	165
223	277
101	137
298	297
330	329
284	283
898	1415
503	1415
286	285
290	289
198	197
442	556
285	284
240	239
476	475
156	155
77	76
223	222
764	763
254	253
47	46
265	264
94	93
557	556
491	490
196	195
678	677
306	340
524	523
116	115
216	215
311	310
166	165
202	201
288	287
516	515
473	472
317	316
461	460
350	349
211	210
92	91
199	210
328	358
297	296
390	389
484	483
629	628
420	419
428	427
81	206
418	417
1025	1024
364	363
278	277
555	554
315	314
289	288
270	269
317	316
338	337
404	403
180	179
236	277
370	369
92	91
321	320
256	255
276	275
284	283
325	324
996	995
208	207
154	169
232	231
407	406
365	364
103	102
71	70
365	364
87	86
472	471
125	124
372	371
270	269
153	152
175	174
64	63
226	225
95	94
61	60
326	325
303	302
423	422
227	226
517	840
314	392
401	400
230	229
432	431
440	439
458	457
310	308
209	296
89	106
194	193
357	356
376	375
111	110
605	615
324	323
116	115
295	294
180	179
150	149
368	367
157	156
140	139
326	325
173	172
325	324
403	402
237	236
300	299
81	80
483	482
197	196
304	303
164	163
455	454
297	296
110	109
205	204
664	663
316	315
492	491
153	179
105	104
433	432
208	207
425	424
785	784
91	90
624	623
124	123
133	132
232	231
567	566
273	272
153	152
272	271
192	182
166	165
594	593
59	58
51	50
429	428
287	286
191	190
104	103
118	117
517	516
116	115
184	183
73	72
125	124
1038	1037
398	397
244	243
365	416
757	1120
55	54
176	175
126	125
184	183
264	298
178	441
203	228
110	109
202	201
625	624
215	214
311	318
320	319
435	434
115	160
445	444
407	406
551	550
168	167
228	266
161	182
265	264
101	100
114	113
835	834
311	310
431	430
136	135
153	152
306	305
226	225
260	259
285	284
144	225
142	128
209	208
159	199
119	118
679	804
668	667
55	66
169	219
186	185
186	194
369	368
309	308
161	160
272	271
594	593
259	258
293	292
485	484
454	453
434	433
382	381
262	261
366	411
66	65
350	349
556	555
87	116
285	333
51	50
208	207
65	64
298	297
356	355
170	169
110	109
241	240
165	164
462	461
174	173
71	70
289	288
100	99
223	222
318	317
297	296
991	990
746	745
481	480
228	227
461	460
111	110
408	407
1048	1047
258	284
216	228
416	415
218	217
128	127
83	82
373	372
51	50
51	50
262	261
266	265
356	355
505	514
207	206
195	305
87	138
507	506
317	316
148	276
84	276
312	311
261	260
747	746
362	400
73	72
390	389
276	308
629	1293
342	341
272	271
185	249
147	149
335	334
417	416
319	318
392	391
537	536
286	285
249	248
138	137
702	701
66	65
363	362
387	386
210	209
392	391
187	192
249	248
188	187
532	531
143	142
137	136
269	268
488	487
248	282
184	183
511	510
303	302
99	98
353	352
297	410
263	262
227	226
462	461
187	186
70	69
128	127
215	214
68	67
322	321
214	213
88	87
428	427
363	362
285	284
70	88
634	633
156	155
106	105
204	203
214	213
344	343
194	193
754	860
120	119
161	160
73	72
185	125
236	235
484	483
557	556
312	311
242	241
225	224
100	99
150	149
303	302
200	235
214	625
216	242
513	512
215	214
79	78
156	155
360	359
154	166
322	339
392	391
146	145
555	554
251	250
407	406
236	245
165	168
133	132
138	137
649	648
427	426
157	156
390	389
253	252
296	295
386	385
356	411
76	78
329	328
254	253
555	554
469	468
109	108
149	148
177	176
121	120
255	254
182	181
547	546
30	29
263	416
162	161
733	732
226	225
716	894
177	190
191	190
683	682
558	557
69	68
170	169
473	472
153	191
354	331
226	225
219	218
311	310
245	244
264	263
349	348
238	237
218	228
121	337
222	332
227	251
104	103
399	398
323	322
154	153
437	436
428	427
36	35
135	134
116	115
589	588
239	238
934	933
406	405
389	388
157	156
143	142
241	240
639	638
878	877
398	397
523	522
380	379
38	37
98	97
135	134
76	75
141	140
143	142
193	136
431	430
174	173
264	263
305	347
240	239
314	313
131	126
351	350
251	250
347	346
383	382
349	348
339	338
491	490
263	262
50	49
258	257
161	160
353	352
305	304
332	331
318	317
351	350
478	477
754	753
428	427
73	85
68	67
430	429
120	119
219	218
172	172
206	223
252	251
226	225
674	673
303	302
330	329
171	170
162	161
69	81
151	150
235	234
238	237
286	318
414	413
254	253
137	136
369	368
378	377
579	578
274	293
224	223
454	453
66	65
675	684
321	320
362	361
87	86
89	88
225	224
761	760
87	86
688	687
65	64
241	240
220	219
249	248
168	167
296	295
172	171
419	418
43	42
97	96
373	372
307	306
531	530
272	271
811	810
300	299
221	220
250	249
98	97
306	316
322	321
624	623
513	512
307	306
304	303
498	772
275	280
443	442
442	441
128	127
372	371
193	192
401	400
253	252
199	198
411	410
93	92
272	271
403	402
179	178
469	561
93	92
97	114
86	85
96	95
241	240
301	300
123	122
371	370
378	377
315	314
282	281
163	162
369	368
244	243
223	222
227	226
244	243
243	242
129	128
108	107
277	276
338	337
477	476
334	333
181	188
349	348
323	322
551	550
300	299
232	231
553	552
331	330
372	371
423	422
227	251
75	74
70	84
210	412
156	155
70	69
60	59
68	67
76	75
100	99
74	73
500	582
121	141
81	80
169	168
429	389
187	186
359	390
101	100
147	146
119	118
398	553
98	97
107	106
759	758
198	197
205	204
176	175
93	92
160	159
64	63
84	63
308	307
73	72
196	234
39	38
574	573
589	588
357	356
189	188
1369	1368
204	203
448	447
431	430
643	814
145	144
142	205
288	287
209	208
383	382
266	265
332	331
83	82
119	118
57	65
167	166
75	74
101	100
75	74
92	91
476	431
87	380
311	380
169	168
244	243
40	139
91	139
330	344
442	590
130	134
285	284
358	357
248	247
122	125
68	67
98	97
166	165
142	141
142	141
53	57
157	155
151	150
212	211
116	115
303	302
177	176
834	871
193	192
126	125
159	158
49	48
350	349
173	172
92	91
337	361
460	605
160	159
388	387
85	84
761	760
399	398
587	586
231	230
363	362
260	259
167	166
255	254
228	227
558	557
95	94
755	754
583	582
329	328
411	410
61	60
249	248
298	297
260	259
262	261
395	440
235	234
1487	1486
616	615
183	182
158	157
397	396
363	362
467	466
401	400
871	870
86	145
191	190
158	157
205	204
644	643
193	192
100	183
234	277
116	115
199	198
378	384
71	70
295	294
446	896
511	608
139	111
94	93
174	173
476	475
84	83
155	154
149	148
113	112
318	317
265	279
127	126
153	152
238	273
499	498
238	280
266	289
181	180
104	103
109	108
218	217
235	234
117	116
248	247
134	133
72	71
255	254
139	138
63	62
103	102
304	303
590	589
389	388
90	89
177	176
65	64
91	90
99	98
72	71
228	227
77	76
219	149
133	132
211	210
54	53
184	193
265	264
382	381
92	91
230	238
192	191
156	155
190	189
181	180
376	369
401	390
314	313
555	635
71	70
115	115
216	215
547	546
188	187
56	55
49	71
161	171
587	586
151	150
351	350
170	169
210	209
224	298
516	720
149	148
645	684
60	59
77	76
77	76
221	220
138	137
106	105
231	272
164	244
93	92
110	109
220	219
373	372
598	597
236	235
196	195
133	132
286	285
515	514
379	378
31	30
390	436
71	70
71	70
58	57
187	186
181	367
891	942
343	342
231	230
391	390
66	65
778	848
200	199
102	101
307	306
414	413
76	75
199	198
58	57
443	442
165	164
125	163
267	266
129	128
232	231
364	363
213	212
1321	1320
70	69
503	502
120	223
123	122
376	375
424	423
355	354
138	137
381	412
673	672
808	807
456	455
78	71
313	312
246	245
185	184
174	173
278	277
139	138
130	129
217	216
152	82
153	152
111	110
104	103
178	177
494	493
386	385
501	517
655	847
176	175
76	75
125	124
409	408
307	306
351	350
179	191
189	188
38	37
373	372
85	84
82	81
348	347
187	186
216	215
403	402
195	194
216	215
308	307
512	511
139	138
98	97
220	219
139	138
135	134
232	231
402	401
252	251
261	260
233	232
325	324
314	313
548	547
318	317
1062	1061
320	319
208	207
174	173
58	57
347	346
318	317
104	103
207	264
245	244
79	78
414	413
270	269
551	550
335	334
234	221
44	43
478	477
730	729
120	119
126	125
214	213
275	274
342	341
181	180
435	434
144	143
93	129
145	124
86	85
320	319
1173	1172
313	312
400	399
234	233
413	412
304	303
274	273
263	262
154	153
349	348
265	264
373	372
90	89
814	813
64	63
63	62
73	72
43	42
79	78
94	93
142	141
290	354
154	146
119	118
61	60
59	58
41	40
46	59
52	51
350	349
119	118
240	273
112	111
72	71
115	114
91	90
61	65
112	130
156	155
51	50
175	174
137	136
170	169
643	642
69	68
531	530
494	501
116	115
343	342
128	127
118	117
178	177
132	131
249	248
144	143
138	137
774	853
80	93
110	109
233	232
248	247
194	193
1231	1230
200	199
688	687
93	92
98	97
219	218
89	88
288	287
246	245
128	128
314	312
109	130
342	373
462	461
224	223
457	456
214	213
369	368
154	153
218	217
417	416
381	380
79	78
80	79
109	108
76	73
94	93
61	60
227	226
262	261
99	98
69	68
342	341
230	229
77	76
180	179
179	339
125	124
239	233
1042	1302
202	271
348	347
152	151
57	56
97	96
121	120
46	45
128	127
361	360
72	71
105	104
80	79
178	177
134	153
98	97
109	108
164	117
182	181
322	321
335	655
69	68
534	533
444	443
128	127
299	272
132	131
118	117
82	81
132	131
524	523
116	115
216	215
247	246
141	140
145	144
856	855
110	109
233	232
248	247
99	98
1091	1090
687	686
93	92
98	97
286	285
131	130
157	153
276	275
115	114
166	206
51	50
135	134
244	243
177	194
204	197
79	78
89	88
83	82
227	226
51	50
121	120
213	218
110	109
95	94
58	57
104	103
89	88
271	270
232	231
123	122
134	133
67	66
220	219
149	148
87	86
140	139
423	422
177	176
514	513
240	239
511	510
433	432
357	356
159	158
359	421
305	304
204	203
245	244
85	84
657	656
285	284
179	178
94	130
253	252
143	142
185	184
341	340
566	565
473	472
211	210
357	356
640	639
80	79
586	585
56	55
376	375
172	171
77	75
512	544
82	81
112	111
120	119
176	175
90	89
163	162
66	140
63	93
180	179
151	150
305	304
205	204
66	65
156	155
285	284
341	358
123	122
200	199
697	885
190	647
71	70
412	411
46	45
66	65
84	83
164	163
95	94
392	391
364	363
195	194
93	92
551	559
338	337
284	283
208	207
419	418
361	360
278	277
131	130
270	269
285	284
36	35
367	366
80	79
232	231
118	117
465	464
217	216
599	598
73	72
464	463
1248	1247
513	512
237	236
226	225
227	226
339	338
269	268
429	428
103	59
375	374
369	363
39	44
281	280
153	152
273	272
338	337
303	302
138	137
206	205
369	401
841	891
216	215
52	51
54	53
162	161
383	382
307	306
303	302
338	337
335	334
110	109
292	291
195	213
418	417
99	98
239	238
133	132
180	179
248	247
218	217
269	268
398	397
408	452
532	531
288	287
219	211
294	293
207	206
635	627
292	291
341	340
103	102
111	110
86	85
253	252
350	349
84	83
305	304
562	865
325	324
43	42
56	55
738	891
155	154
197	196
255	254
103	102
219	218
172	171
266	265
109	108
73	72
105	104
150	149
58	57
517	661
146	156
645	644
376	375
263	262
189	188
374	373
1036	1035
51	118
408	407
388	387
269	268
331	330
297	296
322	321
369	468
120	133
82	81
326	325
223	222
75	74
120	119
74	73
105	104
560	559
431	430
294	293
281	280
351	350
263	262
352	351
756	755
220	219
361	360
302	301
333	332
466	465
354	353
514	513
169	168
322	321
243	242
213	212
307	306
258	257
538	537
344	343
86	85
317	316
251	250
67	66
105	104
272	271
343	342
174	173
109	281
121	388
188	187
421	422
154	169
179	178
58	57
458	457
305	275
90	89
145	144
378	377
1175	1174
89	88
141	140
330	329
618	809
256	273
62	61
109	108
78	77
57	56
2868	1682
39	38
249	288
202	201
835	834
485	1300
267	266
260	254
220	219
84	83
251	257
177	176
60	59
56	55
98	97
308	307
448	447
536	551
75	74
180	179
327	326
331	330
198	197
223	222
93	99
299	351
179	178
668	667
57	56
469	468
382	381
338	337
314	313
256	259
475	474
58	57
78	77
150	149
173	172
80	79
701	700
354	353
500	499
379	378
190	189
282	281
33	32
298	297
236	235
232	231
515	514
1247	1246
463	462
275	274
196	195
804	1015
295	294
218	217
95	94
57	56
337	336
254	252
277	276
46	45
72	71
86	85
420	426
360	280
440	439
512	511
467	466
270	269
336	335
285	284
258	243
254	253
66	65
471	732
253	252
305	304
168	167
177	176
479	763
405	425
237	236
139	141
60	59
441	440
227	250
305	304
484	483
473	472
96	119
309	308
463	462
294	293
397	396
222	221
145	144
54	53
66	83
73	72
300	299
396	395
32	31
297	296
682	681
249	248
229	228
68	67
487	486
456	455
340	339
405	404
109	108
114	113
187	186
249	248
102	101
168	167
642	809
245	244
246	245
206	205
285	284
205	204
419	418
232	231
407	406
298	297
418	417
103	102
274	273
110	109
122	121
270	269
92	91
463	462
511	510
315	314
461	460
241	240
112	111
242	241
453	452
310	309
468	467
549	548
392	391
503	502
168	167
198	354
78	77
458	457
604	603
193	192
256	255
343	342
531	530
391	390
334	333
347	346
72	71
147	146
194	193
193	192
500	438
308	177
106	105
255	351
207	206
232	231
212	211
501	500
202	201
287	286
425	424
219	218
108	107
101	102
276	261
156	155
145	144
79	78
286	285
671	670
174	173
299	298
80	79
200	199
366	365
136	135
216	215
116	115
276	275
194	193
390	389
30	29
342	341
202	201
86	85
173	209
172	171
275	274
77	76
214	213
458	457
419	418
102	101
535	534
288	198
233	261
30	29
223	222
213	212
398	400
191	291
103	130
209	208
70	69
471	470
79	78
335	334
139	138
407	406
424	423
249	248
374	386
119	153
123	122
63	62
137	136
768	1018
121	101
107	106
233	232
66	65
405	404
292	291
147	146
289	288
253	252
532	531
384	383
304	303
36	35
255	254
313	312
430	429
98	97
514	513
793	792
278	277
349	348
64	63
479	478
228	227
155	154
250	249
98	97
89	88
327	326
100	99
796	795
328	327
119	118
66	65
145	144
643	642
96	95
36	35
253	252
310	309
97	96
262	215
179	178
223	222
197	196
464	463
754	753
203	169
454	453
280	279
117	116
453	452
107	106
113	112
276	275
296	295
192	191
162	161
708	541
61	60
474	473
345	344
407	406
242	241
237	236
226	225
235	234
183	182
294	302
96	108
512	511
218	217
436	435
207	206
136	135
91	90
448	447
652	651
348	347
184	183
619	618
237	236
339	338
214	213
242	316
219	236
253	252
327	326
316	315
279	278
348	347
460	459
359	358
91	90
122	121
332	331
295	294
95	97
163	284
249	248
645	644
428	427
486	491
497	496
147	146
103	102
47	46
273	272
394	393
35	34
85	84
311	313
83	82
61	60
120	119
213	212
372	371
584	583
194	193
232	231
111	110
535	534
116	115
100	99
60	59
454	453
193	192
455	454
533	532
519	518
324	323
267	266
284	283
153	152
189	188
188	240
96	95
70	69
96	95
80	79
264	263
458	457
294	293
683	682
162	161
184	183
428	427
878	877
413	481
70	94
79	78
92	91
212	218
118	117
57	56
234	290
125	124
77	76
173	164
46	46
221	220
152	157
537	536
220	219
119	118
97	96
393	392
185	213
604	603
492	491
50	49
136	135
144	187
481	480
332	331
441	440
329	328
252	251
262	261
201	200
65	64
337	336
204	203
201	200
174	173
247	246
148	147
505	590
99	153
88	89
112	111
422	421
248	247
324	323
810	809
367	366
222	221
189	188
578	577
131	130
693	692
234	262
150	149
215	214
130	129
350	349
287	286
40	39
514	513
53	52
168	167
369	368
266	259
309	308
296	295
193	192
117	116
143	142
733	585
329	328
505	504
330	329
168	167
84	83
108	107
166	165
80	79
404	403
222	221
140	139
348	347
75	74
130	129
193	243
350	546
94	93
171	170
330	388
167	185
130	129
395	394
209	208
307	306
130	129
301	300
179	178
81	226
147	226
112	126
140	139
345	344
110	109
387	435
525	524
78	77
627	626
189	188
82	81
160	159
91	90
128	127
224	223
98	97
199	198
79	59
214	213
78	77
163	162
202	201
233	232
296	307
263	262
74	73
39	38
75	74
104	103
79	78
137	136
472	471
234	251
75	74
159	158
77	76
138	137
107	106
523	738
215	293
190	189
61	60
88	87
339	338
183	182
611	610
219	218
75	74
239	238
251	250
223	222
329	328
286	285
184	183
240	239
350	349
472	471
137	136
122	121
496	495
138	137
402	401
40	39
40	39
166	165
90	89
183	182
83	82
184	183
111	110
105	104
553	552
332	331
229	228
142	154
296	300
148	147
64	63
314	364
155	154
335	334
138	137
122	121
147	174
109	108
90	89
262	261
41	40
159	207
63	62
76	75
68	67
219	271
527	564
81	80
306	305
307	306
157	156
473	472
232	231
41	40
372	371
284	283
453	452
261	260
138	137
335	334
212	211
201	200
58	57
217	216
266	265
421	420
435	434
265	267
152	172
601	600
146	190
404	432
320	319
117	116
206	205
713	2035
966	2035
1347	1346
2171	2234
268	267
526	525
674	673
154	249
421	420
159	158
351	350
439	438
485	484
239	238
446	484
317	316
306	305
312	311
360	359
145	247
109	108
181	180
314	313
393	392
43	42
111	150
123	84
291	365
98	153
218	217
399	398
175	174
244	250
39	38
90	89
242	241
253	252
322	321
345	344
524	523
116	115
216	215
238	238
134	134
134	133
190	189
67	66
399	398
51	52
69	68
201	200
173	172
341	340
156	131
220	261
139	138
86	85
256	255
353	352
181	329
69	72
722	721
68	69
78	78
795	794
191	175
125	124
357	356
161	159
137	136
273	272
82	81
158	157
159	158
90	242
144	143
123	122
125	124
65	64
110	109
353	352
158	157
389	388
793	823
84	83
82	49
111	121
110	109
364	722
327	722
450	449
231	230
152	151
318	317
473	472
154	153
63	62
418	417
298	297
727	731
472	471
147	146
81	80
162	161
51	50
146	145
159	158
108	107
173	172
63	62
121	120
97	96
71	70
59	58
123	122
137	136
89	88
67	66
109	108
459	458
205	295
91	90
98	97
67	66
238	237
302	301
109	152
208	207
157	156
123	122
262	322
44	43
51	50
57	56
202	201
128	127
98	97
55	54
158	157
223	222
192	209
95	94
56	55
64	63
287	283
475	474
153	152
453	454
317	316
275	274
48	69
64	63
300	299
435	434
357	356
356	355
197	196
246	245
259	258
204	203
86	84
326	325
389	388
469	468
264	263
166	189
167	163
134	134
175	219
207	337
223	222
322	321
420	419
181	180
293	292
300	299
227	253
146	168
298	297
354	464
407	406
316	426
493	492
465	464
152	151
297	296
479	478
408	407
161	160
322	321
374	373
183	182
249	248
407	406
406	405
163	162
280	279
721	720
148	147
380	379
129	127
399	411
618	617
194	193
214	213
1106	1105
283	282
333	332
130	129
647	646
254	253
55	54
166	188
416	415
1041	1040
1026	1497
472	471
468	467
241	240
70	69
454	453
106	105
300	299
260	259
347	346
452	451
95	94
151	150
421	420
285	284
351	350
426	425
335	334
94	137
242	233
249	248
273	272
267	266
263	262
72	70
275	274
113	112
345	344
827	826
225	224
166	165
94	93
370	369
678	677
740	1266
538	1266
1254	1253
81	80
289	381
605	1210
136	197
62	61
363	362
760	759
208	316
91	316
64	104
115	137
326	493
165	164
154	153
157	156
240	239
562	561
244	243
36	35
244	243
309	308
386	385
233	256
756	755
572	571
268	267
196	195
193	192
254	253
479	508
317	316
133	132
232	231
295	294
203	239
80	79
413	412
412	411
337	336
507	506
333	332
347	346
339	385
223	222
279	278
464	663
194	193
490	489
294	293
350	349
286	285
363	362
314	313
233	232
417	416
313	312
314	313
585	584
313	312
377	376
394	393
85	84
191	190
489	488
329	328
238	237
189	188
519	518
605	604
365	364
342	341
530	529
115	114
397	396
232	231
587	586
95	94
336	335
76	75
587	586
83	82
130	129
68	67
216	215
125	184
222	236
186	185
648	647
108	107
66	65
70	69
246	245
221	220
179	180
201	200
150	149
251	250
232	231
829	828
88	87
165	164
55	54
163	162
549	548
548	547
207	196
355	354
367	366
374	373
95	94
764	890
217	216
499	949
450	495
609	608
462	461
221	220
217	216
441	440
288	368
107	106
259	258
550	549
609	1464
857	1464
208	207
563	562
876	875
241	240
65	64
201	200
126	247
604	1252
235	526
311	430
762	761
377	376
105	84
217	216
359	358
453	452
543	542
420	419
397	396
332	331
74	73
268	267
430	429
402	401
261	260
401	400
181	180
142	141
201	200
386	385
323	322
539	660
133	132
297	296
369	550
183	182
112	111
129	128
89	88
452	451
280	320
286	285
253	252
557	556
432	431
102	101
95	124
66	65
306	305
581	580
324	323
53	49
98	115
486	485
510	509
614	613
101	100
185	184
181	180
326	325
909	908
446	445
167	166
601	600
221	220
148	147
313	312
406	405
200	199
611	610
217	216
165	164
152	151
401	400
715	714
507	506
181	180
146	145
197	214
216	215
121	120
298	297
258	257
134	141
102	111
229	228
261	260
261	260
190	189
506	505
163	162
221	220
423	422
305	304
220	219
271	270
338	337
379	378
129	128
184	183
393	392
407	406
669	668
93	92
183	182
64	63
185	184
275	274
362	361
311	310
184	183
70	210
176	175
160	159
164	163
251	250
464	770
335	782
70	112
189	188
162	161
581	714
130	176
437	436
95	94
61	60
384	394
252	251
311	310
392	391
317	316
294	293
91	90
400	536
516	895
137	136
79	78
197	196
335	334
287	286
76	75
275	263
141	140
295	294
443	442
92	91
420	419
388	387
205	204
1148	1147
382	381
315	314
565	564
417	416
211	210
92	91
81	80
307	306
413	412
566	565
245	244
111	110
151	150
832	831
346	345
362	361
416	415
109	108
322	321
419	418
109	108
413	412
48	47
361	360
812	811
120	119
124	123
472	471
295	294
419	418
197	277
82	111
255	254
309	308
333	332
73	72
672	671
310	309
193	192
324	323
86	85
44	43
499	575
170	169
284	283
123	122
304	303
366	365
292	291
278	277
339	338
264	263
299	298
475	474
300	299
192	191
150	149
142	141
208	207
301	300
351	350
167	166
220	219
296	295
454	453
468	467
409	408
396	395
279	278
256	255
192	213
96	95
98	97
339	338
268	267
234	233
160	159
112	111
760	759
249	248
668	667
333	332
192	191
660	659
549	548
630	629
413	432
119	118
376	375
67	66
233	232
672	671
116	115
177	177
238	237
77	76
345	344
293	292
191	190
157	156
354	353
472	487
120	119
249	248
430	429
209	208
346	345
213	212
689	688
514	513
619	680
120	119
51	50
64	63
172	171
180	179
526	525
489	488
492	455
1377	2693
1337	2693
263	330
69	168
142	497
599	724
72	71
491	490
393	392
207	206
425	424
373	372
336	335
385	384
144	143
759	770
491	1653
1165	1653
282	281
172	258
72	94
428	427
67	66
112	111
617	616
172	171
108	107
129	128
405	404
163	162
247	246
268	267
285	284
211	228
142	141
256	211
141	140
291	290
354	353
333	332
510	509
328	327
883	1093
213	208
398	397
349	417
89	88
397	396
113	112
445	445
238	237
461	460
1347	1347
519	518
208	207
212	211
283	282
87	86
127	126
244	243
243	242
302	301
227	226
325	324
600	599
160	159
319	318
217	216
192	191
541	540
246	245
243	242
208	220
294	293
196	195
128	127
230	229
346	345
140	139
233	232
887	886
452	451
91	90
433	432
85	84
858	857
244	243
327	326
246	245
114	113
387	386
374	373
357	356
121	120
173	172
55	53
350	407
128	160
116	115
256	255
183	182
83	82
114	129
341	326
289	288
414	413
198	197
293	292
554	553
114	113
97	96
159	158
166	173
326	325
356	355
483	482
427	426
467	466
221	220
150	149
53	52
100	99
175	174
135	134
150	149
115	114
110	109
82	81
137	136
291	290
425	424
320	319
401	400
355	354
331	330
395	394
178	207
112	111
167	176
391	390
513	512
161	235
371	370
172	171
88	114
422	518
138	137
189	188
217	145
62	61
877	876
167	166
354	353
166	165
80	79
362	361
188	187
320	319
124	123
260	259
120	119
258	257
86	85
237	321
505	504
480	479
378	377
72	71
162	235
523	637
176	175
68	67
146	145
140	139
156	155
137	136
214	239
181	180
570	569
308	307
601	608
204	203
154	153
117	116
291	290
91	90
374	373
337	336
693	692
143	142
115	114
854	853
219	218
256	255
303	302
219	238
213	212
54	62
210	258
455	454
348	347
184	183
331	330
380	379
209	208
254	253
350	349
160	159
237	236
104	103
108	107
202	201
476	475
303	302
346	345
35	34
51	50
245	244
571	570
600	599
122	121
424	423
87	86
192	191
287	286
260	259
470	469
485	484
262	261
483	484
493	492
169	169
506	505
457	456
468	469
336	335
224	223
36	35
291	290
433	432
546	545
122	121
137	148
745	1178
434	433
182	181
737	763
447	446
447	446
136	135
315	325
150	149
261	260
110	109
182	181
283	282
455	454
430	429
456	455
282	281
383	382
216	215
439	438
573	591
473	472
138	137
197	196
367	366
132	131
306	305
76	75
402	401
148	147
269	268
366	365
167	166
513	514
446	445
222	221
551	550
164	163
879	878
376	398
399	453
788	787
63	140
254	260
540	611
274	273
176	175
623	622
838	837
201	200
184	183
405	404
193	299
155	382
751	1051
546	545
473	472
111	110
587	586
360	359
179	178
143	142
459	458
120	172
216	215
116	115
524	523
235	212
199	198
364	362
372	509
152	151
275	274
418	417
444	443
609	608
855	926
85	179
232	232
963	962
1123	1122
108	107
136	135
188	187
157	156
265	264
292	291
208	260
538	748
177	176
49	48
230	229
238	237
73	72
347	346
334	334
720	719
344	343
421	420
312	311
231	230
473	472
165	164
60	62
279	278
394	393
410	409
117	116
766	765
451	451
593	592
396	395
399	398
404	403
462	461
311	310
507	541
37	32
160	159
177	176
1033	1032
443	442
260	259
957	956
467	466
439	438
341	392
105	150
163	162
631	639
483	482
42	41
183	182
506	505
366	365
578	577
237	236
265	264
174	173
136	135
89	88
327	326
220	219
67	98
478	477
148	153
822	957
130	129
365	364
401	400
393	392
442	441
193	192
110	109
151	182
411	410
220	219
77	76
298	297
130	347
216	255
299	298
247	246
212	211
287	286
360	359
388	387
221	243
95	93
144	143
193	192
236	235
226	225
226	225
238	237
170	169
63	62
426	425
463	462
148	147
303	302
664	663
253	252
307	306
244	243
659	658
385	384
465	464
184	183
236	235
64	63
179	178
247	246
212	211
139	138
327	326
235	234
189	188
97	96
198	197
379	378
336	335
236	242
123	122
240	239
109	108
240	239
351	350
92	91
360	359
419	418
712	711
236	235
90	90
251	250
348	347
92	91
126	125
167	166
126	125
92	91
100	143
74	73
267	266
109	108
249	248
87	86
187	186
143	142
122	121
302	301
398	397
575	593
76	73
207	259
581	580
426	425
734	733
1296	1299
58	57
89	88
384	383
273	272
152	151
154	153
187	187
68	67
83	90
72	71
123	122
81	80
331	330
304	350
302	301
62	61
77	76
142	196
203	207
152	122
44	43
222	289
92	139
95	102
237	237
237	236
270	269
157	156
304	307
292	291
306	305
142	141
117	116
184	176
161	205
513	512
103	102
128	127
190	189
69	68
191	190
497	496
79	78
218	256
270	300
744	741
358	357
152	151
78	77
273	272
162	161
159	158
74	73
215	214
123	122
126	125
65	70
66	65
282	281
132	131
247	246
52	51
328	327
293	296
88	105
171	243
389	425
247	246
659	675
390	389
277	295
521	520
101	100
130	167
204	212
107	107
223	238
225	224
259	258
179	178
368	392
326	325
202	201
124	123
188	187
152	151
408	407
282	340
105	227
120	119
165	164
524	686
281	280
137	136
270	269
1519	1518
305	304
257	248
724	723
135	134
408	407
351	350
500	499
255	254
319	318
71	70
96	95
484	587
305	304
83	82
391	390
202	359
159	129
239	294
110	109
187	186
279	278
450	449
257	256
233	232
231	230
500	499
620	619
289	288
83	82
114	113
163	162
165	164
568	567
393	392
329	328
373	372
96	95
296	295
104	103
65	64
190	189
221	220
165	164
295	294
142	141
245	244
396	395
217	217
319	318
54	53
332	331
276	275
218	216
86	85
745	724
84	78
166	249
491	490
57	50
229	232
337	336
328	327
161	160
435	434
471	470
246	245
753	752
536	535
161	160
131	130
220	219
450	449
111	110
237	236
160	159
194	193
105	104
296	295
236	269
350	349
115	114
61	127
129	203
270	269
714	713
631	630
112	111
65	98
276	275
141	140
171	170
494	493
224	223
387	386
236	397
363	416
223	222
224	223
272	271
258	257
57	56
180	187
841	840
247	246
350	349
218	217
67	66
210	209
520	508
478	477
947	946
434	433
207	206
413	412
274	273
123	122
206	205
311	310
304	303
202	201
488	487
338	337
72	71
169	168
396	395
614	613
169	168
234	240
208	207
507	506
497	496
66	65
46	45
328	327
44	94
964	1030
150	149
478	477
357	356
784	783
400	399
272	271
139	138
105	104
379	378
168	167
231	230
329	328
322	321
415	414
184	183
496	495
471	470
433	432
259	258
221	220
128	127
123	122
102	101
135	134
100	99
161	160
160	160
175	194
123	122
299	298
234	233
55	54
437	436
444	443
111	110
354	355
130	129
765	764
340	402
64	63
444	443
330	329
313	312
165	274
146	172
73	72
297	296
257	256
445	444
524	523
112	111
155	154
89	88
187	186
184	221
256	337
158	157
260	259
293	292
145	144
378	377
385	384
287	286
159	158
268	267
264	263
238	237
288	287
679	678
132	131
197	196
192	191
86	101
261	217
212	211
173	172
148	147
101	100
168	167
175	174
332	331
293	292
336	335
415	414
630	629
295	294
596	711
443	442
70	69
315	314
134	133
891	890
496	495
151	150
448	447
506	518
111	110
446	445
283	282
648	647
210	209
98	97
159	158
478	477
391	390
297	321
86	85
104	103
324	323
93	92
420	419
90	89
98	97
212	211
175	174
261	260
270	269
301	300
329	328
189	188
192	191
186	185
242	241
478	477
96	95
182	181
132	131
139	138
91	90
211	210
243	242
95	94
101	100
779	778
310	309
765	1517
688	1486
473	472
155	154
213	291
230	229
497	496
298	297
261	260
166	165
213	212
131	130
143	142
324	375
133	132
54	53
412	455
356	355
313	312
157	156
88	87
91	90
656	655
311	310
68	67
310	309
482	481
167	166
583	820
521	1266
334	333
154	153
198	197
163	162
368	367
348	347
647	646
325	324
157	156
450	449
349	348
321	320
330	329
500	499
297	296
285	284
272	271
319	318
81	80
484	483
294	293
105	149
218	264
99	98
284	283
60	59
221	220
386	385
443	472
408	841
193	192
74	73
342	341
394	393
348	367
253	252
85	84
185	184
86	85
273	272
173	190
181	180
158	157
375	374
100	99
70	69
316	315
430	429
459	458
123	136
73	72
142	141
123	122
128	127
330	329
207	206
130	129
119	118
39	38
444	443
145	144
60	59
168	167
118	117
178	177
131	130
102	101
180	179
105	104
124	123
85	84
64	63
137	136
234	233
111	110
93	92
274	273
87	104
202	201
210	209
104	103
140	139
490	489
272	271
651	650
494	493
399	398
146	145
170	169
126	125
196	195
131	186
184	183
388	387
154	153
52	113
172	171
159	158
901	900
395	394
705	704
157	156
125	124
96	95
120	119
129	128
241	240
271	270
73	72
197	196
67	66
602	601
77	76
108	107
638	637
302	301
73	72
290	289
135	134
211	210
697	696
407	406
188	187
201	200
56	55
153	152
394	393
848	847
109	108
269	268
458	457
56	55
362	361
435	434
118	117
293	292
409	408
388	387
121	120
306	305
335	334
253	252
226	225
224	223
429	428
363	362
174	173
403	402
135	134
147	146
180	179
260	259
851	850
187	186
712	711
223	222
134	133
293	292
383	382
466	574
109	132
541	540
451	450
240	239
159	158
774	773
76	75
774	773
79	78
121	120
257	256
228	227
192	191
439	438
572	694
111	111
798	797
902	901
149	148
112	111
253	252
277	276
109	108
502	501
202	201
256	255
161	300
247	333
80	129
816	815
478	477
432	431
658	657
682	728
48	47
384	383
198	197
227	400
222	416
597	699
447	446
176	175
332	331
232	231
346	345
163	162
578	577
104	146
248	247
357	356
46	65
235	238
296	295
439	438
238	237
256	255
426	425
309	308
397	396
128	127
176	175
89	88
368	367
285	284
353	352
223	222
455	498
199	198
90	89
120	119
209	208
733	732
82	81
222	221
186	185
369	419
350	349
196	195
59	58
525	524
290	296
278	277
255	254
269	268
134	133
32	31
249	248
158	157
94	93
453	452
503	502
90	89
284	283
375	374
912	911
356	355
355	354
411	393
500	499
92	91
145	144
490	489
251	250
681	680
281	280
451	450
72	71
142	141
92	91
179	236
86	85
92	91
343	342
661	660
278	277
446	445
165	164
208	207
319	318
257	256
192	191
113	112
111	110
191	190
176	175
386	385
571	570
468	486
94	93
219	218
272	274
467	466
196	195
266	265
550	549
201	200
324	323
119	118
162	193
441	440
327	350
294	276
256	255
310	309
499	498
429	428
650	662
1158	1157
369	368
770	769
681	872
186	185
251	250
63	62
457	519
51	65
64	63
537	536
36	35
36	35
36	35
424	423
335	334
328	327
301	300
340	339
536	535
161	160
564	563
403	402
255	254
172	171
147	146
778	777
220	219
325	324
237	236
97	96
51	50
690	689
304	303
100	99
332	331
146	145
114	113
485	484
441	440
331	330
514	513
394	393
393	392
275	274
441	616
211	210
418	417
158	157
283	282
333	332
155	154
178	211
93	94
156	155
426	425
329	328
499	498
221	220
287	286
93	106
158	234
272	271
467	466
100	119
559	657
513	512
432	431
384	383
580	614
36	66
424	454
190	202
269	306
110	109
121	120
264	314
374	465
383	382
219	251
70	69
100	102
227	226
359	211
1078	1447
552	551
57	94
105	135
416	396
158	157
274	273
340	339
156	155
84	83
144	143
515	514
420	419
320	319
345	344
342	341
399	398
311	310
349	348
320	319
145	148
272	271
358	357
314	299
233	232
339	338
115	114
216	264
360	359
266	265
266	265
375	374
314	340
426	425
160	159
270	269
56	55
79	78
223	222
552	551
199	198
214	213
239	238
229	244
44	43
206	205
356	368
196	195
208	207
92	91
97	96
604	644
230	229
694	693
347	346
70	69
464	463
349	348
236	419
227	226
311	310
287	286
147	183
364	363
105	104
157	156
518	517
773	772
461	460
395	394
348	347
309	327
434	433
794	793
98	97
154	153
113	112
202	201
115	137
531	1213
228	800
429	846
686	1201
401	1184
245	865
610	865
149	148
555	694
161	160
149	148
508	507
160	159
109	108
182	181
62	61
208	343
181	180
132	181
39	181
58	57
119	146
861	860
220	217
102	101
216	215
116	115
524	523
76	75
294	293
950	970
178	177
137	136
140	139
190	189
67	66
69	68
201	200
43	42
306	305
79	78
206	205
451	657
487	948
78	77
273	272
162	161
159	158
74	73
143	142
126	125
163	162
74	73
282	281
308	307
140	139
128	127
98	97
413	412
120	119
108	107
151	150
445	444
413	426
153	152
460	459
440	439
501	500
197	196
287	286
97	96
563	562
273	272
122	121
166	165
121	120
116	115
136	135
250	392
121	120
572	571
289	288
405	425
158	144
55	54
89	88
138	137
87	86
405	416
367	366
431	430
383	382
206	205
293	292
230	229
219	218
271	270
133	132
805	804
358	357
367	366
468	467
47	46
120	181
555	548
455	454
472	471
416	415
392	391
324	323
250	249
189	188
446	445
222	221
156	155
196	195
241	240
390	389
539	538
199	289
280	291
625	624
231	230
242	241
258	257
297	296
320	319
347	346
610	609
457	456
140	139
467	466
288	287
514	513
178	177
157	156
80	79
227	226
127	126
208	207
630	629
148	147
153	152
331	330
484	483
499	498
84	83
537	622
140	139
502	501
322	321
297	296
310	309
331	330
476	475
231	230
85	84
280	279
113	112
507	506
549	548
88	87
188	187
140	139
617	616
280	279
235	241
320	319
492	491
94	93
674	673
386	488
110	107
362	361
110	109
420	419
335	334
66	65
284	344
332	331
421	420
356	355
294	293
225	224
377	376
417	416
95	94
241	359
451	450
247	246
431	430
412	411
465	464
197	196
399	398
366	399
37	31
247	246
321	320
849	848
107	106
78	77
68	67
280	274
236	235
299	298
239	238
721	720
301	300
144	143
443	442
113	111
317	316
127	126
297	296
156	155
290	289
612	611
208	206
211	286
207	206
341	340
267	266
300	299
318	317
754	753
186	185
503	502
666	665
282	281
231	230
408	407
130	129
319	318
492	491
520	519
287	286
173	176
32	31
270	269
255	254
497	496
169	168
325	324
210	209
335	334
256	255
476	475
252	251
202	201
547	546
90	89
107	114
259	258
261	260
163	162
498	497
234	233
388	387
730	729
444	443
205	204
109	108
305	366
81	73
182	181
165	180
111	111
182	181
78	77
112	111
114	113
197	196
86	85
617	616
213	212
102	101
331	330
211	210
129	128
494	876
389	387
154	153
158	157
74	73
172	171
78	77
107	106
197	196
203	220
289	286
427	426
104	103
120	119
76	75
229	228
128	127
170	169
274	273
98	97
71	70
240	239
145	144
653	652
78	77
177	193
74	63
181	180
436	453
77	76
176	220
64	63
141	140
142	141
257	256
145	144
74	73
228	227
68	67
391	390
266	265
285	284
407	406
173	172
83	82
146	145
331	330
78	77
131	130
324	323
215	214
92	91
270	269
102	101
73	72
56	55
214	213
107	106
326	325
247	246
308	328
38	37
122	121
169	168
455	656
264	263
173	172
173	172
341	340
253	252
86	85
116	115
93	92
119	118
508	507
160	159
109	108
87	86
170	169
84	83
112	111
218	217
292	291
259	258
754	753
392	391
78	88
109	108
252	251
500	499
94	93
168	167
107	106
150	149
162	161
95	102
65	74
232	231
377	376
426	423
460	459
176	175
647	646
254	253
169	168
53	52
235	234
286	285
87	86
197	196
70	69
154	153
86	85
152	151
184	229
123	122
249	248
800	1756
832	1756
125	124
687	714
524	523
116	115
226	225
48	39
214	213
244	243
160	159
311	310
644	643
161	165
138	289
156	190
159	158
