92	125
117	115
83	201
119	118
161	211
108	142
162	359
149	148
233	245
53	52
38	37
218	320
75	86
30	29
122	121
179	164
154	154
207	339
109	165
55	54
98	97
100	100
108	232
141	323
103	141
196	212
84	80
68	132
312	558
51	526
301	308
50	75
42	75
63	62
61	60
78	123
41	40
262	261
90	89
109	108
104	113
111	110
138	137
335	334
155	154
240	375
78	63
148	147
180	187
65	193
147	146
229	228
332	331
103	107
64	174
130	208
84	64
105	104
102	110
161	148
150	181
175	174
90	89
40	39
40	39
408	401
138	137
496	495
122	121
137	136
95	94
380	379
437	436
240	239
184	183
152	152
135	134
329	328
223	222
251	250
241	240
75	74
219	218
611	610
183	182
222	221
404	403
80	79
166	165
84	83
168	167
330	329
67	66
131	156
311	310
329	328
267	266
167	166
206	205
143	142
117	116
171	170
296	295
309	308
272	302
299	418
102	104
168	167
53	52
298	343
115	114
40	39
183	286
204	259
102	111
93	85
79	102
133	132
150	149
156	162
134	162
55	187
79	154
130	128
253	325
167	190
314	428
69	75
119	118
222	221
367	366
124	108
698	809
324	323
393	320
68	67
191	190
189	188
591	590
148	147
247	246
174	173
201	200
204	203
337	336
181	180
125	160
93	87
262	261
152	252
58	67
72	94
152	310
205	210
225	257
260	331
88	94
121	120
208	375
136	135
144	187
136	135
118	180
213	274
144	143
445	603
147	146
168	167
98	93
100	204
195	194
39	40
61	86
125	130
220	219
90	103
103	227
86	113
128	515
121	122
200	199
46	46
173	164
35	34
106	120
56	64
148	133
175	381
219	218
79	91
35	40
31	43
55	94
77	161
78	91
144	269
87	265
154	144
254	329
188	348
57	85
184	581
114	102
135	166
142	142
87	194
74	74
142	202
61	108
297	380
86	85
129	128
116	157
120	259
148	199
90	77
95	163
59	74
80	79
70	69
70	69
242	269
70	69
132	124
100	99
126	125
40	39
114	113
76	84
221	259
119	118
125	133
99	104
114	194
102	87
70	69
106	106
393	392
533	532
455	454
193	192
454	453
60	59
100	99
116	115
113	148
202	201
162	161
194	193
314	390
254	378
372	371
57	56
213	212
64	63
61	60
54	56
136	135
170	166
85	84
91	115
79	78
127	126
36	41
93	164
47	46
47	46
76	89
31	51
132	131
282	333
73	70
189	235
262	258
87	75
333	345
239	255
239	320
186	185
126	223
143	284
139	207
332	294
332	331
122	121
91	90
359	358
460	459
348	347
279	278
196	223
128	127
248	326
97	96
253	252
177	173
87	257
195	195
214	213
339	338
237	236
619	618
184	183
162	168
72	139
64	63
649	651
448	447
91	90
105	108
207	206
287	427
126	215
218	217
67	83
424	511
173	186
232	250
183	182
134	128
119	118
464	463
118	78
169	168
90	96
209	204
156	140
200	231
364	369
129	146
81	80
663	541
162	161
173	127
210	259
95	114
276	275
113	112
107	106
325	451
125	124
63	60
59	58
280	279
58	57
413	450
177	252
204	243
160	245
144	164
88	87
148	167
285	284
111	110
144	174
50	43
68	116
93	92
286	286
107	119
116	127
179	179
153	152
121	120
36	35
80	79
69	102
203	351
132	326
135	154
145	144
69	65
119	118
328	327
65	63
190	222
244	290
173	200
160	156
100	99
259	258
61	114
115	131
55	73
123	130
143	138
155	154
55	131
88	87
49	62
105	162
30	44
33	149
70	89
59	64
73	140
154	153
91	90
82	206
90	142
52	85
160	209
368	423
58	93
85	141
196	513
221	266
72	79
98	97
184	237
38	104
89	219
35	49
56	55
125	123
209	208
51	82
134	239
90	91
36	35
136	133
169	182
58	57
208	330
124	129
227	244
313	379
117	141
113	169
74	81
81	150
54	66
116	120
292	291
345	419
40	48
66	65
202	201
169	168
157	156
863	1018
137	136
63	62
123	122
496	495
249	248
77	76
71	80
162	315
125	132
407	406
139	138
144	162
199	201
79	78
471	470
70	69
74	131
145	140
288	287
89	179
307	318
213	212
167	239
72	184
104	116
77	74
255	254
79	64
80	286
151	189
52	51
73	72
156	418
234	418
241	273
236	234
44	54
87	151
62	93
69	75
103	198
95	97
59	113
47	47
127	128
143	230
180	254
73	72
345	341
75	74
30	29
182	153
82	117
49	117
103	105
109	134
95	171
250	246
116	115
216	215
51	55
96	135
205	218
121	120
90	141
84	211
80	79
237	298
45	62
62	109
253	395
96	158
43	50
229	266
79	78
145	144
156	155
276	261
108	109
232	230
72	73
115	268
180	189
246	245
42	41
130	132
93	92
501	500
212	211
232	231
207	206
257	351
106	105
807	628
193	192
79	78
99	121
147	146
133	132
177	178
107	113
163	154
179	361
391	390
452	530
75	95
117	116
111	208
124	134
142	141
94	225
111	120
102	104
604	603
293	292
181	185
100	96
162	168
168	167
294	369
86	199
109	108
392	391
137	151
158	276
195	273
80	87
468	467
112	101
329	365
66	65
240	239
112	111
152	208
49	72
94	96
387	436
315	314
330	317
82	83
463	462
244	243
109	108
52	51
86	91
110	109
274	273
103	102
199	358
156	226
184	227
86	85
142	161
119	118
147	239
73	94
61	147
90	152
278	296
108	204
65	63
285	284
206	205
183	245
136	244
50	254
50	49
496	662
168	167
102	101
117	126
68	110
60	112
106	117
114	113
96	96
82	81
129	129
251	277
40	40
310	339
96	99
42	150
220	282
102	101
83	193
74	146
75	244
122	209
68	67
163	288
128	206
57	92
79	85
140	260
182	308
297	296
32	31
159	222
234	182
179	210
99	98
73	72
128	127
145	144
210	221
240	287
76	100
62	285
63	76
454	462
218	210
71	83
85	95
83	82
397	472
77	59
129	134
237	236
89	74
216	215
227	250
83	82
60	59
139	141
237	236
348	425
547	883
90	95
102	101
168	167
305	304
184	183
300	479
291	304
66	65
202	252
368	381
386	385
270	269
386	383
101	120
125	124
366	369
352	353
94	92
89	109
691	787
144	143
72	71
46	45
566	565
239	238
105	104
95	94
218	217
295	294
576	1015
179	252
196	195
275	274
428	450
40	39
84	105
285	435
236	278
319	400
262	367
69	78
594	514
120	108
46	45
73	102
71	70
68	67
123	215
101	193
81	103
186	264
190	189
293	364
58	57
297	305
72	204
89	97
77	138
170	185
48	52
165	250
91	285
419	529
79	78
38	60
72	100
58	57
188	176
83	82
65	79
56	129
177	315
81	124
186	200
305	233
338	337
382	381
312	454
123	140
57	56
48	56
53	106
381	563
146	167
100	97
123	139
126	218
84	159
101	111
198	197
331	330
327	326
180	179
75	74
78	83
348	415
88	121
93	159
126	129
84	94
55	54
168	167
98	97
56	55
60	59
177	176
81	90
184	211
84	83
78	89
151	134
146	178
101	101
267	266
257	294
235	338
835	834
202	201
55	54
233	233
1563	1690
188	104
338	71
810	270
64	63
78	77
109	108
58	61
256	273
142	257
498	879
154	162
189	192
141	140
89	88
258	257
326	429
149	148
520	1174
378	377
145	144
90	89
103	102
305	275
458	457
58	57
161	309
154	169
411	410
88	86
101	117
213	388
174	173
343	342
272	271
105	104
67	66
193	189
57	56
160	182
160	159
86	85
48	47
47	78
173	226
416	418
88	78
233	257
105	104
191	211
213	212
243	242
275	368
110	109
169	168
514	513
354	353
466	465
333	332
239	259
76	113
361	360
194	305
188	229
228	339
346	390
293	292
226	262
351	350
281	280
294	293
431	430
569	568
141	128
74	73
120	119
75	74
213	222
125	124
220	324
82	81
120	133
220	468
168	180
51	50
282	321
151	182
98	257
377	627
165	236
103	102
71	82
116	215
61	198
104	148
170	198
298	361
217	250
170	318
486	679
167	208
374	373
189	188
135	134
81	74
164	213
226	375
286	290
360	419
216	404
86	128
58	57
150	149
105	104
73	72
358	265
104	103
263	217
103	102
185	185
158	178
155	154
153	714
171	523
52	81
57	99
56	69
118	79
138	189
266	278
89	202
133	477
43	117
83	124
112	191
119	205
98	64
52	50
69	301
115	125
91	122
253	252
86	85
78	86
103	102
341	340
88	112
188	204
315	615
249	323
40	66
87	86
263	498
70	180
90	107
107	202
130	231
402	1432
62	142
79	302
261	233
137	165
52	201
105	178
105	98
239	246
143	268
67	82
36	151
76	171
46	45
248	247
180	179
133	132
172	175
113	130
335	417
84	83
95	94
86	122
271	326
113	112
107	154
62	167
182	183
131	130
57	45
166	165
60	59
134	119
109	113
109	107
99	224
73	126
160	261
61	111
48	53
89	88
118	87
66	65
81	126
62	110
43	302
49	195
128	356
84	218
70	100
102	101
97	98
176	401
215	207
134	133
67	66
214	251
39	38
338	337
274	272
154	152
38	41
44	98
55	156
56	123
66	123
147	363
119	363
119	363
50	285
94	285
119	264
122	140
63	62
151	278
269	428
175	268
115	268
339	338
227	226
226	225
237	236
513	512
362	361
765	876
109	108
289	300
169	175
73	72
274	254
312	336
55	56
156	160
166	193
151	216
95	307
118	117
232	231
37	76
152	185
209	208
36	35
158	171
123	125
270	269
131	130
278	277
361	360
442	441
230	229
284	283
338	337
551	559
93	92
195	194
185	218
75	168
78	76
392	391
41	34
268	267
57	56
59	83
145	173
46	45
103	389
53	389
92	411
71	70
204	647
289	457
70	879
54	885
76	226
123	122
50	184
50	281
88	281
66	284
90	86
51	65
83	81
45	124
78	74
95	134
201	304
119	157
85	58
73	97
39	42
55	93
53	140
138	162
90	89
131	175
120	119
112	111
82	81
361	496
60	273
145	273
83	76
85	86
291	343
178	265
216	276
640	639
283	356
73	79
70	58
142	207
473	472
568	565
130	137
202	201
211	184
117	142
99	109
172	186
94	130
179	178
285	284
143	137
474	656
65	64
245	244
204	203
174	179
127	126
109	115
423	515
66	65
70	69
55	61
200	199
43	43
335	373
62	61
511	510
240	239
148	138
110	187
270	316
177	176
226	259
120	225
84	76
80	79
61	63
87	86
149	148
123	145
102	105
98	97
82	81
67	70
123	122
232	231
130	156
141	140
89	88
113	103
58	57
95	94
110	109
213	218
121	120
88	87
51	50
301	299
83	82
72	65
91	90
79	78
262	261
137	136
244	243
130	130
51	50
50	49
97	137
55	79
61	63
276	275
111	110
179	194
45	44
244	243
98	97
93	92
288	290
251	250
117	116
142	141
58	155
179	403
319	385
92	100
198	288
307	354
531	1132
96	98
102	101
194	178
148	149
68	67
110	109
353	544
285	341
189	265
44	44
52	51
93	82
141	140
247	246
116	212
82	81
61	66
130	129
125	124
211	240
101	84
116	115
140	123
165	216
122	133
82	103
54	59
107	451
100	127
104	186
77	120
66	65
69	68
51	50
96	107
177	176
90	113
90	112
64	83
183	182
61	60
125	124
64	63
67	145
166	165
72	71
361	360
128	127
46	45
121	120
97	96
57	56
152	151
253	257
86	87
509	508
111	110
101	100
234	233
335	334
180	179
76	75
135	141
33	70
202	309
126	125
81	68
99	98
262	261
40	20
175	179
64	63
72	71
80	79
46	46
381	380
138	137
150	208
88	82
169	169
140	139
192	191
81	152
122	121
227	267
90	159
87	100
224	223
302	301
181	189
342	373
294	306
134	133
128	128
246	245
286	285
265	264
349	348
154	153
88	87
176	201
274	273
147	175
163	185
211	225
148	240
50	92
234	233
57	56
75	74
135	227
74	73
71	71
358	357
131	121
231	288
563	1148
115	182
64	63
169	367
86	105
86	85
211	210
49	67
144	143
94	98
342	351
181	180
125	132
57	84
151	214
57	83
41	107
163	179
131	130
66	125
120	119
308	431
122	305
244	278
174	194
177	283
62	35
129	119
94	132
139	334
175	268
341	550
191	186
176	175
95	94
152	151
263	263
79	78
233	232
310	309
318	317
76	93
186	193
58	57
174	173
124	194
58	79
320	319
1062	1061
116	115
206	317
508	547
310	303
366	365
233	232
126	125
147	146
207	251
57	56
292	401
86	85
205	211
135	134
139	138
220	219
98	97
232	247
301	275
298	307
216	215
195	194
403	402
216	215
187	186
143	171
150	225
63	63
126	125
85	84
349	372
38	37
126	188
71	74
71	66
75	113
110	138
252	251
307	306
81	80
324	323
125	124
76	75
76	175
107	175
665	847
177	176
153	339
119	152
158	157
228	237
494	493
144	143
85	85
111	110
153	152
85	84
113	139
89	88
139	138
106	112
83	118
60	68
174	173
185	184
130	160
117	116
313	312
78	71
142	157
164	320
163	208
335	502
473	807
109	137
564	672
73	63
386	386
138	137
355	354
353	423
65	64
376	375
59	58
181	218
497	502
70	69
1321	1320
97	96
80	105
364	363
232	231
129	128
267	266
158	196
165	164
443	442
46	45
63	62
199	198
76	75
414	413
307	306
102	101
271	199
778	848
66	65
134	141
229	329
59	75
190	189
355	342
896	910
181	367
187	186
58	57
71	70
67	66
437	436
31	30
379	378
515	514
288	285
133	132
164	195
236	235
598	597
402	401
175	174
117	109
93	92
397	396
106	105
106	105
53	52
221	220
77	76
77	76
353	383
323	417
149	148
98	93
378	458
230	298
210	209
115	121
68	107
344	350
151	150
176	159
248	415
149	189
161	171
49	71
56	55
188	187
547	546
312	376
115	115
46	70
287	385
288	287
150	149
292	436
267	273
370	369
181	180
337	336
192	191
230	238
104	331
56	55
278	381
279	278
256	255
343	342
522	870
417	416
302	411
61	60
363	362
206	208
153	351
51	50
216	215
92	91
99	101
353	391
176	223
162	312
183	276
325	388
128	216
150	203
241	662
85	124
106	256
151	242
199	198
441	440
231	230
260	259
94	117
196	194
249	248
56	55
411	410
212	328
112	269
105	117
476	582
358	382
398	621
95	94
431	430
228	227
254	254
428	427
99	113
183	258
90	89
229	228
609	586
286	285
570	760
176	175
247	246
383	382
209	208
183	182
97	96
142	205
145	144
643	814
287	312
113	129
412	428
204	203
408	410
78	253
157	155
400	786
338	337
189	188
191	190
131	159
190	188
149	186
169	225
197	212
220	351
114	131
85	144
73	72
759	758
88	87
75	74
670	669
218	217
148	127
229	228
65	49
142	284
99	142
155	190
56	70
68	106
140	139
45	44
265	299
541	550
323	322
217	219
96	222
46	70
77	103
112	114
84	74
68	67
107	129
108	185
132	272
234	233
350	349
277	276
108	107
41	112
129	128
97	96
158	157
244	243
227	226
223	222
244	243
160	368
156	198
90	90
88	171
282	281
315	314
76	75
188	245
132	127
68	91
197	296
139	138
282	280
239	255
96	95
86	85
126	125
111	110
469	561
89	88
91	138
403	402
251	271
66	66
220	219
194	189
199	198
143	144
78	77
357	379
209	208
372	371
128	127
415	441
325	334
123	111
275	280
143	254
262	286
59	66
304	303
307	306
513	512
447	623
115	131
322	321
156	224
144	157
98	97
250	249
221	220
300	299
811	810
272	271
531	530
307	306
373	372
97	96
58	72
43	42
475	474
67	66
79	105
296	295
168	167
249	248
220	219
241	240
65	64
658	687
93	92
87	86
459	515
267	266
142	224
77	77
89	88
87	86
162	195
206	205
290	320
544	667
81	127
65	64
106	104
364	363
224	223
226	221
84	119
289	287
177	241
70	135
66	65
157	198
228	239
104	103
271	278
137	136
254	253
414	413
319	318
123	155
128	136
235	234
151	150
69	81
162	161
171	170
330	329
303	302
690	673
226	225
186	251
135	223
143	145
347	346
430	429
158	157
428	427
754	753
478	477
344	343
318	317
332	331
305	304
353	352
230	229
258	257
263	262
155	156
341	490
285	320
66	66
384	348
170	287
135	134
337	346
251	250
351	350
127	126
277	313
235	239
305	347
45	44
206	205
174	173
431	430
382	366
119	142
141	140
98	97
135	134
98	97
38	37
380	379
296	316
239	307
398	397
617	877
271	312
639	638
118	240
105	118
143	142
123	156
39	303
301	388
94	149
406	405
116	147
568	814
204	203
239	238
317	316
265	252
116	115
135	134
36	35
428	427
334	419
110	253
154	153
160	233
123	322
399	398
104	103
252	251
222	332
121	337
229	228
238	237
349	348
275	273
245	244
218	310
94	119
94	218
130	129
133	140
108	173
97	136
137	353
192	191
128	241
269	470
87	196
170	169
69	68
30	29
204	208
355	358
683	682
91	85
99	190
177	190
348	465
107	337
283	323
75	115
135	134
733	732
162	161
280	432
301	315
259	280
182	181
255	254
121	120
177	176
149	148
109	108
469	468
555	554
225	243
45	69
329	328
277	321
127	275
386	385
296	295
253	252
390	389
157	156
83	94
345	426
230	248
145	174
251	312
153	281
133	132
263	262
116	137
407	406
81	91
113	228
63	62
74	73
157	228
179	278
88	100
146	145
299	391
96	93
505	512
63	77
275	274
156	155
79	78
215	214
166	164
337	338
102	131
249	625
81	205
200	235
303	302
251	250
189	190
98	112
138	241
312	311
557	556
484	483
117	122
49	105
98	97
50	49
91	86
94	183
133	145
85	85
75	110
95	155
164	240
158	157
48	62
56	70
152	226
122	136
214	213
159	210
106	105
156	155
198	579
362	390
371	370
293	349
351	419
80	79
69	87
217	213
72	109
104	126
66	61
107	193
145	146
37	39
76	214
45	154
113	112
90	62
73	61
91	138
66	70
71	99
75	193
96	332
157	111
90	221
144	151
102	116
47	124
102	216
169	168
180	180
113	171
149	400
152	190
245	284
86	172
186	184
162	183
248	282
194	188
75	149
194	193
246	268
137	136
143	142
532	531
144	187
249	248
145	192
392	391
72	71
84	83
276	375
57	115
66	65
62	65
298	362
66	65
122	145
258	562
52	314
149	249
125	124
109	108
70	149
50	49
192	191
62	98
204	178
86	139
72	134
87	134
182	207
45	72
101	97
117	171
112	178
78	256
115	119
171	308
104	389
203	405
82	81
184	374
80	75
42	71
51	152
131	252
38	147
97	119
121	219
114	311
101	311
150	311
42	155
238	276
73	191
62	191
61	74
307	506
148	506
111	138
195	305
207	206
365	498
123	227
356	355
101	265
164	265
271	261
51	50
51	50
248	263
133	132
232	241
218	217
210	265
92	228
72	77
255	266
165	284
200	216
162	164
111	253
174	250
278	277
192	191
116	169
111	110
390	460
63	80
100	99
196	649
85	298
64	61
95	169
103	102
87	126
79	65
52	105
90	89
173	297
93	204
392	380
139	138
297	296
92	91
126	125
197	222
141	142
67	62
289	288
71	70
101	109
101	132
79	100
261	281
165	164
218	240
110	109
170	169
89	87
208	222
81	131
32	41
273	297
272	271
334	333
75	74
347	346
137	123
47	42
155	232
81	378
66	65
234	270
152	169
43	60
136	175
41	40
309	364
89	88
83	82
85	347
205	222
76	131
242	361
88	96
80	118
80	134
104	178
86	175
169	132
84	74
141	201
78	127
190	209
53	52
49	105
118	148
98	162
59	102
58	111
149	176
297	271
82	102
149	158
86	99
299	368
122	125
122	133
168	189
187	219
42	66
263	376
207	531
147	253
231	299
237	385
77	288
137	118
141	199
190	218
74	68
144	225
165	148
132	176
260	259
96	170
125	225
78	108
194	193
152	151
148	159
136	135
75	74
82	88
265	263
311	310
84	82
336	485
160	271
229	672
60	59
54	52
101	100
64	63
197	212
73	72
108	194
147	218
168	167
219	281
92	289
153	154
329	328
571	558
85	84
315	366
320	319
88	87
230	228
215	214
625	624
202	201
110	109
203	228
368	481
78	89
184	183
126	125
176	175
55	54
657	1120
101	125
79	195
287	316
216	215
398	397
231	229
189	246
487	832
189	206
125	124
77	76
184	183
157	156
517	516
118	117
104	103
191	190
287	286
176	175
254	253
51	50
59	58
594	593
160	158
166	208
240	249
86	85
39	38
92	91
166	143
155	168
226	225
110	109
232	231
133	132
49	77
37	62
244	449
349	410
91	90
102	101
389	452
321	328
419	424
208	207
270	303
159	171
105	104
153	179
492	491
316	315
135	134
450	663
205	204
110	109
297	296
425	454
32	34
164	163
304	303
197	196
483	482
81	80
300	299
237	236
209	426
173	172
325	324
173	172
326	325
140	139
157	156
368	367
150	149
89	92
96	95
311	311
116	115
324	323
605	615
111	110
376	375
357	356
194	193
89	106
190	277
191	308
458	457
440	439
432	431
230	229
401	400
1048	1047
423	422
83	70
303	302
124	179
137	136
61	60
95	94
215	190
64	63
175	174
163	152
270	269
372	371
107	69
398	397
59	79
422	364
52	81
150	196
145	406
34	33
58	348
67	184
100	164
60	59
119	123
140	139
159	329
670	963
336	335
284	283
276	275
172	163
151	152
181	199
92	91
51	50
260	312
54	69
234	277
180	179
184	226
234	256
338	337
317	316
270	269
289	288
315	314
555	554
278	277
364	363
578	1024
170	297
232	411
125	124
120	170
135	217
135	134
64	77
331	427
420	419
168	167
478	628
333	372
153	152
390	389
297	296
148	147
173	290
120	140
92	127
92	91
185	183
241	248
77	93
86	103
62	121
224	248
35	58
108	107
82	80
156	425
108	152
124	144
174	515
68	119
142	179
47	195
59	130
129	141
38	37
289	310
211	219
50	63
124	143
367	439
98	97
91	90
237	245
73	155
72	71
559	556
94	93
120	120
82	73
223	363
194	253
85	115
202	442
126	125
92	91
491	763
223	222
232	231
250	334
201	258
144	132
69	61
285	284
442	556
198	197
290	289
119	295
78	137
1416	1415
284	283
330	329
289	297
101	137
223	277
100	99
126	125
86	165
224	293
215	214
86	85
34	33
89	88
47	46
197	196
150	149
223	222
173	166
307	489
369	405
446	510
67	66
81	94
96	95
167	166
44	111
264	258
307	306
202	260
340	510
553	1032
131	182
285	518
74	479
130	479
338	332
153	156
418	417
368	367
352	351
134	133
191	216
154	226
40	39
153	152
141	141
307	306
187	186
406	405
156	150
313	313
40	39
153	169
580	579
166	165
81	104
168	226
80	79
187	237
256	255
247	246
815	814
149	148
257	256
247	246
156	155
231	240
101	100
407	406
257	256
275	274
185	201
88	91
268	267
121	100
146	217
85	84
147	152
51	50
344	343
212	211
34	33
152	176
108	162
90	75
205	208
225	403
141	202
76	155
68	181
116	196
101	104
67	66
72	80
81	97
62	67
87	86
206	253
87	127
51	50
74	182
79	182
115	380
86	116
43	42
81	113
86	145
38	46
36	47
54	135
228	227
141	773
144	185
94	144
67	49
54	133
39	42
81	104
100	403
170	202
90	382
65	64
92	113
59	341
106	87
196	189
113	200
88	115
55	168
62	512
95	106
70	157
163	263
88	87
93	386
182	213
55	88
66	106
62	83
146	289
50	95
56	73
84	95
112	111
137	132
92	81
56	57
78	128
112	180
66	143
242	469
105	181
257	271
153	274
116	151
129	128
149	149
229	228
221	315
141	174
60	77
399	505
233	232
146	172
208	207
115	114
373	367
130	137
427	426
661	660
297	296
266	265
521	749
242	253
337	336
826	825
63	238
109	234
189	188
234	247
243	533
336	844
355	809
488	824
177	176
174	195
152	151
257	308
240	251
213	263
160	159
195	194
50	68
206	246
111	105
106	164
116	197
249	602
265	272
191	190
201	200
140	173
418	417
104	97
105	213
284	283
73	123
199	290
93	83
119	352
100	99
147	146
143	255
75	107
69	125
126	153
101	147
69	68
63	178
77	182
75	182
202	382
133	205
113	301
85	255
199	282
74	80
35	70
71	71
58	69
266	288
265	264
121	120
150	166
126	141
64	85
165	225
77	111
181	183
588	587
475	474
457	478
95	209
44	63
331	359
35	78
129	336
272	298
119	133
77	70
97	96
97	96
80	79
75	94
101	596
495	593
115	108
287	391
66	82
73	72
65	226
84	161
46	53
184	183
223	222
93	102
147	146
319	379
33	32
401	400
348	347
147	146
79	78
248	247
66	65
133	132
902	901
196	195
306	305
280	355
118	137
421	420
277	276
307	306
116	115
373	383
356	355
373	372
41	40
439	438
361	360
453	452
496	495
120	119
470	588
122	121
249	254
153	152
335	334
164	163
344	345
213	238
321	342
543	887
348	344
211	240
239	290
202	201
44	43
406	406
131	130
274	327
458	536
67	122
181	182
53	138
214	254
271	368
246	263
141	145
249	317
245	307
259	353
40	144
93	144
282	281
75	74
267	266
133	188
175	174
177	222
69	256
195	243
131	58
147	231
92	98
220	205
155	389
103	109
166	284
87	99
312	311
664	663
83	82
124	133
158	177
135	134
117	127
479	784
164	165
434	428
184	178
147	146
274	273
126	125
207	206
60	78
105	104
78	77
160	159
621	620
177	176
344	360
95	94
96	95
142	158
254	236
314	313
257	256
326	325
327	355
66	85
406	405
518	517
262	261
197	196
132	131
62	64
375	390
703	1073
176	175
216	215
274	273
80	83
68	121
305	304
317	316
150	149
165	164
794	938
155	120
314	313
88	87
458	457
487	679
162	679
73	73
141	226
77	76
389	388
177	239
155	285
498	497
254	253
88	96
45	50
177	155
192	206
601	638
135	134
238	237
189	188
175	194
199	387
155	155
58	73
144	85
85	103
107	116
41	91
147	202
75	72
99	98
93	142
333	342
311	310
699	820
138	181
235	261
239	238
170	169
223	231
81	80
377	390
226	229
139	138
290	289
69	94
148	143
89	88
100	99
79	94
266	265
393	392
556	555
95	94
108	110
70	78
333	403
447	447
56	74
279	278
244	214
326	337
88	87
240	239
110	381
273	285
104	121
80	138
229	251
76	84
141	140
54	63
67	130
177	397
49	124
62	53
213	234
182	212
358	357
54	53
156	173
88	103
141	242
228	320
84	111
145	136
97	171
276	275
315	343
79	78
263	260
161	160
34	49
242	241
82	86
202	256
158	157
180	179
95	105
156	155
165	164
195	194
221	496
290	326
341	340
126	124
182	218
297	318
155	156
247	236
146	291
179	218
152	151
272	256
185	578
143	142
68	67
285	284
101	100
96	95
70	69
98	97
388	419
430	429
116	129
281	323
256	255
86	85
221	267
99	133
277	276
128	127
173	164
116	115
154	153
410	390
304	303
131	130
281	280
92	91
126	125
70	103
181	241
65	64
487	486
395	394
448	447
85	107
252	252
67	66
170	169
139	141
122	121
752	878
148	139
261	223
57	77
203	202
201	200
132	131
148	150
201	460
158	266
134	202
349	326
115	114
142	141
113	112
538	542
232	397
122	81
70	85
43	183
57	183
106	114
77	151
65	83
139	99
77	142
93	92
34	65
75	66
213	332
30	90
269	268
144	143
101	210
77	163
261	260
102	215
244	250
443	515
180	282
118	115
187	304
40	39
329	328
222	248
101	100
105	139
216	229
161	239
420	419
85	84
259	253
430	437
429	428
402	412
178	177
397	396
381	468
79	101
156	141
52	51
59	58
163	162
126	125
123	122
38	37
74	73
125	148
306	284
160	172
99	99
53	52
487	948
111	110
514	513
249	248
93	325
315	314
291	290
93	152
150	258
201	200
69	68
69	88
71	70
66	65
132	110
70	189
109	95
47	46
88	87
79	78
76	75
116	115
472	472
89	91
85	159
81	131
75	99
171	198
97	95
307	306
125	124
332	361
236	263
53	74
85	84
53	41
183	220
71	143
151	78
48	68
148	147
344	343
98	97
70	245
219	218
157	282
236	485
106	154
164	195
77	96
168	167
144	209
273	358
105	358
99	98
30	150
342	341
70	98
70	158
161	358
96	145
129	273
414	658
318	394
201	210
127	126
97	224
104	217
136	150
119	212
163	416
234	416
151	539
108	110
192	308
340	339
124	98
97	109
297	343
255	254
402	439
333	332
88	87
245	406
54	89
111	111
73	72
302	301
119	118
236	225
504	503
68	66
96	96
285	284
677	951
396	395
80	70
98	97
139	138
335	334
112	150
359	406
48	71
103	258
206	310
335	334
468	467
163	162
59	58
312	311
154	153
129	128
824	898
78	77
166	151
150	187
195	194
292	291
67	66
106	235
59	174
292	551
713	712
155	154
75	91
71	79
451	450
178	176
46	59
302	353
135	134
333	332
332	331
341	340
91	90
252	370
167	166
319	318
177	176
94	95
32	31
82	81
965	1259
221	291
578	577
213	212
448	447
69	68
181	183
247	246
429	428
174	305
66	65
287	286
122	128
77	169
61	59
221	220
471	470
207	206
213	212
216	215
264	263
281	280
259	258
135	134
397	513
305	285
183	364
153	311
426	425
222	253
161	168
150	149
72	71
82	97
132	131
92	91
229	228
284	284
85	95
113	122
97	106
76	95
83	101
466	450
355	354
252	251
250	249
110	109
92	91
542	541
388	387
213	212
133	132
220	219
233	232
134	133
104	120
151	150
286	330
379	456
172	192
89	103
112	157
322	380
66	65
138	137
182	170
420	419
256	274
108	143
82	99
100	120
182	181
377	487
129	257
108	107
444	443
154	153
61	65
107	196
357	356
364	379
173	204
72	76
218	251
130	141
137	295
363	385
556	947
160	162
125	119
210	214
281	295
326	325
71	70
521	520
245	244
132	131
48	42
93	89
335	334
178	177
106	105
66	65
42	41
189	188
343	342
290	289
129	128
549	548
98	97
419	418
159	158
223	209
265	279
434	433
80	80
616	588
192	191
169	168
352	351
328	345
99	111
169	214
206	226
149	211
203	208
492	498
262	346
71	113
52	51
62	61
99	98
91	90
181	180
336	700
578	1309
98	140
60	59
197	241
78	74
145	194
205	1150
386	765
383	593
198	667
171	170
154	234
248	845
192	610
394	476
91	90
77	76
544	543
73	72
161	160
305	304
143	142
549	548
41	41
177	216
332	331
103	136
303	302
756	755
205	223
54	55
446	445
202	186
359	547
223	222
179	209
218	251
437	500
77	76
100	152
69	133
124	150
356	566
271	270
112	111
148	147
263	262
283	338
260	259
145	144
76	75
80	79
195	194
355	354
282	281
253	252
208	226
379	378
186	185
145	144
253	252
113	112
150	149
222	227
122	121
209	208
128	127
215	214
172	205
103	78
236	235
232	231
52	51
121	171
139	197
393	504
270	356
92	91
344	343
684	683
494	493
140	139
238	275
212	211
347	418
106	105
350	349
278	277
279	278
235	234
230	229
95	94
345	364
199	198
128	127
204	221
321	457
319	318
211	223
189	188
333	396
116	170
288	262
183	237
189	192
105	104
410	399
137	144
204	229
137	136
287	286
518	549
201	204
122	209
93	130
155	154
108	107
111	110
221	358
204	216
108	178
179	178
67	61
263	352
73	164
105	137
123	733
87	222
62	110
113	112
142	160
134	133
96	95
171	179
249	268
163	231
77	122
235	325
358	357
208	240
283	282
291	290
126	137
75	210
185	202
453	472
385	384
826	914
46	45
123	118
276	279
115	114
196	276
160	185
240	261
121	120
417	435
51	49
345	344
468	523
260	259
385	401
679	678
182	190
119	118
81	80
332	331
172	171
70	69
442	441
245	244
123	122
251	241
557	807
291	290
166	165
53	52
264	306
447	446
229	320
109	108
113	114
304	396
219	207
267	215
297	296
137	136
53	52
401	538
239	261
53	52
246	245
213	212
65	64
469	549
99	98
446	449
91	90
83	84
220	223
301	300
114	177
143	142
136	135
165	164
247	257
275	274
410	409
207	206
104	103
376	359
135	149
1228	1227
275	274
197	258
236	413
169	180
435	439
534	533
219	218
101	100
65	106
57	129
56	126
73	112
146	217
85	84
530	529
430	429
97	104
349	348
456	458
140	139
212	211
91	90
197	196
101	100
137	143
155	200
183	169
78	77
154	174
143	142
343	420
185	241
89	103
212	211
252	251
324	323
87	102
283	304
78	104
684	2867
643	642
298	365
471	1342
209	522
324	356
122	121
166	165
235	234
136	126
182	181
128	127
304	303
163	64
309	308
322	321
343	342
85	84
62	61
239	238
378	377
177	225
87	108
218	225
120	119
72	147
177	176
133	143
175	287
90	118
100	137
267	388
47	56
359	372
99	98
306	305
138	211
104	217
76	102
304	303
335	334
98	97
301	383
147	134
644	883
500	577
86	85
214	220
72	89
293	292
766	765
107	106
293	321
65	58
781	780
221	220
368	367
206	205
108	147
186	301
55	54
667	726
125	134
110	62
73	127
60	135
186	313
183	179
106	217
130	217
199	198
414	615
201	223
58	57
103	207
155	286
83	85
106	105
203	202
127	70
129	128
62	69
535	732
118	117
225	224
252	255
177	176
444	443
309	308
162	161
80	79
56	38
183	214
91	283
70	505
254	283
134	188
125	122
176	248
30	26
59	58
127	146
184	183
71	76
142	141
242	251
303	329
321	320
322	300
167	166
233	232
458	457
225	224
271	270
198	188
345	344
262	261
45	44
263	278
105	126
190	189
155	140
164	218
80	70
39	38
136	135
74	73
73	87
53	131
200	370
80	190
66	65
89	92
114	126
195	324
115	170
70	84
64	82
78	187
68	127
91	175
458	582
129	582
104	347
77	347
94	89
324	768
129	768
79	768
48	768
195	611
316	611
61	441
144	149
61	145
91	107
162	208
88	139
80	79
91	125
236	378
91	266
185	206
43	41
140	201
56	231
58	126
172	298
114	119
43	42
73	72
104	172
150	149
73	72
93	92
54	73
97	96
99	103
225	245
314	313
118	145
58	57
179	206
200	199
173	172
144	298
155	155
292	291
242	243
52	52
414	413
172	173
78	77
146	210
77	78
140	188
223	395
271	334
110	151
117	230
176	257
428	444
233	230
63	62
135	215
163	386
104	191
88	87
234	251
243	316
140	147
120	169
103	105
87	93
274	273
37	36
354	457
105	72
170	169
211	210
519	928
355	378
81	80
311	310
477	476
135	134
55	49
329	328
90	89
109	108
102	109
179	166
146	217
85	84
182	181
484	483
205	204
444	443
730	729
388	387
129	169
100	122
308	372
165	162
163	162
261	260
55	59
122	172
101	114
172	171
43	65
547	546
191	190
252	251
476	475
256	255
335	334
194	209
39	52
216	215
169	168
497	496
255	254
203	269
32	31
223	222
80	78
223	286
133	126
86	317
158	207
124	174
148	238
357	474
319	318
130	129
408	407
302	301
282	281
666	665
503	502
79	185
111	123
754	753
318	317
300	299
267	266
299	273
207	206
287	286
207	206
333	371
216	280
67	107
63	107
161	182
30	52
108	107
297	296
41	43
128	124
199	211
38	37
255	254
301	300
711	720
239	238
299	298
222	221
355	269
78	77
107	106
184	820
102	120
468	848
321	320
33	32
192	246
165	173
149	228
74	73
93	85
290	292
100	195
109	196
62	78
32	146
100	228
118	97
101	153
142	247
84	423
58	324
95	177
200	228
50	49
58	57
77	202
325	326
188	359
88	124
343	337
377	376
48	205
102	172
239	189
73	117
123	71
159	152
89	82
132	390
223	311
100	354
49	75
115	348
32	41
219	257
31	40
61	366
66	93
59	63
114	113
107	109
154	152
58	269
96	133
145	175
186	226
175	174
52	77
43	104
118	229
157	321
59	250
51	106
77	52
37	36
64	63
429	482
306	319
556	611
365	616
161	156
140	139
188	187
55	73
35	37
118	117
428	548
507	506
61	84
280	279
156	101
85	84
30	38
72	98
125	206
111	125
342	475
268	275
310	309
276	294
37	37
62	61
280	239
502	501
99	139
623	622
564	506
484	483
331	330
153	152
148	147
496	843
67	116
208	207
128	127
227	226
80	79
157	156
178	177
109	115
236	335
129	128
177	176
132	132
436	435
140	139
457	456
40	37
251	298
68	113
228	227
184	353
163	170
175	225
139	155
77	223
56	55
258	257
242	241
46	45
121	144
100	101
63	62
330	606
200	338
372	423
416	426
126	125
80	63
126	172
214	279
38	62
199	203
196	195
52	72
157	221
429	432
189	188
250	249
279	319
365	363
220	219
189	224
211	246
210	224
125	129
130	345
173	197
380	398
105	104
77	243
47	46
230	192
259	267
121	119
233	232
325	351
580	804
222	221
133	132
69	64
235	246
219	218
126	129
99	98
293	292
206	205
179	184
223	216
204	214
217	254
307	360
405	404
100	86
138	137
143	142
158	144
179	210
240	317
163	162
79	78
76	74
247	322
210	272
58	57
191	184
62	99
55	354
69	137
72	117
66	44
48	115
70	71
166	165
285	367
96	114
410	562
145	204
97	96
174	286
197	196
337	406
162	174
101	81
95	193
248	302
289	304
97	161
589	588
368	376
76	268
138	150
108	107
83	117
148	193
117	259
154	220
98	97
216	242
205	220
92	121
91	90
282	281
74	73
163	162
126	125
143	142
74	73
159	158
162	161
273	272
78	77
66	65
360	595
218	421
252	251
291	290
206	205
100	103
201	200
69	68
47	46
65	64
190	189
140	139
96	95
168	51
86	85
178	177
105	137
131	302
735	970
165	164
391	390
266	265
132	131
76	75
524	523
116	115
216	215
102	101
220	217
278	575
538	852
121	146
58	57
39	181
132	181
91	130
358	343
183	195
139	69
121	472
61	149
62	61
182	181
92	91
160	159
508	507
149	148
161	160
185	235
461	694
70	158
810	865
322	1201
112	891
397	891
303	621
677	1213
184	634
339	365
70	154
40	137
63	137
83	200
124	201
257	332
168	167
233	594
494	793
434	433
346	345
43	42
213	315
107	158
60	59
249	301
94	93
468	460
132	133
662	772
502	501
157	156
105	104
364	363
284	283
287	286
311	310
227	226
138	136
440	569
464	463
70	69
347	346
592	693
103	102
230	229
703	702
92	91
208	207
215	270
330	368
206	205
44	43
229	244
167	211
73	78
214	213
64	84
107	172
121	151
98	551
317	406
223	222
79	78
56	55
87	173
160	159
118	117
312	311
186	291
375	374
266	265
312	311
360	359
340	339
339	338
233	232
284	283
226	226
123	131
422	421
308	319
349	348
311	310
399	398
342	341
345	344
320	319
106	427
150	497
73	113
81	93
240	235
95	175
90	165
63	107
152	151
50	51
77	89
63	62
340	339
114	137
166	196
198	157
64	71
99	180
173	267
31	30
145	230
133	177
552	551
1078	1447
359	211
186	215
38	44
67	95
70	69
219	251
210	241
154	157
117	116
217	355
307	314
50	49
72	71
379	378
203	202
159	158
265	304
36	66
268	292
54	91
277	287
232	292
162	181
155	137
288	431
212	211
150	214
142	141
74	261
137	254
173	394
124	218
258	466
87	86
204	203
101	100
131	131
287	286
221	220
256	255
234	498
255	328
59	58
426	425
68	118
93	94
78	211
93	211
114	154
333	332
271	270
158	157
418	417
677	676
275	274
386	385
394	393
514	513
331	330
112	127
292	319
485	484
114	113
67	66
236	331
124	54
179	185
90	89
220	235
294	514
204	221
83	81
85	84
202	201
51	50
71	70
97	96
237	236
325	324
220	219
740	777
147	146
102	171
66	65
216	219
403	402
92	91
428	472
46	72
161	160
536	535
76	75
150	149
191	195
301	300
328	327
44	43
304	337
40	107
104	103
208	217
126	335
424	423
36	35
36	35
36	35
446	553
84	93
64	63
520	519
63	62
251	250
186	185
130	312
546	872
770	769
359	368
1141	1157
650	662
429	428
499	498
305	309
212	255
503	649
173	188
207	215
119	240
175	325
138	131
55	53
116	138
99	98
159	211
77	222
145	222
154	200
193	192
91	86
260	271
467	466
210	204
91	211
133	145
142	122
270	272
213	568
508	504
391	375
59	62
172	175
120	138
111	110
60	78
124	147
178	191
62	59
152	213
83	70
76	79
55	55
34	70
33	70
64	157
63	71
144	281
57	108
117	150
91	187
88	86
100	142
105	107
75	88
232	222
231	306
131	154
92	91
179	236
134	141
98	71
227	242
211	243
208	258
78	257
113	233
259	269
210	216
326	340
99	144
112	87
45	44
69	69
248	530
125	195
263	221
163	253
158	269
146	354
123	102
250	249
319	318
247	564
226	366
140	178
180	171
211	230
96	155
96	210
155	239
89	146
269	321
82	152
88	86
71	140
100	96
99	160
134	133
128	172
131	130
114	64
62	68
217	277
268	296
90	100
83	105
365	519
205	204
350	349
242	288
71	190
166	165
37	61
163	221
48	47
82	81
465	546
138	191
125	124
209	208
101	92
90	89
76	75
135	121
199	199
259	294
223	222
354	352
83	77
249	281
192	188
73	101
33	50
71	60
30	90
88	76
268	240
55	182
72	63
196	233
178	279
253	272
40	55
74	104
65	113
43	43
201	237
161	159
177	354
64	63
58	57
149	194
69	118
65	69
110	278
107	189
65	100
42	50
61	159
65	246
114	238
104	146
268	357
74	151
89	137
110	112
161	160
117	116
194	255
97	191
95	106
337	329
79	138
44	81
373	402
78	137
217	429
124	129
80	180
117	190
227	400
133	171
357	367
181	230
231	493
133	290
97	710
155	205
113	239
171	270
76	147
50	59
66	87
179	268
172	175
198	305
64	106
38	45
166	191
355	359
105	204
64	119
57	87
32	97
71	496
105	300
74	73
110	210
114	223
137	201
241	292
83	106
155	177
69	108
48	47
134	157
134	150
165	171
51	200
98	100
149	148
69	906
274	334
105	569
274	481
213	222
39	38
127	166
130	221
46	82
119	201
155	339
154	153
184	183
222	381
314	328
439	438
118	128
90	86
232	227
174	256
97	142
147	134
79	78
774	773
76	75
785	834
99	98
240	239
330	351
120	119
273	296
273	276
126	140
108	131
89	222
200	498
213	246
99	98
119	145
61	158
134	159
37	37
108	133
228	222
97	96
131	262
343	449
187	186
851	850
260	259
169	168
147	146
79	78
413	412
226	225
52	111
91	177
149	169
429	428
270	278
226	225
253	252
335	334
73	72
242	282
121	120
99	123
263	292
409	408
118	118
189	200
118	117
435	434
362	361
56	55
287	286
174	173
269	268
109	108
848	847
394	393
78	77
56	55
201	200
188	187
407	406
279	350
432	431
211	210
135	134
43	44
114	143
158	157
69	68
197	234
115	156
626	637
63	62
44	106
140	194
343	439
124	123
67	66
197	196
73	72
271	270
80	78
193	268
59	54
63	68
120	119
96	95
57	56
63	62
125	124
653	704
390	389
213	249
597	899
64	64
77	125
74	102
116	113
154	153
389	387
65	334
111	183
131	186
160	195
126	125
170	169
146	145
55	63
344	398
494	493
240	278
417	511
272	271
490	489
140	139
104	103
210	209
202	201
101	100
274	273
44	43
60	93
111	110
150	151
88	236
120	125
64	63
85	84
58	57
63	62
105	104
180	179
102	101
131	130
178	177
118	117
105	104
60	59
145	144
149	148
303	302
39	38
119	118
152	135
207	206
330	329
128	127
95	122
142	141
58	57
138	137
459	458
101	131
330	429
116	231
210	260
80	76
79	78
375	374
158	157
170	180
184	184
273	272
58	85
185	184
85	84
64	63
146	217
253	252
213	226
105	60
173	207
60	187
197	312
128	137
75	73
66	108
89	192
125	841
145	159
323	535
249	250
194	388
214	235
60	71
160	159
60	59
45	44
113	112
33	32
161	245
294	293
188	189
67	149
66	74
50	49
103	174
74	198
85	167
60	67
132	223
59	58
54	214
80	248
40	174
56	233
42	71
138	183
75	319
73	89
33	121
59	96
162	156
82	112
248	1072
85	125
208	168
98	136
215	211
93	92
116	123
235	234
115	114
88	88
51	50
47	42
58	80
59	90
41	49
219	367
169	168
136	142
85	98
198	266
86	199
139	135
54	53
109	152
165	177
237	254
34	43
142	160
117	116
145	179
70	79
103	134
112	111
81	80
85	84
72	71
230	229
84	91
199	177
99	114
93	98
71	70
45	55
99	114
56	55
68	67
147	146
120	119
59	58
61	60
119	118
179	178
100	99
141	140
359	356
95	114
215	214
52	51
57	56
73	72
55	54
64	63
293	324
81	102
104	567
256	352
68	67
106	105
210	209
266	265
282	371
55	68
435	434
130	213
160	327
408	459
206	205
146	190
331	432
130	174
264	319
585	584
743	2035
85	163
288	287
162	272
246	252
333	597
553	900
207	447
560	3163
942	1084
671	343
268	267
526	525
674	673
154	158
51	82
214	275
113	207
154	647
126	125
92	91
265	264
57	87
103	161
79	179
143	158
248	268
226	225
239	238
253	252
134	126
92	174
181	180
144	124
60	67
114	113
84	116
113	179
97	96
108	104
84	153
84	90
145	247
105	108
125	124
67	122
314	313
352	392
43	42
111	150
123	84
408	407
218	217
318	223
213	230
86	107
110	257
39	38
259	287
76	73
117	183
53	50
196	194
74	78
208	258
73	86
182	238
75	149
134	134
54	88
108	143
47	40
67	66
71	120
117	116
147	144
243	242
362	361
153	133
143	134
57	67
160	280
75	74
49	48
83	96
125	247
80	79
150	182
59	261
142	138
61	174
39	39
110	172
88	190
99	154
64	57
62	90
69	162
75	186
41	152
82	88
165	185
330	515
202	240
68	78
78	77
321	320
202	305
92	91
76	74
127	150
125	124
357	356
226	225
137	136
274	273
49	48
158	157
91	90
69	68
74	73
54	53
125	124
65	64
208	202
514	513
110	109
353	352
125	124
31	36
389	388
476	475
453	454
190	189
96	88
275	274
85	84
84	83
40	44
72	80
131	127
390	434
46	45
357	356
33	38
329	355
197	196
246	245
259	258
204	203
326	325
184	183
221	221
329	468
149	134
237	236
276	285
124	196
90	196
79	330
239	330
163	355
87	161
213	292
77	292
68	367
118	415
247	415
186	185
294	293
176	299
67	130
243	306
69	135
89	88
199	198
321	464
86	367
165	301
127	151
124	426
167	152
201	235
31	46
258	254
320	349
154	151
88	88
73	386
58	296
207	220
223	453
193	231
99	104
246	404
168	160
322	321
154	159
235	233
58	57
126	109
258	248
405	405
206	205
206	202
163	162
252	252
172	220
238	265
94	197
187	192
148	147
244	245
152	135
179	165
368	371
358	357
251	251
154	192
204	208
412	494
465	1105
147	162
283	282
333	332
130	129
164	357
149	646
50	49
200	208
196	226
220	219
43	42
119	111
104	105
185	170
338	356
138	147
132	383
253	285
340	388
562	875
471	447
125	150
298	297
267	231
57	54
85	84
63	55
170	227
76	75
106	105
215	230
91	125
102	101
141	155
280	279
55	54
433	451
95	94
126	133
170	197
270	269
59	85
243	242
351	350
426	425
335	334
94	137
242	233
216	248
50	52
282	241
226	225
263	262
91	90
195	246
83	82
113	112
215	214
130	129
827	826
106	165
181	180
94	93
370	369
171	169
206	251
245	301
105	104
398	644
133	916
159	622
357	622
121	149
344	559
634	909
143	148
40	47
218	395
591	1210
136	197
62	61
41	40
433	399
195	189
242	309
258	402
64	112
178	151
91	316
64	104
111	110
77	313
405	667
154	153
157	156
210	220
411	457
117	116
315	262
36	35
180	179
133	279
78	156
91	128
58	60
65	63
255	385
162	164
30	80
193	251
100	161
288	342
120	112
289	288
295	294
311	310
155	147
128	192
58	194
157	193
130	491
130	207
219	196
251	316
70	93
91	90
45	44
172	216
72	115
185	294
61	86
184	201
80	79
55	52
140	240
244	362
191	382
126	241
61	80
104	333
86	215
99	148
459	462
189	188
52	271
53	98
347	346
610	928
279	278
664	663
237	313
219	258
57	90
294	293
249	272
61	60
281	285
363	362
77	76
74	99
49	101
149	145
233	232
361	478
56	55
295	312
314	313
222	348
304	331
192	191
42	53
43	42
180	226
78	144
130	92
66	84
157	207
138	137
158	157
489	488
287	286
185	237
53	60
76	91
133	138
120	119
304	406
287	336
197	291
97	113
225	240
342	341
530	529
123	114
263	274
87	192
35	34
122	128
114	130
352	364
185	204
95	94
336	335
76	75
587	586
214	213
68	67
195	214
125	184
236	236
186	185
463	496
96	125
92	113
159	159
44	69
223	222
155	154
161	205
201	200
150	149
247	262
215	148
170	169
113	187
96	82
324	316
88	87
165	164
55	54
106	142
84	83
457	548
59	62
334	500
180	179
63	70
355	354
31	158
135	158
62	154
74	93
318	329
47	45
232	219
230	248
239	296
146	215
148	168
80	79
73	81
77	139
619	703
87	102
609	608
428	388
170	189
50	49
216	216
318	348
123	137
33	32
66	117
163	238
107	106
259	258
163	162
86	256
181	189
89	121
530	1534
164	230
325	507
382	371
96	95
113	112
160	159
406	418
825	875
58	57
243	242
94	247
76	192
411	795
77	503
75	194
68	71
138	430
75	226
186	430
107	106
318	328
330	329
377	376
105	84
217	216
222	230
105	157
274	273
185	184
137	152
403	542
360	419
357	356
80	79
265	331
82	81
281	267
430	429
402	401
261	260
170	400
247	239
181	180
142	141
201	200
386	385
124	216
168	180
539	660
133	132
53	52
193	252
189	213
69	81
111	167
187	661
81	257
90	90
124	183
51	179
78	71
92	89
73	320
80	178
90	65
140	231
66	79
96	88
154	180
67	66
181	344
230	228
124	143
85	152
102	101
95	124
66	65
306	305
582	580
324	323
168	167
486	485
102	111
264	292
160	162
290	361
342	341
101	100
185	184
60	59
64	56
151	161
176	188
581	908
281	357
31	42
188	213
231	253
167	166
408	442
171	183
105	115
122	121
72	71
242	282
316	350
91	144
82	82
119	118
169	235
427	432
217	216
165	164
152	151
401	400
175	174
132	355
272	481
128	127
74	85
415	447
89	93
111	113
39	38
148	145
68	67
134	133
87	130
130	215
121	120
298	297
196	195
34	32
134	141
102	111
229	228
172	171
77	76
261	260
190	189
506	505
163	162
221	220
423	422
305	304
143	219
86	71
271	270
338	337
379	378
129	128
184	183
144	159
111	109
138	170
288	287
118	140
110	153
125	337
218	518
172	313
93	92
74	134
117	182
56	63
206	206
275	274
362	361
311	310
184	183
70	210
186	215
88	175
77	175
160	159
164	163
163	205
89	89
752	770
92	91
126	125
70	112
189	188
162	161
622	714
37	36
403	436
95	94
447	446
252	251
311	310
163	150
202	394
100	99
126	125
77	89
342	341
92	91
269	268
101	100
64	70
161	160
63	62
70	507
247	246
306	305
113	112
96	95
120	119
224	223
85	84
367	388
116	115
216	215
97	96
62	61
428	535
529	551
485	484
237	285
132	367
276	275
302	301
143	142
199	342
157	342
89	88
208	279
97	120
173	172
34	33
68	67
142	141
140	139
136	147
264	263
69	68
201	200
66	65
59	62
197	202
183	360
105	99
102	101
116	115
370	369
173	205
225	224
195	317
119	118
52	70
210	209
49	311
526	770
259	545
201	200
72	71
367	366
71	144
86	144
418	731
803	823
35	113
79	78
206	233
443	442
75	536
427	426
273	272
162	161
159	158
74	73
90	89
312	311
141	140
295	294
105	104
357	356
513	512
388	387
205	204
254	266
850	1197
298	297
315	314
143	142
110	132
159	191
181	180
335	353
91	90
211	210
63	91
57	80
261	306
299	338
86	110
117	196
41	67
55	69
80	111
155	154
106	110
180	216
444	488
172	143
289	345
190	535
114	234
88	87
257	279
190	135
84	120
142	146
192	175
140	119
320	319
93	92
138	137
236	235
142	141
168	337
174	259
168	249
120	119
124	123
116	115
221	369
153	214
34	56
72	119
109	178
66	104
79	138
127	117
64	87
82	111
70	57
54	87
71	93
86	111
71	70
80	163
54	84
73	642
98	149
51	131
165	165
113	112
60	103
174	328
187	174
125	181
86	85
44	43
43	84
472	575
156	134
271	270
94	110
64	68
254	221
58	72
220	307
58	75
292	291
278	277
247	338
90	97
264	263
183	213
105	246
102	88
366	474
300	299
192	191
111	110
142	141
87	88
70	119
132	160
301	300
351	350
167	166
220	219
296	295
454	453
449	467
436	408
396	395
279	278
256	255
192	213
96	95
98	97
223	234
104	114
268	267
234	233
160	159
135	111
760	759
73	73
203	244
127	126
550	667
333	332
192	191
144	130
533	659
172	190
392	391
484	497
521	1037
119	118
376	375
75	256
233	232
592	671
72	71
177	177
238	237
77	76
82	97
281	280
293	292
209	208
157	156
354	353
383	401
120	119
249	248
39	38
410	409
209	208
346	345
213	212
691	690
143	142
353	362
570	680
69	177
120	119
51	50
64	63
65	58
75	67
143	175
143	153
221	306
42	65
269	314
78	138
43	79
77	76
144	154
136	141
80	139
140	273
108	1053
173	1053
119	1053
126	1053
91	1053
435	1535
440	1640
302	1051
316	1051
265	254
331	330
119	497
202	497
105	174
153	188
72	71
239	258
270	269
375	392
186	206
154	218
141	310
115	124
341	340
378	335
125	160
280	279
144	143
678	779
94	94
245	243
332	721
92	106
242	940
65	197
403	744
95	281
73	163
123	203
58	65
52	88
38	134
55	60
137	151
217	323
69	87
77	119
67	122
101	153
73	127
40	100
68	114
63	111
49	47
94	149
116	135
82	81
59	52
238	237
120	252
89	289
201	202
181	431
166	166
59	156
90	106
69	100
109	247
57	56
285	242
31	39
83	75
60	122
42	41
120	410
137	397
113	111
51	89
82	94
328	327
883	1093
213	208
398	397
349	417
89	88
397	396
113	112
445	445
238	237
380	460
94	93
1148	1295
161	1331
519	518
140	139
212	211
196	223
82	94
87	86
127	126
244	243
243	242
302	301
227	226
325	324
600	599
160	159
319	318
217	216
192	191
258	215
264	292
246	245
154	153
82	241
155	415
366	341
163	154
128	127
221	229
331	330
140	139
164	232
350	421
227	450
60	59
452	451
91	90
247	432
149	148
85	109
146	217
85	84
382	367
500	692
244	243
211	300
116	135
246	245
114	113
370	368
185	137
94	98
81	80
66	68
60	122
92	109
35	49
72	139
55	53
84	45
72	253
86	138
41	59
116	115
67	70
120	119
68	89
99	164
83	82
57	85
74	70
51	302
134	175
91	176
143	181
195	150
104	253
158	168
65	64
59	99
293	292
159	207
411	568
114	113
97	96
159	158
166	173
326	325
356	355
483	482
427	426
467	466
221	220
150	149
53	52
100	99
175	174
135	134
150	149
115	114
110	109
82	81
137	136
184	247
529	714
224	313
300	328
95	98
333	282
61	65
142	149
211	210
146	140
81	80
178	207
112	111
94	93
101	176
102	101
121	166
160	169
55	61
186	267
170	195
190	235
121	206
192	370
77	108
97	133
228	227
216	279
95	94
189	188
217	145
50	49
75	74
340	364
81	149
183	247
134	133
167	166
92	328
214	224
166	165
80	79
192	193
155	202
177	168
122	121
217	216
124	123
260	259
120	119
258	257
86	85
153	234
88	321
270	305
255	247
480	479
378	377
72	71
169	312
520	637
176	175
68	67
131	145
125	139
62	61
156	155
137	136
214	239
181	180
51	242
95	299
451	446
308	307
245	244
319	330
204	203
109	153
117	116
291	290
91	90
49	87
337	347
268	336
62	61
122	121
395	368
166	165
143	142
115	114
78	77
84	83
576	853
184	183
219	218
138	137
106	104
303	302
199	198
150	361
213	212
154	249
202	169
249	248
124	144
221	347
184	183
77	76
98	94
118	135
38	48
330	329
209	208
70	79
99	167
100	99
315	349
160	159
71	96
156	155
77	103
108	107
202	201
426	475
303	302
143	170
140	178
86	92
35	34
51	50
245	244
492	570
94	93
43	42
569	568
97	94
242	423
182	244
192	191
142	228
412	435
129	132
210	286
140	139
404	313
72	76
31	60
61	52
134	484
146	247
135	198
314	332
179	256
64	51
204	247
170	197
235	344
110	154
457	456
468	469
214	213
142	222
224	223
36	35
316	315
264	263
150	169
152	252
388	414
222	263
89	90
605	1178
323	337
70	80
182	181
737	763
259	352
112	104
447	446
79	78
60	393
164	163
155	155
150	149
261	260
66	100
65	64
182	181
249	282
130	308
221	229
430	429
260	270
211	210
282	281
189	221
202	199
216	215
439	438
355	392
115	179
72	71
473	472
134	140
191	198
367	366
132	131
198	262
76	75
402	401
148	147
267	266
97	96
256	338
78	166
136	179
85	308
207	323
163	286
197	269
203	221
544	550
88	143
90	200
55	73
149	319
109	417
83	179
130	408
156	271
111	255
46	59
76	147
578	776
680	787
91	88
74	149
165	225
87	121
228	246
166	273
109	100
126	125
33	273
150	175
348	401
269	325
160	134
114	160
87	191
505	835
213	212
152	139
405	404
193	299
155	382
616	1051
134	182
546	545
333	353
100	64
111	110
44	72
321	477
225	398
301	359
149	178
143	142
194	259
266	458
249	248
321	320
190	206
316	315
84	83
113	151
122	149
206	185
204	248
169	328
135	151
183	199
93	184
448	447
444	443
609	608
855	926
85	179
222	232
654	962
288	283
795	1122
329	328
108	107
136	135
188	187
157	156
265	264
292	291
492	748
193	272
58	59
49	48
126	135
72	112
227	237
48	47
347	346
70	72
90	112
171	216
77	267
75	152
69	118
162	229
100	313
52	114
79	217
48	89
204	206
92	91
159	158
59	73
167	183
52	125
96	98
83	73
97	172
274	318
53	63
166	164
109	108
57	56
38	73
102	106
309	316
153	192
110	270
73	72
67	101
146	145
30	38
523	576
193	199
34	43
121	304
66	114
136	138
124	288
92	270
93	126
56	74
71	67
89	108
45	105
101	75
59	58
71	83
159	179
34	40
80	105
269	355
91	91
51	92
169	171
119	143
287	310
65	82
132	155
163	319
93	158
213	159
76	133
286	330
30	174
92	269
196	453
88	162
234	309
104	86
110	188
150	168
156	259
68	63
300	376
201	317
230	301
61	141
162	484
372	371
117	95
117	162
52	74
159	166
112	137
112	150
163	162
640	639
415	418
48	47
80	99
117	182
196	201
308	330
366	365
275	295
321	303
237	236
171	327
172	179
88	126
57	152
136	135
59	49
64	52
98	106
219	305
49	94
159	317
87	86
225	245
237	444
300	302
114	160
338	567
225	235
89	81
57	56
279	364
98	81
184	365
119	167
95	94
112	111
206	166
151	112
165	326
96	193
79	110
193	192
110	109
79	116
116	115
294	314
132	128
70	48
73	128
81	79
77	76
158	187
159	171
275	351
104	103
98	97
92	91
82	100
154	153
186	185
191	286
117	116
315	359
388	387
170	243
95	93
144	143
193	192
236	235
77	106
126	178
71	176
194	207
56	80
170	169
204	226
56	118
105	104
153	174
167	184
89	98
84	117
137	135
90	155
76	92
240	231
664	663
253	252
307	306
244	243
595	620
385	384
452	464
152	151
236	235
64	63
179	178
247	246
212	211
139	138
327	326
126	125
72	82
124	155
42	41
44	48
68	96
143	197
342	378
86	85
261	276
236	235
123	122
131	130
88	126
109	108
82	81
165	239
167	169
181	350
92	91
313	359
112	82
419	418
331	365
368	404
236	235
74	73
248	250
149	201
213	241
92	91
126	125
167	166
74	73
92	91
83	87
83	104
74	73
120	119
202	201
226	252
80	79
59	58
109	108
249	248
87	86
187	186
69	68
94	93
110	109
252	277
398	397
371	393
184	208
76	251
207	259
261	212
196	311
96	101
218	215
169	178
92	96
643	733
223	196
241	329
364	542
304	320
56	192
167	166
118	117
449	507
80	79
94	93
89	88
273	272
152	151
154	153
187	187
82	85
101	67
83	90
72	71
123	122
81	80
66	65
331	330
304	350
302	301
62	61
51	50
142	196
203	207
77	159
100	139
143	175
80	289
92	139
87	369
257	292
237	236
270	269
157	156
304	307
109	251
138	189
306	305
118	116
117	116
184	176
161	205
507	510
98	102
103	127
190	189
47	46
332	331
194	187
117	116
161	160
76	68
191	190
320	399
71	68
49	48
72	136
125	144
270	269
181	513
412	512
68	73
154	163
112	136
574	573
142	151
78	77
273	272
162	161
159	158
69	68
358	353
61	71
133	265
73	69
66	65
279	281
132	131
306	305
54	51
383	398
95	117
164	168
254	327
78	108
69	130
311	346
71	152
450	455
57	60
197	246
90	159
187	210
173	412
59	149
60	144
101	182
129	142
83	149
180	398
202	251
97	81
135	158
118	158
113	485
144	165
165	424
214	257
58	273
255	434
179	181
212	223
98	120
150	258
179	178
172	186
198	392
169	325
107	98
178	189
124	123
188	187
167	151
408	407
214	245
281	232
165	164
524	686
203	272
116	319
137	136
270	269
149	216
152	289
290	646
247	907
562	1282
56	55
246	304
243	202
672	723
135	134
408	407
351	350
235	248
253	313
228	224
319	318
458	552
86	85
212	298
83	82
391	390
360	359
357	356
187	186
275	274
450	449
253	252
258	254
231	230
500	499
620	619
289	288
83	82
114	113
163	162
165	164
568	567
393	392
329	328
373	372
96	95
254	278
48	47
347	346
165	164
295	294
142	141
245	244
195	283
205	265
75	92
152	217
161	135
138	137
357	387
76	75
271	308
86	85
65	110
90	161
150	312
303	299
138	181
64	106
58	67
301	490
339	338
337	336
44	109
243	247
94	87
65	95
88	63
62	264
106	434
127	262
88	114
149	148
110	109
125	149
454	618
142	523
110	123
276	327
161	160
46	45
49	72
101	219
117	182
141	200
98	430
72	71
122	236
82	209
126	159
172	152
105	104
296	295
132	162
162	161
350	349
303	302
82	122
90	116
714	713
246	260
136	186
77	127
89	86
119	111
65	98
124	100
129	137
74	85
88	103
67	66
54	94
31	30
494	493
224	223
330	334
117	178
481	598
74	115
109	112
224	223
62	79
114	262
105	85
258	257
57	56
219	174
841	840
44	62
171	237
344	349
58	57
113	112
99	99
67	66
108	131
435	455
99	189
478	477
690	946
267	326
434	433
207	206
413	412
274	273
49	48
84	76
214	213
311	310
314	303
202	201
133	143
160	194
115	196
122	517
245	282
54	49
72	71
285	344
68	311
62	61
614	613
169	168
140	151
101	122
208	207
63	75
445	506
272	266
38	148
93	396
70	69
66	65
46	45
100	162
121	319
115	100
154	211
142	218
367	461
144	216
229	259
46	50
102	101
160	182
161	181
59	118
112	110
298	315
211	235
108	174
216	435
163	435
54	53
50	215
130	171
150	320
169	202
83	82
138	138
86	104
379	378
168	167
134	125
96	168
329	328
322	321
115	127
286	330
104	178
59	64
389	388
84	83
97	100
239	335
158	190
64	65
367	432
259	258
221	220
148	127
123	122
59	60
48	69
111	110
120	99
131	130
175	194
123	122
209	200
83	82
145	233
70	84
44	54
75	50
84	177
237	353
395	443
111	110
354	355
130	129
217	249
549	764
340	402
64	63
100	119
352	351
72	83
127	197
108	130
313	312
165	274
218	291
297	296
257	256
433	432
524	523
112	111
155	154
89	88
187	186
427	426
158	157
73	72
200	199
293	292
145	144
378	377
385	384
287	286
159	158
268	267
236	263
238	237
288	287
679	678
132	131
154	160
192	191
347	346
212	211
173	172
148	147
101	100
168	167
175	174
261	369
71	71
293	292
288	276
63	60
312	373
102	119
314	350
264	299
267	294
247	272
364	395
59	58
70	69
262	261
134	133
891	890
336	335
145	151
53	55
89	112
89	129
111	251
228	227
58	78
251	316
192	190
111	110
363	367
104	103
136	170
121	165
382	403
71	126
101	192
139	138
158	157
74	88
125	135
132	181
184	291
81	148
40	39
175	188
219	289
83	101
77	145
180	40
84	85
104	103
146	169
201	215
93	92
329	402
62	61
77	97
182	183
196	194
54	72
132	172
50	49
272	275
190	189
156	178
125	293
46	45
132	188
57	56
96	95
116	125
186	185
97	79
143	194
581	587
164	163
285	284
91	90
211	210
73	110
144	143
84	94
101	100
216	223
100	129
501	512
310	309
77	78
387	502
295	385
688	1486
123	128
209	279
149	166
67	97
75	74
102	101
436	229
251	315
244	296
298	297
261	260
77	165
97	150
111	110
66	65
86	85
177	136
172	196
159	148
133	132
412	455
368	355
313	312
137	140
89	88
91	90
66	90
41	84
126	125
131	341
253	384
187	169
177	162
72	73
340	363
132	139
198	215
63	355
180	276
206	376
553	1266
103	112
83	162
62	220
155	153
80	141
139	93
183	207
72	85
192	384
76	62
185	633
125	488
50	321
79	186
107	83
69	62
50	220
85	166
106	154
202	211
226	252
160	159
92	91
87	86
165	134
80	79
112	111
160	168
97	96
116	217
77	173
368	258
723	753
392	391
89	88
109	108
160	159
168	167
107	106
90	134
162	161
162	161
123	122
99	96
377	376
146	185
294	257
460	459
176	175
530	648
111	268
172	181
59	72
78	77
92	92
39	52
92	91
119	160
126	125
892	993
156	229
235	234
115	153
106	114
199	316
111	110
235	234
279	278
100	99
260	283
284	283
95	99
142	156
235	234
52	51
167	166
224	223
118	116
126	125
92	91
111	110
86	85
76	75
102	143
51	60
204	240
87	86
197	196
70	69
168	167
86	85
111	110
291	286
249	248
231	230
564	1662
238	395
392	732
246	290
66	65
736	735
102	131
132	164
213	205
46	43
167	148
311	310
253	643
154	166
253	242
186	196
216	289
72	54
111	111
96	95
182	181
78	77
112	111
114	113
113	144
62	53
121	189
468	616
213	212
102	101
90	102
244	242
171	210
97	100
93	112
310	784
116	140
104	126
233	231
73	72
107	116
74	73
172	171
78	77
107	106
157	155
155	144
152	159
126	129
68	74
100	135
100	108
189	188
104	103
93	119
76	75
122	123
123	129
128	127
170	169
122	108
150	120
100	104
73	72
71	70
178	239
145	144
653	652
93	92
120	193
70	69
63	49
181	180
276	325
167	166
121	109
68	83
100	58
42	46
202	275
130	118
72	73
128	194
139	145
169	269
116	174
112	123
175	175
101	101
83	82
129	128
96	95
46	96
150	100
87	106
254	263
266	265
53	57
131	130
77	115
128	242
185	214
31	44
92	91
125	148
146	157
102	101
73	72
125	120
107	106
86	119
198	230
88	191
90	108
94	63
110	107
169	168
62	256
373	424
70	69
144	143
149	172
221	220
646	388
69	105
184	120
