57	61
140	163
105	153
79	81
153	153
204	323
75	143
95	94
63	46
42	41
227	281
60	63
109	109
206	181
66	87
103	160
75	101
115	177
81	166
103	130
46	46
154	197
45	54
57	68
88	137
108	231
116	333
165	176
53	41
53	51
55	51
48	74
70	175
80	276
61	168
85	469
139	140
65	106
121	167
165	177
57	81
58	152
128	207
87	86
138	137
45	66
89	120
125	124
96	127
106	126
116	132
76	76
144	222
82	115
195	206
46	50
168	363
212	363
142	285
154	264
120	200
41	59
151	278
167	428
230	268
95	268
96	275
243	338
65	112
215	327
157	156
78	77
47	46
200	215
172	400
105	232
69	102
362	361
128	131
213	455
233	259
175	312
38	105
53	51
443	451
73	72
254	254
98	251
182	211
217	216
394	417
118	117
232	231
80	79
88	84
254	349
36	35
285	284
152	151
113	129
124	130
61	99
128	243
319	355
36	35
200	226
73	146
59	126
51	56
110	229
79	124
62	59
89	88
208	243
38	49
51	106
127	162
167	332
89	136
105	164
56	72
49	47
174	194
266	273
126	106
265	285
95	94
281	267
57	135
46	45
167	389
105	411
71	70
188	647
341	647
74	647
269	885
84	199
66	74
164	122
225	358
50	281
88	281
300	284
37	69
52	65
95	81
40	124
41	74
201	304
151	150
180	179
141	140
163	162
90	89
120	119
98	111
90	99
128	293
121	273
83	76
172	171
355	349
56	55
74	69
80	79
74	61
273	630
364	352
292	356
376	453
314	452
347	398
81	329
51	50
43	42
341	340
185	184
395	298
271	270
56	53
181	180
237	374
123	147
68	242
89	88
85	84
173	187
125	302
123	173
107	136
84	179
93	270
118	132
243	246
110	109
107	124
135	159
123	127
326	432
58	116
62	61
107	106
404	403
210	209
40	39
485	505
194	171
78	103
350	411
173	139
65	86
149	148
133	145
74	105
57	66
155	160
123	122
125	231
94	100
159	235
51	242
53	89
70	91
90	39
60	83
114	109
51	71
89	173
81	80
46	82
57	56
95	90
171	261
151	417
88	94
171	257
135	134
33	31
53	51
101	162
98	137
76	206
97	285
235	204
111	110
54	93
117	124
45	44
157	130
98	97
59	58
200	238
95	429
206	475
87	85
454	510
63	74
290	417
285	328
47	46
43	42
224	372
70	112
164	168
58	66
83	109
37	36
207	218
212	267
99	107
61	82
325	324
145	130
141	140
50	260
95	211
129	133
132	131
82	81
118	117
100	111
42	41
71	125
237	243
111	110
440	439
342	363
196	220
69	68
74	100
206	526
288	321
182	181
84	83
61	60
109	108
154	153
159	158
189	209
46	45
121	120
89	93
57	56
152	151
358	342
140	271
68	358
106	268
88	268
185	263
116	129
120	486
56	224
295	349
239	233
335	334
155	154
77	76
83	180
92	102
69	68
67	65
245	244
227	226
59	58
68	63
94	93
94	108
80	79
33	46
154	221
95	162
233	263
132	174
33	32
129	177
36	67
105	120
205	235
80	129
121	133
214	213
68	61
233	344
123	148
209	223
487	486
150	149
212	211
409	408
128	128
36	159
198	346
42	41
36	51
241	275
93	96
109	198
69	81
81	94
273	331
59	153
236	296
80	79
148	292
133	187
226	216
97	116
413	412
81	80
163	162
135	134
149	227
186	416
138	343
73	106
95	93
168	166
118	117
100	215
52	70
216	612
123	218
183	951
98	352
62	161
109	290
86	85
123	124
93	129
79	85
94	93
35	34
360	411
75	90
55	54
80	113
36	49
151	214
248	274
214	213
55	43
70	69
231	274
102	450
97	278
52	105
120	140
96	142
149	184
89	43
143	265
56	53
68	82
142	208
161	192
357	387
270	269
335	343
79	78
91	232
163	162
172	264
119	151
104	112
201	266
167	189
60	101
128	252
58	57
154	173
151	150
75	75
109	170
90	149
140	161
70	127
427	405
173	223
154	489
44	43
61	77
189	193
219	359
269	352
314	313
64	96
282	308
233	232
156	155
105	120
252	251
292	401
45	85
232	231
135	134
139	138
220	219
98	97
109	138
512	511
308	307
72	215
158	157
162	194
246	245
176	175
216	215
187	186
348	347
63	125
58	57
218	362
38	37
189	188
179	191
351	350
307	306
97	87
202	201
92	124
76	75
176	175
91	162
398	527
142	141
517	517
386	385
494	493
178	177
104	103
67	67
153	152
161	85
217	216
90	89
139	138
278	277
174	173
73	72
128	127
246	245
313	312
73	157
91	299
170	169
42	34
206	245
183	502
332	536
90	158
47	59
235	290
89	344
158	158
104	103
71	158
126	243
74	271
116	134
135	280
194	193
424	423
376	375
123	122
120	223
299	309
198	209
70	69
413	414
68	75
453	468
260	284
112	123
96	226
129	128
126	123
496	601
103	128
252	266
39	91
40	78
71	70
165	164
443	442
58	57
199	198
76	75
273	413
153	151
141	206
94	130
75	77
103	174
72	199
39	39
43	55
88	120
88	200
37	179
373	579
118	205
67	65
196	276
174	376
102	138
138	177
140	188
73	117
45	72
69	147
80	280
135	224
85	438
207	273
162	272
145	129
189	216
296	436
74	278
31	30
62	86
319	331
205	259
153	149
57	56
286	285
77	132
56	55
202	195
143	190
99	122
165	190
257	274
77	76
173	172
172	173
63	54
135	174
52	98
61	64
32	39
101	139
56	97
75	81
106	105
86	128
104	103
41	32
56	55
61	69
79	39
75	684
108	184
68	74
70	97
137	150
89	86
100	119
211	265
281	326
100	209
127	138
83	220
139	138
170	169
157	186
49	171
48	47
104	153
105	100
110	214
85	167
122	415
103	189
61	70
59	64
50	55
82	95
114	125
106	220
109	314
48	106
63	96
143	142
159	201
58	70
275	362
140	255
149	163
168	158
208	531
79	168
71	124
207	180
195	194
192	180
104	139
52	70
81	123
86	138
134	155
35	43
141	191
320	319
100	301
76	85
193	238
109	222
64	263
174	173
145	337
336	489
121	197
66	95
184	313
87	87
389	411
88	128
77	73
115	235
85	84
162	181
110	127
30	40
216	215
183	182
353	391
200	221
457	764
57	66
326	451
639	1486
169	219
47	46
441	440
224	261
42	44
100	109
125	124
270	297
55	67
86	108
106	68
73	334
114	221
82	55
137	380
35	81
87	163
75	179
118	116
70	69
45	171
134	330
82	294
92	259
63	69
108	205
67	87
167	267
64	64
136	227
46	79
65	79
133	118
79	78
120	104
69	68
41	59
119	152
85	84
32	40
40	95
33	66
65	64
139	155
86	171
35	35
65	69
163	226
110	257
108	189
71	91
86	105
40	48
227	306
103	102
63	62
119	118
90	115
170	222
72	71
134	133
115	147
133	106
117	116
156	194
77	119
153	150
109	108
76	87
146	146
202	248
93	157
176	180
209	270
135	278
118	120
45	75
105	135
105	132
135	148
364	357
158	160
176	181
54	53
119	192
100	78
108	144
84	83
191	223
290	290
100	99
64	74
77	46
113	71
109	136
136	218
68	163
130	184
432	983
102	132
182	142
69	103
50	106
55	70
204	246
170	288
58	102
75	74
181	115
148	242
103	359
91	90
45	43
152	264
100	102
192	204
148	147
67	38
68	76
81	156
76	48
198	290
66	107
66	114
348	362
140	138
240	350
197	377
120	117
410	398
333	377
111	185
85	189
56	55
99	175
105	104
185	376
73	110
96	96
87	90
204	234
55	53
88	93
55	81
155	142
82	406
69	108
75	232
111	180
66	146
48	63
56	86
89	88
67	109
102	136
80	67
89	88
42	60
77	76
84	83
73	95
151	177
260	303
75	127
58	930
212	168
69	71
74	104
101	100
128	174
51	90
175	174
93	92
266	265
415	413
78	137
70	72
106	117
159	309
347	350
85	70
179	254
152	147
60	59
108	101
97	116
77	80
173	275
190	482
88	159
148	147
173	145
255	193
117	116
233	232
86	85
91	110
106	106
51	61
188	227
192	413
194	224
76	77
143	147
163	162
175	178
307	583
121	140
88	197
271	319
125	124
69	68
107	106
300	313
89	88
129	130
120	119
124	123
87	86
47	46
349	356
95	129
380	378
204	203
520	534
609	786
245	255
152	188
36	37
286	321
175	188
369	456
60	64
83	82
449	573
77	76
119	144
73	72
118	110
74	150
86	155
89	128
88	191
70	61
82	136
93	90
69	220
82	137
189	158
164	317
87	83
114	135
104	143
117	120
161	179
117	81
45	106
163	239
35	79
119	299
59	200
98	166
35	54
97	102
118	143
183	181
64	153
77	124
205	348
134	546
119	113
64	188
98	186
81	108
125	185
134	137
90	98
233	232
37	44
200	226
108	107
41	112
129	128
73	96
88	166
49	48
124	138
103	102
167	166
52	51
214	213
154	147
97	96
332	375
126	173
269	268
87	86
213	219
66	58
188	245
116	127
266	307
103	158
159	158
155	249
166	164
65	63
116	163
61	53
76	71
63	62
98	125
157	199
151	167
83	257
59	159
63	75
179	178
68	75
295	356
272	271
93	92
411	410
199	198
124	123
57	62
91	107
293	266
193	192
80	79
265	265
128	127
274	280
111	164
64	69
443	442
275	280
195	312
219	286
48	47
259	259
307	306
110	130
134	284
218	225
295	294
153	332
121	215
90	349
277	321
132	224
185	157
98	97
245	248
134	230
99	98
117	192
41	87
100	99
383	382
191	362
248	326
134	135
88	146
71	84
84	111
84	114
43	168
154	186
178	238
128	150
70	118
128	185
65	94
156	155
104	418
112	308
121	317
77	76
63	66
77	114
296	295
42	57
51	103
196	215
85	114
460	459
65	64
100	153
85	144
510	741
126	126
103	124
62	86
132	177
213	278
313	321
181	224
49	48
89	88
78	77
176	269
102	83
97	96
96	209
119	117
143	129
113	189
149	323
156	180
66	74
79	173
49	376
258	277
108	113
89	91
332	331
190	189
400	416
378	377
104	103
271	278
137	136
254	253
362	366
56	56
136	171
180	179
123	155
64	136
52	63
235	234
151	150
63	81
162	161
103	107
82	97
124	328
135	247
108	98
216	302
38	49
147	269
428	572
70	73
56	85
91	123
186	251
162	223
108	220
73	145
74	72
218	346
61	60
76	347
144	189
65	254
35	75
67	67
128	175
82	98
94	88
192	296
106	244
106	206
169	207
55	75
82	91
98	100
83	206
129	174
80	117
72	95
105	97
172	231
66	185
57	157
89	583
181	191
138	325
93	160
85	348
69	39
160	320
65	160
103	320
45	52
193	199
78	243
63	164
53	100
48	57
57	56
252	282
190	239
47	69
125	195
121	163
264	263
174	173
431	430
382	366
143	142
114	119
76	75
135	134
61	91
38	37
158	157
241	241
523	522
69	116
139	267
129	267
122	168
129	142
146	709
413	709
74	93
564	638
241	240
143	142
157	156
389	388
226	225
175	174
697	933
205	210
239	238
589	588
116	115
135	134
36	35
370	369
56	55
437	436
154	153
323	322
372	390
104	103
191	251
74	251
222	332
121	337
177	184
69	228
238	237
106	161
260	282
264	263
245	244
203	217
103	119
219	218
62	61
181	173
354	331
129	172
148	319
129	181
113	196
46	76
170	169
41	48
118	120
429	448
134	133
519	518
42	41
160	190
473	894
421	511
156	152
77	76
73	44
161	157
121	152
100	167
232	274
50	86
108	124
162	161
263	416
547	546
125	181
255	254
126	129
177	176
149	148
109	108
469	468
78	62
46	57
489	554
118	182
137	253
241	328
138	321
295	411
339	385
183	205
98	97
181	303
211	243
373	426
136	139
119	135
228	310
79	112
97	137
57	86
69	55
69	96
64	150
63	85
73	169
62	60
61	170
257	255
122	148
92	92
74	75
103	144
318	464
87	145
93	93
203	209
191	391
114	115
257	258
96	99
74	177
70	141
58	81
156	155
293	292
154	153
380	512
102	131
65	242
42	147
231	625
200	235
226	302
55	58
71	106
137	250
225	224
201	177
214	305
243	353
116	236
130	129
178	278
306	304
38	37
76	144
185	125
98	160
43	42
117	183
111	148
232	283
110	182
82	198
126	161
72	99
122	136
89	88
115	114
94	93
85	84
58	62
97	101
131	184
140	131
266	290
77	89
317	402
84	129
229	349
57	132
74	112
91	219
83	258
121	127
71	67
311	261
322	321
68	67
146	284
132	176
111	111
97	162
95	181
66	70
123	193
81	174
170	210
60	99
122	151
118	116
187	288
195	410
67	45
255	268
67	65
205	245
68	163
102	122
60	158
250	283
87	86
184	183
206	244
201	188
75	149
120	193
84	83
246	268
82	83
57	56
143	142
97	105
345	521
188	187
89	85
99	104
95	186
86	192
52	57
78	152
67	197
92	234
54	129
82	120
32	43
82	105
115	182
138	137
255	360
70	154
66	65
110	83
86	101
312	426
118	101
86	117
109	108
141	140
192	191
99	98
140	153
117	168
117	158
59	59
118	135
176	275
130	129
228	318
110	109
224	244
84	101
335	334
147	149
129	133
272	271
135	139
223	327
56	122
68	67
325	598
117	256
118	256
91	93
109	308
208	526
157	270
148	257
34	105
75	105
163	210
178	400
92	164
106	255
425	527
197	260
312	311
84	276
148	276
179	316
146	191
55	74
438	506
111	138
195	305
188	206
194	215
34	106
202	299
100	105
56	74
263	331
163	265
104	265
273	272
51	50
407	406
173	172
51	50
192	191
130	323
62	61
128	127
144	143
72	147
357	356
473	472
193	216
871	1047
398	407
93	110
390	460
63	80
228	227
308	373
200	219
746	745
105	109
789	910
129	128
114	139
167	166
318	317
141	140
100	101
102	101
100	99
103	102
137	163
126	125
71	70
186	173
202	203
109	179
169	218
49	48
56	103
81	98
159	191
59	80
110	109
170	169
89	88
239	288
201	243
109	108
272	271
51	50
371	419
333	506
234	232
379	378
93	126
158	174
59	216
72	75
139	149
80	84
204	220
101	188
51	188
321	329
105	417
230	333
35	53
87	118
94	178
97	171
121	185
63	87
80	57
133	145
57	127
63	69
51	92
69	111
118	114
167	165
61	102
152	177
105	53
73	157
59	246
41	90
85	92
76	133
212	219
128	376
171	389
137	154
44	267
181	267
195	281
148	198
49	48
188	187
127	207
90	195
117	137
135	136
36	67
90	124
71	70
61	60
150	424
62	61
96	170
77	107
67	66
284	305
140	159
158	135
206	297
164	163
247	310
287	295
233	282
347	376
72	92
101	100
64	63
254	212
104	103
266	266
69	78
108	156
149	205
159	352
66	111
152	183
288	383
58	78
247	260
194	358
61	78
184	110
133	266
178	176
164	263
226	284
113	79
42	41
146	163
625	624
213	201
106	105
160	159
188	441
264	298
184	183
117	116
176	175
49	48
584	1120
193	272
264	263
110	108
64	63
216	227
140	139
210	266
52	52
184	233
174	253
139	140
86	129
194	206
104	123
109	139
87	86
97	96
88	150
84	104
205	204
190	328
126	118
118	117
104	103
118	110
186	240
208	207
225	102
124	96
234	286
136	225
95	57
179	603
212	469
240	249
153	152
66	80
212	240
180	276
289	288
50	58
118	479
58	518
100	512
127	827
182	510
224	510
73	510
125	260
54	98
136	306
109	294
147	198
44	111
64	64
170	236
51	94
63	66
36	81
210	304
126	127
96	95
256	508
236	399
54	251
128	127
176	182
91	89
94	136
117	135
117	92
34	33
67	119
215	214
82	81
75	180
71	84
65	165
113	130
114	236
101	137
297	300
313	329
284	283
143	159
197	384
55	165
152	200
313	824
163	435
253	659
170	211
138	190
82	62
183	197
67	94
142	250
171	175
82	81
174	284
69	61
133	132
35	43
118	433
212	276
72	115
87	86
97	70
95	222
65	64
148	147
30	92
73	233
138	442
55	227
84	115
125	183
83	363
98	136
121	127
174	182
86	124
120	237
117	212
100	151
98	480
110	65
99	131
57	56
52	62
195	195
123	681
84	133
209	289
88	196
88	123
169	191
34	33
67	250
82	75
41	59
35	53
87	99
79	131
43	29
61	101
131	134
226	287
181	574
120	410
93	99
210	692
121	261
159	251
86	189
53	52
152	276
72	114
255	271
84	78
210	248
85	159
76	133
171	125
178	371
136	158
111	125
143	287
85	131
77	417
143	154
303	396
181	205
110	243
106	145
68	67
533	813
255	254
98	92
63	62
55	54
73	72
119	118
215	214
74	75
117	141
195	153
149	171
141	140
99	98
154	153
81	80
61	60
62	61
40	78
52	51
75	79
287	352
70	69
101	91
51	98
128	210
66	59
76	84
179	177
97	134
110	161
68	66
104	99
70	106
185	184
154	181
79	117
127	152
54	53
409	408
199	197
205	204
189	201
222	221
89	92
58	57
94	93
225	234
329	223
95	117
111	254
169	241
100	761
165	220
155	154
86	99
180	180
66	65
142	141
117	116
194	194
332	331
157	156
128	116
71	70
171	170
893	1232
87	107
44	80
35	133
57	56
150	150
128	277
205	201
96	95
160	185
105	103
34	30
95	157
85	126
108	152
97	236
119	118
126	150
78	169
53	52
103	127
181	194
41	40
75	76
66	76
122	231
123	162
125	115
75	140
49	82
191	165
127	156
82	143
120	119
306	305
81	80
122	144
98	183
159	302
90	89
123	308
76	72
89	80
121	112
105	101
246	245
90	89
109	108
88	115
76	75
122	121
93	99
195	208
72	127
76	75
156	154
102	141
132	208
96	201
55	63
98	100
158	157
90	202
115	193
55	54
354	1058
140	150
87	93
30	29
285	378
232	239
87	86
111	110
47	54
75	46
127	136
93	123
63	62
70	81
65	77
303	297
131	68
92	102
102	100
329	270
75	101
129	379
65	271
178	261
65	85
72	152
85	104
30	43
78	294
99	119
47	132
109	116
188	233
48	64
46	82
69	69
219	218
357	357
56	110
81	80
175	338
69	87
55	74
58	60
114	189
291	293
219	445
75	212
65	91
85	158
74	158
61	74
139	251
93	251
72	105
394	471
107	136
79	78
53	103
75	74
39	38
57	73
73	278
81	95
219	272
55	150
122	133
103	77
78	103
37	69
56	198
121	159
65	64
122	81
84	106
55	101
224	466
85	301
192	301
216	216
199	308
36	308
96	369
85	435
153	369
105	109
153	270
51	135
82	134
127	126
98	226
70	226
56	181
44	124
44	112
79	185
149	202
60	56
48	170
57	93
96	216
93	415
85	243
69	78
100	128
72	66
46	45
167	186
287	323
104	103
104	117
45	69
37	44
40	77
71	77
140	208
71	77
52	125
106	156
94	215
207	239
49	50
112	157
195	176
108	160
160	203
33	46
147	259
126	196
92	142
38	54
70	71
36	34
53	45
230	221
79	144
191	64
68	104
50	49
88	69
89	92
263	344
310	339
40	39
287	286
139	156
198	200
144	343
189	214
268	382
101	125
331	330
76	139
96	280
79	182
84	88
79	130
167	190
248	428
168	177
90	94
36	35
142	168
88	139
367	366
47	82
200	216
565	809
79	78
110	120
162	143
161	208
81	84
132	131
153	190
52	51
112	111
88	89
252	314
146	329
130	185
52	51
148	147
207	206
48	47
174	173
201	200
108	107
77	76
151	169
146	197
312	449
51	73
73	72
266	261
124	193
105	260
332	439
115	120
252	253
79	158
55	87
80	119
313	312
140	187
123	135
75	71
67	135
205	323
176	175
85	86
143	283
304	336
214	213
105	104
133	289
155	223
97	96
119	118
37	36
145	219
89	84
79	103
409	536
152	157
211	220
180	218
77	76
125	124
243	243
57	56
118	117
212	218
92	91
79	78
70	94
80	92
230	265
100	112
146	137
431	640
40	172
134	135
97	111
189	272
95	106
109	140
50	49
184	232
117	698
48	98
87	256
351	429
276	282
161	160
101	309
104	132
85	84
72	77
95	263
80	79
48	47
122	122
70	69
112	175
71	151
236	247
35	36
128	152
222	225
111	89
202	221
65	108
48	56
37	83
85	84
173	172
70	69
36	44
78	143
217	294
59	79
117	121
105	109
104	196
192	200
88	87
133	414
224	246
84	55
55	78
188	339
62	76
60	59
118	114
335	379
66	228
204	231
135	188
129	275
90	146
91	108
49	59
225	262
69	67
87	82
59	158
92	125
64	75
89	107
226	232
139	184
103	88
146	148
63	63
115	120
146	264
68	111
97	70
72	107
95	153
57	92
76	75
291	377
80	70
58	57
139	202
113	246
107	231
193	179
105	104
72	80
95	97
242	294
55	49
67	217
96	139
172	169
91	90
30	33
57	77
184	228
72	71
443	435
231	257
90	89
63	90
170	193
42	50
214	247
93	93
128	169
121	288
78	86
155	204
46	39
42	187
134	391
127	213
92	91
90	130
107	122
84	161
64	220
190	216
155	195
221	302
51	50
136	135
328	347
83	84
89	145
200	363
83	159
104	185
134	148
148	265
119	124
91	90
87	108
155	153
233	239
128	215
200	217
109	670
133	157
271	296
166	258
145	200
57	56
67	98
84	76
78	158
63	129
125	144
127	125
69	228
84	84
98	241
43	86
68	129
74	282
190	182
190	275
121	320
89	182
61	60
156	230
145	347
162	541
103	238
133	139
155	161
70	115
101	100
82	108
54	53
94	86
71	133
65	111
103	112
107	106
132	131
289	452
70	77
117	116
113	130
81	98
100	100
230	235
230	453
203	252
65	140
197	265
246	261
281	316
69	86
165	178
136	177
179	190
182	174
204	178
262	215
97	96
310	309
253	252
36	35
104	125
96	95
51	78
83	113
123	231
135	219
233	257
146	144
69	65
94	138
38	37
94	138
142	178
69	89
102	101
94	108
437	742
180	205
100	99
327	326
184	183
250	249
155	154
228	227
135	133
249	409
114	113
64	63
88	87
189	277
95	94
39	43
246	245
34	32
261	260
174	316
315	314
567	566
98	97
184	237
208	429
313	312
255	254
59	58
128	133
67	233
58	57
208	330
124	129
234	244
63	109
151	257
100	95
171	191
111	169
289	288
116	120
223	291
82	137
201	322
120	119
119	118
233	232
137	113
107	106
121	101
747	958
117	116
63	62
123	122
481	495
249	248
424	423
407	406
139	138
187	213
133	134
79	78
56	55
348	392
70	69
319	368
105	208
142	201
168	167
93	91
85	85
49	66
102	184
30	29
85	65
153	164
221	198
69	68
528	534
73	72
196	182
143	238
71	106
101	138
241	292
69	67
214	213
77	76
212	319
58	57
172	171
186	158
342	310
201	220
83	74
30	29
315	389
76	117
194	193
279	303
116	115
216	215
111	110
152	165
67	66
121	120
200	199
80	79
299	298
174	173
671	670
270	266
79	78
115	126
51	50
97	96
195	193
101	102
125	124
89	88
182	185
101	280
60	61
76	75
348	286
111	153
33	38
96	167
424	522
109	116
56	124
73	71
166	158
100	104
73	87
117	214
161	351
102	69
163	177
149	349
141	274
239	235
338	1112
94	79
76	57
34	33
91	132
120	178
113	158
263	390
92	85
69	92
77	324
71	132
165	297
78	132
65	187
152	151
73	63
76	208
140	134
248	255
145	145
35	187
229	245
107	165
59	120
144	157
106	106
68	156
204	206
65	374
273	325
262	263
90	111
50	49
207	202
133	143
63	104
83	59
133	206
106	146
145	145
104	547
113	120
156	176
52	220
242	263
453	452
65	85
115	119
60	66
241	240
88	178
145	187
145	186
42	41
105	134
78	81
280	368
93	490
70	98
129	220
147	151
35	34
88	283
60	175
167	235
36	35
94	138
30	29
86	65
47	46
123	132
240	314
159	227
130	165
334	347
88	101
63	62
90	152
128	127
167	182
205	204
136	254
57	48
195	199
132	245
109	158
196	244
64	72
61	826
127	142
293	292
74	40
132	101
65	86
184	229
187	186
114	113
109	108
82	81
405	404
340	339
456	455
252	274
168	244
85	150
68	67
226	228
207	206
316	371
382	464
81	80
155	163
154	153
32	31
396	395
300	299
73	72
128	127
145	144
222	221
397	396
294	293
463	462
299	298
96	119
473	472
484	483
212	211
82	81
227	250
89	88
441	440
60	59
152	187
242	241
120	119
782	781
177	176
168	167
95	128
134	176
52	75
76	157
250	266
309	304
66	65
253	252
81	84
268	273
175	185
154	335
270	269
467	466
512	511
352	353
94	92
323	380
420	426
86	85
72	71
46	45
315	365
254	252
37	64
275	336
57	56
108	107
218	217
283	283
382	383
199	347
244	303
225	175
200	219
110	109
186	307
82	156
111	134
176	173
153	206
155	145
97	655
69	75
352	343
53	110
58	71
83	88
76	183
119	166
264	231
115	212
79	289
134	297
42	73
154	269
77	91
164	189
70	288
169	221
178	195
160	270
112	167
91	97
178	318
49	80
235	285
74	205
98	341
84	211
104	109
84	235
124	147
33	53
105	59
74	73
179	198
256	433
418	541
116	169
50	59
91	337
49	166
108	143
382	381
130	154
148	330
94	176
95	94
77	76
353	436
158	184
161	145
179	178
299	351
89	99
130	129
85	93
198	197
109	120
213	211
327	326
126	125
96	90
109	108
144	273
69	121
93	92
47	78
169	211
84	119
50	49
58	57
177	176
47	47
65	131
159	152
82	83
280	310
203	238
154	153
115	119
153	158
66	200
46	122
81	118
166	700
39	220
147	160
82	317
72	80
42	1044
66	91
83	53
372	761
282	761
320	1519
89	271
91	231
260	1405
99	1537
302	339
182	169
105	188
51	110
45	67
101	108
292	270
63	57
57	56
62	61
82	83
51	116
67	66
142	273
360	501
49	56
96	155
74	144
51	133
110	90
159	167
61	126
71	201
107	118
205	223
113	249
235	336
102	125
191	212
70	201
122	121
126	125
59	89
103	102
279	275
77	76
133	318
206	205
58	57
132	131
87	86
86	79
149	203
188	187
161	318
63	173
42	122
218	280
107	145
105	104
44	66
61	58
189	188
61	119
70	147
76	75
62	94
299	446
110	109
247	257
278	276
213	212
140	173
51	50
75	195
125	245
89	88
169	168
153	198
354	359
221	257
135	108
199	198
171	400
122	130
280	332
73	116
113	144
169	198
174	184
167	222
194	305
84	86
101	143
56	217
125	166
108	194
178	347
263	262
43	42
308	307
103	121
171	119
261	259
68	89
120	136
180	179
294	346
211	263
55	54
136	93
93	92
54	53
65	53
75	74
116	115
82	92
112	195
129	212
98	97
120	133
369	468
54	75
245	256
297	296
331	330
101	114
169	177
135	164
141	259
131	145
243	407
51	118
124	177
256	374
487	679
171	208
190	249
88	81
72	75
119	147
77	93
72	111
130	159
98	148
621	644
107	115
92	196
378	411
58	57
250	249
73	72
51	50
31	32
77	73
152	180
85	86
172	171
102	218
87	375
78	102
119	122
125	158
158	178
155	154
90	142
84	110
196	244
297	323
43	42
69	79
46	65
195	194
233	867
146	517
155	469
181	191
129	207
84	83
256	255
96	97
126	108
145	182
86	85
83	92
57	102
59	87
175	215
167	164
292	291
253	260
328	634
40	56
170	175
294	293
134	202
239	343
185	228
532	531
408	452
86	98
88	153
135	183
83	86
92	145
55	113
46	45
34	131
82	141
77	184
57	56
90	89
223	222
133	149
144	142
150	177
74	108
177	215
133	139
152	152
103	101
343	467
112	111
111	115
321	320
97	117
153	152
94	93
124	42
98	1165
82	204
79	169
48	123
127	269
243	325
73	57
156	195
103	102
122	132
170	200
34	33
114	113
186	214
154	162
91	122
216	238
238	243
58	51
70	69
155	168
115	114
110	114
41	53
83	78
98	96
141	149
135	164
56	82
38	78
87	294
146	173
58	57
54	53
109	109
275	335
138	200
133	132
32	58
181	193
225	224
48	94
100	109
122	121
67	66
72	71
124	164
81	192
112	132
67	55
74	78
125	87
72	71
618	617
112	111
69	54
70	84
116	177
78	129
67	88
99	112
114	114
131	129
139	260
99	98
61	59
375	374
158	157
181	180
112	158
273	272
86	85
151	184
64	63
146	217
91	90
250	249
368	367
108	116
293	393
226	227
131	137
74	73
193	192
347	841
507	502
386	385
221	220
60	59
203	283
36	44
73	78
322	321
294	293
484	483
52	51
319	318
277	276
62	67
235	276
74	94
215	253
133	174
182	298
64	233
134	152
330	329
126	90
187	228
326	337
452	449
157	156
54	53
46	45
135	189
169	171
464	488
198	328
259	258
116	166
226	367
138	153
75	60
133	132
154	153
334	333
144	136
166	174
90	268
65	125
314	621
115	313
204	203
102	97
232	244
112	119
61	67
86	212
106	309
52	51
68	67
159	250
81	103
57	114
295	384
74	80
151	292
91	90
73	85
34	33
59	51
157	156
119	139
141	310
112	170
181	180
263	426
66	176
117	110
58	57
147	201
83	234
56	55
126	141
107	120
186	202
166	165
155	187
223	219
78	85
190	201
97	144
182	181
164	163
43	60
120	120
149	147
91	134
164	254
229	262
87	129
152	280
69	92
94	311
87	1002
78	141
54	190
91	86
140	409
163	426
111	115
133	172
63	72
92	177
112	110
193	452
81	93
42	61
197	143
144	155
197	145
68	76
205	587
214	258
77	165
160	190
174	173
210	191
189	188
193	192
148	147
81	189
64	157
99	120
64	183
122	212
183	221
115	114
184	183
223	309
65	85
200	245
106	296
50	54
60	92
324	323
65	64
50	84
137	214
142	230
135	130
103	218
71	75
40	39
69	148
118	244
155	166
148	150
98	97
210	209
278	325
51	136
87	453
78	204
121	127
86	137
136	170
34	36
85	99
64	69
91	110
231	376
444	498
55	55
248	309
59	283
212	255
143	175
43	56
157	272
138	214
332	337
111	114
155	118
150	237
51	111
145	193
72	72
93	207
178	200
132	137
164	195
196	267
41	112
50	47
154	153
194	218
55	69
47	46
250	249
88	211
64	63
70	157
100	218
141	380
64	151
286	315
101	172
128	169
148	216
60	122
110	109
91	175
78	77
51	53
77	98
257	256
59	146
151	155
95	330
187	208
166	164
284	321
92	151
56	62
56	57
61	179
111	199
76	169
72	138
79	333
112	135
87	198
44	189
92	141
46	46
100	461
152	242
219	243
113	119
94	174
131	299
40	73
95	131
78	123
55	61
395	394
251	250
169	188
87	94
157	156
145	144
92	91
175	174
335	321
398	397
355	354
356	355
702	911
214	213
375	374
74	84
158	111
55	88
33	51
178	306
154	239
89	51
191	190
179	261
37	72
94	93
158	157
185	248
32	31
91	133
56	84
139	172
44	77
182	199
52	68
82	148
98	160
34	55
82	123
72	101
75	90
78	60
93	100
211	251
65	143
91	93
80	79
147	220
63	101
88	97
304	324
89	291
71	85
120	171
222	221
43	55
98	116
49	64
153	220
153	227
88	301
85	185
40	124
51	72
83	137
53	59
102	97
73	91
48	52
130	195
83	88
117	173
34	44
140	121
62	90
135	146
169	85
59	58
86	132
65	99
55	43
119	175
128	127
140	396
119	156
95	182
45	63
103	100
73	175
98	100
121	279
196	252
98	101
95	94
59	138
114	113
188	198
51	50
402	438
173	187
109	118
117	115
167	184
309	356
63	69
149	247
99	119
54	88
156	150
167	357
75	121
33	77
127	155
58	57
168	188
99	127
104	161
44	48
210	231
332	331
96	129
119	143
141	150
234	274
78	77
249	250
102	372
338	429
401	400
168	197
226	281
149	165
115	114
77	154
242	407
143	290
162	290
451	482
150	216
432	431
377	462
98	114
163	202
85	140
202	265
50	53
141	193
129	128
50	319
145	211
91	112
141	154
70	228
104	121
101	101
93	182
87	206
233	232
187	204
182	181
115	114
437	473
399	426
243	242
292	376
144	143
297	296
266	265
750	749
302	336
592	712
248	496
84	234
109	234
189	188
109	247
749	841
825	824
177	176
86	91
123	147
103	102
47	46
249	298
521	454
195	194
247	246
229	410
394	602
265	272
122	190
38	88
201	200
199	198
418	417
174	213
293	290
152	165
99	136
53	127
127	126
86	404
54	287
90	151
115	130
33	41
223	222
57	89
106	154
97	121
52	51
135	204
83	86
117	122
183	182
356	451
138	205
103	102
262	282
256	243
75	71
144	132
184	198
125	146
160	182
82	89
52	44
382	424
59	175
81	144
81	103
131	174
113	112
33	58
457	439
105	104
377	382
296	246
210	254
56	82
132	133
107	129
180	279
197	310
117	648
73	128
129	118
106	65
98	99
33	36
46	118
159	215
73	128
72	130
82	126
46	53
80	69
98	173
67	64
54	52
168	182
87	182
75	77
141	192
163	247
86	167
89	206
63	165
85	152
69	119
39	119
145	593
41	48
80	110
68	125
114	281
75	144
109	109
197	227
113	334
117	174
254	277
118	159
126	125
85	118
67	105
66	57
41	60
75	109
52	117
307	306
178	193
168	287
171	170
168	152
180	159
147	146
123	169
121	138
439	438
167	176
166	159
177	235
368	947
114	360
57	196
107	111
104	572
201	290
44	90
143	142
49	112
43	159
71	137
68	60
66	65
81	97
30	97
254	252
119	118
319	318
268	309
218	218
105	98
888	887
467	466
202	201
44	43
406	551
131	130
328	327
537	536
122	121
124	138
255	254
181	233
172	368
106	457
52	128
146	145
282	312
308	307
157	187
53	206
145	144
282	281
518	566
558	1070
232	231
390	389
101	340
315	411
420	424
564	968
220	219
279	278
785	784
362	345
65	67
330	329
292	290
126	125
207	206
90	199
95	94
78	77
197	196
621	620
177	176
444	443
63	80
53	52
176	175
185	180
314	313
257	256
503	504
381	380
247	240
159	158
271	270
153	334
96	95
175	187
90	89
172	171
132	131
62	64
477	1073
489	1073
96	95
176	175
216	215
274	273
80	83
68	121
305	304
317	316
150	149
173	172
939	938
94	93
221	226
88	87
458	457
518	679
106	679
300	299
389	388
295	304
132	181
205	297
311	318
254	253
91	96
51	50
338	376
171	214
359	480
123	127
135	134
134	133
110	109
66	65
105	137
196	195
116	146
208	241
65	65
369	476
259	258
99	98
429	428
158	161
156	158
821	820
229	228
239	238
170	169
273	278
389	390
230	229
158	157
290	289
69	94
112	142
176	175
99	98
228	228
406	458
556	555
82	81
334	410
350	349
99	94
323	322
144	124
186	135
139	138
101	432
60	89
240	239
382	375
104	121
127	280
224	457
158	157
75	69
423	516
277	287
132	201
120	119
200	330
159	215
54	53
98	97
110	201
539	538
101	118
141	195
149	148
167	166
344	343
92	91
208	234
161	160
66	65
242	241
390	408
180	179
261	245
109	108
66	113
188	194
356	504
162	159
88	77
266	340
126	124
182	226
454	453
234	228
335	299
496	691
174	173
68	67
285	284
101	100
96	95
134	172
121	388
145	165
421	420
136	239
291	307
96	105
389	436
581	1087
119	119
113	112
55	54
471	470
421	318
411	410
325	448
125	128
384	383
256	255
86	85
178	198
84	94
374	392
173	183
116	115
154	153
167	166
240	239
304	303
131	130
193	192
242	241
65	64
487	486
395	394
448	447
301	300
168	167
177	176
162	161
452	791
173	233
63	78
242	241
166	165
183	182
118	117
63	62
130	124
173	172
171	175
235	234
132	131
239	238
187	266
125	202
264	319
273	293
78	147
125	124
256	272
76	70
184	183
249	248
87	86
374	373
93	92
438	437
269	268
144	143
211	210
120	103
123	122
84	120
123	215
336	301
122	180
272	515
111	282
109	282
84	100
226	304
291	328
316	320
214	213
372	371
420	419
273	272
125	124
85	84
269	250
369	376
96	108
332	367
101	103
449	578
42	146
201	207
84	122
66	186
84	83
71	70
138	136
245	450
194	194
117	116
84	77
71	67
86	161
81	203
177	283
68	67
56	59
179	302
61	126
56	212
48	45
69	164
106	124
59	42
58	73
63	102
35	53
52	158
78	136
72	135
325	387
78	77
93	173
70	84
199	198
62	97
162	161
113	112
39	141
54	80
89	95
152	271
78	75
222	231
81	174
188	337
199	205
138	339
122	190
283	299
66	254
137	175
77	76
197	196
340	339
59	87
255	313
97	211
74	509
363	360
360	359
504	503
148	147
236	275
720	951
304	303
100	126
168	167
139	138
253	252
99	133
82	85
44	50
275	423
146	162
98	150
85	84
89	50
150	162
101	117
64	68
45	44
312	311
158	153
129	128
205	204
203	396
492	898
316	315
195	194
292	291
67	66
282	380
204	206
473	712
252	323
122	115
129	128
85	88
127	186
238	237
188	183
187	190
91	113
161	160
89	88
72	140
168	174
90	89
122	220
108	145
342	340
36	52
126	153
276	275
319	318
177	176
105	104
84	83
56	79
1296	1259
132	283
133	131
105	177
156	180
213	212
96	447
265	277
57	68
150	154
36	42
247	246
430	475
197	198
108	107
248	279
45	85
322	321
221	220
471	470
103	198
97	97
213	212
109	108
139	239
264	263
63	62
219	280
259	258
417	513
371	338
234	367
77	92
65	64
111	161
82	429
129	176
98	253
102	161
53	168
58	126
195	163
126	125
35	34
82	97
61	50
65	64
61	60
84	94
112	111
285	284
217	216
155	154
55	61
49	92
330	369
95	101
355	354
227	248
135	249
119	141
110	109
92	91
200	205
145	348
123	213
92	95
103	201
164	217
199	212
358	246
198	211
134	133
124	120
115	122
279	465
179	279
255	365
94	93
142	141
268	311
109	138
66	65
335	334
420	419
427	426
103	102
79	78
182	181
355	487
228	222
169	190
185	285
62	63
79	79
167	196
151	356
164	175
59	80
118	134
41	109
90	180
90	64
137	150
76	116
104	107
120	176
130	141
128	250
57	88
153	247
91	102
157	144
167	701
188	947
100	162
190	108
67	66
232	315
69	158
117	115
234	235
97	110
288	441
75	127
160	147
250	249
137	136
120	119
179	193
129	206
98	97
178	177
80	105
49	48
42	41
120	119
70	69
345	335
69	71
230	249
129	128
243	242
114	274
72	161
75	73
98	97
211	159
217	231
159	158
479	478
434	433
113	112
566	565
133	137
169	168
110	213
159	240
121	85
115	114
195	299
75	436
271	284
122	197
148	313
155	208
157	181
320	309
67	119
155	330
145	210
52	51
46	43
52	53
87	111
103	180
111	220
84	510
122	311
73	213
82	594
179	286
157	174
134	160
66	194
69	194
197	847
88	155
85	506
97	235
79	138
56	174
295	672
394	476
91	90
77	76
401	401
240	239
161	160
307	306
255	245
60	93
218	235
143	142
136	216
253	306
186	185
303	302
111	109
145	268
515	755
254	253
198	197
240	244
548	547
120	119
121	120
272	294
89	181
30	29
437	500
153	156
84	133
208	566
97	249
176	185
49	49
192	144
31	31
112	147
263	262
339	289
236	255
145	144
151	150
195	194
355	354
282	281
253	252
94	93
116	226
149	213
197	327
68	67
116	134
99	98
70	141
65	104
85	109
150	149
269	294
122	121
54	98
156	135
187	192
188	367
107	128
327	326
232	231
52	51
121	171
151	138
245	242
308	649
292	343
112	111
156	119
104	258
440	636
100	100
391	390
119	139
426	470
58	146
95	129
391	418
106	105
350	349
278	277
279	278
235	234
230	229
438	437
68	67
142	141
128	127
435	457
137	136
170	195
224	223
189	188
32	31
446	445
454	652
173	172
94	93
555	549
152	229
80	229
121	136
139	130
175	294
182	181
389	479
402	421
52	73
58	69
109	108
97	100
94	69
75	124
76	75
138	435
136	178
143	165
77	76
319	397
112	490
108	164
192	249
99	165
56	55
119	118
141	140
132	131
355	348
189	189
161	231
124	299
101	198
55	227
120	264
131	95
205	240
190	282
85	206
291	290
390	389
236	294
231	472
99	149
141	235
76	235
101	149
110	434
590	911
46	45
321	397
96	142
314	334
53	214
34	185
153	171
153	192
82	277
58	81
261	261
134	140
118	344
255	344
153	202
196	402
63	170
75	286
150	245
102	141
154	409
142	206
90	131
69	68
170	527
66	71
97	194
48	168
163	519
119	519
81	400
88	192
114	1301
79	123
106	159
41	39
108	123
73	175
57	102
75	133
66	81
96	134
165	228
40	49
109	136
49	73
79	241
148	187
159	159
88	170
117	946
77	217
85	144
69	102
116	208
286	1456
70	549
58	73
86	111
135	274
65	113
115	116
140	243
139	124
35	37
134	121
119	151
45	118
64	92
86	68
254	253
165	249
95	175
137	198
91	139
41	49
86	172
86	98
95	116
50	121
89	237
65	183
134	224
117	143
69	113
53	352
108	148
80	84
220	264
62	79
101	99
245	287
38	53
118	189
62	60
120	285
130	168
149	148
120	228
135	134
163	162
55	54
165	164
57	55
40	48
328	383
165	187
188	239
38	37
232	231
126	108
149	148
150	149
201	200
190	180
190	220
254	253
70	69
66	65
108	107
648	647
186	185
222	236
125	184
96	108
128	171
33	91
68	67
140	129
83	82
587	586
76	75
336	335
95	94
185	204
403	461
166	263
106	128
135	192
262	274
115	114
530	529
342	341
365	364
605	604
197	221
323	322
171	163
117	116
53	127
58	57
99	219
198	216
159	158
262	469
191	190
85	84
206	228
209	208
377	376
93	95
81	135
160	191
269	268
295	533
113	157
242	274
56	90
107	171
143	296
96	100
195	232
176	201
179	302
90	236
113	86
154	257
51	49
105	119
181	272
224	249
276	299
102	146
105	307
126	193
125	128
128	285
126	182
98	74
71	168
67	185
133	154
151	176
97	293
61	135
91	135
58	77
232	266
63	62
272	280
108	138
335	408
43	136
98	215
70	74
118	167
119	89
54	129
177	295
209	240
77	79
118	191
91	86
165	243
41	115
99	98
68	90
77	120
82	75
80	312
407	398
72	126
121	165
46	86
148	182
196	195
174	293
75	191
55	311
34	83
86	191
299	341
79	112
261	404
413	407
154	200
119	308
342	340
309	308
141	137
119	122
36	35
244	243
361	402
179	196
240	239
157	156
154	153
79	164
86	121
378	504
64	104
317	316
340	402
335	394
217	216
70	69
62	61
183	197
192	707
412	818
120	164
76	120
64	64
92	148
186	570
197	269
223	177
420	559
53	149
191	198
380	622
290	916
409	644
370	372
152	192
171	169
370	369
94	93
166	165
133	165
118	207
530	672
155	153
58	57
86	129
90	221
92	98
52	55
99	95
133	138
69	67
40	39
60	95
91	89
68	65
94	86
247	250
33	31
100	291
108	201
120	109
82	138
87	83
156	173
59	254
115	201
82	94
81	111
106	282
171	292
73	48
134	266
109	127
100	133
87	86
230	229
89	216
114	436
213	212
109	243
75	101
70	147
170	180
141	140
153	193
40	135
146	240
46	153
75	59
70	69
147	166
129	190
81	68
225	467
147	407
63	106
210	236
148	112
212	314
132	233
221	519
82	124
119	44
264	106
125	144
94	147
114	212
46	123
282	357
122	121
61	106
112	266
49	48
108	138
86	62
72	199
132	208
89	185
84	444
148	162
160	122
41	31
75	149
79	266
257	453
103	187
75	225
186	350
149	132
87	71
91	129
111	212
144	143
211	251
174	186
195	190
107	102
372	371
157	165
152	135
245	245
148	147
478	520
172	220
315	318
126	125
57	128
294	296
104	116
173	296
115	119
162	199
43	92
126	109
58	92
181	179
90	159
52	54
302	313
94	93
100	168
42	63
120	176
99	104
75	73
167	247
213	212
94	83
217	296
32	84
95	232
73	79
162	174
57	74
39	49
521	420
140	137
149	244
74	80
147	153
134	129
86	93
461	464
280	279
32	42
156	168
243	253
266	269
293	292
108	129
100	139
202	298
122	192
234	321
118	88
223	222
235	337
126	188
202	201
167	163
212	212
188	187
469	468
389	388
317	325
204	203
259	258
246	245
197	196
216	275
144	180
357	356
321	434
107	130
259	258
68	83
38	74
275	274
186	232
113	112
453	454
153	152
465	474
389	388
158	157
301	298
110	109
119	118
65	64
125	124
123	122
144	143
74	73
159	158
158	157
82	81
273	272
137	136
128	112
249	248
321	320
194	189
73	125
129	178
238	266
302	301
795	794
80	145
185	358
180	179
108	90
76	477
232	411
75	72
133	186
85	162
177	151
129	134
86	85
162	196
74	69
80	94
169	168
155	155
61	71
111	110
51	68
131	130
103	87
67	66
174	173
134	133
146	172
86	194
164	238
49	58
230	232
126	125
131	161
65	74
74	104
118	164
79	78
54	70
274	267
56	165
90	92
72	126
81	217
305	415
158	313
38	36
79	95
105	89
71	176
95	69
54	52
106	80
110	356
96	271
46	41
75	259
101	67
168	198
110	116
108	82
41	40
57	131
85	102
277	268
334	202
76	106
125	161
82	76
62	127
179	325
97	89
68	45
53	113
177	258
118	89
279	348
30	49
106	267
118	172
116	125
143	160
160	201
184	273
88	3163
179	274
163	104
80	102
252	90
75	139
52	192
61	144
98	217
69	149
68	470
134	149
128	398
55	54
45	49
186	196
36	51
83	82
201	90
126	96
32	93
122	160
79	88
82	62
42	39
83	99
128	135
129	67
49	122
54	70
158	101
278	283
118	114
83	116
130	110
144	348
199	198
67	102
142	117
139	138
92	94
452	502
37	61
102	254
90	254
92	366
54	90
59	147
82	178
75	157
83	157
103	189
246	322
201	456
71	114
236	235
97	96
107	106
274	273
65	64
339	304
90	57
116	147
98	135
132	184
65	193
165	173
73	96
341	343
138	313
141	336
150	133
96	116
91	100
71	179
170	261
448	443
238	237
184	176
133	132
84	83
214	208
120	119
127	126
182	181
72	81
268	516
132	403
135	140
268	446
159	260
108	98
474	383
155	154
194	235
365	524
121	177
57	177
68	97
391	390
86	80
115	121
338	398
36	112
145	193
140	155
83	135
114	194
284	416
123	196
130	149
94	84
111	295
166	173
112	111
70	69
160	119
64	63
32	31
66	96
125	169
97	166
57	199
295	372
414	495
185	266
39	81
51	50
307	305
83	82
86	131
195	917
164	382
452	622
106	136
81	80
131	137
148	171
98	61
84	83
72	79
95	111
111	102
208	204
140	158
191	189
83	116
96	120
49	59
44	64
71	70
64	174
260	143
84	78
74	73
235	198
96	116
138	119
59	221
98	268
57	142
132	279
42	176
111	190
73	65
194	295
162	124
80	100
43	41
148	256
31	62
112	192
175	114
123	155
145	70
166	187
93	108
117	210
96	142
103	103
115	152
60	71
107	190
44	84
51	74
39	35
54	113
121	120
75	80
89	190
84	204
75	131
89	190
60	135
200	262
77	169
107	88
77	76
77	155
123	336
103	183
74	137
48	137
156	403
125	125
163	66
101	100
125	124
85	86
147	149
82	84
30	29
166	189
94	188
100	155
70	92
91	116
216	254
79	80
80	83
68	67
88	122
73	77
161	130
69	78
54	143
80	105
121	119
70	69
201	307
80	108
111	95
72	70
64	103
92	187
140	241
50	217
101	119
54	53
250	263
138	142
62	61
126	172
58	57
64	66
80	79
50	63
50	134
66	40
45	111
57	119
98	61
69	189
90	164
39	72
88	258
138	150
59	115
253	275
131	404
125	108
39	70
156	151
111	124
69	145
89	152
59	50
69	122
57	165
37	86
42	211
168	159
128	297
68	152
99	98
243	277
95	94
147	198
87	319
49	333
77	111
47	120
93	129
67	57
96	168
50	52
92	91
84	93
50	64
138	138
116	156
109	107
193	320
130	145
145	110
86	85
76	75
116	108
81	121
74	109
242	242
111	111
99	98
96	114
89	64
80	84
74	124
209	200
155	143
169	237
171	334
119	189
106	122
101	192
205	196
93	97
225	111
104	113
83	65
67	66
82	122
81	93
41	81
74	291
94	125
134	131
98	100
64	104
37	69
65	80
105	152
130	148
177	221
77	223
115	128
242	333
75	161
99	117
49	120
53	50
96	62
134	88
234	300
144	135
30	40
95	121
88	478
48	193
172	154
74	95
92	99
86	85
214	228
211	210
102	101
93	121
106	193
76	193
220	307
143	113
35	34
74	73
133	81
165	298
78	129
224	486
226	192
56	77
164	195
123	137
121	120
59	59
75	87
51	49
32	56
100	105
122	130
131	168
90	90
202	189
71	70
60	58
68	67
192	414
106	45
116	128
33	32
53	49
92	83
84	121
90	309
139	309
138	212
45	36
59	59
132	141
43	177
200	276
46	54
111	124
46	77
33	27
57	59
72	69
92	139
131	156
88	111
40	35
57	56
262	69
73	102
59	53
142	141
319	276
113	125
55	54
156	155
84	114
188	211
87	81
187	215
238	246
133	114
90	133
66	68
77	67
84	70
39	111
104	87
65	158
124	247
71	124
37	33
120	352
82	130
65	49
86	159
138	172
38	68
41	110
92	196
44	63
147	141
60	136
75	73
132	180
64	85
48	178
106	69
170	400
119	176
32	116
131	181
64	120
116	379
105	137
167	180
187	132
84	550
46	81
218	543
105	111
199	238
111	255
82	101
106	289
35	43
67	59
146	231
102	110
56	171
105	297
110	275
131	290
221	222
67	431
59	73
87	78
38	118
41	118
60	195
68	152
118	214
61	230
94	230
213	580
206	291
128	237
168	167
232	256
254	270
51	50
464	463
290	361
342	341
71	70
223	222
149	153
326	325
265	264
657	662
356	396
39	48
138	137
378	423
206	234
126	125
95	94
122	121
85	120
177	213
406	405
200	199
611	610
217	216
165	164
152	151
401	400
715	714
493	506
181	180
39	38
146	145
197	214
144	143
121	120
298	297
54	89
207	257
134	141
102	111
229	228
261	260
219	255
190	189
506	505
163	162
221	220
76	78
316	422
176	175
147	146
220	219
271	270
323	337
150	161
138	150
332	331
350	341
407	406
290	337
297	518
36	58
93	92
183	182
64	63
185	184
275	274
362	361
311	310
44	51
125	115
158	215
176	175
160	159
164	163
251	250
487	770
253	250
189	188
162	161
715	714
437	436
95	94
61	60
384	394
252	251
289	273
207	391
98	391
84	391
194	316
294	293
80	90
357	536
535	895
137	136
74	78
197	196
83	193
125	142
287	286
69	76
85	140
124	123
418	445
77	76
73	115
238	246
92	91
240	301
149	175
388	387
106	105
100	99
203	266
343	446
357	363
149	357
203	221
139	151
83	75
81	111
261	335
129	180
54	53
206	219
196	195
47	47
117	120
50	53
92	91
81	80
294	294
391	412
152	150
71	89
97	138
107	118
109	134
70	101
111	110
143	285
41	46
125	216
57	93
78	110
91	497
130	276
111	257
62	167
98	129
54	222
81	75
71	69
112	269
146	165
155	393
129	168
93	106
90	123
151	302
123	102
205	414
100	115
117	73
104	195
64	62
68	63
99	143
238	434
151	249
120	119
114	103
249	247
157	214
225	224
70	69
53	52
70	104
136	233
207	205
75	87
119	181
68	111
165	155
69	82
78	87
233	224
162	178
182	181
48	47
502	671
185	246
45	60
65	85
180	193
175	174
77	92
151	181
109	108
75	69
145	143
135	220
156	274
100	99
170	169
240	243
61	60
111	110
205	202
350	365
181	212
128	127
91	127
128	134
119	118
187	240
55	57
73	72
145	180
33	37
210	246
58	70
273	381
112	47
143	186
77	89
92	191
86	85
150	149
119	141
152	179
132	160
300	299
196	208
154	156
167	166
134	133
85	84
130	144
97	113
294	293
137	157
305	296
63	86
100	106
38	121
40	90
174	180
79	143
61	84
107	112
164	165
53	198
107	229
116	195
65	64
96	95
56	62
62	47
75	74
66	170
174	114
65	267
160	167
132	136
114	116
100	96
112	111
36	66
97	253
146	279
237	494
185	186
55	54
97	103
220	244
123	148
133	283
86	110
73	120
129	172
73	72
70	145
79	118
192	191
109	624
74	207
369	476
106	105
144	136
123	207
73	90
98	209
61	101
74	73
223	324
199	272
122	204
158	206
152	272
130	375
61	116
262	222
125	141
67	66
233	232
672	671
116	115
147	146
238	237
77	76
152	151
111	194
56	62
252	256
128	208
100	137
60	59
101	100
354	353
383	401
120	119
249	248
430	429
52	51
160	186
317	345
213	212
336	343
349	348
514	513
102	93
210	311
323	322
68	119
51	50
74	63
161	164
70	87
143	153
386	415
77	80
336	415
109	164
124	123
122	289
190	273
183	1053
250	1053
301	1053
276	1535
213	1634
47	1134
94	382
118	1051
105	1051
69	1051
84	1051
54	175
166	382
159	254
361	330
64	104
149	497
97	132
51	74
44	63
270	369
84	83
66	115
170	171
151	178
153	118
148	199
56	186
130	232
66	55
104	101
190	164
56	62
85	144
48	102
128	99
167	355
74	71
71	64
75	214
86	142
84	60
75	58
145	244
52	500
155	200
56	55
123	331
147	234
99	433
85	87
113	135
86	165
71	111
150	148
85	252
127	289
75	84
105	187
212	228
133	202
163	183
199	190
116	208
68	67
81	96
193	262
87	85
291	332
52	49
91	410
81	145
40	246
106	111
86	153
59	65
75	97
62	186
67	76
97	142
114	259
108	292
112	292
124	377
93	193
92	96
110	291
166	188
121	120
202	237
43	56
145	201
144	143
113	112
145	235
51	98
61	60
114	211
84	119
84	83
111	208
160	142
44	92
158	156
213	243
135	167
73	177
73	159
102	185
271	336
163	222
48	47
140	205
102	290
142	225
68	67
68	119
39	52
89	125
161	251
37	42
48	100
119	128
74	103
114	134
121	132
172	89
132	152
88	245
153	85
161	247
75	159
46	187
156	535
101	112
118	207
146	300
81	125
107	91
81	62
104	167
225	285
63	153
57	217
193	311
84	121
217	293
80	99
99	118
129	127
107	125
64	63
55	54
67	104
148	199
78	82
140	139
210	232
82	77
407	494
130	601
301	457
260	374
172	172
58	90
63	62
79	90
209	285
74	73
64	63
237	236
278	413
174	352
184	183
120	168
136	158
142	148
163	178
246	245
114	113
98	90
224	368
128	315
47	49
149	158
94	103
96	213
39	97
113	112
131	130
139	262
227	223
128	160
116	115
256	255
48	89
51	145
83	82
123	462
156	177
73	160
42	54
296	263
199	168
180	179
66	65
82	136
135	134
35	34
137	237
137	187
69	93
65	64
116	158
161	154
144	251
57	126
189	210
183	224
55	67
105	159
104	120
262	312
102	124
82	113
152	360
137	143
348	391
113	132
124	152
77	76
85	80
53	52
118	112
78	102
146	88
89	109
60	59
112	104
119	180
142	151
161	608
106	145
48	91
64	141
58	57
44	76
88	104
133	178
136	115
126	282
54	82
102	126
145	207
102	100
111	210
99	161
175	173
83	111
156	212
166	191
129	147
80	128
196	256
140	267
94	93
157	122
82	102
72	120
215	270
109	108
73	72
87	114
169	221
94	235
141	537
56	142
190	189
93	92
494	792
132	131
125	208
101	112
141	149
105	116
147	203
31	31
129	128
50	44
80	180
98	210
101	75
42	41
134	367
98	112
165	165
124	123
76	76
189	133
71	70
70	59
123	143
113	141
94	174
68	321
61	152
72	110
43	65
102	100
89	107
75	109
77	145
231	165
119	251
119	146
98	105
93	235
264	409
320	496
159	153
68	67
83	112
100	99
156	155
80	78
73	70
93	239
83	173
48	81
181	180
113	112
457	569
153	219
130	165
100	167
154	149
219	330
87	135
70	153
49	48
291	290
60	55
231	248
91	104
143	132
136	146
347	345
306	305
58	124
97	112
116	117
72	71
116	192
118	255
276	513
179	246
81	126
45	116
127	218
60	137
163	166
115	208
165	205
199	238
74	147
213	212
39	59
148	258
87	154
338	271
126	132
274	288
184	183
52	58
80	89
120	126
86	155
91	204
60	139
98	219
118	142
250	231
48	80
193	349
38	65
136	157
35	40
137	161
149	201
108	137
53	56
182	217
54	147
245	222
197	383
51	208
41	50
139	127
66	69
229	518
169	262
48	59
277	303
154	221
128	177
203	172
205	342
131	98
174	180
40	66
206	286
130	172
64	71
127	272
171	208
58	96
229	264
170	217
68	70
123	122
442	425
501	497
64	51
204	247
155	197
255	344
85	154
374	427
89	166
205	231
233	325
76	154
153	222
218	222
36	35
291	290
30	425
197	231
175	187
253	252
289	299
264	263
684	1178
33	32
89	88
77	151
193	250
515	726
370	520
98	97
336	340
447	446
136	135
315	325
100	149
66	59
261	260
107	106
94	93
151	160
66	209
153	172
90	186
131	179
123	255
63	62
37	75
130	232
72	81
48	48
43	95
119	279
94	190
96	165
132	185
222	221
169	186
216	215
114	113
325	324
556	591
473	472
85	111
241	240
90	122
288	332
132	131
313	312
76	75
402	401
133	132
114	121
158	266
366	365
98	97
92	91
167	166
259	512
193	323
42	61
91	186
61	187
193	269
214	221
258	192
64	312
233	252
107	143
71	163
55	73
243	233
200	484
67	136
85	136
126	255
89	255
410	419
139	154
237	250
210	369
396	718
111	140
89	197
266	260
120	178
415	443
274	273
158	175
238	241
302	325
838	837
201	200
50	106
131	149
289	404
137	154
193	299
155	382
181	559
190	189
337	529
249	248
308	600
258	219
192	545
172	304
150	155
325	353
65	64
111	110
56	81
418	477
114	136
360	359
179	178
107	106
188	259
42	50
186	214
117	172
74	212
154	179
84	83
120	119
122	196
223	222
236	248
67	150
73	97
139	210
61	59
99	98
174	297
143	115
178	226
140	189
96	97
114	227
67	158
81	186
131	131
315	377
319	326
84	85
85	179
232	232
118	117
314	377
204	203
111	174
212	211
183	196
344	514
539	1122
87	104
98	102
136	135
120	119
84	144
142	267
265	264
129	128
129	135
105	96
95	72
79	135
112	151
65	137
91	90
230	229
114	138
131	232
73	72
347	346
83	83
49	334
113	261
101	130
164	207
150	387
127	223
156	200
153	147
158	125
344	343
390	420
47	66
168	183
169	143
194	230
48	47
90	182
69	126
244	238
109	115
114	165
235	242
43	45
86	70
259	343
50	49
165	176
117	116
386	451
188	330
103	102
292	292
61	54
65	109
68	90
134	233
97	167
125	270
113	118
116	162
85	204
99	374
392	398
231	230
53	252
111	110
73	134
217	280
144	143
311	310
279	321
196	221
230	235
193	192
266	266
339	453
111	162
200	309
272	212
240	269
260	259
766	953
197	239
368	404
88	136
128	182
237	267
392	392
84	83
115	162
268	292
68	83
337	359
550	478
96	99
67	84
196	201
61	276
199	288
47	55
230	287
42	76
150	166
199	210
186	577
82	81
96	172
73	107
167	179
128	174
114	93
53	52
50	49
113	133
222	326
205	181
80	79
109	121
158	169
73	135
96	150
93	111
265	327
184	389
130	179
76	259
197	235
95	94
80	79
189	308
97	81
56	55
102	365
199	400
78	203
294	392
33	45
121	169
264	326
65	65
205	194
105	104
121	97
116	115
76	131
156	381
62	136
88	200
102	102
39	48
34	72
108	163
95	76
84	73
123	192
60	67
36	46
209	312
67	226
73	97
97	197
123	137
122	112
63	186
63	61
55	116
75	107
61	275
109	170
34	35
79	111
97	233
79	72
62	310
89	159
72	71
83	83
139	136
47	82
95	349
131	167
53	71
134	143
109	169
161	191
125	124
55	54
165	208
70	118
53	82
57	170
260	370
82	101
97	92
106	231
147	152
157	176
163	426
129	470
79	95
196	252
62	61
223	270
73	101
83	101
373	470
70	86
80	74
84	83
53	103
52	173
283	403
465	464
166	165
236	235
64	63
59	154
91	90
247	246
212	211
138	138
327	326
126	125
90	89
172	172
97	96
198	197
379	378
329	328
168	167
434	433
336	335
219	242
123	122
239	239
39	58
87	75
64	63
190	189
140	169
107	134
94	93
263	304
70	115
68	55
264	279
168	159
526	711
184	330
236	235
367	336
494	493
124	496
340	496
52	495
441	506
163	162
94	93
192	191
76	75
104	130
219	218
92	108
327	326
154	163
503	502
114	113
474	473
325	324
65	101
161	160
117	116
124	194
144	348
184	191
114	130
161	253
143	142
367	372
98	102
128	127
174	173
138	159
47	46
58	76
117	71
191	190
173	183
250	267
73	68
320	290
178	217
517	458
193	214
66	116
66	68
342	357
154	153
78	77
107	103
147	146
162	161
149	148
74	73
110	109
112	115
68	107
145	120
65	70
144	143
228	282
61	67
132	131
247	246
85	70
97	96
52	83
276	275
166	161
207	211
550	558
247	246
659	675
390	389
371	370
252	251
71	261
167	179
81	99
100	167
204	212
164	171
30	71
111	160
50	101
251	258
99	178
213	224
77	166
90	127
84	140
192	200
203	201
103	123
220	168
110	104
41	40
87	143
168	310
35	34
227	245
195	227
68	99
71	70
88	93
270	293
151	217
141	280
123	122
169	257
42	145
257	372
75	562
121	562
149	789
52	131
173	729
51	519
97	252
106	126
188	290
140	248
54	58
146	195
56	111
67	140
119	223
91	247
205	186
117	154
61	69
178	236
153	153
93	147
269	268
183	479
100	195
69	61
39	49
125	124
65	70
332	279
96	95
484	587
305	304
83	82
142	192
259	285
360	359
239	238
110	109
154	186
275	274
253	252
181	182
258	257
233	232
231	230
175	187
93	130
188	186
377	382
95	262
151	140
289	288
83	82
114	113
117	162
165	164
204	203
334	399
393	392
328	326
244	299
104	103
131	159
286	306
67	74
90	94
113	159
164	254
87	120
181	158
64	103
119	104
135	260
106	101
84	181
46	233
204	254
54	53
76	134
75	203
45	49
99	130
50	49
102	161
88	51
105	117
47	85
40	39
98	125
130	186
287	277
39	181
55	196
192	195
83	84
41	292
86	217
63	292
62	288
146	183
62	90
87	448
147	140
80	171
97	168
219	145
123	112
89	52
71	143
53	143
95	89
69	109
87	137
75	171
74	127
83	229
51	48
107	123
82	155
50	85
93	200
81	320
159	110
65	110
56	90
140	236
123	122
66	65
51	50
76	76
121	189
76	89
61	90
118	211
70	118
149	166
99	345
106	97
279	302
70	100
190	220
85	107
126	532
79	351
100	183
118	121
107	119
143	391
57	127
114	118
112	111
65	98
276	275
141	140
209	209
494	493
177	176
172	400
111	204
79	178
176	211
364	416
139	139
44	66
136	165
103	113
272	271
258	257
57	56
212	174
73	177
279	374
263	403
159	329
33	62
91	237
108	151
153	149
192	202
58	57
74	125
53	71
67	66
213	209
449	553
85	254
262	314
100	191
76	78
263	262
140	201
578	946
434	433
86	85
126	125
413	412
274	273
123	122
206	205
311	310
304	303
202	201
488	487
338	337
72	71
169	168
173	311
243	240
605	613
144	143
167	258
62	147
112	121
52	194
63	75
445	506
177	266
339	332
53	52
76	76
162	162
175	319
44	94
59	125
487	676
226	289
166	174
150	149
478	477
40	50
318	349
200	221
102	183
148	172
158	153
181	180
230	391
270	257
63	66
82	133
165	104
110	124
210	270
53	75
117	116
192	230
329	328
322	321
273	273
157	176
44	41
69	144
65	64
496	495
191	468
154	272
126	100
115	114
163	228
153	190
107	118
116	115
282	281
80	79
123	122
36	55
67	82
135	134
100	99
161	160
175	194
123	122
299	298
203	201
55	54
134	177
287	353
182	181
87	142
125	124
273	272
153	152
79	82
332	355
130	129
748	764
174	402
196	219
38	38
257	284
130	128
125	146
58	53
168	221
33	40
95	145
319	346
226	286
72	91
257	256
445	444
317	403
207	236
112	111
155	154
89	88
187	186
139	138
55	78
256	337
158	157
260	259
293	292
145	144
378	377
413	383
286	292
85	83
65	64
239	256
91	108
133	163
83	71
174	237
279	278
391	400
108	270
168	232
132	131
237	196
131	163
51	50
154	336
183	193
84	83
111	137
142	153
135	147
119	118
124	123
44	43
127	126
332	331
293	292
116	155
168	286
73	69
36	289
67	200
170	175
200	200
342	369
69	68
195	194
51	69
328	445
231	346
59	58
90	89
120	124
150	257
37	36
59	47
105	104
135	134
78	150
118	528
89	547
156	307
111	204
34	33
64	86
75	181
94	126
57	228
87	541
97	89
30	49
82	83
92	345
37	125
61	444
91	78
70	194
191	209
650	662
499	522
316	617
72	194
238	238
82	133
82	139
179	193
92	252
330	547
56	77
90	128
117	284
179	212
79	398
81	312
53	135
122	314
102	112
197	251
56	75
404	501
41	63
55	61
119	199
134	196
76	434
102	536
36	35
132	134
87	80
141	106
193	320
82	201
326	334
115	156
123	248
103	122
301	300
67	86
168	266
73	42
59	75
80	277
62	166
210	204
87	111
63	62
68	98
86	213
109	140
155	270
55	55
82	75
151	175
91	254
64	52
84	118
84	197
87	565
188	141
66	70
101	60
79	153
46	99
49	55
70	184
46	45
39	38
95	141
40	50
156	163
75	84
98	74
90	101
102	108
493	689
95	110
88	71
88	99
252	251
68	69
77	76
86	107
363	484
101	130
175	198
224	279
66	65
276	301
225	248
151	173
218	221
193	203
59	137
83	136
172	190
41	45
425	616
194	193
334	358
95	105
127	154
107	120
92	135
45	43
70	69
225	332
86	77
78	211
103	306
34	35
101	98
57	295
202	295
115	292
138	179
167	241
79	135
148	171
70	76
73	155
84	158
84	121
164	170
42	65
92	231
49	48
110	109
103	203
89	144
31	77
117	124
130	264
55	136
56	88
101	80
229	206
137	261
95	410
45	141
165	311
146	220
103	182
181	281
107	101
98	111
142	220
180	212
326	399
205	279
36	66
92	69
260	307
70	67
70	84
92	99
57	188
97	109
121	71
71	78
104	159
83	131
112	474
189	162
41	52
88	173
46	71
53	68
82	86
178	669
431	1462
127	549
95	380
66	105
151	176
101	127
328	474
87	86
105	177
81	95
397	396
158	157
154	196
138	137
340	339
63	62
84	83
144	143
81	107
439	459
143	134
246	245
275	274
244	269
114	122
102	81
279	278
158	160
258	398
311	310
291	348
103	105
218	309
51	103
93	100
184	256
309	299
147	176
77	204
171	194
171	224
118	209
190	191
360	359
103	200
62	107
89	175
80	102
375	374
262	254
87	106
128	198
157	181
139	450
94	93
146	173
72	95
56	55
79	78
129	128
97	84
120	169
210	218
177	551
133	194
78	77
98	134
55	62
73	78
83	120
93	78
60	85
209	214
206	205
191	215
127	368
121	211
106	195
224	156
59	58
92	91
310	318
166	264
61	181
78	107
82	94
165	175
159	215
75	118
215	239
114	116
136	269
55	116
63	70
124	105
263	382
48	433
128	119
312	442
61	115
72	105
141	135
207	206
136	286
85	135
237	283
106	105
249	261
57	58
85	156
142	240
108	299
125	203
235	352
229	268
123	166
49	84
267	295
148	158
65	77
331	345
307	306
216	242
98	97
154	220
260	259
149	117
108	107
133	150
76	81
72	153
88	159
222	221
589	588
405	459
50	49
697	1033
281	277
138	161
163	162
97	96
243	261
207	286
92	89
395	394
166	165
121	120
49	115
66	44
375	394
121	120
430	518
98	164
289	288
405	425
158	144
143	142
138	137
100	86
405	416
249	360
134	366
431	430
383	382
206	205
293	292
230	229
219	218
271	270
133	132
345	355
446	445
358	357
367	366
468	467
47	46
120	181
60	113
489	548
88	85
378	382
168	172
310	319
239	259
136	408
392	391
320	319
49	69
201	200
163	188
446	445
222	221
156	155
87	195
114	150
109	186
78	101
359	358
229	228
307	356
221	289
256	255
210	208
404	369
231	230
291	247
195	202
297	296
89	88
246	190
206	219
109	108
51	50
450	506
147	429
261	274
140	139
148	466
167	199
117	130
74	73
189	183
198	197
162	265
129	158
178	177
132	131
80	79
58	57
151	195
151	100
208	207
608	629
127	126
69	84
331	330
484	483
499	498
258	259
358	372
140	139
502	501
322	321
297	296
310	309
331	330
476	475
231	230
64	63
199	208
89	88
98	85
97	96
194	198
133	133
55	55
163	189
250	400
118	117
62	61
168	170
76	113
63	157
101	187
161	115
76	186
129	342
39	43
103	128
102	184
80	77
98	244
58	64
66	94
84	83
44	61
72	129
50	129
56	46
62	82
81	95
62	254
96	144
54	54
60	59
200	261
65	132
98	109
86	113
137	126
61	133
41	40
316	334
102	101
59	130
149	164
49	61
84	116
182	219
288	420
79	179
56	71
94	171
129	123
213	213
58	57
88	177
39	50
248	288
112	120
132	239
184	431
120	180
205	359
61	61
152	194
146	269
140	195
116	116
160	161
205	177
68	166
67	90
412	411
52	70
60	115
80	145
83	240
162	253
87	195
158	199
37	145
110	75
76	85
146	146
78	147
72	86
35	70
65	204
165	87
89	144
164	221
107	167
94	113
57	54
153	197
79	202
172	159
57	124
71	69
135	134
79	176
101	127
72	212
91	211
242	241
88	120
159	190
64	63
121	100
268	267
98	311
185	201
275	274
133	178
125	124
453	452
121	107
150	162
241	240
107	106
247	246
257	256
149	148
310	348
502	814
247	246
256	255
187	237
80	79
197	226
48	57
107	165
491	697
208	258
73	92
180	296
129	164
186	260
89	82
91	90
251	250
124	123
224	283
329	328
114	113
393	455
120	262
316	304
175	218
71	80
447	446
96	144
92	124
95	93
144	180
134	133
81	168
107	179
144	486
393	575
295	310
143	142
93	92
246	245
112	111
144	143
238	237
401	400
246	245
122	159
83	158
96	106
182	192
193	239
113	119
71	71
88	145
145	95
196	458
149	192
166	208
88	325
117	116
81	79
86	89
211	194
91	110
74	132
45	82
112	72
103	117
50	52
195	252
53	84
50	104
162	190
61	47
73	112
153	159
165	315
132	152
40	39
298	313
103	124
74	182
83	186
83	108
176	273
91	183
66	80
44	70
119	871
107	197
74	69
126	155
154	188
106	180
84	92
77	106
113	87
133	274
73	93
51	81
87	109
64	63
82	143
175	313
100	99
217	167
100	124
204	224
292	369
56	105
92	146
130	142
120	175
44	94
230	237
56	72
95	109
199	222
109	106
108	107
49	48
290	289
211	203
152	368
173	265
99	101
119	206
79	286
84	132
80	142
80	284
118	116
98	96
341	340
155	148
50	51
117	113
179	178
253	252
77	76
678	753
84	226
186	185
461	502
42	502
385	665
187	291
102	95
55	260
116	125
88	145
116	148
154	298
120	137
41	123
55	96
72	120
54	241
536	474
163	141
201	331
91	126
97	132
52	37
42	120
74	60
145	160
90	108
139	180
43	46
97	178
173	288
253	319
169	168
59	215
231	287
201	209
77	127
51	82
120	228
279	255
67	76
61	116
287	431
60	59
36	56
214	251
83	84
126	190
49	344
159	201
190	364
100	126
87	86
90	89
172	171
112	155
101	168
261	260
163	162
498	497
234	233
227	243
166	169
628	729
444	443
62	82
73	156
65	64
422	442
73	73
182	181
85	84
64	63
146	217
176	175
195	194
90	89
324	328
73	76
138	211
44	43
426	425
311	310
79	78
212	231
698	928
211	210
170	169
458	457
37	36
473	472
350	349
470	469
130	130
468	467
263	262
299	298
293	292
222	221
75	74
106	141
246	327
262	289
212	253
138	182
207	319
66	48
105	207
76	130
51	88
80	186
130	290
146	145
139	149
76	138
31	83
96	104
76	176
59	42
71	70
82	92
68	61
102	131
81	80
42	41
140	139
174	298
212	211
290	300
330	354
224	254
190	206
196	195
76	104
294	378
200	229
280	274
333	261
132	140
146	145
336	300
122	114
129	186
73	69
228	261
78	77
288	266
207	206
68	89
251	257
225	224
458	457
233	232
167	166
301	300
35	34
321	320
330	329
210	241
52	70
170	175
200	199
147	146
100	99
143	142
162	200
337	336
132	159
382	528
64	62
120	194
68	67
162	161
260	259
276	275
174	196
72	141
252	255
342	341
418	449
122	315
176	191
71	70
203	202
126	163
333	332
48	57
811	810
377	376
513	517
297	296
81	238
625	726
252	279
134	205
179	218
178	231
91	101
124	123
104	225
108	268
108	260
88	86
54	51
76	81
68	60
106	105
89	87
160	483
148	207
244	307
171	172
99	114
96	95
214	219
118	177
78	76
32	76
112	193
108	144
95	118
175	274
253	658
88	172
80	150
148	257
86	97
52	59
95	105
100	116
99	93
86	147
52	62
151	117
97	100
56	152
67	123
99	98
91	133
135	201
97	128
100	183
80	183
54	56
296	287
119	95
40	39
118	150
167	119
103	102
199	230
76	74
69	87
93	285
228	278
242	241
63	61
64	63
59	92
243	342
168	167
80	148
165	297
143	323
401	400
127	126
182	181
143	142
93	144
147	187
57	64
81	80
130	118
324	356
975	1342
1408	1407
378	377
324	323
252	251
212	211
306	305
343	420
159	158
258	257
355	354
161	223
197	196
91	90
157	211
64	63
140	139
276	278
120	179
248	298
195	232
95	147
316	429
530	529
64	63
146	217
85	139
60	126
148	147
310	309
305	338
232	231
435	439
66	87
278	277
161	159
123	202
103	127
648	647
138	245
69	179
210	198
66	65
150	149
74	138
294	396
104	103
132	147
69	82
82	106
240	333
92	91
101	255
175	191
67	70
201	177
59	70
112	116
136	135
269	268
316	315
305	304
100	101
296	316
103	95
145	290
85	203
139	175
53	65
67	133
76	166
70	232
51	134
110	137
81	136
234	538
85	123
78	77
53	52
105	89
353	296
132	144
74	179
130	286
97	187
34	36
151	158
71	243
84	85
91	170
221	384
98	94
244	277
302	306
166	165
291	290
227	226
132	585
77	77
106	356
251	241
123	122
110	119
84	83
102	101
288	291
70	69
151	171
332	331
81	80
94	93
234	324
344	374
349	678
192	401
108	401
97	273
52	61
130	184
86	85
273	272
184	184
181	180
158	157
152	151
218	217
170	169
316	315
430	429
459	458
138	137
73	72
114	109
123	122
128	127
302	303
207	206
130	129
119	118
39	38
430	443
145	144
60	59
168	167
118	117
178	177
131	130
102	101
180	179
105	104
124	123
85	84
64	63
137	136
234	233
111	110
93	92
143	142
110	106
101	100
202	201
210	209
104	103
140	139
136	156
318	354
272	271
119	123
524	650
322	321
182	181
399	398
42	55
97	145
170	169
126	125
196	195
93	60
116	334
388	387
154	153
53	113
134	133
