51	50
439	448
249	248
266	458
194	259
107	106
179	178
360	359
587	586
111	110
473	472
354	427
165	172
57	67
693	1051
45	382
126	323
193	299
311	375
93	64
150	149
213	212
585	835
254	257
623	622
176	175
274	273
793	792
169	194
788	787
122	175
651	774
222	255
313	651
315	319
164	163
133	186
421	451
222	221
400	445
513	514
167	166
257	338
97	96
267	266
133	132
402	401
76	75
306	305
132	131
367	366
150	149
134	133
469	472
573	591
355	362
40	39
216	215
383	382
252	251
456	455
430	429
455	454
214	282
61	184
182	181
110	109
261	260
150	149
315	325
136	135
447	446
447	446
737	763
182	181
434	433
731	1178
264	263
546	545
433	432
291	290
36	35
224	223
336	335
255	325
205	231
457	456
506	505
248	247
64	51
330	329
163	154
483	484
148	178
71	70
288	298
218	245
349	469
129	132
260	259
287	286
55	54
145	144
87	86
424	423
96	88
482	511
130	129
571	570
245	244
51	50
35	34
346	345
303	302
476	475
202	201
118	123
104	103
237	236
160	159
350	349
253	253
209	208
264	312
448	377
98	183
115	192
86	144
455	454
210	258
54	62
134	212
177	224
193	238
303	302
191	255
81	137
219	218
854	853
115	114
143	142
693	692
337	336
374	373
91	90
291	290
117	116
154	153
131	119
609	608
211	214
105	219
570	569
181	180
214	239
137	136
156	155
62	61
140	139
116	112
68	67
124	137
520	515
162	235
72	71
68	107
306	305
75	74
411	460
505	504
237	321
86	85
258	257
120	119
260	259
124	123
320	319
188	187
397	396
80	79
166	165
354	353
153	166
877	876
62	61
217	145
189	188
138	137
519	518
172	171
371	370
161	235
513	512
391	390
177	176
112	111
106	105
120	132
395	394
331	330
355	354
401	400
224	313
715	714
137	136
82	81
110	109
115	114
90	89
47	63
135	134
175	174
100	99
53	52
150	149
221	220
467	466
427	426
483	482
356	355
326	325
161	160
150	149
97	96
114	113
875	1337
198	197
414	413
289	288
319	326
114	129
83	82
183	182
256	255
116	115
105	104
350	407
55	53
173	172
121	120
357	356
374	373
369	368
42	52
114	113
246	245
327	326
244	243
716	857
143	161
85	84
433	432
91	90
370	369
230	229
653	652
233	232
140	139
346	345
230	229
128	127
196	195
294	293
206	220
243	242
259	245
452	540
118	117
192	191
217	216
290	318
160	159
600	599
75	74
233	232
128	129
107	106
92	96
70	103
110	109
158	157
34	47
129	128
109	126
87	86
283	282
150	149
486	460
1308	1256
158	226
187	193
111	128
238	237
445	445
113	112
218	231
143	159
89	88
349	417
264	397
154	133
213	208
769	1093
108	144
328	327
510	509
233	232
98	97
354	353
291	290
141	140
256	211
142	141
427	426
285	284
268	267
247	246
163	162
134	133
265	264
129	128
108	107
172	171
617	616
112	111
67	66
428	427
259	258
176	281
113	112
85	134
559	1653
504	1241
491	1653
82	94
678	779
144	143
385	384
113	112
223	335
373	372
425	424
207	206
393	392
491	490
609	724
86	106
331	330
2451	2693
244	273
293	418
201	200
489	488
526	525
180	179
172	171
64	63
51	50
120	119
575	680
514	513
689	688
213	212
346	345
209	208
430	429
198	197
120	119
383	401
354	353
137	156
191	190
293	292
345	344
77	76
238	237
216	215
72	71
672	671
233	232
67	66
376	375
119	118
413	432
300	558
51	180
328	349
129	128
163	318
88	285
162	161
406	476
271	317
192	191
333	332
668	667
249	248
760	759
112	111
160	159
234	233
268	267
339	338
98	97
96	95
468	467
279	278
396	395
409	408
292	467
141	145
117	147
278	355
63	62
259	295
85	84
134	133
156	155
174	156
220	374
99	98
191	190
224	281
142	141
114	149
87	90
105	191
300	299
475	474
299	298
230	236
339	338
278	277
292	291
366	365
304	303
123	122
284	283
170	169
530	575
44	43
86	85
324	323
57	92
196	253
230	332
104	103
672	671
73	72
333	332
311	308
255	254
82	111
197	277
419	418
295	294
472	471
124	123
120	119
271	811
542	729
361	360
48	47
413	412
109	108
419	418
322	321
109	108
416	415
362	361
346	345
832	831
286	285
245	244
421	443
130	129
413	412
307	306
81	80
92	91
211	210
417	416
165	167
189	189
240	239
315	314
382	381
1148	1197
205	204
388	387
513	512
443	442
446	445
312	311
311	310
252	251
447	446
95	94
437	436
715	714
162	161
64	131
134	159
126	125
92	91
122	295
152	313
464	770
251	250
164	163
160	159
76	175
88	175
158	215
70	210
190	182
311	310
362	361
275	274
185	184
183	182
93	92
391	518
290	337
407	406
393	392
332	331
379	378
338	337
271	270
220	219
305	304
423	422
221	220
163	162
506	505
124	175
78	76
167	198
103	97
62	98
84	83
229	228
90	111
134	141
34	32
196	195
298	297
121	120
87	130
135	214
32	30
85	115
64	63
141	141
495	494
515	714
88	174
98	86
401	400
152	151
165	164
217	216
611	610
200	199
91	144
316	350
229	186
85	120
148	147
221	220
482	600
134	133
167	166
71	93
371	393
397	399
513	908
326	325
181	180
185	184
101	100
614	613
510	509
486	485
168	167
324	323
505	580
63	530
295	305
66	65
95	124
102	101
432	431
557	556
253	252
201	231
89	88
280	320
452	451
89	88
129	128
112	111
194	543
380	380
103	237
201	194
661	660
323	322
386	385
201	200
142	141
170	180
50	49
359	400
261	260
402	401
394	418
268	267
82	81
332	331
397	396
360	419
543	542
453	452
359	358
217	216
105	84
377	376
762	761
311	430
235	526
729	1252
241	240
567	875
315	315
518	562
149	148
59	70
225	224
1087	1534
172	171
550	549
259	258
107	106
113	222
66	117
33	32
441	440
217	216
203	220
462	461
575	608
114	102
687	949
166	169
214	207
764	890
95	94
374	373
85	84
267	351
355	354
207	196
548	547
493	548
163	162
55	54
165	164
88	87
562	828
256	268
232	231
288	287
150	149
201	200
181	180
221	220
254	253
70	69
160	159
648	647
186	185
222	236
125	184
216	215
68	67
214	213
172	269
381	489
76	75
336	335
95	94
185	204
403	461
134	130
116	128
397	396
115	114
530	529
312	341
365	364
53	119
547	546
159	173
348	347
189	188
238	237
329	328
489	488
191	190
85	84
394	393
92	91
283	376
313	312
137	136
428	427
159	152
314	313
117	125
178	185
56	55
352	407
233	232
314	313
363	362
286	285
350	349
294	293
354	485
147	168
292	291
342	341
279	278
223	222
339	385
347	346
333	332
463	476
337	336
412	411
413	412
80	79
240	239
119	118
189	185
195	194
36	39
133	132
317	316
509	508
254	253
193	192
196	195
311	310
295	294
289	288
756	755
298	305
334	340
309	308
244	243
36	35
244	243
356	385
52	68
62	61
240	239
123	98
35	34
152	153
165	164
384	493
64	104
317	316
574	759
195	194
363	362
62	61
728	1117
347	395
646	909
590	1244
346	622
174	622
716	1266
502	677
150	149
370	369
94	93
166	165
193	192
312	379
516	826
345	344
113	112
275	274
72	70
263	262
267	266
281	281
249	248
242	233
94	137
110	109
174	173
426	425
351	350
285	284
421	420
151	150
95	94
452	451
347	346
260	259
300	299
126	125
481	500
111	110
241	240
298	297
151	150
472	471
1015	1497
993	1040
416	415
66	80
101	188
55	54
227	226
480	646
168	357
310	434
127	186
358	282
153	162
954	1105
214	213
194	193
62	75
551	617
77	90
340	349
84	70
152	135
219	245
148	147
450	485
257	349
238	279
163	162
406	405
406	405
249	248
183	182
374	373
322	321
161	160
98	168
307	404
479	478
297	296
152	151
153	152
306	349
134	133
359	358
427	426
407	406
465	464
298	297
133	168
242	306
300	299
294	293
186	185
416	415
138	367
238	292
389	388
331	330
373	372
237	236
469	468
389	388
326	325
204	203
259	258
246	245
197	196
269	355
51	57
357	356
435	434
300	299
64	63
275	274
317	316
453	454
476	475
389	388
158	157
301	298
110	109
514	513
249	248
65	64
125	124
123	122
74	73
159	158
158	157
49	48
274	273
137	136
161	159
110	108
255	266
302	301
92	91
112	181
501	794
78	77
68	69
518	517
186	185
75	72
275	329
353	352
256	255
86	85
139	138
220	196
156	131
119	118
67	66
49	48
128	172
62	61
201	200
69	68
399	398
199	198
162	161
117	116
142	141
67	66
190	189
134	133
146	172
238	238
342	334
312	321
253	252
209	370
90	89
39	38
258	257
175	174
298	398
101	176
218	217
408	407
215	214
43	42
393	392
294	206
182	181
248	247
84	90
269	308
204	227
306	305
259	316
328	378
140	188
239	238
485	484
439	438
265	264
92	91
126	125
159	158
458	457
154	158
674	673
254	297
181	334
67	66
268	267
278	239
1147	3163
327	552
390	539
718	3163
241	252
171	272
101	272
493	857
660	2041
194	433
334	333
320	319
434	505
146	190
1025	600
365	364
321	320
266	265
217	216
212	211
335	334
138	137
261	260
453	452
284	283
353	352
232	231
473	472
157	156
307	306
306	305
65	65
527	558
219	271
76	75
63	62
159	158
41	40
262	261
90	89
246	245
122	121
138	137
335	334
155	154
325	375
148	147
458	457
229	228
175	174
157	157
553	552
105	104
111	110
184	183
49	48
234	233
90	89
78	77
402	401
138	137
285	295
212	215
102	101
137	136
472	471
437	436
240	239
184	183
286	285
329	328
223	222
251	250
241	240
75	74
219	218
171	170
429	441
183	182
222	221
404	403
80	79
166	165
84	83
168	167
330	329
505	504
329	328
267	266
475	474
126	142
117	116
193	192
296	295
97	96
213	212
266	259
369	368
168	167
554	553
40	39
287	286
350	349
130	129
215	214
150	149
214	231
693	692
131	130
395	411
183	177
191	190
222	221
379	378
246	257
565	809
324	323
248	247
132	131
191	190
189	188
83	103
526	590
148	147
247	246
174	173
201	200
204	203
337	336
65	64
84	83
115	114
262	261
252	251
314	310
441	440
332	331
246	245
96	101
136	135
144	187
136	135
50	49
323	323
138	208
35	34
489	603
121	146
214	213
78	99
290	289
97	96
119	118
220	219
537	536
152	157
221	220
219	218
77	76
125	124
234	290
57	56
118	117
219	218
92	91
79	78
70	94
413	481
878	877
428	427
184	183
233	232
683	682
294	293
458	457
55	54
210	263
63	79
96	95
70	69
227	269
198	188
153	152
202	237
267	266
324	323
70	69
366	364
157	190
98	97
437	532
455	454
193	192
454	453
60	59
100	99
116	115
127	126
406	534
111	110
232	231
194	193
314	390
254	378
372	371
213	212
129	119
61	60
83	82
311	341
85	84
116	115
199	198
196	195
76	75
101	144
47	46
103	102
131	146
400	482
306	341
188	258
428	427
645	644
249	248
163	284
95	97
153	152
138	144
214	213
83	82
138	137
91	90
359	358
460	459
348	347
279	278
316	315
327	326
253	252
92	91
114	236
217	316
214	213
150	149
190	189
237	236
619	618
184	183
194	213
143	142
114	106
541	651
448	447
91	90
136	135
154	154
436	435
218	217
512	511
389	388
99	119
77	76
235	234
226	225
237	236
269	268
407	406
189	188
160	182
493	492
61	60
708	541
162	161
192	191
296	295
276	275
113	112
107	106
453	452
117	116
280	279
451	450
203	169
754	753
88	87
464	463
197	196
186	185
50	43
179	178
262	215
97	96
310	309
253	252
96	95
643	642
145	144
66	65
119	118
328	327
796	795
100	99
247	228
184	183
232	232
155	154
228	227
479	478
64	63
349	348
278	277
294	293
495	494
132	513
80	80
331	442
98	97
430	429
313	312
255	254
36	35
117	114
169	182
384	383
532	531
219	230
289	288
147	146
292	291
405	404
119	118
371	370
107	106
51	156
768	1018
137	136
66	67
123	122
496	495
249	248
424	423
407	406
92	91
48	48
100	102
219	218
79	78
471	470
70	69
198	197
76	75
599	700
92	91
138	212
107	184
262	261
288	198
535	534
102	101
52	51
339	367
458	457
214	213
77	76
220	274
58	57
172	171
223	222
311	310
342	341
30	29
390	389
194	193
276	275
96	95
216	215
136	135
366	365
200	199
80	79
299	298
174	173
671	670
286	285
79	78
145	144
156	155
276	261
101	102
108	107
219	218
425	424
287	286
202	201
501	500
212	211
165	201
207	206
255	351
109	108
308	177
364	438
172	187
194	193
147	146
72	71
347	346
319	318
382	390
509	530
209	208
124	134
142	141
124	123
193	192
604	603
458	457
422	421
503	502
203	202
176	250
549	548
468	467
310	309
385	452
66	65
242	241
112	111
241	240
304	357
175	182
315	314
453	452
58	57
463	462
35	34
53	75
270	269
122	121
110	109
274	273
103	102
418	417
298	297
407	406
217	216
419	418
205	204
491	489
246	245
136	244
152	313
541	808
168	167
102	101
249	248
187	186
114	113
109	108
405	404
340	339
456	455
487	486
68	67
61	60
143	142
207	206
316	371
382	464
117	114
167	168
32	31
396	395
117	129
199	264
73	72
122	139
145	144
222	221
222	245
186	184
294	293
463	462
305	304
96	119
473	472
484	483
305	304
253	252
89	88
60	59
139	141
237	236
405	425
479	883
177	176
168	167
160	162
152	176
253	252
191	479
291	304
66	65
254	253
561	560
336	335
270	269
467	466
512	511
312	353
109	127
89	109
272	380
420	426
144	143
72	71
46	45
313	302
254	252
337	336
95	94
144	166
83	95
295	294
126	134
685	1015
196	195
275	274
463	462
315	301
940	1130
515	514
232	231
236	235
298	297
33	32
282	281
190	189
379	378
500	499
354	353
701	700
79	78
173	172
150	149
78	77
58	57
475	474
265	264
82	82
60	59
338	337
382	381
469	468
57	56
668	667
179	178
391	390
223	222
198	197
309	340
32	37
296	326
180	179
540	551
448	447
308	307
98	97
50	49
60	59
177	176
251	257
84	83
220	219
116	122
145	144
113	112
137	136
1301	1300
202	201
249	288
39	38
895	1690
674	1541
1327	270
57	56
78	77
109	108
62	61
256	273
139	257
498	879
330	329
141	140
89	88
542	1174
634	1174
378	377
145	144
90	89
305	275
458	457
58	57
179	178
154	169
136	196
270	269
188	187
131	388
63	173
110	122
188	304
93	87
272	271
105	104
67	66
251	250
317	316
86	85
344	343
345	418
166	177
258	257
307	306
213	212
243	242
322	321
169	168
514	513
400	400
466	465
194	216
135	236
302	301
361	360
220	219
315	349
457	755
352	351
263	262
351	350
281	280
294	293
398	430
67	66
164	336
286	568
105	104
74	73
120	119
75	74
116	115
92	92
42	43
255	324
82	81
111	130
369	468
322	321
297	296
331	330
269	268
388	387
458	457
451	453
49	341
527	1035
374	373
189	188
263	262
376	375
51	50
595	644
349	404
282	281
58	57
150	149
105	104
73	72
109	108
266	265
172	171
219	218
103	102
255	254
197	196
155	154
738	891
56	55
43	42
325	324
866	865
51	50
169	230
168	349
227	252
65	65
139	196
103	102
341	340
202	201
93	92
592	632
207	206
294	293
521	520
532	531
408	452
398	397
269	268
218	217
248	247
180	179
133	132
239	238
99	98
233	417
179	178
195	213
292	291
110	109
335	334
338	337
303	302
307	306
383	382
162	161
54	53
52	51
216	215
892	891
172	171
184	277
206	205
138	137
303	302
338	337
315	314
153	152
281	280
364	363
375	374
150	200
63	62
434	428
242	268
339	338
227	226
226	225
237	236
513	512
1248	1247
464	463
73	72
813	812
357	412
75	75
55	71
229	231
37	76
367	366
36	35
158	171
123	125
270	269
131	130
278	277
228	227
359	417
208	207
130	128
59	56
113	120
338	337
481	464
71	102
93	92
195	194
364	363
392	391
76	94
150	88
164	210
66	65
46	45
54	79
200	389
142	411
260	463
697	885
185	226
382	457
88	281
168	174
285	284
156	155
66	65
134	130
318	304
151	150
180	179
141	140
163	162
90	89
176	175
120	119
112	111
82	81
93	99
143	249
296	380
76	75
85	86
87	64
78	148
257	343
56	55
249	352
216	276
73	75
640	639
357	356
211	210
162	161
314	452
566	565
341	340
185	184
143	142
99	109
172	186
271	270
285	284
398	397
271	292
85	84
245	244
204	203
305	304
579	578
230	229
123	127
433	432
475	510
240	239
514	513
177	176
423	422
80	79
61	63
87	86
149	148
220	219
98	97
134	133
123	122
232	231
271	270
89	88
113	103
58	57
95	94
110	109
213	218
121	120
51	50
227	226
83	82
89	88
79	78
404	403
244	243
135	134
51	50
166	206
115	114
276	275
157	153
131	130
286	285
98	97
93	92
234	331
194	194
117	116
142	141
196	237
462	640
1133	1132
191	190
200	247
233	232
110	109
547	853
319	302
145	130
141	140
247	246
132	131
193	192
118	117
125	124
211	240
151	161
116	115
502	501
424	530
69	68
187	187
89	100
228	283
115	128
183	182
61	60
83	124
148	147
166	165
72	71
361	360
128	127
46	45
121	120
97	96
57	56
152	151
346	347
509	508
111	110
334	233
335	334
180	179
76	75
162	161
33	70
79	212
147	309
126	125
69	68
99	98
262	261
227	226
59	58
50	49
72	71
30	29
73	72
80	79
79	78
313	303
417	416
218	217
154	153
224	223
134	133
214	213
443	456
224	223
487	486
342	373
179	178
200	205
104	122
246	245
286	285
265	264
349	348
154	153
206	262
274	273
304	303
247	246
167	166
247	246
400	399
133	312
185	338
230	221
956	1148
320	319
86	85
119	139
130	129
435	434
181	180
342	341
275	274
214	213
126	125
120	119
730	729
478	477
266	265
335	334
551	550
270	269
125	144
220	298
79	78
91	232
163	162
310	309
318	317
156	159
194	193
58	57
174	173
205	207
320	319
1062	1061
76	115
218	317
300	359
262	350
182	200
140	248
366	365
153	152
261	260
252	251
292	401
86	85
232	231
135	134
139	138
220	219
98	97
99	98
366	367
151	275
308	307
216	215
131	130
67	67
403	402
216	215
187	186
348	347
82	81
85	84
373	372
38	37
189	188
71	66
122	121
351	350
307	306
409	408
125	124
76	75
176	175
186	349
474	473
518	517
227	260
134	186
494	493
178	177
104	103
111	110
153	152
161	85
217	216
130	129
139	138
278	277
174	173
185	184
246	245
313	312
102	63
305	320
163	208
463	736
346	536
205	202
361	471
92	91
126	125
381	441
138	137
355	354
424	423
376	375
277	276
503	502
70	69
165	164
267	413
891	1302
213	212
364	363
232	231
129	128
267	266
164	196
165	164
443	442
58	57
199	198
76	75
247	269
152	151
307	306
102	101
200	199
849	865
303	302
59	75
231	230
72	71
283	286
134	172
114	224
667	910
181	367
134	186
58	57
71	70
71	70
437	436
31	30
154	168
227	226
475	514
288	285
72	70
196	195
236	235
598	597
373	372
104	137
119	118
126	109
93	92
315	314
106	105
138	137
59	58
162	161
77	76
77	76
353	383
292	304
149	148
516	720
224	298
210	209
170	169
187	223
166	171
151	150
587	586
161	171
49	71
56	55
188	187
565	566
216	215
210	209
71	70
121	116
435	506
703	702
370	369
181	180
190	189
133	155
192	191
320	319
649	857
256	255
871	870
401	400
467	466
363	362
397	396
216	215
183	182
616	615
1487	1486
235	234
395	440
231	230
202	201
298	297
249	248
61	60
411	410
329	328
583	582
755	754
95	94
558	557
228	227
255	254
167	166
260	259
363	362
229	228
587	586
399	398
761	760
247	246
383	382
209	208
183	182
97	96
142	205
815	814
431	430
429	447
208	207
214	242
537	565
100	86
338	337
165	164
357	356
153	152
446	456
83	82
509	573
235	234
73	72
759	758
88	87
75	74
227	251
423	422
264	263
83	88
185	207
553	552
232	231
300	299
551	550
323	322
349	348
181	188
334	333
393	476
87	92
338	337
60	113
229	276
94	37
129	128
97	96
158	157
244	243
227	226
223	222
154	147
97	96
376	375
92	100
282	281
315	314
59	58
320	354
68	91
296	330
159	158
177	280
99	103
256	255
91	90
86	85
93	92
369	468
88	87
179	178
376	375
272	271
93	92
176	180
172	199
199	198
222	252
401	400
209	208
80	79
242	371
128	127
385	441
64	69
140	139
302	348
219	218
70	188
89	151
179	221
105	188
304	303
307	306
497	512
562	623
322	321
118	116
309	411
250	249
221	220
300	299
811	810
218	267
48	62
451	530
85	76
234	233
274	273
83	85
43	42
113	418
307	309
172	171
120	90
196	195
168	167
249	248
220	219
241	240
65	64
70	153
418	461
87	86
761	760
225	224
96	95
87	86
362	361
321	320
457	716
227	226
66	65
454	453
224	223
332	331
329	320
251	250
378	377
369	368
137	136
254	253
154	162
168	270
56	56
319	318
238	237
235	234
151	150
69	81
162	161
171	170
330	329
303	302
674	673
226	225
252	251
206	223
172	172
347	346
418	417
159	158
428	427
704	753
61	60
299	298
179	178
351	350
290	289
326	331
305	304
353	352
230	229
258	257
50	49
263	262
56	55
436	490
339	338
61	56
324	288
276	303
83	89
347	346
251	250
314	313
45	57
131	126
175	174
157	62
240	239
305	347
58	57
206	205
174	173
431	430
193	136
143	142
141	140
76	75
135	134
61	91
38	37
380	379
523	522
398	397
876	877
396	458
200	246
241	240
290	289
389	388
226	225
181	180
697	933
235	252
239	238
589	588
116	115
85	84
36	35
428	427
437	436
154	153
245	245
67	322
399	398
104	103
252	251
222	332
121	337
229	228
238	237
349	348
210	263
245	244
311	310
219	218
226	225
354	331
153	191
473	472
170	169
69	68
558	557
134	133
567	682
191	190
177	190
716	894
226	225
385	425
349	366
162	161
286	353
263	258
295	323
91	110
255	254
126	129
177	176
149	148
109	108
457	456
555	554
137	182
104	253
329	328
412	411
129	117
155	261
69	83
53	104
178	253
253	252
390	389
157	156
427	426
649	648
267	266
383	382
407	406
251	250
273	318
291	301
146	145
392	391
505	512
360	359
156	155
243	292
69	115
513	512
102	131
249	625
200	235
303	302
247	246
225	224
242	241
312	311
557	556
484	483
236	235
185	125
73	72
161	160
835	860
194	193
314	313
214	213
123	122
106	105
156	155
634	633
371	370
363	362
428	427
88	87
214	213
127	126
322	321
37	39
263	262
128	127
70	69
187	186
194	193
281	280
227	226
263	262
297	410
370	369
99	98
303	302
511	510
193	192
248	282
488	487
269	268
137	136
143	142
498	531
188	187
249	248
301	300
392	391
210	209
387	386
363	362
66	65
702	701
138	137
249	248
286	285
537	536
392	391
118	91
144	202
127	179
153	244
84	101
80	81
255	334
147	149
185	249
272	271
342	377
389	598
250	326
233	286
390	389
73	72
362	400
747	746
261	260
312	311
84	276
148	276
317	316
55	74
438	506
111	138
195	305
207	206
514	514
356	355
266	265
174	244
89	103
51	50
51	50
373	372
83	82
88	97
218	217
416	415
216	228
258	284
1048	1047
398	407
111	110
390	460
228	227
341	373
137	136
746	745
991	990
297	296
318	317
223	222
158	208
289	288
71	70
174	173
204	203
260	281
165	164
226	226
147	109
65	64
106	129
356	355
100	120
197	297
272	271
252	337
87	116
386	555
170	169
350	349
66	65
366	411
61	60
207	220
207	220
79	121
87	86
83	82
349	347
411	448
57	56
485	484
89	88
202	201
259	258
594	593
221	271
161	160
309	308
369	368
223	222
186	185
223	222
169	219
55	66
668	667
805	804
159	199
209	208
270	269
285	284
260	259
226	225
306	305
153	152
121	159
136	135
324	376
100	118
161	222
99	177
835	834
114	113
101	100
265	264
161	182
228	266
168	167
551	550
81	80
407	406
445	444
115	160
435	434
320	319
321	320
215	214
338	337
208	213
202	201
110	109
118	143
443	441
184	183
126	125
176	175
55	54
1020	1120
97	108
216	215
398	397
1038	1037
125	124
184	183
105	104
517	516
118	117
104	103
191	190
287	286
429	428
51	50
59	58
594	593
357	590
240	249
153	152
288	297
567	566
232	231
133	132
124	123
386	625
248	278
91	90
634	633
153	152
404	424
195	194
433	432
105	104
153	179
313	312
193	250
316	315
308	306
153	198
229	241
205	204
110	109
160	252
124	123
92	90
373	454
164	163
304	303
197	196
483	482
81	80
300	299
237	236
338	402
76	89
325	324
173	172
256	278
71	70
140	139
157	156
368	367
150	149
180	179
71	71
237	254
116	115
324	323
605	615
59	58
52	51
376	375
101	362
278	286
151	193
278	277
310	308
458	457
440	439
432	431
230	229
401	400
773	1047
275	485
344	362
83	70
303	302
326	325
61	60
95	94
226	225
64	63
175	174
153	152
60	75
195	194
367	366
107	69
472	471
87	86
365	364
71	70
103	102
345	344
397	396
34	33
386	385
138	137
466	995
469	606
43	70
325	324
284	283
276	275
256	255
136	152
194	199
92	91
51	55
110	151
235	234
236	277
180	179
293	292
111	123
338	337
317	316
270	269
289	288
315	314
555	554
278	277
364	363
55	54
690	1019
257	411
418	417
81	206
78	77
428	427
420	419
253	299
374	378
484	483
180	179
211	193
297	296
148	147
374	373
92	91
93	131
61	85
350	349
470	460
200	316
113	115
473	472
516	515
288	287
202	201
82	81
101	165
311	310
363	362
678	677
196	195
491	490
377	412
191	248
94	93
46	51
204	234
47	46
254	253
159	168
242	442
87	282
214	225
223	222
156	155
476	475
240	239
182	181
442	556
198	197
290	289
128	140
138	137
1416	1415
99	90
165	192
330	329
298	297
101	137
223	277
86	165
224	293
215	214
177	227
34	33
89	88
47	46
187	186
150	149
223	222
480	489
369	405
548	547
295	296
205	204
112	111
259	258
176	306
151	145
197	260
1033	1032
546	545
329	332
157	156
418	417
368	367
352	351
134	133
415	414
153	152
486	485
187	186
406	405
125	124
352	351
153	169
580	579
153	84
247	246
256	255
193	192
386	441
430	432
149	148
257	256
247	246
156	155
241	240
217	216
407	406
257	256
275	274
185	201
88	91
271	270
85	84
147	152
51	50
344	343
122	120
72	212
154	167
138	137
58	67
66	124
104	103
573	572
275	274
238	236
141	140
182	181
67	66
87	86
244	253
194	193
130	129
486	713
239	239
133	132
195	194
1161	1160
199	198
383	382
263	262
152	151
342	341
162	161
368	367
448	479
438	437
286	285
232	231
399	398
186	185
242	241
284	283
242	241
265	264
422	449
470	469
275	274
129	128
386	385
365	364
444	505
233	232
146	172
122	123
106	98
117	116
115	114
474	473
427	426
525	660
144	143
297	296
266	265
750	749
337	336
166	165
386	712
175	309
113	106
136	238
109	234
189	188
842	841
810	809
177	176
210	234
152	151
269	308
240	251
160	159
195	194
247	246
603	602
265	272
191	190
201	200
199	198
418	417
277	276
284	283
68	67
311	310
127	126
410	409
147	146
257	256
284	283
221	220
183	182
797	796
391	516
127	126
103	102
297	296
142	107
124	183
121	120
381	424
457	865
206	225
345	587
475	474
384	390
245	238
888	887
302	237
97	96
97	96
97	96
71	94
594	593
334	360
96	95
285	284
184	183
298	297
147	146
195	233
279	461
401	400
348	347
91	91
96	95
154	168
79	165
66	65
133	132
308	307
143	219
204	310
272	281
196	195
263	262
44	43
384	383
421	420
277	276
307	306
492	491
356	355
415	414
439	438
64	63
222	298
77	78
453	452
496	495
120	119
262	301
217	276
122	121
244	254
153	152
335	334
119	118
575	574
315	314
524	523
364	363
467	466
202	201
44	43
552	551
328	327
537	536
233	232
255	254
42	233
455	495
146	145
297	281
308	307
207	206
145	144
282	281
567	566
501	500
232	231
784	783
969	968
220	219
272	271
785	784
434	428
73	72
245	329
274	273
126	125
202	280
105	104
78	77
107	118
72	108
621	620
177	176
233	259
185	184
96	95
95	112
107	149
246	297
162	159
257	256
505	504
186	205
183	349
406	405
423	517
96	95
175	187
90	89
197	196
132	131
73	72
157	168
596	1073
229	334
96	95
383	382
274	273
80	83
68	121
305	304
317	316
150	149
165	164
939	938
229	224
102	87
88	87
115	114
332	457
324	679
186	679
162	679
300	299
389	388
206	239
142	181
86	155
155	297
247	318
254	253
105	104
233	224
523	638
123	127
135	134
208	237
51	73
189	188
196	195
318	317
477	476
259	258
99	98
412	428
311	310
380	394
436	470
229	228
239	238
112	143
336	438
359	386
230	229
158	157
241	243
55	70
216	215
172	171
99	98
266	265
393	392
556	555
111	110
186	210
244	243
461	460
323	322
198	214
339	338
88	87
240	239
136	135
273	285
441	440
133	147
137	140
234	231
284	283
235	234
119	201
120	119
358	357
54	53
202	201
539	538
226	225
149	148
167	166
344	343
79	78
261	260
226	225
242	241
278	277
158	157
180	179
131	130
116	155
165	164
615	763
160	159
341	340
305	304
318	318
130	129
445	495
540	578
143	142
51	50
319	318
101	100
96	95
70	69
98	97
420	419
201	199
69	174
125	124
384	383
256	255
86	85
324	323
277	276
128	127
185	184
116	115
154	153
391	390
304	303
131	130
281	280
92	91
126	125
242	241
65	64
487	486
395	394
448	447
178	175
130	163
168	167
177	176
879	878
242	241
166	165
57	77
199	198
132	131
239	238
369	368
327	326
115	114
142	141
117	116
162	161
332	331
213	378
100	99
37	36
86	85
184	183
67	98
183	219
87	86
374	373
93	92
154	274
283	332
269	268
144	143
199	198
250	260
263	262
320	319
608	655
118	115
226	304
284	328
142	154
196	180
214	213
216	229
146	239
371	370
48	63
85	84
72	189
434	440
84	108
190	297
36	48
387	439
397	396
251	250
294	299
142	141
52	51
59	58
163	162
126	125
123	122
38	37
69	68
159	158
155	154
83	87
273	272
53	52
244	227
118	147
266	395
73	119
63	62
281	280
189	250
109	87
165	151
228	541
133	132
158	159
50	69
195	244
120	138
116	115
238	412
145	111
51	50
115	193
285	320
249	248
93	325
252	251
206	213
79	78
291	290
201	200
69	68
71	70
66	65
190	189
134	133
154	153
79	78
130	129
67	66
473	472
349	350
65	66
171	198
97	95
307	306
179	178
281	282
338	337
85	84
419	418
96	95
148	147
344	343
60	95
169	216
519	518
170	195
117	212
98	97
100	99
210	209
359	358
99	98
175	174
346	345
70	158
321	358
974	989
423	496
162	161
291	290
98	97
39	150
266	303
540	539
309	308
340	339
188	187
155	144
196	195
255	254
440	439
80	76
222	332
88	87
296	406
123	509
361	360
360	359
504	503
148	147
952	951
396	395
168	167
139	138
335	334
151	150
359	406
48	71
311	310
335	334
468	467
163	162
59	58
312	311
154	153
129	128
198	204
449	551
126	125
317	315
195	194
292	291
527	551
713	712
155	154
129	128
451	450
184	183
339	353
135	134
333	332
228	256
108	146
341	340
501	500
319	318
177	176
114	113
82	81
299	378
68	151
390	434
308	310
133	132
109	176
182	224
149	180
191	209
448	447
69	68
186	185
247	246
595	647
127	126
287	286
322	321
221	220
471	470
207	206
213	212
216	215
264	263
281	280
228	258
514	513
475	653
153	311
426	425
222	253
169	168
118	110
150	149
76	75
132	131
92	91
44	43
185	184
285	284
217	216
155	154
102	101
227	226
226	225
355	354
252	251
250	249
110	109
92	91
440	440
334	474
180	230
130	129
220	219
214	219
134	133
244	243
844	813
142	141
433	432
66	65
335	334
420	419
427	426
103	102
121	120
182	181
155	244
439	438
444	443
154	153
167	196
352	356
383	379
205	204
85	88
252	251
323	322
143	153
957	1029
101	100
486	500
326	325
603	602
245	244
132	131
120	119
335	334
178	177
106	105
49	48
42	41
189	188
343	342
59	60
250	249
129	128
139	138
407	416
98	97
419	418
159	158
479	478
434	433
101	100
589	588
192	191
181	512
352	351
445	444
138	214
564	728
486	485
506	505
58	57
99	98
91	90
1310	1309
60	59
197	241
78	74
355	431
876	1283
171	170
247	234
406	786
394	476
91	90
77	76
544	543
240	239
447	446
536	548
217	216
452	451
303	302
757	756
254	253
446	445
548	547
223	222
179	209
204	319
30	29
437	500
77	76
153	156
134	133
743	742
112	111
148	147
263	262
339	338
260	259
145	144
151	150
195	194
327	354
282	281
253	252
227	226
379	378
47	146
93	185
145	144
253	252
113	112
150	149
298	297
122	121
209	208
128	127
384	389
327	326
232	231
310	309
662	661
92	91
242	343
684	683
489	488
150	139
560	715
523	522
350	349
278	277
279	278
235	234
230	229
438	437
199	198
128	127
269	287
249	270
319	318
224	223
189	188
479	478
653	652
105	104
550	549
230	229
137	136
295	294
550	549
450	449
155	154
108	107
529	528
94	93
179	178
941	940
119	118
139	138
238	237
607	606
453	452
358	357
208	240
283	282
291	290
390	389
414	451
385	384
826	914
46	45
398	397
115	114
215	276
160	185
360	359
88	87
404	471
345	344
369	402
486	245
385	401
679	678
328	327
81	80
136	145
188	187
172	171
70	69
241	291
211	210
203	202
123	122
404	403
405	424
291	290
166	165
307	306
244	277
201	202
264	263
109	108
32	31
397	396
130	187
259	258
48	108
267	296
137	136
374	538
239	261
246	245
213	212
86	85
197	215
285	333
316	316
133	132
64	63
291	290
316	315
160	177
125	119
136	135
165	164
266	265
275	274
410	409
83	82
148	147
397	396
74	138
150	149
1069	1227
157	187
275	274
575	574
238	237
192	191
534	533
310	309
106	129
56	126
85	139
85	84
530	529
430	429
195	232
108	253
130	127
462	458
140	139
77	89
149	148
91	90
197	196
224	223
355	354
258	257
159	158
632	631
212	211
252	251
324	323
87	102
283	304
1248	1376
117	116
1373	1372
57	56
166	165
235	234
143	142
182	181
128	127
211	211
309	308
322	321
343	342
85	84
286	285
378	377
218	225
367	366
62	61
45	60
235	234
439	438
389	388
467	466
306	305
284	283
174	173
259	258
261	260
88	87
208	135
195	236
383	369
517	883
180	179
81	150
320	325
86	177
184	183
114	113
293	292
554	765
227	226
107	106
360	359
834	833
221	220
326	338
110	109
85	205
302	301
727	726
261	296
518	517
377	376
811	810
387	386
106	105
203	202
71	70
377	376
367	449
342	341
108	140
72	71
177	176
63	62
120	164
276	275
215	214
162	161
58	57
58	57
229	228
567	507
298	297
249	248
143	142
100	99
147	146
200	199
256	255
142	182
103	251
330	329
321	320
105	150
193	206
167	166
233	232
458	457
225	224
314	313
56	55
99	98
345	344
313	312
279	278
490	489
268	267
148	152
275	274
105	104
465	464
149	148
484	483
357	356
496	582
348	347
484	768
300	768
612	611
279	278
196	195
805	1016
272	300
43	42
169	168
310	309
43	42
81	80
168	172
128	122
247	246
73	72
93	92
74	73
97	96
99	103
303	302
314	313
146	145
291	290
200	199
133	132
123	122
299	298
236	298
293	292
414	413
301	300
207	210
102	101
649	678
114	126
291	354
66	65
428	444
231	230
543	617
84	85
470	469
350	349
473	472
37	36
458	457
170	169
211	210
418	417
487	928
62	61
311	310
82	81
212	266
209	208
329	328
90	89
195	194
176	175
85	84
73	102
93	153
484	483
205	204
444	443
295	294
454	729
388	387
234	233
498	497
163	162
261	260
259	258
172	171
90	89
509	546
202	201
252	251
476	475
256	255
335	334
210	209
325	324
169	168
497	496
255	254
270	269
32	31
223	222
109	108
180	286
520	519
75	238
424	474
319	318
130	129
408	407
231	230
282	281
666	665
503	502
79	185
111	123
754	753
318	317
300	299
267	266
341	340
207	206
287	286
207	206
612	611
290	289
156	155
297	296
128	127
127	126
317	316
255	254
346	300
721	720
239	238
181	179
119	143
236	235
253	269
42	34
68	67
78	77
107	106
647	848
215	214
321	320
247	246
37	31
376	399
399	398
100	195
109	196
465	464
412	411
431	430
199	198
50	49
451	450
241	359
120	119
431	430
367	376
225	224
294	293
356	355
421	420
332	331
284	344
66	65
335	334
420	419
110	109
190	209
179	205
495	494
353	349
339	340
94	93
492	491
320	319
496	495
504	616
130	129
140	139
163	187
88	87
549	548
82	81
425	458
113	112
280	279
85	84
231	230
476	475
331	330
310	309
297	296
322	321
52	51
404	409
140	139
537	622
84	83
172	171
329	498
484	483
331	330
153	152
148	147
305	343
309	345
208	207
128	127
269	263
80	79
157	156
178	177
514	513
288	287
461	460
140	139
457	456
610	609
347	346
320	319
297	296
258	257
242	241
279	278
625	624
465	464
539	538
390	389
241	240
196	195
156	155
194	221
446	445
189	188
201	200
49	69
320	319
392	391
416	415
472	471
455	454
555	548
120	181
47	46
468	467
261	258
84	100
179	178
191	190
805	804
133	132
271	270
137	151
79	102
230	229
293	292
206	205
383	382
126	148
304	309
367	366
405	416
102	86
111	115
143	142
554	553
245	266
572	571
506	497
116	115
121	120
166	165
122	121
273	272
563	562
97	96
287	286
197	196
501	500
440	439
245	244
153	203
52	55
153	152
413	426
445	444
163	162
108	107
149	117
260	259
154	220
98	97
128	127
140	139
165	220
111	143
166	165
282	281
74	73
163	162
126	125
143	142
74	73
159	158
162	161
273	272
78	77
949	948
291	290
306	305
43	42
103	102
83	85
69	68
67	66
190	189
140	139
137	136
178	177
105	137
605	970
189	512
314	313
76	75
524	523
116	115
216	215
102	101
68	139
144	217
186	575
501	852
44	286
121	146
58	57
39	181
132	181
178	180
257	343
62	61
182	181
109	108
160	159
508	507
149	148
76	106
695	694
70	158
552	865
98	865
401	1184
686	1201
378	846
801	1213
201	200
202	201
113	112
154	153
100	99
98	97
794	793
434	433
212	219
80	141
171	193
173	172
60	59
297	320
461	460
773	772
518	517
157	156
105	104
364	363
172	283
287	286
311	310
227	226
570	569
464	463
70	69
347	346
694	693
230	229
138	137
567	702
92	91
208	207
196	195
369	368
206	205
288	287
239	238
214	213
199	198
153	152
104	103
276	382
37	60
223	222
79	78
56	55
158	157
124	122
160	159
426	425
245	291
375	374
266	265
266	265
360	359
340	339
339	338
77	204
147	176
314	299
229	227
118	131
390	389
320	319
108	105
258	268
311	310
399	398
70	69
284	283
345	344
320	319
420	419
515	514
144	143
84	83
63	62
340	339
274	273
158	157
416	396
167	230
552	551
1078	1447
359	211
227	226
87	86
70	69
219	251
383	382
374	465
264	314
50	49
72	71
379	378
203	202
464	463
591	614
384	383
379	431
466	512
559	657
100	119
467	466
272	271
260	234
287	286
221	220
499	498
329	328
426	425
156	155
127	306
178	211
155	154
333	332
271	270
158	157
290	289
677	676
275	274
393	392
204	203
190	189
514	513
331	330
441	440
485	484
114	113
146	145
313	301
100	99
304	303
690	689
174	173
284	283
51	50
68	36
97	96
150	184
82	81
325	324
220	219
778	777
147	146
188	187
255	254
403	402
564	563
523	535
76	75
340	339
301	300
328	327
338	337
218	107
336	335
170	423
255	344
36	35
36	35
36	35
469	559
84	93
64	63
205	258
328	365
63	62
251	250
873	872
770	769
309	368
526	491
118	138
541	1157
663	662
429	428
499	498
148	147
163	167
256	255
226	225
83	239
143	144
173	188
441	440
162	193
119	118
324	323
201	200
550	549
466	465
467	466
275	274
108	211
94	93
1038	1037
339	338
176	175
191	190
111	110
113	112
192	191
257	256
319	318
208	207
165	164
446	445
316	277
661	660
343	342
69	91
110	110
189	188
92	91
142	141
72	71
447	446
281	280
73	72
191	251
189	270
177	176
119	148
116	216
490	489
170	202
92	91
180	211
313	321
411	393
315	314
202	201
204	203
517	911
387	432
375	374
284	283
90	89
203	502
234	269
453	452
91	93
112	140
215	248
32	31
134	133
136	268
128	172
255	254
278	277
315	314
437	524
93	92
205	204
322	307
366	353
186	185
163	221
48	47
82	81
733	732
209	208
120	119
77	89
199	198
517	516
153	186
71	78
353	352
285	284
368	367
89	88
176	175
128	127
370	369
103	91
196	233
87	87
340	339
138	138
114	113
238	237
160	159
168	354
296	295
282	281
357	356
248	247
104	146
426	577
151	155
163	162
346	345
232	231
332	331
176	175
447	446
700	699
401	400
198	197
368	367
454	728
291	290
658	657
432	431
478	477
816	815
80	129
247	333
161	300
256	255
72	99
130	151
502	501
109	108
277	276
253	252
112	111
136	148
902	901
798	797
695	694
439	438
192	191
189	227
257	256
121	120
79	78
774	773
68	67
222	294
526	773
159	158
240	239
241	240
194	228
541	540
575	574
383	382
86	85
192	190
134	133
223	222
97	96
144	259
71	136
209	256
135	121
46	36
187	186
851	850
260	259
169	168
147	146
135	134
403	402
226	225
363	362
201	200
233	232
279	278
226	225
253	252
335	334
306	305
121	120
388	387
409	408
293	292
103	108
56	55
375	374
362	361
56	55
163	179
299	319
269	268
112	108
848	847
191	190
223	222
191	190
168	200
188	187
407	406
697	696
211	210
135	134
114	143
136	141
73	72
302	340
626	637
108	107
77	76
604	601
67	66
197	196
73	72
271	270
241	240
50	49
80	115
120	119
96	95
125	124
125	124
705	704
395	394
514	900
346	453
159	158
172	171
57	56
154	153
388	387
65	334
111	183
131	186
196	195
126	125
170	169
146	145
399	398
215	448
255	254
655	654
217	271
418	428
140	139
104	103
210	209
202	201
101	100
143	142
93	92
111	110
238	233
137	136
64	63
85	84
124	123
105	104
180	179
102	101
131	130
178	177
118	117
168	167
60	59
145	144
430	443
39	38
119	118
130	129
207	206
330	329
128	127
123	122
142	141
73	72
123	136
459	458
430	429
316	315
70	69
100	99
375	374
158	157
181	180
173	190
238	237
86	85
185	184
85	84
110	90
253	252
348	367
108	116
293	393
306	305
74	73
109	108
92	199
653	1034
202	224
386	385
221	220
60	59
294	294
99	98
218	264
105	149
294	293
484	483
81	80
319	318
272	271
285	284
297	296
315	298
201	200
330	329
126	90
122	136
285	337
450	449
157	156
325	324
647	646
348	347
368	367
163	162
198	197
490	489
1023	1266
167	166
482	481
310	309
68	67
311	310
656	655
91	90
88	87
157	156
313	312
356	355
412	455
54	53
133	132
376	375
121	124
131	130
213	212
166	165
261	260
298	297
497	496
230	229
213	291
155	154
149	166
332	317
688	1486
796	1517
310	309
779	778
101	100
95	94
243	242
211	210
91	90
285	284
164	163
96	95
424	436
242	241
186	185
192	191
189	188
46	45
291	328
301	300
266	265
261	260
175	174
223	222
98	97
53	52
144	143
264	419
93	92
324	323
104	103
86	85
322	321
391	390
478	477
159	158
66	88
153	152
76	75
201	224
446	644
283	282
446	445
111	110
542	541
448	447
141	140
145	151
336	335
100	118
800	890
134	133
315	314
90	89
387	399
321	384
179	189
135	262
390	405
200	200
415	414
63	60
288	276
293	292
332	331
175	174
168	167
56	55
93	94
122	153
61	51
212	211
347	346
192	191
197	196
132	131
679	678
272	286
238	237
264	263
268	267
159	158
287	286
385	384
378	377
145	144
293	292
260	259
158	157
427	426
187	186
89	88
155	154
112	111
524	523
445	444
257	256
72	91
226	286
382	381
313	312
330	329
444	443
64	63
199	268
141	158
765	764
130	129
455	454
444	443
437	436
55	54
234	233
299	298
123	122
117	116
160	160
161	160
100	99
135	134
102	101
123	122
128	127
221	220
259	258
433	432
471	470
496	495
65	64
109	108
78	78
356	414
322	321
329	328
231	230
168	167
379	378
105	104
139	138
272	271
400	399
784	783
357	356
478	477
150	149
775	1030
204	271
44	94
328	327
46	45
66	65
497	496
445	506
63	75
201	201
140	151
169	168
68	67
551	613
217	216
173	311
169	168
72	71
338	337
488	487
202	201
303	302
217	285
95	94
206	205
84	76
274	273
279	292
138	156
207	206
434	433
237	240
712	946
337	352
156	155
520	508
210	209
67	66
83	99
218	217
348	349
247	246
765	840
73	177
180	187
57	56
258	257
272	271
224	223
44	66
157	156
363	416
236	397
387	386
224	223
494	493
31	30
127	170
141	140
276	275
194	193
89	86
518	630
714	713
126	128
113	137
129	203
61	127
115	114
249	349
150	270
296	295
81	104
194	193
160	159
237	236
111	110
450	449
220	219
131	130
161	160
536	535
88	87
665	752
103	114
471	470
435	434
161	160
328	327
337	336
339	338
449	490
229	249
221	279
84	223
63	142
242	492
86	85
309	308
276	275
388	387
319	318
217	217
83	97
307	325
245	244
142	141
295	294
165	164
347	346
48	47
246	254
96	95
373	372
329	328
393	392
510	567
46	50
165	164
163	162
114	113
83	82
289	288
620	619
86	85
434	499
231	230
258	254
253	252
450	449
275	274
81	101
87	129
357	356
360	359
391	390
83	82
305	304
449	552
96	95
377	380
228	224
500	499
351	350
408	407
135	134
724	723
161	161
338	337
1522	1521
270	269
137	136
320	319
687	686
228	227
282	340
408	407
152	151
188	187
124	123
202	201
276	325
368	392
179	178
259	258
224	223
389	599
92	208
484	1107
486	485
190	189
99	165
399	398
328	675
134	159
247	246
559	559
383	382
328	327
187	186
118	117
155	165
201	215
52	51
306	305
132	131
282	281
66	65
70	70
126	125
127	126
215	214
74	73
159	158
162	161
273	272
78	77
152	151
117	116
723	722
91	91
955	1039
206	213
79	78
52	68
69	97
190	371
170	172
69	68
97	96
93	129
128	127
57	56
513	512
161	205
184	176
117	116
142	141
306	305
292	291
491	490
270	269
78	63
137	139
312	292
92	139
222	289
245	244
329	328
122	121
302	301
304	350
331	330
81	80
123	122
72	71
83	90
68	67
187	187
154	153
97	96
273	272
89	88
111	110
80	79
508	507
118	117
234	182
108	122
56	192
731	1295
189	192
194	196
734	733
428	427
581	580
273	259
575	593
398	397
302	301
122	121
94	93
69	68
187	186
87	86
235	234
109	108
160	159
508	507
120	119
74	73
100	100
90	89
92	91
126	125
167	166
126	125
92	91
348	347
263	250
92	90
236	235
712	711
419	418
360	359
92	91
181	350
167	169
165	239
82	81
97	108
240	239
134	122
236	235
261	276
86	85
379	378
198	197
97	96
61	65
124	155
235	234
327	326
139	138
212	211
242	316
92	90
59	154
64	63
236	235
152	151
465	464
74	80
313	325
659	658
184	243
307	306
180	173
138	158
409	536
89	176
303	302
148	147
463	462
426	425
259	258
170	169
238	237
226	225
226	225
183	235
193	192
144	143
227	226
79	78
122	250
112	111
360	359
287	286
212	211
247	246
92	91
98	97
104	103
352	351
232	297
77	76
220	219
411	410
151	150
110	109
193	192
442	441
393	392
401	400
365	364
130	129
958	957
478	477
104	103
220	219
94	93
251	216
89	88
136	135
174	173
284	286
237	236
212	215
373	407
366	365
506	505
183	182
42	41
483	482
640	639
163	162
456	455
439	438
467	466
202	239
766	956
260	259
293	292
87	86
1033	1032
177	176
160	159
37	32
507	541
311	310
462	461
404	403
399	398
396	395
593	592
122	121
148	304
34	33
766	765
117	116
410	409
394	393
299	298
254	253
473	472
231	230
143	142
184	183
177	176
245	244
344	343
720	719
75	74
279	334
71	71
347	346
73	72
238	237
89	112
148	209
49	48
177	176
536	748
222	260
129	135
129	128
265	264
78	156
188	187
136	135
108	107
1123	1122
963	962
310	338
800	926
370	391
228	227
197	235
234	254
448	447
93	184
183	199
527	526
223	222
150	149
102	151
316	315
249	248
530	529
341	340
173	172
62	61
173	172
218	254
414	454
141	140
122	121
38	37
283	282
70	69
247	246
326	325
107	106
214	213
56	55
73	72
102	101
270	269
92	91
215	214
324	323
131	130
78	77
266	265
264	263
127	126
166	212
127	126
146	145
83	82
173	172
157	158
251	323
169	269
61	240
228	227
74	73
145	144
257	256
142	141
141	140
64	63
176	220
77	76
295	253
154	166
181	180
176	175
78	77
653	652
145	144
240	239
72	70
98	97
114	120
161	161
170	169
128	127
229	228
76	75
120	119
104	103
36	35
154	153
142	147
113	113
428	411
197	196
107	106
78	77
172	171
74	73
158	157
154	153
877	876
102	101
211	210
229	228
110	109
102	101
213	212
617	616
86	85
203	207
46	45
114	113
112	111
78	77
182	181
87	84
111	111
290	279
161	165
579	941
66	223
311	310
160	159
244	243
214	213
43	46
260	323
209	448
214	217
125	124
593	717
338	395
278	353
286	414
148	134
249	248
133	60
121	118
145	157
86	85
154	153
70	69
197	196
87	86
286	285
144	143
76	75
86	85
111	110
92	91
126	125
145	144
117	116
92	91
141	140
565	564
121	120
79	78
236	235
423	422
235	234
121	120
155	278
268	267
243	273
284	283
236	235
235	234
135	134
157	156
111	110
235	234
279	278
206	205
264	273
284	283
236	235
235	234
287	286
111	110
235	234
203	197
67	66
338	337
215	199
126	125
100	99
154	153
92	91
126	125
58	57
129	128
208	207
208	207
402	401
126	125
92	91
53	52
169	168
59	72
172	181
111	268
527	648
176	175
390	401
233	257
202	234
332	376
232	231
65	74
102	102
162	161
150	149
107	106
168	167
160	159
109	108
87	86
142	143
165	165
112	111
97	96
151	217
192	181
107	107
259	258
210	244
396	401
392	391
89	88
109	108
160	159
508	507
119	118
72	92
116	115
314	335
124	227
544	652
78	77
177	175
158	157
64	63
141	140
142	141
257	256
145	144
57	54
37	23
161	227
67	66
146	145
169	168
83	82
146	145
424	423
209	208
457	471
81	81
114	113
89	88
94	93
92	91
74	92
99	151
198	234
166	168
40	67
96	220
73	91
107	87
101	179
323	462
100	128
81	80
357	356
135	83
540	539
214	193
153	152
201	213
84	164
212	438
89	158
174	314
52	51
87	178
83	85
162	161
42	41
315	166
113	127
99	98
274	273
401	400
120	152
41	79
252	251
205	217
190	215
97	96
322	392
51	89
396	492
123	130
176	322
134	133
117	116
136	190
97	133
325	324
61	74
96	156
283	443
155	153
77	89
177	176
108	110
83	95
190	189
120	119
50	126
182	181
286	342
101	161
541	1014
222	206
225	224
178	177
189	189
615	721
114	198
217	216
81	80
123	122
72	71
91	83
246	226
67	79
86	105
59	58
84	83
32	31
439	438
375	374
504	711
68	588
98	97
83	82
56	55
86	127
694	903
110	110
94	109
186	282
84	83
57	56
305	304
130	129
89	88
145	144
146	117
73	72
41	40
158	157
159	159
146	145
124	130
113	112
157	156
135	134
235	234
234	235
284	283
264	273
268	267
107	104
182	322
220	219
