85	84
433	432
91	90
452	451
887	886
233	232
140	139
346	345
230	229
128	127
196	195
294	293
445	444
246	245
541	540
192	191
217	216
319	318
160	159
600	599
325	324
227	226
302	301
243	242
244	243
127	126
87	86
283	282
212	211
168	167
519	518
1296	1295
461	460
238	237
445	445
113	112
397	396
418	417
398	397
1094	1093
328	327
510	509
333	332
354	353
291	290
141	140
380	379
427	426
285	284
268	267
247	246
163	162
405	404
129	128
108	107
172	171
617	616
112	111
67	66
428	427
257	261
282	281
937	1653
656	1653
759	770
144	143
385	384
336	335
373	372
425	424
207	206
393	392
491	490
72	71
725	724
331	330
1144	2693
213	1634
1377	2693
456	455
489	488
526	525
180	179
172	171
58	57
51	50
748	747
514	513
689	688
213	212
346	345
209	208
430	429
249	248
120	119
488	487
354	353
157	156
191	190
293	292
345	344
77	76
238	237
288	287
672	671
233	232
67	66
376	375
119	118
1038	1037
493	507
660	659
192	191
333	332
668	667
317	316
760	759
112	111
160	159
234	233
268	267
339	338
112	111
96	95
468	467
279	278
396	395
409	408
468	467
454	453
296	295
220	219
167	166
351	350
301	300
290	289
142	141
150	149
192	191
300	299
475	474
299	298
264	263
339	338
278	277
292	291
366	365
304	303
123	122
284	283
170	169
499	575
44	43
86	85
324	323
254	253
333	332
672	671
73	72
333	332
309	308
255	254
278	277
437	418
295	294
472	471
124	123
120	119
812	811
401	400
413	412
109	108
419	418
322	321
109	108
416	415
362	361
346	345
832	831
286	285
245	244
566	565
413	412
307	306
81	80
92	91
211	210
417	416
565	564
315	314
382	381
1198	1197
205	204
388	387
513	512
443	442
446	445
312	311
76	75
167	279
335	334
197	196
79	78
137	136
536	895
374	536
91	90
294	293
317	316
392	391
311	310
252	251
447	446
95	94
437	436
715	714
162	161
189	188
883	882
233	250
164	163
160	159
176	175
275	274
184	183
311	310
224	223
128	134
275	274
270	269
183	182
93	92
392	518
290	337
407	406
393	392
332	331
379	378
338	337
271	270
220	219
305	304
423	422
221	220
163	162
506	505
190	189
261	260
261	260
229	228
239	238
258	257
298	297
121	120
216	215
215	214
184	183
181	180
507	506
715	714
401	400
152	151
165	164
217	216
611	610
200	199
406	405
313	312
55	54
148	147
221	220
601	600
167	166
446	445
909	908
326	325
181	180
185	184
101	100
614	613
510	509
486	485
168	167
324	323
581	580
306	305
154	153
102	101
432	431
557	556
253	252
286	285
321	320
452	451
89	88
129	128
112	111
551	550
297	296
661	660
323	322
386	385
201	200
142	141
181	180
401	400
261	260
402	401
430	429
268	267
74	73
332	331
397	396
420	419
543	542
453	452
359	358
217	216
85	84
377	376
762	761
1255	1254
241	240
876	875
563	562
208	207
1465	1464
430	442
259	258
395	394
441	440
217	216
221	220
462	461
609	608
800	946
166	169
217	216
891	890
374	373
352	351
355	354
217	216
548	547
549	548
163	162
55	54
165	164
88	87
829	828
232	231
288	287
150	149
201	200
179	180
221	220
246	245
70	69
160	159
648	647
186	185
351	350
216	215
68	67
130	129
83	82
587	586
76	75
336	335
95	94
587	586
232	231
397	396
115	114
530	529
342	341
365	364
605	604
519	518
189	188
238	237
329	328
489	488
191	190
85	84
206	228
209	208
377	376
313	312
137	136
444	521
314	313
313	312
417	416
233	232
314	313
363	362
286	285
350	349
294	293
490	489
664	663
279	278
223	222
386	385
347	346
333	332
463	476
337	336
412	411
413	412
80	79
240	239
295	294
232	231
133	132
317	316
479	508
254	253
193	192
196	195
311	310
572	571
756	755
298	305
386	385
309	308
244	243
36	35
244	243
562	561
240	239
157	156
154	153
577	667
111	110
379	378
760	759
363	362
62	61
829	1117
382	381
1254	1253
1267	1266
678	677
370	369
94	93
181	180
225	224
827	826
345	344
113	112
275	274
91	90
263	262
267	266
273	272
249	248
242	233
94	137
335	334
151	150
293	291
351	350
285	284
421	420
151	150
95	94
452	451
347	346
260	259
300	299
106	105
454	453
111	110
241	240
468	467
472	471
1026	1497
1041	1040
416	415
220	219
254	253
647	646
451	450
283	282
1106	1105
214	213
194	193
618	617
400	411
129	127
380	379
148	147
721	720
280	279
163	162
406	405
407	406
249	248
183	182
135	139
235	245
322	321
161	160
408	407
479	478
457	456
465	464
508	459
427	426
407	406
131	130
354	464
298	297
146	168
227	253
300	299
293	292
181	180
420	419
322	321
383	382
406	405
202	201
367	366
264	263
469	468
389	388
326	325
204	203
259	258
246	245
197	196
356	355
357	356
435	434
300	299
84	83
85	84
275	274
310	309
453	454
153	152
476	475
389	388
158	157
353	352
110	109
65	64
125	124
123	122
215	214
74	73
159	158
158	157
82	81
273	272
137	136
161	159
357	356
302	301
795	794
145	144
722	721
275	329
353	352
194	255
86	85
382	381
341	340
231	230
201	200
134	117
399	398
67	66
190	189
134	133
146	172
286	285
345	344
322	321
253	252
405	404
39	38
258	257
175	174
399	398
218	217
408	407
215	214
43	42
393	392
314	313
181	180
248	247
360	359
312	311
306	305
317	316
485	484
239	238
485	484
439	438
351	350
159	158
421	420
250	249
548	673
526	525
268	267
367	366
2349	3163
833	832
1703	2035
334	333
320	319
601	600
601	600
427	426
435	434
422	354
421	420
266	265
217	216
58	57
201	200
212	211
335	334
138	137
261	260
453	452
284	283
372	371
37	36
232	231
473	472
157	156
307	306
306	305
61	60
565	564
272	271
76	75
63	62
208	207
262	261
90	89
246	245
122	121
138	137
335	334
155	154
376	375
148	147
458	457
229	228
332	331
553	552
105	104
111	110
184	183
266	265
183	182
90	89
166	165
78	77
402	401
138	137
496	495
122	121
137	136
472	471
350	349
240	239
184	183
286	285
329	328
223	222
251	250
241	240
75	74
219	218
611	610
183	182
339	338
88	87
61	60
190	189
215	293
523	738
107	106
138	137
77	76
159	158
62	74
140	251
472	471
137	136
79	78
104	103
75	74
39	38
74	73
263	262
308	307
183	202
202	201
163	162
78	77
214	213
60	59
199	198
98	97
224	223
128	127
91	90
160	159
82	81
189	188
627	626
78	77
525	524
436	435
110	109
345	344
140	139
127	126
227	226
179	178
301	300
130	129
307	306
209	208
395	394
130	129
501	500
171	170
94	93
380	546
130	129
75	74
141	128
182	347
140	139
222	221
404	403
80	79
166	165
108	107
84	83
168	167
330	329
505	504
329	328
267	266
475	474
143	142
117	116
171	170
296	295
309	308
655	654
168	167
554	553
40	39
287	286
350	349
130	129
215	214
150	149
234	262
693	692
131	130
578	577
189	188
249	248
367	366
810	809
324	323
248	247
132	131
273	272
189	188
591	590
148	147
247	246
174	173
201	200
204	203
337	336
58	57
201	200
262	261
252	251
329	328
441	440
324	323
481	480
290	289
50	49
492	491
604	603
214	213
393	392
97	96
119	118
37	36
220	219
687	686
221	220
219	218
77	76
125	124
291	290
118	117
219	218
92	91
79	78
482	481
878	877
428	427
184	183
233	232
683	682
294	293
458	457
264	263
80	79
96	95
70	69
270	269
189	188
153	152
284	283
267	266
324	323
519	518
533	532
455	454
193	192
454	453
60	59
100	99
116	115
637	636
232	231
194	193
584	583
372	371
213	212
120	119
61	60
83	82
342	341
85	84
114	115
394	393
273	272
149	148
168	167
497	496
492	491
428	427
645	644
249	248
190	189
95	97
295	294
332	331
138	137
91	90
359	358
460	459
348	347
279	278
316	315
327	326
253	252
453	452
214	213
339	338
237	236
619	618
184	183
348	347
659	651
448	447
91	90
136	135
207	206
436	435
218	217
512	511
389	388
183	182
235	234
226	225
237	236
269	268
211	244
209	204
345	344
493	492
448	447
323	322
162	161
192	191
296	295
276	275
113	112
107	106
453	452
117	116
280	279
451	450
253	252
754	753
88	87
464	463
197	196
199	222
179	178
262	215
97	96
310	309
253	252
36	35
96	95
643	642
145	144
66	65
119	118
328	327
796	795
100	99
327	326
184	183
250	249
155	154
238	237
479	478
64	63
349	348
278	277
793	792
549	566
98	97
430	429
313	312
255	254
304	303
384	383
532	531
253	252
289	288
422	421
405	404
119	118
371	370
1019	1018
137	136
63	62
123	122
496	495
249	248
424	423
407	406
139	138
335	334
79	78
471	470
70	69
209	208
701	700
213	212
223	222
262	261
255	254
535	534
102	101
419	418
458	457
214	213
383	382
404	403
311	310
342	341
30	29
390	389
194	193
276	275
116	115
216	215
136	135
366	365
200	199
80	79
299	298
174	173
671	670
286	285
79	78
145	144
156	155
370	369
108	107
219	218
425	424
287	286
202	201
501	500
212	211
232	231
207	206
255	351
106	105
807	628
193	192
194	193
147	146
72	71
347	346
334	333
391	390
531	530
343	342
256	255
193	192
604	603
458	457
428	421
503	502
392	391
549	548
468	467
310	309
434	433
240	239
112	111
241	240
461	460
57	57
251	224
511	510
463	462
345	344
122	121
110	109
274	273
103	102
418	417
298	297
407	406
232	231
419	418
205	204
155	154
131	130
206	205
246	245
245	244
809	808
102	101
249	248
187	186
114	113
109	108
405	404
340	339
456	455
487	486
68	67
229	228
249	248
682	681
297	296
32	31
396	395
300	299
73	72
128	127
145	144
222	221
397	396
294	293
463	462
309	308
120	119
473	472
484	483
305	304
227	250
89	88
441	440
60	59
188	187
237	236
884	883
177	176
168	167
305	304
760	759
66	65
254	253
561	560
386	385
270	269
467	466
512	511
440	439
800	799
144	143
72	71
46	45
566	565
337	336
57	56
95	94
218	217
295	294
804	1015
196	195
275	274
463	462
1247	1246
515	514
232	231
227	226
298	297
282	281
190	189
379	378
500	499
354	353
701	700
79	78
173	172
150	149
78	77
58	57
475	474
265	264
314	313
338	337
382	381
469	468
57	56
668	667
179	178
391	390
223	222
196	197
331	330
327	326
180	179
75	74
540	551
448	447
308	307
98	97
56	55
58	57
177	176
334	333
480	479
267	266
1301	1300
202	201
289	288
2868	1682
57	56
78	77
109	108
62	61
880	879
330	329
141	140
89	88
258	257
932	1174
378	377
145	144
90	89
32	47
305	304
162	161
132	131
286	285
286	285
98	97
347	346
94	93
791	790
1138	1137
183	182
200	199
233	232
99	98
1078	1077
150	149
310	309
131	130
127	126
128	127
132	131
59	58
380	379
255	254
372	371
469	468
434	433
255	252
131	131
70	69
311	310
264	263
475	485
155	154
178	177
91	90
115	114
72	71
181	180
97	96
200	199
51	50
610	609
347	346
144	143
254	253
249	248
174	174
141	140
85	84
140	139
45	44
52	51
204	203
74	73
57	56
92	91
867	866
270	269
63	62
72	71
412	411
280	311
458	457
58	57
179	178
154	169
411	410
188	187
329	329
174	173
343	342
272	271
172	171
251	250
317	316
86	85
344	343
538	537
300	299
307	306
213	212
243	242
322	321
169	168
514	513
354	353
466	465
333	332
302	301
361	360
220	219
756	755
352	351
267	262
351	350
281	280
294	293
431	430
560	559
105	104
74	73
120	119
75	74
223	222
326	325
82	81
548	547
322	321
297	296
331	330
269	268
388	387
458	457
1036	1035
374	373
189	188
263	262
376	375
645	644
662	661
58	57
250	249
73	72
109	108
266	265
390	389
103	102
255	254
197	196
892	891
56	55
43	42
325	324
866	865
84	83
350	349
253	252
86	85
111	110
103	102
341	340
292	291
613	627
207	206
294	293
521	520
532	531
453	452
398	397
269	268
218	217
248	247
180	179
133	132
239	238
99	98
418	417
487	486
110	109
335	334
115	126
219	218
303	302
307	306
138	137
435	558
54	53
52	51
216	215
892	891
402	401
206	205
138	137
303	302
338	337
315	314
153	152
281	280
364	363
142	285
227	264
201	200
429	428
269	268
339	338
336	335
157	156
78	77
237	236
513	512
362	361
877	876
464	463
73	72
599	598
217	216
465	464
118	117
239	238
80	79
367	366
36	35
285	284
270	269
131	130
278	277
361	360
419	418
208	207
284	283
338	337
551	559
93	92
195	194
364	363
392	391
95	94
164	163
57	56
84	83
66	65
46	45
399	398
71	70
886	885
200	199
466	465
285	284
156	155
66	65
205	204
305	304
151	150
180	179
141	140
163	162
90	89
176	175
120	119
112	111
82	81
512	544
77	75
172	171
376	375
56	55
586	585
80	79
640	639
357	356
211	210
473	472
566	565
341	340
185	184
143	142
253	252
271	270
285	284
657	656
85	84
245	244
204	203
305	304
579	578
357	356
433	432
511	510
240	239
514	513
177	176
423	422
140	139
87	86
149	148
220	219
98	97
134	133
123	122
232	231
271	270
89	88
104	103
58	57
95	94
110	109
124	123
121	120
227	226
83	82
89	88
79	78
404	403
244	243
135	134
417	416
218	217
154	153
369	368
214	213
457	456
224	223
462	461
374	373
409	408
128	128
246	245
286	285
265	264
349	348
154	153
263	262
274	273
304	303
413	412
234	233
400	399
358	357
1173	1172
320	319
86	85
211	210
180	179
435	434
181	180
342	341
275	274
214	213
126	125
120	119
730	729
478	477
77	86
205	221
335	334
214	213
341	340
270	269
414	413
79	78
103	123
163	162
310	309
318	317
347	346
58	57
174	173
208	207
320	319
1062	1061
318	317
548	547
314	313
366	365
233	232
261	260
252	251
402	401
232	231
135	134
139	138
220	219
98	97
139	138
512	511
308	307
216	215
195	194
403	402
216	215
187	186
348	347
82	81
85	84
373	372
38	37
189	188
179	191
351	350
307	306
409	408
125	124
76	75
176	175
655	847
501	517
386	385
519	493
178	177
104	103
111	110
153	152
152	82
217	216
130	129
139	138
278	277
174	173
185	184
246	245
313	312
35	34
456	455
808	807
673	672
442	441
138	137
355	354
430	423
376	375
277	276
503	502
1321	1320
213	212
364	363
232	231
129	128
267	266
197	196
165	164
443	442
58	57
199	198
76	75
414	413
205	306
94	130
102	101
200	199
849	865
391	390
231	230
343	342
896	895
368	367
58	57
71	70
71	70
437	436
31	30
379	378
515	514
286	285
133	132
196	195
236	235
598	597
373	372
220	219
110	109
93	92
392	391
106	105
66	65
79	78
221	220
153	152
685	684
149	148
721	720
210	209
170	169
351	350
151	150
587	586
209	208
56	55
188	187
547	546
418	417
636	635
703	702
370	369
181	180
337	336
192	191
320	319
382	381
265	264
256	255
343	342
522	870
401	400
467	466
363	362
206	208
196	195
216	215
183	182
616	615
1487	1486
235	234
441	440
262	261
260	259
298	297
249	248
61	60
411	410
329	328
583	582
755	754
95	94
558	557
228	227
255	254
428	427
363	362
187	192
35	38
587	586
399	398
761	760
73	72
388	387
160	159
816	815
92	91
173	172
397	396
164	163
193	192
873	872
177	176
303	302
116	115
212	211
151	150
156	155
53	52
142	141
142	141
166	165
94	93
68	67
170	169
248	247
358	357
285	284
591	590
345	344
261	260
244	243
152	150
762	761
92	91
75	74
97	96
82	81
71	70
167	166
57	56
119	118
83	82
332	331
266	265
383	382
209	208
288	287
206	205
815	814
431	430
448	447
204	203
1369	1368
165	164
357	356
589	588
574	573
235	234
73	72
759	758
107	106
75	74
649	648
366	365
331	330
553	552
232	231
300	299
551	550
323	322
573	572
334	333
477	476
338	337
277	276
108	107
129	128
243	242
244	243
227	226
223	222
244	243
376	375
163	162
282	281
315	314
378	377
371	370
159	158
301	300
241	240
96	95
86	85
126	125
562	561
179	178
376	375
272	271
93	92
411	410
199	198
253	252
401	400
209	208
372	371
128	127
442	441
443	442
783	782
304	303
307	306
513	512
624	623
322	321
412	411
250	249
221	220
300	299
811	810
272	271
531	530
307	306
373	372
156	155
43	42
419	418
172	171
296	295
168	167
249	248
220	219
241	240
742	741
290	294
87	86
761	760
225	224
89	88
87	86
362	361
321	320
717	716
66	65
454	453
224	223
332	331
579	578
157	198
228	239
369	368
137	136
254	253
414	413
319	318
238	237
235	234
151	150
82	81
162	161
171	170
289	329
303	302
674	673
226	225
252	251
385	384
347	346
430	429
68	67
73	85
428	427
754	753
478	477
351	350
318	317
332	331
273	272
353	352
230	229
258	257
50	49
263	262
491	490
339	338
349	348
383	382
347	346
251	250
351	350
44	62
57	56
314	313
240	239
348	347
264	263
174	173
431	430
437	436
143	142
231	230
135	134
67	97
38	37
380	379
523	522
398	397
878	877
639	638
241	240
290	289
389	388
406	405
934	933
239	238
589	588
116	115
135	134
36	35
428	427
437	436
154	153
323	322
372	390
104	103
252	251
338	337
229	228
238	237
349	348
264	263
245	244
311	310
219	218
248	247
494	493
473	472
170	169
69	68
558	557
683	682
149	190
895	894
226	225
733	732
440	439
547	546
182	181
255	254
121	120
177	176
149	148
109	108
469	468
555	554
254	253
329	328
412	411
386	385
296	295
253	252
390	389
157	156
427	426
649	648
267	266
383	382
407	406
251	250
77	76
485	484
146	145
392	391
513	512
360	359
156	155
293	292
513	512
626	625
303	302
247	246
225	224
242	241
312	311
557	556
484	483
236	235
185	125
73	72
161	160
861	860
194	193
344	343
214	213
204	203
106	105
156	155
634	633
371	370
363	362
404	403
88	87
214	213
178	177
322	321
68	67
263	262
128	127
70	69
187	186
462	461
227	226
141	145
411	441
353	352
99	98
303	302
511	510
184	183
293	292
488	487
269	268
137	136
30	29
143	142
532	531
188	187
249	248
301	300
407	406
210	209
387	386
363	362
66	65
702	701
138	137
199	248
286	285
537	536
392	391
319	318
417	416
335	334
331	330
272	271
378	377
1294	1293
73	72
401	400
747	746
261	260
312	311
277	276
317	316
507	506
312	311
207	206
486	509
356	355
266	265
262	261
51	50
51	50
373	372
83	82
128	127
218	217
416	415
461	460
1048	1047
408	407
111	110
461	460
228	227
481	480
746	745
991	990
297	296
318	317
223	222
100	99
289	288
71	70
174	173
462	461
165	164
183	182
110	109
170	169
356	355
298	297
218	217
420	419
556	555
350	349
412	411
262	261
382	381
434	433
454	453
485	484
293	292
259	258
594	593
272	271
161	160
309	308
369	368
186	194
223	222
220	219
668	667
805	804
229	228
198	197
257	256
285	284
260	259
226	225
306	305
153	152
160	159
136	135
431	430
311	310
835	834
114	113
101	100
265	264
160	159
267	266
168	167
551	550
407	406
559	558
435	434
320	319
321	320
215	214
625	624
202	201
110	109
203	228
442	441
184	183
126	125
176	175
55	54
1121	1120
216	215
398	397
1050	1049
125	124
73	72
184	183
157	156
517	516
118	117
104	103
191	190
287	286
429	428
113	112
594	593
591	590
153	152
273	272
567	566
232	231
133	132
124	123
624	623
91	90
785	784
425	424
208	207
433	432
105	104
193	192
492	491
316	315
664	663
205	204
110	109
297	296
455	454
164	163
304	303
197	196
483	482
81	80
300	299
237	236
403	402
325	324
173	172
326	325
140	139
157	156
368	367
150	149
180	179
295	294
116	115
324	323
605	615
111	110
376	375
357	356
194	193
606	605
458	457
440	439
432	431
230	229
401	400
314	392
725	1047
423	422
303	302
326	325
61	60
95	94
226	225
64	63
175	174
153	152
270	269
372	371
107	69
472	471
87	86
365	364
71	70
103	102
365	364
407	406
34	33
386	385
208	207
996	995
325	324
284	283
276	275
256	255
321	320
92	91
370	369
278	277
180	179
404	403
58	57
201	200
338	337
317	316
270	269
289	288
315	314
555	554
278	277
364	363
578	1024
454	1020
418	417
207	206
428	427
420	419
629	628
484	483
390	389
297	296
529	528
92	91
211	210
350	349
461	460
317	316
473	472
516	515
288	287
202	201
166	165
311	310
363	362
41	40
617	618
196	195
491	490
557	556
94	93
188	187
258	264
47	46
254	253
764	763
223	222
232	231
476	475
240	239
285	284
442	556
198	197
290	289
286	285
1416	1415
284	283
330	329
298	297
309	308
307	306
381	380
34	33
89	88
47	46
181	180
196	195
223	222
764	841
59	67
260	297
288	298
237	236
205	204
112	111
259	258
307	306
261	260
1033	1032
546	545
416	415
157	156
418	417
368	367
352	351
134	133
415	414
153	152
486	485
205	204
380	379
125	124
352	351
308	307
288	287
239	238
156	155
354	353
104	103
131	130
439	438
305	304
281	280
326	325
310	309
459	458
100	99
367	366
247	246
262	261
246	245
401	400
238	237
144	143
112	111
246	245
93	92
143	142
311	310
813	812
32	31
134	133
183	182
116	115
132	131
145	144
447	464
237	236
337	336
403	548
114	113
329	328
284	283
124	123
251	250
91	90
261	260
129	164
234	379
698	697
166	165
253	252
247	246
256	255
193	192
815	814
149	148
257	256
247	246
156	155
241	240
252	251
407	406
257	256
275	274
305	304
268	267
85	84
191	190
344	343
218	217
272	271
135	134
236	235
573	572
275	274
237	236
141	140
182	181
67	66
87	86
438	437
130	129
525	713
169	261
320	319
1161	1160
199	198
383	382
263	262
152	151
342	341
162	161
811	810
451	450
250	249
51	50
253	252
399	398
186	185
242	241
284	283
242	241
265	264
891	890
275	274
129	128
386	385
475	474
506	505
233	232
267	266
208	207
115	114
115	114
377	375
427	426
661	660
297	296
266	265
750	749
337	336
826	825
239	238
189	188
842	841
810	809
177	176
235	234
152	151
309	308
455	454
68	67
61	159
195	194
247	246
322	410
513	866
191	190
201	200
199	198
418	417
265	264
284	283
66	65
307	306
127	126
410	409
147	146
257	256
309	308
221	220
183	182
399	430
411	428
517	516
103	102
289	288
265	264
121	120
866	865
588	587
475	474
631	630
888	887
255	254
97	96
97	96
97	96
95	94
594	593
457	456
285	284
184	183
298	297
147	146
462	461
401	400
348	347
207	206
248	247
66	65
133	132
902	901
196	195
306	305
384	383
421	420
277	276
307	306
492	491
356	355
415	414
439	438
361	360
453	452
496	495
589	588
122	121
249	254
153	152
335	334
164	163
575	574
315	314
524	523
364	363
467	466
202	201
44	43
552	551
328	327
537	536
233	232
255	254
496	495
146	145
318	317
308	307
411	410
282	281
567	566
501	500
232	231
784	783
969	968
220	219
272	271
785	784
429	428
330	329
401	308
283	282
95	94
78	77
197	196
621	620
177	176
444	443
96	95
429	428
314	313
257	256
505	504
381	380
406	405
518	517
262	261
197	196
132	131
73	72
1074	1073
383	382
274	273
122	121
305	304
317	316
150	149
165	164
939	938
314	313
88	87
458	457
680	679
300	299
389	388
420	419
498	497
254	253
51	50
377	376
639	638
135	134
238	237
189	188
196	195
318	317
477	476
259	258
99	98
429	428
311	310
821	820
229	228
239	238
451	450
475	474
230	229
158	157
290	289
216	215
176	175
99	98
646	645
556	555
411	410
419	454
323	322
215	214
339	338
444	443
240	239
408	407
441	440
260	259
309	336
202	214
235	234
260	259
358	357
54	53
202	201
529	528
83	82
78	77
197	196
98	97
93	92
674	673
1041	1039
155	154
200	199
233	232
110	109
1022	1021
106	105
129	128
248	247
134	133
193	192
92	91
108	107
676	675
503	502
71	70
701	700
164	163
69	68
58	57
307	348
72	71
166	165
178	177
87	86
184	183
69	68
72	71
71	70
251	250
330	329
266	265
130	129
109	108
163	162
273	272
79	78
279	278
184	183
67	66
225	224
121	120
275	274
179	178
121	120
207	206
240	239
408	407
226	225
149	148
138	137
344	343
79	78
263	262
226	225
242	241
257	256
158	157
180	179
246	245
165	164
764	763
341	340
302	301
551	550
324	323
158	157
424	423
555	554
717	716
68	67
319	318
101	100
245	244
700	699
782	781
436	435
1088	1087
238	237
55	54
57	56
307	306
427	426
384	383
190	189
86	85
324	323
393	392
185	184
228	227
154	153
171	170
304	303
468	467
457	456
645	644
580	579
261	260
296	295
381	380
514	513
75	74
455	454
423	422
361	360
355	356
211	210
794	793
128	127
258	257
487	486
395	394
448	447
301	300
168	167
177	176
879	878
242	241
166	179
183	182
199	198
201	200
239	238
369	368
327	326
598	743
136	185
1572	1571
266	265
92	91
91	90
278	277
112	111
105	111
158	157
273	272
318	317
205	204
73	72
262	261
338	337
228	238
326	325
239	568
801	474
398	397
1045	1044
166	165
107	106
293	292
423	422
340	339
501	500
361	360
360	359
504	503
148	147
952	951
396	395
168	167
139	138
335	334
151	150
407	406
311	310
335	334
468	467
163	162
45	44
312	311
154	153
129	128
899	898
316	315
474	473
552	551
713	712
155	154
129	128
451	450
184	183
458	457
333	332
332	331
341	340
501	500
319	318
177	176
114	113
1260	1259
578	577
213	212
448	447
69	68
186	185
247	246
648	647
127	126
287	286
322	321
221	220
471	470
207	206
213	212
216	215
264	263
49	60
253	280
228	258
514	513
691	690
426	425
250	253
169	168
164	163
150	149
76	75
105	104
132	131
92	91
229	228
285	284
217	216
155	154
102	101
466	465
355	354
219	248
250	249
110	109
92	91
542	541
388	387
213	212
133	132
220	219
233	232
134	133
244	243
814	813
142	141
433	432
66	65
335	334
420	419
427	426
103	102
317	316
155	244
450	483
444	443
154	153
511	515
380	379
182	181
351	350
323	322
1108	1107
101	100
486	500
326	325
120	130
321	324
245	244
132	131
120	119
335	334
178	177
106	105
49	48
42	41
189	188
343	342
290	289
118	117
549	548
98	97
216	213
198	231
159	158
479	478
434	433
113	112
566	565
192	191
513	512
445	444
716	715
486	485
506	505
99	98
91	90
1310	1309
60	59
264	263
161	160
1280	1279
175	174
231	230
846	845
91	90
77	76
783	782
447	446
549	548
217	216
452	451
303	302
757	756
254	253
446	445
548	547
223	222
367	366
30	29
501	500
293	292
743	742
112	111
148	147
263	262
339	338
260	259
242	241
151	150
195	194
355	354
282	281
253	252
227	226
379	378
186	185
145	144
253	252
119	118
150	149
297	296
312	311
511	510
327	326
232	231
310	309
662	661
92	91
344	343
684	683
489	488
140	139
560	715
523	522
350	349
278	277
279	278
235	234
230	229
438	437
199	198
128	127
523	540
319	318
224	223
189	188
482	475
290	298
380	391
105	104
550	549
230	229
137	136
295	294
550	549
450	449
155	154
108	107
529	528
94	93
179	178
941	940
119	118
139	138
238	237
607	606
453	452
358	357
500	499
291	290
390	389
404	403
385	384
915	914
398	397
335	334
186	185
360	359
472	471
345	344
524	523
260	259
427	426
679	678
328	327
81	80
332	331
172	171
70	69
442	441
203	202
123	122
808	807
291	290
166	165
307	306
447	446
372	371
397	396
515	514
297	296
137	136
53	52
699	698
246	245
213	212
81	43
550	549
450	449
91	90
291	290
316	315
269	268
136	135
165	164
244	257
275	274
410	409
230	229
544	543
150	149
1228	1227
275	274
210	258
376	375
435	439
534	533
310	309
148	147
128	127
85	84
530	529
430	429
442	441
459	458
140	139
212	211
91	90
197	196
224	223
355	354
258	257
159	158
632	631
212	211
252	251
67	66
257	256
378	377
1408	1407
1343	1342
47	48
166	165
235	234
143	142
182	181
128	127
395	394
309	308
322	321
343	342
85	84
286	285
615	614
367	366
120	119
235	234
439	438
389	388
467	466
306	305
458	457
259	258
335	334
384	383
884	883
578	577
284	283
114	113
293	292
766	765
107	106
360	359
834	833
221	220
368	367
206	205
302	301
727	726
297	296
518	517
377	376
811	810
387	386
106	105
203	202
71	70
733	732
342	341
285	284
138	141
444	443
309	308
162	161
80	79
282	281
503	502
337	336
249	248
143	142
100	99
147	146
200	199
256	255
252	251
330	329
321	320
301	300
167	166
233	232
458	457
225	224
328	327
207	206
345	344
313	312
279	278
490	489
420	419
275	274
105	104
465	464
123	181
278	277
196	195
805	1016
301	300
212	211
310	309
81	80
283	282
247	246
73	72
93	92
71	70
97	96
104	103
303	302
314	313
146	145
291	290
200	199
296	295
450	449
478	477
337	336
296	295
293	292
299	298
263	262
608	607
470	469
350	349
470	469
37	36
458	457
170	169
211	210
929	928
62	61
311	310
477	476
209	208
329	328
90	89
195	194
176	175
85	84
182	181
81	73
422	442
205	204
444	443
730	729
388	387
234	233
498	497
163	162
261	260
259	258
107	114
90	89
547	546
202	201
252	251
476	475
257	255
335	334
210	209
325	324
169	168
497	496
255	254
270	269
32	31
223	222
287	286
520	519
492	491
319	318
130	129
391	407
302	301
282	281
666	665
503	502
186	185
754	753
318	317
300	299
267	266
177	176
161	164
207	206
287	286
207	206
612	611
290	289
156	155
297	296
127	126
127	126
317	316
255	254
301	300
721	720
239	238
299	298
236	235
275	274
68	67
78	77
107	106
849	848
321	320
247	246
404	403
399	398
197	196
552	551
412	411
462	461
247	246
451	450
360	359
417	416
86	132
296	295
225	224
294	293
356	355
421	420
377	376
349	348
368	367
420	419
110	109
422	421
495	494
674	673
94	93
492	491
320	319
516	515
617	616
310	309
88	87
549	548
507	506
113	112
280	279
85	84
231	230
476	475
331	330
310	309
297	296
322	321
502	501
140	139
623	622
499	498
484	483
331	330
153	152
148	147
630	629
208	207
127	126
272	271
80	79
157	156
178	177
514	513
288	287
461	460
140	139
457	456
610	609
347	346
320	319
297	296
258	257
242	241
231	230
625	624
465	464
539	538
390	389
241	240
196	195
156	155
222	221
446	445
189	188
250	249
320	319
392	391
401	415
472	471
455	454
549	548
109	108
47	46
468	467
367	366
358	357
805	804
133	132
271	270
219	218
230	229
293	292
206	205
383	382
431	430
367	366
405	416
100	86
138	137
143	142
554	553
289	288
572	571
121	120
393	392
116	115
121	120
166	165
395	394
563	562
97	96
287	286
197	196
501	500
440	439
460	459
589	588
445	444
151	150
108	107
120	119
413	412
98	97
273	272
308	307
166	165
346	345
461	460
773	772
518	517
157	156
105	104
364	363
284	283
287	286
311	310
227	226
570	569
464	463
402	401
694	693
230	229
703	702
92	91
208	207
561	560
206	205
288	287
239	238
214	213
199	198
153	152
407	406
223	222
79	78
56	55
270	269
160	159
426	425
353	352
375	374
266	265
266	265
360	359
340	339
339	338
233	232
284	283
358	357
422	421
320	319
349	348
311	310
399	398
342	341
345	344
320	319
420	419
515	514
144	143
84	83
156	155
340	339
274	273
158	157
416	396
259	258
552	551
1113	1398
227	226
121	120
70	69
196	195
383	382
638	637
121	120
379	378
203	202
464	463
615	614
384	383
432	431
513	512
658	657
467	466
272	271
232	231
287	286
221	220
499	498
329	328
426	425
156	155
82	87
225	306
155	154
333	332
283	282
158	157
418	417
677	676
275	274
393	392
394	393
514	513
331	330
441	440
485	484
114	113
146	145
332	331
100	99
304	303
690	689
349	348
51	50
71	70
97	96
237	236
325	324
220	219
778	777
147	146
188	187
233	232
403	402
564	563
536	535
340	339
301	300
328	327
335	334
424	423
36	35
467	466
36	35
560	559
64	63
520	519
63	62
251	250
873	872
770	769
369	368
1158	1157
650	662
429	428
499	498
310	309
256	255
687	686
441	440
262	272
324	323
201	200
550	549
466	465
467	466
275	274
243	242
94	93
1038	1037
386	385
110	109
176	175
191	190
111	110
113	112
192	191
257	256
319	318
208	207
165	164
446	445
305	304
661	660
343	342
177	176
189	188
92	91
142	141
72	71
451	450
281	280
681	680
251	250
490	489
145	144
112	111
500	499
398	397
432	354
356	355
912	911
375	374
284	283
90	89
503	502
453	452
94	93
158	157
249	248
32	31
134	133
269	268
255	254
238	250
315	314
525	524
196	195
350	349
420	419
186	185
222	221
82	81
733	732
209	208
120	119
90	89
199	198
499	498
223	222
353	352
285	284
368	367
89	88
176	175
128	127
397	396
309	308
426	425
169	168
81	113
238	237
439	438
296	295
282	281
357	356
248	247
104	146
578	577
163	162
346	345
232	231
332	331
176	175
447	446
700	699
401	400
198	197
368	367
729	728
475	482
201	216
432	431
478	477
816	815
502	502
256	255
202	201
502	501
109	108
277	276
253	252
112	111
149	148
902	901
798	797
695	694
439	438
192	191
228	227
257	256
121	120
79	78
774	773
76	75
774	773
159	158
240	239
451	450
541	540
287	352
294	498
383	382
293	292
134	133
223	222
351	363
378	413
187	186
851	850
260	259
180	179
147	146
135	134
403	402
174	173
363	362
429	428
279	278
226	225
253	252
335	334
306	305
121	120
388	387
409	408
293	292
103	108
435	434
362	361
56	55
458	457
269	268
109	108
848	847
394	393
191	190
56	55
201	200
188	187
407	406
697	696
211	210
135	134
290	289
73	72
341	340
638	637
184	183
602	601
67	66
197	196
73	72
271	270
241	240
129	128
120	119
96	95
125	124
157	156
705	704
395	394
901	900
159	158
226	225
154	153
388	387
328	327
196	195
126	125
170	169
146	145
399	398
494	493
651	650
272	271
490	489
140	139
104	103
210	209
202	201
101	100
274	273
93	92
111	110
234	233
137	136
64	63
85	84
124	123
105	104
180	179
102	101
131	130
178	177
118	117
168	167
60	59
145	144
444	443
39	38
119	118
130	129
207	206
330	329
128	127
123	122
142	141
73	72
138	137
459	458
430	429
316	315
170	169
375	374
158	157
181	180
191	190
273	272
86	85
185	184
85	84
91	90
253	252
368	367
394	393
342	341
74	73
1035	1034
386	385
221	220
60	59
295	294
99	98
322	321
294	293
484	483
81	80
319	318
272	271
285	284
297	296
500	499
330	329
321	320
349	348
450	449
157	156
325	324
647	646
348	347
368	367
163	162
198	197
154	153
334	333
1267	1266
482	481
310	309
68	67
311	310
428	472
198	223
91	90
88	87
157	156
313	312
356	355
412	455
54	53
133	132
376	375
143	142
131	130
213	212
166	165
261	260
298	297
497	496
230	229
292	291
155	154
473	472
1518	1517
310	309
779	778
218	217
243	242
211	210
91	90
285	284
164	163
96	95
478	477
242	241
186	185
192	191
189	188
329	328
326	325
270	269
261	260
184	183
212	211
98	97
90	89
420	419
93	92
324	323
65	64
86	85
322	321
391	390
478	477
159	158
98	97
210	209
648	647
283	282
446	445
111	110
506	518
448	447
151	150
496	495
891	890
134	133
315	314
90	89
712	711
295	294
630	629
415	414
336	335
293	292
332	331
175	174
168	167
101	100
148	147
173	172
212	211
347	346
192	191
197	196
132	131
679	678
288	287
238	237
264	263
268	267
159	158
287	286
385	384
378	377
145	144
293	292
260	259
158	157
427	426
270	269
155	154
112	111
524	523
445	444
257	256
297	296
218	291
165	274
313	312
330	329
444	443
403	402
765	764
130	129
455	454
444	443
437	436
55	54
234	233
299	298
123	122
329	328
161	160
100	99
135	134
102	101
123	122
128	127
221	220
259	258
433	432
471	470
496	495
184	183
415	414
322	321
329	328
231	230
168	167
379	378
105	104
139	138
673	672
784	783
357	356
357	356
150	149
1031	1030
328	327
111	110
430	429
507	506
208	207
255	254
169	168
614	613
217	216
173	311
169	168
72	71
338	337
488	487
202	201
304	303
311	310
206	205
123	122
274	273
413	412
207	206
434	433
947	946
478	477
554	553
210	209
67	66
100	99
72	71
137	139
350	349
247	246
765	840
75	177
188	187
57	56
258	257
272	271
224	223
223	222
599	598
162	193
242	226
224	223
494	493
210	209
141	140
276	275
194	193
631	630
714	713
270	269
213	206
115	114
350	349
316	315
296	295
105	104
145	144
160	159
237	236
111	110
450	449
220	219
118	117
161	160
536	535
753	752
246	245
471	470
435	434
161	160
328	327
337	336
281	289
491	490
166	249
84	78
740	739
86	85
309	308
276	275
388	387
319	318
220	219
396	395
245	244
142	141
295	294
165	164
347	346
296	295
96	95
373	372
329	328
393	392
568	567
165	164
163	162
114	113
83	82
289	288
620	619
500	499
231	230
233	232
257	256
450	449
279	278
187	186
357	356
360	359
391	390
83	82
305	304
575	577
381	380
255	254
500	499
351	350
408	407
135	134
724	723
561	560
1521	1520
270	269
137	136
320	319
687	686
498	497
408	407
152	151
188	187
34	33
108	123
202	201
326	325
393	392
179	178
259	258
221	220
197	1137
917	1137
346	345
417	411
676	675
247	246
495	558
64	64
383	382
328	327
97	96
236	235
712	711
419	418
360	359
92	91
351	350
240	239
109	108
240	239
349	348
336	335
434	433
168	167
329	328
379	378
198	197
97	96
189	188
235	234
327	326
139	138
212	211
317	316
244	243
236	235
152	151
465	464
385	384
84	83
659	658
244	243
307	306
253	252
664	663
303	302
148	147
463	462
426	425
322	321
170	169
238	237
226	225
226	225
236	235
193	192
144	143
340	339
388	387
360	359
287	286
212	211
247	246
92	91
98	97
104	103
352	351
298	297
77	76
220	219
411	410
201	200
110	109
193	192
442	441
393	392
401	400
365	364
130	129
958	957
478	477
67	98
220	219
327	326
89	88
136	135
174	173
299	298
237	236
578	577
294	293
506	505
183	182
42	41
483	482
640	639
163	162
105	150
341	392
439	438
418	425
957	956
260	259
443	442
1033	1032
177	176
257	256
37	32
507	541
311	310
462	461
404	403
399	398
396	395
593	592
160	159
305	304
766	765
117	116
410	409
394	393
279	278
254	253
473	472
231	230
312	311
364	375
58	57
344	343
720	719
334	334
347	346
73	72
238	237
230	229
49	48
177	176
749	748
292	291
265	264
157	156
188	187
136	135
108	107
1123	1122
963	962
311	338
855	926
609	608
444	443
418	417
275	274
527	526
392	391
199	198
316	315
459	458
143	142
179	178
360	359
531	586
56	81
141	140
473	472
546	545
751	1051
380	559
405	404
213	212
838	837
623	622
176	175
200	273
68	62
793	792
164	197
70	140
788	787
775	774
142	255
754	878
164	163
133	186
433	451
222	221
446	445
513	514
167	166
366	365
269	268
148	147
402	401
76	75
306	305
132	131
367	366
241	240
141	140
473	472
592	591
439	438
216	215
383	382
282	281
456	455
430	429
455	454
283	282
182	181
110	109
261	260
150	149
315	325
136	135
370	420
447	446
170	191
766	918
434	433
745	1178
264	263
546	545
433	432
291	290
36	35
224	223
336	335
468	469
457	456
506	505
248	247
64	51
493	492
426	425
262	261
485	484
470	469
260	259
287	286
192	191
87	86
424	423
122	121
600	599
571	570
245	244
51	50
35	34
346	345
303	302
476	475
202	201
108	107
104	103
237	236
160	159
350	349
254	253
209	208
380	379
331	330
184	183
348	347
455	454
259	258
213	212
421	420
303	302
256	255
219	218
854	853
115	114
143	142
693	692
337	336
374	373
91	90
291	290
117	116
154	153
171	203
601	608
308	307
570	569
181	180
256	255
137	136
156	155
140	139
146	145
68	67
176	175
520	637
169	312
72	71
378	377
480	479
505	504
237	321
86	85
258	257
120	119
260	259
124	123
320	319
188	187
362	361
80	79
166	165
354	353
167	166
877	876
62	61
217	145
189	188
138	137
519	518
172	171
371	370
236	235
513	512
391	390
177	176
112	111
246	245
395	394
331	330
355	354
401	400
320	319
268	348
435	714
137	136
82	81
110	109
115	114
150	149
135	134
175	174
100	99
53	52
150	149
221	220
467	466
427	426
483	482
422	421
326	325
161	160
150	149
97	96
114	113
554	553
293	292
198	197
414	413
289	288
454	453
83	82
183	182
256	255
116	115
161	160
409	408
173	172
121	120
357	356
374	373
387	386
114	113
246	245
327	326
244	243
858	857
62	83
58	57
402	401
321	320
86	164
104	103
166	152
180	179
78	77
653	652
145	144
240	239
358	357
53	52
178	213
101	100
96	95
274	273
170	200
128	127
229	228
76	75
122	121
104	103
189	188
243	242
476	475
197	196
66	65
84	83
172	171
74	73
35	34
876	875
129	128
211	210
331	330
213	212
603	602
86	85
130	149
102	103
116	115
124	104
95	94
165	181
105	124
130	140
458	457
941	940
166	165
259	258
718	717
133	132
76	75
104	99
246	309
1405	1756
249	248
187	186
82	81
50	49
83	82
286	285
199	178
793	802
264	263
164	163
262	261
261	283
261	283
261	283
297	259
267	266
255	254
258	257
193	192
89	102
212	211
168	167
234	239
511	510
205	204
129	191
202	201
235	234
111	110
836	835
229	228
172	171
393	392
197	196
86	85
73	72
102	101
269	268
212	211
331	330
138	137
240	239
453	452
2861	2860
96	95
91	90
69	107
416	395
317	316
495	494
100	99
55	54
165	164
562	561
319	318
410	409
1220	1261
211	257
142	148
70	94
97	96
98	97
398	397
173	452
152	279
84	181
183	456
230	456
647	646
396	395
317	316
370	369
268	300
71	70
92	179
74	179
471	470
704	703
867	866
170	169
788	1302
440	1302
241	273
147	326
187	186
174	173
183	182
196	195
244	243
820	836
167	194
176	175
93	92
247	246
326	325
44	45
96	95
