340	339
180	179
78	77
653	652
145	144
240	239
71	70
101	100
96	95
274	273
170	200
128	127
229	228
76	75
122	121
104	103
189	188
243	242
289	276
203	201
197	196
66	65
84	83
100	99
74	73
35	34
214	198
224	280
105	136
172	390
195	194
129	128
211	210
331	330
104	103
174	173
213	212
124	123
141	140
340	533
281	408
86	85
248	247
122	121
112	111
94	93
182	181
96	95
131	141
290	289
186	196
651	948
312	327
178	169
161	223
185	191
244	243
214	213
745	732
1533	1756
231	230
66	66
219	461
180	393
56	143
241	180
96	108
253	250
117	150
101	350
178	169
273	355
177	371
176	157
55	53
113	184
89	121
37	42
146	147
43	126
89	80
140	264
91	106
174	173
48	86
104	104
72	97
95	78
99	98
274	283
149	169
128	127
218	217
122	121
104	103
189	188
243	242
485	484
187	186
75	74
134	171
74	73
158	157
73	72
64	63
249	248
321	320
109	108
92	118
204	244
190	159
82	115
39	42
596	652
78	77
176	175
64	63
141	140
142	141
259	258
145	144
74	73
228	227
309	308
83	82
146	145
327	335
90	89
94	93
481	770
209	395
184	230
122	121
243	242
167	166
686	878
213	871
267	360
524	523
116	115
216	215
169	168
288	287
139	138
201	204
126	125
103	102
215	214
260	259
56	63
83	82
66	65
97	96
377	376
368	367
86	85
197	196
518	518
206	205
331	330
359	358
96	95
178	177
228	227
85	84
87	86
89	88
198	197
356	355
146	145
561	560
432	431
151	150
518	517
362	361
205	204
187	186
117	122
435	434
275	274
401	400
195	194
153	152
273	272
383	382
97	96
184	183
1256	1255
116	115
231	230
328	327
430	429
64	65
139	138
176	175
135	134
63	62
267	266
1015	1014
205	204
401	400
195	194
723	722
205	204
70	69
59	58
32	31
109	113
138	151
403	402
122	121
248	269
468	763
305	312
900	899
111	110
112	111
283	282
53	52
313	312
89	88
145	144
167	166
199	198
141	152
113	116
145	144
54	60
170	169
36	35
111	110
95	94
120	119
99	98
183	182
52	51
327	326
88	79
135	134
142	141
147	146
422	421
176	184
106	113
114	113
240	239
351	73
101	100
190	492
257	492
367	352
198	197
359	358
84	68
279	278
133	132
370	369
98	97
92	91
38	37
190	189
130	133
281	288
478	477
89	88
69	68
214	213
104	103
105	104
115	114
102	101
246	245
94	93
98	97
106	105
867	866
238	237
76	75
347	346
233	232
295	294
387	386
332	331
178	177
105	104
119	118
134	133
97	96
133	132
1079	1078
510	509
139	138
129	128
239	238
123	122
95	114
39	104
161	160
375	374
218	217
172	171
271	558
157	179
192	191
719	718
107	106
35	81
149	147
147	146
642	1400
673	1403
106	141
106	110
103	133
251	250
242	241
146	145
68	67
172	171
107	106
146	145
61	60
36	48
89	88
45	44
93	92
84	83
87	86
75	74
70	69
108	107
110	109
181	184
95	94
191	190
72	71
54	53
343	342
151	150
72	71
59	58
326	325
148	147
57	56
154	153
72	71
101	100
86	85
332	331
214	213
85	84
96	95
212	211
131	130
214	180
146	145
54	53
137	132
195	194
97	96
95	94
786	785
45	44
245	244
257	256
380	379
196	218
131	130
653	652
177	176
548	547
352	373
172	171
513	512
231	235
129	232
186	185
161	160
212	211
418	417
78	71
76	75
133	132
426	551
178	226
259	258
166	165
941	940
430	457
130	140
75	74
165	181
78	77
124	104
116	115
197	199
86	85
603	602
213	212
59	59
71	67
122	133
49	67
84	133
76	89
33	39
88	127
79	69
60	77
122	121
104	103
189	188
243	242
192	192
93	144
55	47
92	171
74	73
35	34
174	178
319	318
326	320
183	182
200	247
233	232
1078	1077
150	149
269	320
131	130
127	126
129	127
132	131
75	74
380	379
255	254
372	371
408	468
81	80
434	433
253	252
87	86
70	69
311	310
202	263
548	485
155	154
166	165
72	71
179	178
97	96
200	199
71	70
222	221
139	138
254	253
249	248
94	93
186	186
141	140
99	98
159	158
45	44
163	162
74	73
57	56
82	91
361	362
72	883
427	426
270	269
63	62
72	71
412	411
312	311
458	457
58	57
179	178
154	169
411	410
188	187
504	503
343	342
115	145
129	128
105	104
67	66
251	250
317	316
86	85
344	343
416	418
110	109
188	187
122	112
307	306
213	212
243	242
228	232
110	109
169	168
514	513
354	353
466	465
98	97
236	236
302	301
361	360
220	219
756	755
352	351
263	262
351	350
281	280
294	293
431	430
569	568
105	104
74	73
120	119
75	74
223	222
326	325
82	81
533	547
322	321
297	296
331	330
269	268
388	387
458	457
1036	1035
374	373
189	188
263	262
376	375
645	644
661	661
58	57
250	249
73	72
109	108
266	265
390	389
103	102
255	254
197	196
396	401
478	477
56	55
43	42
325	324
866	865
84	83
350	349
253	252
197	196
103	102
341	340
292	291
632	627
207	206
294	293
521	520
532	531
453	452
398	397
269	268
218	217
248	247
180	179
133	132
239	238
131	130
418	417
487	486
110	109
335	334
338	337
303	302
307	306
383	382
177	180
54	53
52	51
216	215
82	85
844	896
402	401
206	205
138	137
303	302
338	337
316	314
153	152
281	280
364	363
375	374
201	200
429	428
269	268
339	338
336	335
226	225
237	236
181	196
332	369
499	1247
103	350
538	1247
431	404
73	72
599	598
217	216
394	417
118	117
239	238
80	79
367	366
36	35
285	284
270	269
131	130
278	277
361	360
442	441
208	207
284	283
244	243
551	559
93	92
195	194
364	363
392	391
95	94
92	97
359	358
71	70
57	56
84	83
66	65
46	45
412	411
71	70
886	885
200	199
466	465
289	284
156	155
66	65
205	204
305	304
151	150
180	179
63	93
66	140
163	162
90	89
176	175
120	119
112	111
82	81
539	546
172	171
376	375
56	55
586	585
80	79
640	639
357	356
211	210
448	472
566	565
341	340
327	326
253	252
271	270
285	284
74	133
596	656
85	84
245	244
89	88
113	120
305	304
579	578
357	356
433	432
511	510
240	239
505	513
177	176
50	69
289	410
81	76
140	139
87	86
149	148
220	219
98	97
134	133
123	122
232	231
271	270
89	88
104	103
58	57
95	94
110	109
228	218
121	120
51	50
227	226
83	82
72	65
79	78
155	154
211	222
244	243
135	134
417	416
88	82
147	207
154	153
369	368
214	213
115	139
354	408
224	223
180	206
298	332
374	373
409	408
379	378
286	285
265	264
349	348
154	153
263	262
80	79
274	273
304	303
413	412
234	233
400	399
358	357
1173	1172
320	319
86	85
145	124
93	129
144	143
435	434
181	180
342	341
275	274
214	213
126	125
120	119
730	729
478	477
266	265
335	334
551	550
270	269
422	413
79	78
245	244
310	309
318	317
378	374
58	57
174	173
208	207
320	319
939	942
116	115
318	317
320	359
226	274
314	313
366	365
233	232
261	260
252	251
402	401
232	231
135	134
108	138
48	47
220	219
98	97
93	92
59	58
512	511
308	307
216	215
195	194
403	402
216	215
187	186
348	347
82	81
85	84
230	229
143	142
38	37
189	188
71	66
122	121
351	350
307	306
409	408
125	124
76	75
205	273
555	564
518	517
386	385
494	493
178	177
104	103
111	110
145	117
152	82
217	216
106	105
139	138
278	277
172	173
185	184
246	245
313	312
79	71
233	248
209	208
727	736
90	158
673	672
270	386
135	134
138	137
257	262
99	354
424	423
376	375
277	276
310	309
187	186
70	69
1321	1320
213	212
364	363
232	231
129	128
267	266
197	196
118	122
443	442
58	57
199	198
76	75
347	413
70	79
307	306
102	101
161	191
54	58
849	865
391	390
231	230
343	342
896	895
358	357
58	57
71	70
71	70
170	191
273	271
31	30
373	372
515	514
286	285
133	132
196	195
236	235
398	426
215	197
373	372
220	219
110	109
40	39
392	391
106	105
138	137
221	220
153	152
254	304
449	480
149	148
718	720
210	209
170	169
351	350
151	150
587	586
209	208
56	55
188	187
547	546
418	417
253	251
398	339
703	702
370	369
181	180
337	336
78	90
122	153
176	233
154	196
382	381
279	278
256	255
871	870
401	400
467	466
363	362
133	208
275	288
216	215
183	182
616	615
382	387
1105	1486
235	234
441	440
262	261
260	259
298	297
249	248
61	60
411	410
314	328
583	582
755	754
95	94
558	557
228	227
255	254
428	427
363	362
231	230
587	586
272	271
761	760
247	246
383	382
209	208
288	287
206	205
815	814
431	430
448	447
204	203
101	100
1283	1368
189	188
357	356
175	188
410	456
574	573
235	234
73	72
759	758
79	87
75	74
88	90
567	648
372	371
319	318
553	552
232	231
306	299
551	550
323	322
573	572
334	333
477	476
338	337
277	276
108	107
172	171
243	242
244	243
239	238
223	222
244	243
376	375
126	151
282	281
315	314
378	377
371	370
159	158
301	300
241	240
96	95
86	85
126	125
562	561
77	82
102	101
376	375
272	271
93	92
411	410
199	198
253	252
401	400
209	208
316	330
128	127
442	441
443	442
167	179
485	772
125	106
314	303
237	256
90	83
513	512
624	623
322	321
412	411
250	249
221	220
300	299
811	810
272	271
85	84
451	531
307	306
373	372
156	155
42	30
419	418
172	171
296	295
149	149
39	38
229	248
220	219
241	240
742	741
290	294
87	86
761	760
225	224
89	88
87	86
362	361
321	320
717	716
66	65
454	453
224	223
167	166
165	164
330	320
251	250
74	57
305	345
369	368
137	136
254	253
414	413
286	318
238	237
235	234
151	150
82	81
162	161
171	170
317	329
327	302
674	673
226	225
252	251
385	384
347	346
430	429
68	67
73	85
428	427
704	753
478	477
351	350
318	317
332	331
305	304
273	352
64	63
210	209
233	257
50	49
263	262
491	490
339	338
349	348
383	382
347	346
251	250
351	350
127	126
175	174
155	161
240	239
305	347
264	263
174	173
431	430
345	366
143	142
231	230
135	134
202	262
171	241
523	522
398	397
453	877
327	346
589	638
73	94
196	240
199	247
34	39
98	100
67	152
156	194
56	59
406	405
934	933
239	238
589	588
116	115
66	65
36	35
428	427
437	436
154	153
323	322
372	390
71	103
51	103
252	251
222	332
121	337
229	228
79	237
126	237
349	348
264	263
245	244
311	310
219	218
248	247
494	493
473	472
112	158
61	60
69	68
565	557
128	127
567	682
191	190
895	894
226	225
733	732
440	439
547	546
182	181
255	254
121	120
177	176
149	148
109	108
252	276
233	227
555	554
207	253
329	328
398	411
35	91
386	385
53	104
245	295
253	252
390	389
157	156
427	426
649	648
267	266
383	382
407	406
251	250
475	554
146	145
392	391
475	474
360	359
156	155
293	292
513	512
626	625
303	302
247	246
225	224
242	241
312	311
440	556
484	483
177	220
185	125
73	72
161	160
547	860
326	349
194	193
346	343
214	213
204	203
106	105
156	155
634	633
371	370
363	362
404	403
88	87
214	213
178	177
322	321
68	67
228	238
46	46
128	127
70	69
187	186
100	99
381	383
227	226
141	145
411	441
353	352
99	98
303	302
511	510
184	183
293	292
488	487
269	268
137	136
143	142
532	531
188	187
249	248
301	300
407	406
210	209
387	386
363	362
66	65
702	701
118	123
249	248
286	285
537	536
392	391
319	318
417	416
335	334
331	330
272	271
378	377
658	1293
648	1293
73	72
401	400
140	160
608	746
261	260
312	311
84	276
148	276
317	316
507	506
312	311
207	206
104	132
354	353
356	355
266	265
262	261
51	50
51	50
373	372
83	82
128	127
57	56
144	143
416	415
473	472
1036	1047
250	407
164	193
93	110
461	460
182	222
47	46
481	480
746	745
295	297
683	888
297	296
318	317
223	222
100	99
289	288
71	70
174	173
462	461
165	164
183	182
110	109
170	169
356	355
298	297
272	271
420	419
366	506
170	169
284	283
64	63
356	411
262	261
382	381
434	433
454	453
485	484
293	292
259	258
594	593
272	271
161	160
309	308
369	368
223	222
223	222
169	219
55	66
668	667
805	804
200	199
198	197
142	128
144	225
285	284
260	259
226	225
306	305
153	152
160	159
136	135
431	430
311	310
835	834
60	59
54	88
101	100
265	264
160	159
267	266
168	167
53	58
510	550
407	406
559	558
265	266
177	209
320	319
321	320
215	214
338	337
237	260
202	201
110	109
181	180
442	441
184	183
126	125
146	145
55	54
1121	1120
210	209
398	397
1050	1049
125	124
73	72
176	183
157	156
517	516
118	117
104	103
191	190
287	286
429	428
113	112
498	593
58	57
591	590
153	152
245	240
567	566
232	231
133	132
124	123
624	623
91	90
634	633
153	152
425	424
208	207
433	432
105	104
193	192
492	491
316	315
664	663
205	204
110	109
125	113
183	182
455	454
164	163
304	303
197	196
483	482
81	80
300	299
237	236
403	402
325	324
173	172
326	325
140	139
157	156
368	367
150	149
180	179
255	254
116	115
324	323
605	615
111	110
376	375
357	356
194	193
606	605
458	457
440	439
432	431
230	229
401	400
773	1047
275	485
423	422
303	302
326	325
61	60
95	94
226	225
64	63
175	174
153	152
270	269
372	371
107	69
472	471
87	86
365	364
71	70
103	102
365	364
212	276
214	311
34	33
377	376
208	207
996	995
325	324
284	283
276	275
256	255
133	132
171	170
92	91
370	369
236	277
180	179
404	403
81	80
58	57
201	200
338	337
317	316
270	269
289	288
315	314
555	554
223	221
56	55
364	363
1025	1024
418	417
55	67
428	427
420	419
629	628
484	483
390	389
297	296
529	528
92	91
211	210
350	349
461	460
317	316
473	472
516	515
288	287
202	201
166	165
311	310
363	362
678	677
196	195
77	80
175	222
254	464
557	556
94	93
216	215
258	264
47	46
254	253
241	317
327	326
549	763
223	222
77	76
156	155
476	475
133	132
94	93
285	284
442	556
198	197
290	289
286	285
1416	1415
284	283
330	329
298	297
309	308
86	165
224	293
202	260
188	227
34	33
89	88
47	46
181	180
196	195
223	222
768	845
59	67
548	547
237	236
205	204
112	111
259	258
307	306
202	260
1033	1032
546	545
416	415
157	156
418	417
368	367
352	351
134	133
366	414
153	152
486	485
205	204
380	379
125	124
352	351
153	169
157	166
288	287
239	238
156	155
354	353
104	103
131	130
439	438
305	304
281	280
326	325
310	309
459	458
100	99
367	366
247	246
262	261
246	245
401	400
238	237
144	143
112	111
246	245
93	92
143	142
311	310
813	812
32	31
134	133
144	180
116	115
132	131
145	144
447	464
237	236
337	336
549	548
114	113
329	328
54	53
224	283
124	123
220	242
91	90
261	260
97	164
215	296
698	697
166	165
253	252
247	246
256	255
193	192
815	814
149	148
257	256
247	246
156	155
227	226
265	251
407	406
257	256
275	274
305	304
268	267
85	84
147	152
51	50
344	343
218	217
272	271
135	134
236	235
573	572
275	274
237	236
141	140
182	181
67	66
87	86
438	437
130	129
525	713
169	261
135	132
202	212
1161	1160
134	133
49	56
383	382
263	262
152	151
342	341
162	161
811	810
451	450
250	249
129	231
103	102
399	398
186	185
242	241
284	283
242	241
265	264
891	890
275	274
129	128
386	385
365	364
444	505
233	232
199	198
208	207
115	114
474	473
427	426
525	660
144	143
297	296
266	265
750	749
337	336
826	825
239	238
189	188
842	841
810	809
177	176
235	234
152	151
309	308
455	454
160	159
195	194
247	246
867	866
191	190
201	200
199	198
418	417
265	264
284	283
66	65
307	306
127	126
410	409
147	146
257	256
279	278
221	220
183	182
446	379
331	330
517	516
103	102
289	288
265	264
121	120
866	865
437	439
105	104
475	474
67	66
565	630
888	887
255	254
97	96
97	96
97	96
95	94
594	593
457	456
285	284
184	183
298	297
147	146
462	461
401	400
348	347
207	206
248	247
66	65
133	132
902	901
196	195
64	66
261	294
384	383
163	322
263	295
277	276
307	306
492	491
356	355
415	414
439	438
361	360
453	452
496	495
120	119
470	588
122	121
66	65
249	254
153	152
335	334
124	139
319	318
268	309
315	314
131	147
407	419
364	363
467	466
202	201
44	43
552	551
328	327
537	536
159	210
255	254
496	495
146	145
318	317
308	307
206	206
215	225
282	281
567	566
501	500
232	231
283	423
401	553
148	157
969	968
220	219
272	271
785	784
434	428
73	72
157	179
274	273
126	125
283	282
95	94
78	77
197	196
621	620
177	176
444	443
96	95
429	428
314	313
257	256
505	504
228	239
168	173
406	405
518	517
262	261
197	196
132	131
73	72
671	1073
317	481
96	95
383	382
274	273
80	83
68	121
273	304
32	31
317	316
150	149
165	164
794	938
121	120
309	313
88	87
458	457
680	679
300	299
389	388
412	419
498	497
254	253
51	50
377	376
201	214
444	510
135	134
238	237
189	188
196	195
318	317
180	179
205	223
108	134
259	258
99	98
384	426
40	39
311	310
821	820
229	228
162	161
451	450
475	474
230	229
158	157
278	289
216	215
95	94
99	98
646	645
556	555
411	410
461	460
323	322
215	214
339	338
444	443
240	239
408	407
104	121
339	327
260	259
517	516
235	234
260	259
358	357
54	53
202	201
539	538
226	225
149	148
138	137
344	343
79	78
263	262
226	225
242	241
278	277
158	157
180	179
246	245
165	164
188	194
588	763
341	340
302	301
551	550
324	323
158	157
424	423
555	554
717	716
68	67
319	318
101	100
245	244
700	699
658	781
102	153
436	435
1088	1087
238	237
55	54
57	56
307	306
427	426
384	383
256	255
86	85
164	228
393	392
144	184
228	227
154	153
391	390
188	197
99	98
468	467
457	456
90	418
562	644
118	147
382	430
263	260
281	295
381	380
408	513
88	227
75	74
455	454
320	422
294	360
266	356
90	196
202	210
794	793
128	127
258	257
487	486
395	394
448	447
301	300
114	113
177	176
879	878
242	241
166	179
183	182
199	198
201	200
239	238
369	368
331	326
90	89
551	743
1572	1571
266	265
92	91
91	90
278	277
112	111
105	111
158	157
191	190
73	121
318	317
205	204
73	72
262	261
98	97
164	337
228	238
326	325
439	568
118	568
159	474
293	474
398	397
1045	1044
166	165
107	106
293	292
423	422
340	339
501	500
361	360
360	359
504	503
148	147
952	951
396	395
168	167
139	138
335	334
151	150
359	406
48	71
311	310
335	334
468	467
163	162
59	58
312	311
154	153
129	128
899	898
316	315
101	99
374	402
67	66
466	551
713	712
155	154
129	128
451	450
184	183
458	457
333	332
332	331
341	340
501	500
319	318
177	176
114	113
1260	1259
578	577
213	212
448	447
69	68
186	185
247	246
338	357
286	351
127	126
287	286
322	321
221	220
471	470
207	206
156	165
216	215
264	263
281	280
115	110
158	194
514	513
228	227
460	684
426	425
250	253
169	168
164	163
126	125
35	34
76	75
105	104
132	131
92	91
229	228
285	284
217	216
155	154
102	101
466	465
355	354
252	251
250	249
110	109
92	91
542	541
388	387
213	212
133	132
220	219
233	232
134	133
244	243
814	813
142	141
433	432
66	65
335	334
420	419
427	426
103	102
317	316
616	615
444	443
154	153
511	515
380	379
182	181
351	350
323	322
1097	1107
101	100
486	500
326	325
71	70
521	520
245	244
132	131
120	119
335	334
178	177
106	105
49	48
42	41
189	188
343	342
290	289
118	117
549	548
98	97
419	418
159	158
479	478
434	433
113	112
566	565
192	191
138	137
327	326
312	345
149	155
716	715
486	485
506	505
70	69
69	68
38	37
91	90
1310	1309
60	59
264	263
161	160
1280	1279
175	174
231	230
846	845
91	90
77	76
544	543
240	239
447	446
549	548
217	216
452	451
303	302
757	756
254	253
446	445
548	547
223	222
367	366
30	29
501	500
293	292
743	742
112	111
148	147
263	262
339	338
260	259
242	241
151	150
195	194
355	354
282	281
253	252
227	226
379	378
186	185
145	144
253	252
119	118
150	149
221	227
202	216
103	109
511	510
327	326
232	231
310	309
662	661
92	91
344	343
684	683
489	488
140	139
560	715
523	522
350	349
278	277
279	278
235	234
230	229
438	437
199	198
128	127
523	540
319	318
224	223
189	188
479	478
653	652
105	104
550	549
230	229
137	136
295	294
550	549
450	449
155	154
108	107
529	528
94	93
179	178
834	940
104	104
119	118
139	138
238	237
606	606
453	452
358	357
175	174
283	282
291	290
390	389
404	403
385	384
915	914
398	397
335	334
186	185
360	359
472	471
345	344
524	523
260	259
427	426
679	678
328	327
81	80
332	331
172	171
70	69
442	441
203	202
123	122
808	807
291	290
166	165
307	306
447	446
372	371
397	396
515	514
297	296
137	136
53	52
699	698
246	245
213	212
81	43
550	549
450	449
64	63
291	290
316	315
269	268
136	135
165	164
266	265
275	274
410	409
83	82
148	147
544	543
150	149
35	34
1228	1227
275	274
210	258
376	375
435	439
534	533
310	309
167	159
128	127
85	84
530	529
430	429
195	232
248	298
174	179
298	276
140	139
212	211
91	90
100	99
102	99
224	223
355	354
258	257
159	158
632	631
212	211
252	251
67	66
257	256
218	266
141	140
1408	1407
1343	1342
122	121
107	106
235	234
127	126
182	181
128	127
395	394
309	308
322	321
343	342
85	84
286	285
615	614
367	366
120	119
235	234
439	438
356	388
47	56
467	466
297	305
458	457
259	258
335	334
384	383
394	393
502	883
578	577
284	283
114	113
293	292
766	765
107	106
360	359
834	833
221	220
368	367
206	205
302	301
664	726
297	296
518	517
377	376
811	810
387	386
106	105
203	202
71	70
438	732
304	348
342	341
285	284
177	176
444	443
309	308
162	161
58	57
282	281
503	502
337	336
249	248
143	142
100	99
147	146
200	199
256	255
142	182
103	251
330	329
321	320
301	300
85	84
106	114
194	205
160	159
816	815
92	91
173	172
397	396
193	192
117	102
231	243
614	872
156	190
177	176
303	302
116	115
212	211
151	150
156	155
53	52
142	141
297	165
98	97
68	67
170	169
248	247
358	357
222	233
591	590
345	344
198	197
69	68
152	150
115	640
150	129
470	768
92	91
75	74
175	99
167	166
66	65
91	90
98	97
327	326
167	166
233	232
458	457
225	224
314	313
207	206
345	344
313	312
263	278
215	300
218	237
420	419
275	274
105	104
465	464
182	181
278	277
196	195
805	1016
301	300
212	211
310	309
81	80
283	282
247	246
73	72
93	92
71	70
97	96
104	103
303	302
314	313
146	145
291	290
200	199
296	295
450	449
478	477
337	336
185	204
101	110
293	292
299	298
247	246
608	607
470	469
350	349
470	469
37	36
458	457
170	169
211	210
446	596
487	928
81	80
311	310
408	425
52	51
209	208
329	328
90	89
195	194
176	175
85	84
182	181
484	483
205	204
444	443
730	729
388	387
234	233
379	406
109	138
163	162
261	260
259	258
172	171
90	89
87	86
466	546
202	201
252	251
476	475
257	255
335	334
80	72
141	140
325	324
169	168
497	496
255	254
270	269
32	31
223	222
287	286
520	519
492	491
319	318
130	129
408	407
224	220
94	301
148	147
116	126
666	665
420	502
72	205
186	185
754	753
318	317
300	299
267	266
341	340
207	206
287	286
207	206
612	611
290	289
156	155
296	295
127	126
127	126
155	154
170	165
255	254
301	300
721	720
239	238
299	298
236	235
275	274
68	67
78	77
107	106
647	848
215	214
321	320
247	246
387	403
399	398
100	195
109	196
552	551
412	411
470	469
247	246
212	253
256	488
360	359
417	416
377	376
225	224
294	293
356	355
307	307
62	74
332	331
349	348
319	330
420	419
110	109
362	361
495	494
674	673
94	93
492	491
320	319
220	219
262	261
47	45
610	616
310	309
88	87
549	548
82	81
425	458
113	112
280	279
85	84
231	230
476	475
331	330
310	309
297	296
322	321
502	501
140	139
623	622
499	498
484	483
331	330
153	152
148	147
630	629
157	148
62	72
127	126
272	271
80	79
157	156
178	177
514	513
288	287
461	460
140	139
453	456
610	609
347	346
320	319
297	296
258	257
242	241
214	230
625	624
465	464
521	538
390	389
241	240
196	195
156	155
222	221
446	445
189	188
250	249
324	323
392	391
416	415
345	344
133	132
455	454
549	548
109	108
47	46
468	467
367	366
358	357
805	804
133	132
271	270
219	218
230	229
158	128
135	292
206	205
383	382
431	430
367	366
405	416
100	86
138	137
143	142
554	553
289	288
572	571
121	120
393	392
116	115
121	120
166	165
395	394
563	562
97	96
287	286
197	196
501	500
440	439
460	459
589	588
445	444
55	54
103	102
108	107
120	119
413	412
98	97
273	272
308	307
166	165
346	345
461	460
773	772
518	517
157	156
105	104
364	363
284	283
287	286
311	310
227	226
570	569
464	463
402	401
694	693
230	229
703	702
92	91
208	207
561	560
206	205
265	287
239	238
214	213
199	198
153	152
407	406
223	222
79	78
56	55
270	269
160	159
114	113
312	311
353	352
375	374
266	265
39	41
266	265
360	359
340	339
312	313
233	232
284	283
358	357
240	233
202	219
320	319
349	348
311	310
399	398
342	341
345	344
320	319
195	210
238	262
515	514
159	143
84	83
156	155
340	339
274	273
158	157
416	396
259	258
552	551
1113	1398
227	226
121	120
70	69
196	195
383	382
638	637
121	120
379	378
203	202
151	229
305	304
615	614
384	383
432	431
513	512
658	657
467	466
272	271
167	234
93	106
287	286
221	220
499	498
329	328
426	425
156	155
233	306
74	72
155	154
333	332
268	277
158	157
418	417
64	63
594	652
275	274
393	392
394	393
514	513
331	330
441	440
485	484
114	113
146	145
332	331
100	99
120	133
188	246
366	367
293	294
51	50
71	70
97	96
237	236
325	324
220	219
778	777
147	146
188	187
255	254
403	402
564	563
161	160
536	535
340	339
301	300
328	327
335	334
424	423
36	35
36	35
36	35
560	559
64	63
520	519
63	62
251	250
873	872
770	769
369	368
1158	1157
650	662
429	428
499	498
310	309
256	255
294	276
327	350
441	440
338	337
324	323
201	200
550	549
466	465
467	466
255	274
219	218
94	93
468	486
571	570
386	385
110	109
176	175
191	190
40	39
89	88
113	112
192	191
257	256
319	318
208	207
165	164
446	445
305	304
55	53
661	660
343	342
177	176
179	236
142	141
72	71
451	450
281	280
681	680
251	250
490	489
145	144
112	111
471	530
398	397
432	354
356	355
912	911
375	374
284	283
90	89
503	502
453	452
94	93
158	157
249	248
32	31
134	133
177	268
70	69
255	254
278	277
315	314
525	524
196	195
350	349
420	419
186	185
222	221
82	81
733	732
209	208
120	119
90	89
199	198
499	498
223	222
353	352
285	284
368	367
89	88
176	175
128	127
397	396
309	308
426	425
164	242
205	198
51	50
439	438
296	295
235	238
46	65
357	356
248	247
95	104
54	88
578	577
163	162
346	345
232	231
332	331
176	175
447	446
700	699
401	400
198	197
368	367
729	728
658	657
421	431
478	477
816	815
502	502
256	255
202	201
502	501
109	108
277	276
253	252
112	111
149	148
902	901
798	797
695	694
439	438
192	191
228	227
257	256
142	218
79	78
774	773
76	75
774	773
159	158
240	239
329	351
120	119
541	540
287	352
294	498
383	382
293	292
134	133
223	222
277	363
423	505
187	186
851	850
260	259
180	179
147	146
135	134
403	402
226	225
363	362
429	428
279	278
226	225
253	252
335	334
302	301
121	120
388	387
409	408
293	292
103	108
435	434
362	361
56	55
458	457
269	268
109	108
848	847
394	393
191	190
56	55
201	200
188	187
407	406
697	696
211	210
135	134
290	289
73	72
341	340
570	637
50	56
184	183
90	107
508	601
67	66
197	196
73	72
271	270
241	240
129	128
120	119
96	95
125	124
157	156
705	704
395	394
901	900
159	158
226	225
154	153
388	387
328	327
196	195
126	125
170	169
146	145
170	198
236	232
494	493
505	650
147	146
272	271
325	354
139	156
140	139
104	103
210	209
202	201
99	98
274	273
93	92
111	110
234	233
137	136
64	63
85	84
124	123
105	104
180	179
102	101
131	130
178	177
118	117
168	167
60	59
145	144
444	443
39	38
119	118
130	129
207	206
330	329
128	127
123	122
142	141
73	72
138	137
117	132
360	363
430	429
316	315
170	169
375	374
158	157
181	180
191	190
273	272
86	85
185	184
85	84
91	90
219	235
51	50
368	367
394	393
342	341
74	73
193	192
408	841
443	472
347	352
221	220
60	59
295	294
99	98
322	321
294	293
484	483
81	80
319	318
272	271
285	284
297	296
500	499
330	329
321	320
349	348
450	449
157	156
325	324
634	646
348	347
368	367
163	162
198	197
154	153
334	333
1267	1266
482	481
310	309
68	67
311	310
564	563
91	90
91	90
88	87
157	156
313	312
356	355
456	455
133	132
376	375
143	142
131	130
213	212
166	165
261	260
298	297
497	496
230	229
292	291
155	154
473	472
1518	1517
310	309
779	778
218	217
243	242
211	210
91	90
285	284
164	163
96	95
478	477
242	241
186	185
192	191
189	188
329	328
326	325
270	269
261	260
184	183
212	211
98	97
90	89
420	419
83	82
324	323
104	103
86	85
322	321
391	390
270	291
169	342
159	158
98	97
210	209
97	185
556	644
283	282
445	445
111	110
506	518
448	447
141	140
496	495
891	890
134	133
315	314
90	89
596	711
295	294
630	629
415	414
336	335
293	292
332	331
175	174
168	167
101	100
148	147
173	172
212	211
261	217
86	101
192	191
197	196
132	131
368	413
324	323
288	287
238	237
264	263
268	267
159	158
287	286
128	136
274	273
378	377
145	144
293	292
260	259
158	157
427	426
270	269
101	100
54	109
112	111
524	523
445	444
257	256
297	296
382	381
312	312
330	329
444	443
64	63
340	402
765	764
130	129
354	355
111	110
444	443
437	436
55	54
234	233
299	298
123	122
329	328
161	160
100	99
135	134
102	101
123	122
128	127
221	220
259	258
433	432
471	470
496	495
184	183
415	414
322	321
329	328
231	230
168	167
379	378
105	104
123	122
239	257
391	391
784	783
357	356
478	477
150	149
1031	1030
328	327
111	110
497	496
507	506
65	207
122	121
255	254
169	168
102	104
72	365
163	306
193	229
217	216
359	414
72	71
338	337
488	487
202	201
304	303
311	310
206	205
123	122
274	273
413	412
207	206
434	433
947	946
478	477
85	189
444	455
183	191
67	66
100	99
72	71
137	139
169	177
177	173
236	237
841	840
180	187
57	56
258	257
272	271
157	218
223	222
194	193
411	498
387	386
224	223
494	493
210	209
141	140
276	275
194	193
631	630
714	713
270	269
303	302
350	349
316	315
296	295
105	104
66	65
124	122
160	159
237	236
165	164
450	449
220	219
131	130
161	160
536	535
142	134
598	752
246	245
471	470
241	264
327	326
209	215
161	160
328	327
337	336
339	338
491	490
166	249
84	78
740	739
86	85
309	308
276	275
196	203
134	159
54	53
319	318
182	181
396	395
245	244
142	141
295	294
165	164
347	346
132	143
136	180
53	57
373	372
329	328
393	392
345	399
204	203
165	164
163	162
114	113
83	82
289	288
620	619
214	213
263	279
231	230
233	232
257	256
162	174
245	244
279	278
187	186
110	109
239	238
360	359
391	390
83	82
305	304
575	577
381	380
255	254
500	499
94	86
251	293
408	407
135	134
724	723
257	248
305	337
154	318
1376	1520
187	184
137	136
187	319
126	198
687	686
498	497
367	407
152	151
188	187
124	123
202	201
326	325
368	392
179	178
259	258
221	220
1132	1137
171	210
138	138
417	411
676	675
247	246
559	558
383	382
328	327
97	96
236	235
712	711
419	418
360	359
92	91
351	350
240	239
109	108
240	239
349	348
336	335
434	433
168	167
43	89
292	328
379	378
198	197
97	96
189	188
235	234
327	326
139	138
212	211
317	316
244	243
236	235
152	151
465	464
385	384
84	83
659	658
244	243
307	306
253	252
664	663
303	302
148	147
463	462
426	425
322	321
170	169
238	237
226	225
226	225
236	235
193	192
144	143
95	93
205	243
388	387
360	359
287	286
212	211
247	246
92	91
98	97
104	103
352	351
298	297
77	76
220	219
411	410
151	150
110	109
193	192
442	441
393	392
401	400
365	364
130	129
958	957
478	477
67	98
220	219
327	326
89	88
136	135
174	173
228	254
82	82
237	236
578	577
294	293
506	505
183	182
42	41
483	482
640	639
163	162
105	150
341	392
117	116
334	319
467	466
957	956
260	259
443	442
899	1032
74	73
177	176
257	256
37	32
507	541
311	310
462	461
404	403
399	398
396	395
593	592
160	159
305	304
506	765
252	241
117	116
410	409
394	393
279	278
70	69
109	115
473	472
231	230
312	311
421	420
344	343
773	719
407	407
347	346
73	72
238	237
230	229
49	48
177	176
159	164
644	787
292	291
265	264
157	156
188	187
136	135
108	107
232	360
751	1122
44	66
963	962
327	326
855	926
609	608
444	443
418	417
275	274
527	526
392	391
199	198
316	315
459	458
143	142
179	178
360	359
587	586
141	140
473	472
546	545
309	348
458	776
380	559
405	404
184	183
201	200
838	837
250	325
355	401
176	175
274	273
793	792
286	285
788	787
775	774
879	878
164	163
551	550
214	221
446	445
513	514
327	326
167	166
350	355
269	268
148	147
402	401
76	75
306	305
132	131
367	366
244	243
141	140
473	472
573	591
439	438
216	215
383	382
282	281
456	455
430	429
455	454
283	282
182	181
110	109
261	260
150	149
173	173
282	287
447	446
447	446
919	918
434	433
745	1178
264	263
546	545
433	432
291	290
36	35
90	137
150	202
336	335
468	469
457	456
506	505
248	247
64	51
493	492
426	425
262	261
485	484
446	445
260	259
287	286
192	191
87	86
424	423
122	121
600	599
571	570
245	244
51	50
35	34
346	345
303	302
476	475
202	201
108	107
58	56
51	50
187	186
160	159
350	349
217	253
209	208
380	379
331	330
184	183
327	326
365	347
455	454
259	258
213	212
337	336
303	302
256	255
219	218
854	853
115	114
143	142
693	692
337	336
374	373
91	90
291	290
117	116
154	153
204	203
609	608
308	307
570	569
181	180
256	255
137	136
156	155
140	139
146	145
68	67
176	175
520	637
167	312
72	71
378	377
480	479
505	504
322	321
258	257
93	92
260	259
124	123
320	319
188	187
349	348
80	79
166	165
354	353
167	166
793	792
93	92
62	61
30	29
217	145
189	188
143	142
519	518
172	171
371	370
215	223
513	512
391	390
177	176
112	111
246	245
395	394
331	330
355	354
401	400
320	319
715	714
137	136
82	81
110	109
115	114
150	149
135	134
175	174
100	99
53	52
137	149
221	220
467	466
427	426
483	482
356	355
326	325
161	160
159	158
97	96
114	113
172	171
374	368
293	292
198	197
414	413
289	288
454	453
83	82
183	182
256	255
116	115
161	160
409	408
173	172
121	120
357	356
374	373
387	386
114	113
246	245
327	326
244	243
141	146
468	612
237	236
85	84
433	432
91	90
452	451
887	886
233	232
140	139
346	345
230	229
128	127
196	195
294	293
445	444
246	245
541	540
192	191
217	216
319	318
160	159
600	599
325	324
197	189
302	301
243	242
244	243
127	126
87	86
283	282
212	211
168	167
519	518
462	461
853	1295
461	460
238	237
61	60
384	386
113	112
397	396
418	417
398	397
209	208
883	1093
328	327
398	397
120	410
333	332
354	353
99	179
67	81
141	140
380	379
386	426
285	284
268	267
247	246
163	162
405	404
129	128
108	107
172	171
617	616
112	111
67	66
428	427
259	258
282	281
498	1653
261	256
378	901
490	1653
759	770
144	143
385	384
336	335
373	372
425	424
207	206
393	392
491	490
72	71
592	724
86	106
331	330
2694	2693
456	455
489	488
526	525
148	147
172	171
64	63
51	50
120	119
619	680
513	513
689	688
213	212
346	345
209	208
430	429
249	248
120	119
488	487
354	353
137	156
191	190
293	292
345	344
77	76
238	237
288	287
672	671
233	232
67	66
376	375
119	118
1038	1037
549	548
660	659
192	191
79	78
270	332
668	667
127	126
183	182
760	759
112	111
160	159
234	233
268	267
339	338
112	111
96	95
468	467
279	278
396	395
409	408
468	467
311	303
148	147
296	295
220	219
167	166
351	350
300	299
208	207
142	141
111	110
192	191
300	299
382	381
299	298
264	263
339	338
278	277
292	291
366	365
304	303
123	122
284	283
170	169
576	575
86	85
273	275
64	63
254	253
333	332
672	671
73	72
333	332
309	308
255	254
278	277
419	418
295	294
472	471
124	123
120	119
812	811
401	400
413	412
109	108
419	418
322	321
109	108
416	415
362	361
346	345
832	831
286	285
245	244
566	565
413	412
307	306
81	80
92	91
211	210
417	416
565	564
315	314
382	381
1198	1197
205	204
388	387
513	512
300	342
159	155
446	445
312	311
76	75
287	286
335	334
197	196
79	78
106	103
48	102
516	895
400	536
91	90
225	224
72	74
317	316
392	391
311	310
252	251
447	446
95	94
437	436
715	714
162	161
189	188
273	351
599	770
233	250
164	163
160	159
176	175
112	215
70	210
184	183
311	310
362	361
275	274
270	269
183	182
93	92
669	668
407	406
393	392
332	331
379	378
52	51
304	337
271	270
220	219
305	304
423	422
221	220
163	162
506	505
190	189
261	260
261	260
216	215
239	238
258	257
298	297
121	120
216	215
215	214
184	183
181	180
493	506
715	714
401	400
152	151
165	164
186	161
611	610
200	199
406	405
313	312
55	54
148	147
221	220
601	600
167	166
446	445
909	908
326	325
181	180
185	184
101	100
614	613
510	509
486	485
168	167
324	323
581	580
306	305
66	65
95	124
102	101
432	431
557	556
253	252
286	285
321	320
452	451
89	88
129	128
112	111
562	543
103	237
202	194
661	660
323	322
386	385
201	200
142	141
181	180
401	400
261	260
361	381
47	46
430	429
268	267
74	73
332	331
397	396
360	419
543	542
453	452
359	358
217	216
85	84
377	376
762	761
240	430
963	1252
241	240
876	875
563	562
208	207
1465	1464
550	549
259	258
246	284
142	120
441	440
217	216
221	220
462	461
609	608
480	463
329	478
166	169
217	216
891	890
374	373
352	351
355	354
217	216
548	547
103	111
463	548
163	162
55	54
165	164
88	87
829	828
232	231
288	287
58	75
95	101
201	200
206	205
221	220
246	245
70	69
160	159
648	647
186	185
351	350
216	215
68	67
130	129
83	82
587	586
76	75
336	335
95	94
587	586
232	231
397	396
115	114
530	529
342	341
365	364
605	604
519	518
189	188
238	237
329	328
489	488
191	190
85	84
394	393
315	376
78	85
313	312
564	563
314	313
221	220
95	151
417	416
233	232
314	313
363	362
286	285
350	349
294	293
57	90
435	489
329	328
342	341
162	176
105	253
223	222
209	207
179	178
347	346
333	332
507	506
313	312
381	411
441	412
80	79
240	239
295	294
232	231
133	132
317	316
479	508
254	253
193	192
196	195
311	310
572	571
756	755
298	305
386	385
309	308
244	243
36	35
244	243
562	561
240	239
225	223
154	153
577	667
111	110
379	378
760	759
363	362
62	61
829	1117
382	381
763	909
474	1244
1267	1266
502	677
150	149
370	369
94	93
181	180
225	224
827	826
49	48
280	279
113	112
275	274
91	90
40	39
263	262
267	266
273	272
249	248
242	233
94	137
335	334
151	150
293	291
351	350
285	284
421	420
151	150
95	94
388	451
84	73
347	346
260	259
300	299
106	105
453	453
111	110
241	240
468	467
472	471
1026	1497
544	1040
214	185
253	347
416	415
220	219
254	253
647	646
451	450
283	282
1106	1105
214	213
194	193
618	617
400	411
129	127
255	254
148	147
721	720
280	279
163	162
406	405
407	406
258	248
183	182
374	373
322	321
161	160
408	407
479	478
457	456
465	464
508	459
153	152
275	274
380	406
131	130
354	464
298	297
362	361
300	299
293	292
181	180
325	298
246	321
133	206
208	406
139	219
100	98
58	201
165	163
166	189
157	124
469	468
389	388
326	325
204	203
259	258
246	245
51	77
356	355
357	356
435	434
300	299
84	83
48	69
275	274
317	316
453	454
82	81
476	475
389	388
115	157
353	352
110	109
65	64
88	87
123	122
215	214
74	73
159	158
158	157
82	81
47	46
225	232
137	136
161	159
233	232
122	121
302	301
795	794
141	144
427	477
311	411
314	329
155	154
192	190
133	106
51	83
86	85
282	329
31	30
35	34
227	247
106	105
58	57
184	190
201	200
118	133
334	385
67	66
190	189
130	129
286	285
345	344
322	321
253	252
151	173
148	147
39	38
258	257
175	174
298	398
101	176
218	217
408	407
158	154
58	55
43	42
393	392
201	206
181	180
248	247
346	340
135	169
147	229
306	305
317	316
446	484
239	238
485	484
439	438
351	350
159	158
421	420
149	249
596	673
526	525
268	267
367	366
2720	3163
463	493
1493	2035
544	2035
279	319
585	570
322	365
299	424
152	172
265	267
435	434
425	420
266	265
217	216
174	173
201	200
212	211
335	334
138	137
261	260
453	452
284	283
372	371
30	29
232	231
473	472
157	156
170	169
145	119
306	305
61	60
83	99
61	167
406	558
272	271
76	75
63	62
159	207
41	40
262	261
90	89
109	108
147	174
122	121
138	137
335	334
155	154
376	375
148	147
309	308
142	154
229	228
332	331
553	552
105	104
111	110
184	183
266	265
183	182
90	89
166	165
78	77
187	201
236	235
138	137
496	495
122	121
137	136
472	471
350	349
240	239
93	90
83	82
286	285
329	328
223	222
251	250
146	147
75	74
219	218
611	610
180	181
199	203
75	130
61	60
190	189
629	740
90	212
107	106
70	130
77	76
148	158
75	74
234	251
277	471
181	471
137	136
79	78
104	103
75	74
39	38
74	73
263	262
270	307
233	232
202	201
163	162
78	77
214	213
60	59
106	198
98	97
224	223
128	127
91	90
160	159
189	188
627	626
78	77
525	524
117	369
121	369
179	435
110	109
345	344
140	139
89	126
190	226
48	66
179	178
301	300
130	129
307	306
209	208
395	394
130	129
501	500
171	170
42	93
547	546
130	129
75	74
348	347
140	139
222	221
404	403
80	79
166	165
108	107
84	83
168	167
330	329
839	504
355	585
380	406
140	142
85	84
45	44
138	137
296	295
97	96
213	212
655	654
168	167
554	553
40	39
287	286
350	349
130	129
215	214
150	149
234	262
693	692
131	130
578	577
189	188
64	70
204	238
50	57
290	366
810	809
324	323
175	208
226	320
68	67
191	190
189	188
99	153
505	590
148	147
247	246
174	173
201	200
204	203
337	336
449	449
262	261
271	251
316	315
441	440
303	323
313	337
174	173
290	289
50	49
492	491
604	603
214	213
236	296
137	136
97	96
131	130
37	36
220	219
687	686
221	220
219	218
77	76
125	124
291	290
114	113
219	218
92	91
79	78
482	481
878	877
428	427
184	183
233	232
683	682
294	293
458	457
264	263
80	79
96	95
70	69
270	269
189	188
153	152
284	283
267	266
324	323
519	518
267	266
281	280
455	454
193	192
454	453
60	59
100	99
115	114
637	636
232	231
194	193
584	583
372	371
213	212
120	119
61	60
83	82
342	341
85	84
116	115
394	393
273	272
180	180
168	167
497	496
492	491
428	427
261	260
389	388
249	248
190	189
95	97
295	294
332	331
138	137
91	90
359	358
460	459
348	347
279	278
316	315
327	326
253	252
453	452
214	213
150	149
190	189
237	236
619	618
184	183
194	213
143	142
652	651
448	447
136	135
207	206
436	435
218	217
512	511
389	388
183	182
235	234
226	225
237	236
269	268
407	406
345	344
493	492
108	189
343	378
323	322
162	161
192	191
296	295
276	275
113	112
107	106
74	73
399	409
117	116
280	279
454	453
253	252
754	753
81	80
464	463
111	110
223	222
134	137
262	215
97	96
310	309
253	252
36	35
96	95
643	642
145	144
104	103
328	327
796	795
100	99
327	326
184	183
250	249
101	151
143	140
88	87
479	478
349	348
278	277
793	792
549	566
98	97
430	429
313	312
255	254
304	303
384	383
532	531
253	252
289	288
422	421
405	404
66	65
371	370
107	106
913	1018
137	136
65	62
123	122
496	495
249	248
424	423
407	406
92	91
48	48
335	334
79	78
471	470
70	69
209	208
203	202
468	700
213	212
183	222
233	261
221	198
535	534
102	101
419	418
458	457
214	213
383	382
172	171
173	209
86	85
202	201
210	220
125	124
30	29
390	389
68	67
95	105
128	132
149	164
116	115
216	215
136	135
310	316
200	199
80	79
299	298
174	173
671	670
286	285
79	78
145	144
156	155
276	261
101	102
108	107
219	218
425	424
287	286
202	201
501	500
212	211
232	231
207	206
255	351
109	108
807	628
193	192
194	193
147	146
72	71
347	346
334	333
391	390
531	530
343	342
256	255
193	192
604	603
458	457
423	421
503	502
392	391
549	548
468	467
310	309
434	433
240	239
112	111
241	240
461	460
315	314
511	510
463	462
92	91
270	269
122	121
110	109
274	273
103	102
213	216
205	226
298	297
81	75
166	256
165	164
232	231
419	418
205	204
183	182
75	74
206	205
246	245
245	244
147	146
663	808
121	116
228	248
37	35
187	186
114	113
109	108
405	404
340	339
37	36
312	426
134	157
79	78
485	823
325	324
64	63
63	62
206	205
52	51
153	152
76	75
174	173
322	321
134	133
598	597
71	70
84	83
350	349
251	250
72	71
69	68
104	103
178	177
166	165
71	70
58	57
137	136
69	68
56	55
176	175
700	699
71	70
503	502
676	675
108	107
92	91
167	163
134	133
248	247
129	128
110	109
651	650
343	371
110	109
233	232
200	247
173	215
235	228
594	1137
671	985
144	143
99	98
102	101
200	199
233	232
110	109
854	853
145	138
141	140
247	246
132	131
193	192
118	117
132	131
342	341
111	110
440	439
534	533
69	68
496	588
147	184
182	181
59	58
150	149
287	286
104	103
146	145
166	165
91	90
307	358
76	191
144	209
123	203
112	133
76	75
74	73
104	103
96	95
81	80
109	108
177	175
74	73
245	244
59	102
140	139
200	199
199	198
146	232
136	1327
547	1331
471	1331
64	63
109	108
74	77
100	637
125	454
104	446
157	115
309	456
791	790
94	93
347	346
98	97
197	196
78	77
428	427
114	103
376	426
68	67
229	228
249	248
138	153
545	681
297	296
32	31
321	366
145	144
222	221
397	396
294	293
463	462
309	308
120	119
473	472
484	483
265	264
253	252
441	440
60	59
188	187
237	236
884	883
177	176
168	167
305	304
760	759
66	65
254	253
364	394
186	185
386	385
270	269
467	466
512	511
440	439
800	799
144	143
72	71
46	45
566	565
337	336
57	56
95	94
218	217
283	283
804	1015
196	195
277	295
463	462
315	301
940	1130
515	514
232	231
211	225
290	297
33	32
282	281
190	189
379	378
500	499
354	353
701	700
79	78
173	172
178	176
78	77
118	117
370	367
125	124
204	214
116	115
199	198
338	337
382	381
333	454
123	140
66	65
354	436
78	304
233	232
190	178
391	390
223	222
198	197
331	330
327	326
180	179
75	74
540	551
448	447
308	307
98	97
56	55
58	57
177	176
334	333
220	219
260	254
267	266
1301	1300
202	201
242	288
39	38
2438	2083
57	56
78	77
109	108
62	61
256	273
618	809
330	329
141	140
89	88
258	257
932	1174
378	377
145	144
90	89
318	317
92	234
305	494
91	190
274	273
238	237
97	96
93	92
174	169
362	385
160	220
63	155
149	163
58	66
205	161
151	477
138	191
92	248
103	289
86	115
158	175
1597	1756
140	139
245	244
187	186
84	83
154	153
70	69
197	196
85	84
286	285
122	121
302	301
159	158
204	196
150	204
140	144
427	1009
296	295
109	108
454	1009
117	105
51	50
41	40
180	179
343	342
396	395
122	121
138	137
261	260
118	117
223	222
176	175
512	511
171	170
117	116
321	320
206	161
295	295
109	108
341	340
260	259
141	265
228	227
74	73
145	144
257	256
142	141
140	139
64	63
77	76
49	89
421	453
188	187
78	71
267	339
176	175
78	77
653	652
145	144
274	239
354	343
1419	1756
249	248
187	186
82	81
50	49
83	82
286	285
199	178
484	802
322	802
264	263
164	163
262	261
261	283
298	283
297	259
267	266
255	254
258	257
193	192
327	326
89	102
212	211
129	167
234	239
319	390
203	344
205	204
192	191
202	201
94	234
97	234
91	110
161	835
675	835
154	228
67	228
172	171
393	392
197	196
86	85
73	72
102	101
269	268
212	211
331	330
138	137
240	239
408	452
60	59
2670	2860
206	205
96	95
91	90
69	107
416	395
102	101
317	316
495	494
100	99
55	54
165	164
562	561
319	318
270	278
138	137
1220	1261
211	257
142	148
70	94
97	96
98	97
324	397
173	452
152	279
84	181
183	456
230	456
647	646
396	395
317	316
370	369
268	300
71	70
180	179
471	470
704	703
820	866
170	169
248	1302
986	1302
211	212
241	273
146	326
187	186
174	173
183	182
112	195
85	100
244	243
454	836
378	836
167	194
176	175
93	92
214	246
326	325
44	45
96	95
84	83
58	57
414	401
321	320
86	164
104	103
206	152
340	339
180	179
78	77
653	652
145	144
120	128
127	163
