85	84
343	342
322	321
309	308
395	394
128	127
179	181
143	142
235	234
107	106
122	121
1343	1342
1408	1407
378	377
257	256
67	66
252	251
212	211
632	631
159	158
258	257
355	354
224	223
197	196
91	90
212	211
140	139
459	458
442	441
430	429
530	529
85	84
128	127
148	147
310	309
534	533
435	439
575	574
275	274
1228	1227
35	34
150	149
544	543
230	229
410	409
275	274
244	257
165	164
136	135
269	268
316	315
291	290
91	90
450	449
550	549
81	43
213	212
246	245
308	261
401	538
53	52
137	136
297	296
320	340
185	187
296	396
104	94
372	371
446	446
307	306
166	165
291	290
808	807
123	122
203	202
442	441
70	69
172	171
332	331
81	80
328	327
679	678
427	426
260	259
524	523
345	344
472	471
101	137
278	277
186	185
335	334
398	397
503	911
402	434
385	384
473	472
390	389
291	290
500	499
358	357
453	452
596	581
238	237
162	160
109	108
941	940
179	178
94	93
529	528
108	107
155	154
450	449
550	549
295	294
137	136
230	229
550	549
105	104
653	652
479	478
189	188
211	223
319	318
523	540
128	127
199	198
438	437
230	229
235	234
279	278
278	277
350	349
523	522
560	715
140	139
489	488
684	683
327	343
92	91
662	661
99	138
224	309
232	231
327	326
511	510
312	311
274	287
150	149
110	108
253	252
145	144
119	185
68	67
379	378
227	226
253	252
282	281
355	354
195	194
151	150
242	241
260	259
339	338
263	262
148	147
112	111
743	742
238	272
501	500
30	29
367	366
223	222
548	547
446	445
254	253
757	756
303	302
452	451
217	216
549	548
447	446
240	239
544	543
77	76
91	90
846	845
231	230
175	174
1280	1279
161	160
197	241
60	59
1310	1309
91	90
99	98
506	505
486	485
716	715
445	444
513	512
126	125
92	91
109	108
88	87
289	288
66	65
163	162
126	125
123	122
74	73
159	158
162	161
273	272
135	134
116	115
513	512
152	151
839	838
1040	1039
291	290
340	339
191	190
69	68
65	64
190	189
128	127
137	136
178	177
175	174
61	60
294	293
102	101
266	265
595	860
272	286
148	147
58	57
162	161
82	81
393	392
192	191
566	565
113	112
434	433
479	478
159	158
419	418
98	97
549	548
118	117
290	289
343	342
189	188
42	41
49	48
106	105
178	177
335	334
120	119
132	131
245	244
603	602
326	325
486	500
101	100
1108	1107
323	322
351	350
182	181
380	379
511	515
154	153
444	443
616	615
317	316
103	102
427	426
420	419
335	334
66	65
433	432
142	141
814	813
151	150
104	120
134	133
233	232
220	219
133	132
213	212
388	387
542	541
92	91
110	109
250	249
219	248
355	354
466	465
102	101
155	154
217	216
285	284
229	228
92	91
132	131
105	104
76	75
150	149
164	163
169	168
204	203
426	425
691	690
514	513
259	258
281	280
264	263
216	215
213	212
207	206
471	470
221	220
322	321
287	286
127	126
648	647
247	246
186	185
69	68
448	447
213	212
492	577
1260	1259
114	113
177	176
319	318
501	500
341	340
332	331
333	332
458	457
184	183
451	450
129	128
155	154
713	712
466	551
67	66
474	473
316	315
899	898
129	128
66	77
312	311
163	162
468	467
335	334
311	310
48	71
359	406
151	150
335	334
139	138
140	167
396	395
952	951
148	147
504	503
360	359
361	360
501	500
340	339
197	196
92	91
72	71
255	254
300	299
506	505
338	337
415	414
59	58
296	295
31	30
79	78
338	337
439	438
307	306
261	260
35	34
219	218
426	425
53	52
666	665
273	272
101	100
138	137
81	80
86	85
256	255
319	318
333	332
301	300
775	774
318	317
58	57
121	120
70	69
453	452
462	461
116	115
127	126
72	71
134	133
190	189
69	68
201	200
43	42
53	52
238	237
291	290
949	948
53	52
273	272
58	57
158	157
159	158
74	73
38	37
123	122
126	125
163	162
59	58
52	51
142	141
117	116
538	537
114	113
541	540
397	396
580	579
429	428
692	691
85	84
420	419
372	371
214	213
335	334
329	328
450	449
656	655
320	319
263	262
261	260
211	210
144	143
269	268
438	437
93	92
374	373
87	86
249	248
184	183
86	85
348	347
327	326
369	368
239	238
201	200
199	198
183	182
166	165
242	241
879	878
177	176
168	167
301	300
448	447
395	394
487	486
65	64
242	241
193	192
131	130
304	303
391	390
154	153
116	115
51	50
185	184
393	392
324	323
86	85
256	255
384	383
427	426
411	410
319	318
471	470
55	54
113	112
475	926
613	1087
435	434
540	539
389	388
96	95
101	100
319	318
68	67
143	142
579	578
555	554
454	453
305	304
341	340
597	763
188	194
165	164
246	245
180	179
158	157
257	256
242	241
226	225
263	262
79	78
344	343
138	137
149	148
226	225
408	407
414	413
116	115
293	292
179	178
275	274
121	120
218	217
66	65
195	194
113	112
331	330
218	217
109	108
130	129
270	269
330	329
126	126
93	92
72	71
117	116
178	177
151	155
89	88
180	179
117	116
161	160
307	397
229	228
54	53
409	408
200	199
406	405
106	105
113	112
149	148
115	114
252	251
161	160
76	75
1080	1079
114	113
233	232
200	199
183	182
1233	1232
172	200
686	685
93	92
98	97
457	456
184	183
33	32
529	528
202	201
54	53
358	357
260	259
235	234
517	516
260	259
441	440
408	407
240	239
88	87
339	338
215	214
323	322
419	454
411	410
68	67
183	182
71	70
139	138
266	265
337	336
296	295
234	263
247	364
646	645
99	98
172	171
216	215
290	289
158	157
230	229
111	110
377	474
451	450
239	238
229	228
821	820
311	310
429	428
99	98
259	258
477	476
318	317
196	195
189	188
238	237
135	134
639	638
359	376
51	50
254	253
498	497
420	419
389	388
300	299
680	679
458	457
88	87
309	313
939	938
165	164
150	149
317	316
305	304
68	121
80	83
274	273
383	382
1074	1073
73	72
132	131
197	196
262	261
518	517
406	405
381	380
505	504
257	256
314	313
429	428
96	95
444	443
177	176
621	620
197	196
78	77
95	94
283	282
126	125
274	273
330	329
429	428
785	784
272	271
220	219
969	968
784	783
232	231
501	500
567	566
282	281
411	410
308	307
318	317
146	145
496	495
255	254
233	232
537	536
328	327
552	551
44	43
202	201
467	466
364	363
524	523
315	314
575	574
164	163
335	334
153	152
249	254
66	65
122	121
470	588
120	119
496	495
453	452
361	360
439	438
415	414
356	355
492	491
307	306
277	276
421	420
384	383
306	305
196	195
902	901
133	132
66	65
79	165
183	182
207	206
348	347
401	400
462	461
147	146
298	297
184	183
285	284
457	456
594	593
95	94
97	96
97	96
97	96
255	254
888	887
631	630
475	474
588	587
866	865
121	120
265	264
289	288
103	102
517	516
797	796
183	182
221	220
122	121
202	202
257	256
147	146
410	409
127	126
307	306
66	65
284	283
265	264
418	417
199	198
201	200
191	190
867	866
247	246
195	194
160	159
455	454
309	308
152	151
235	234
177	176
810	809
842	841
189	188
239	238
826	825
337	336
750	749
266	265
170	177
128	127
661	660
427	426
474	473
115	114
208	207
267	266
233	232
506	505
475	474
386	385
129	128
275	274
579	890
325	449
265	264
242	241
284	283
242	241
186	185
399	398
232	231
250	249
451	450
811	810
134	133
342	341
152	151
263	262
383	382
199	198
612	1160
546	1160
320	319
714	713
130	129
438	437
87	86
67	66
182	181
141	140
237	236
275	274
573	572
236	235
135	134
272	271
218	217
344	343
191	190
85	84
268	267
305	304
275	274
257	256
407	406
265	251
241	240
156	155
247	246
257	256
149	148
815	814
193	192
256	255
247	246
253	252
201	165
698	697
234	379
129	164
261	260
91	90
251	250
124	123
284	283
329	328
114	113
549	548
337	336
237	236
447	464
145	144
132	131
116	115
183	182
134	133
32	31
813	812
311	310
143	142
93	92
246	245
112	111
144	143
238	237
401	400
246	245
262	261
247	246
367	366
100	99
459	458
310	309
326	325
281	280
305	304
439	438
131	130
104	103
354	353
156	155
239	238
288	287
157	166
153	169
352	351
125	124
380	379
205	204
307	306
192	191
153	152
415	414
134	133
352	351
368	367
418	417
157	156
416	415
546	545
1033	1032
202	260
307	306
259	258
112	111
205	204
237	236
548	547
842	841
223	222
196	195
181	180
47	46
89	88
34	33
381	380
307	306
223	277
101	137
298	297
330	329
284	283
1416	1415
138	137
119	295
290	289
198	197
442	556
285	284
240	239
476	475
232	231
223	222
764	763
154	183
47	46
265	264
188	187
94	93
557	556
491	490
196	195
678	677
363	362
64	82
251	250
166	165
202	201
288	287
516	515
473	472
317	316
461	460
350	349
185	183
92	91
529	528
297	296
390	389
484	483
629	628
420	419
428	427
207	206
418	417
1025	1024
364	363
278	277
555	554
315	314
289	288
270	269
317	316
338	337
404	403
180	179
236	277
370	369
92	91
321	320
256	255
276	275
284	283
325	324
996	995
208	207
386	385
407	406
365	364
103	102
71	70
365	364
87	86
472	471
107	69
372	371
270	269
153	152
175	174
64	63
226	225
95	94
61	60
297	303
35	35
303	302
423	422
1048	1047
401	400
230	229
432	431
440	439
458	457
606	605
194	193
357	356
376	375
111	110
605	615
324	323
116	115
255	254
180	179
150	149
368	367
157	156
140	139
326	325
173	172
95	94
234	241
621	629
300	299
81	80
389	482
197	196
304	303
164	163
455	454
297	296
110	109
205	204
664	663
316	315
492	491
193	192
105	104
433	432
208	207
425	424
785	784
91	90
624	623
124	123
133	132
232	231
567	566
273	272
153	152
591	590
594	593
113	112
429	428
287	286
191	190
104	103
118	117
517	516
157	156
184	183
73	72
125	124
1050	1049
398	397
216	215
1121	1120
55	54
176	175
126	125
184	183
644	643
110	109
202	201
625	624
215	214
321	320
320	319
435	434
559	558
407	406
510	550
53	58
168	167
228	266
160	159
265	264
101	100
114	113
835	834
311	310
431	430
136	135
160	159
153	152
306	305
226	225
260	259
285	284
257	256
198	197
229	228
805	804
668	667
55	66
169	219
223	222
223	222
369	368
309	308
161	160
272	271
594	593
259	258
293	292
485	484
454	453
434	433
382	381
262	261
412	411
350	349
556	555
420	419
218	217
298	297
356	355
170	169
110	109
241	240
165	164
462	461
174	173
71	70
289	288
100	99
223	222
318	317
297	296
991	990
746	745
481	480
228	227
461	460
111	110
408	407
871	1047
193	216
246	272
216	228
416	415
218	217
128	127
83	82
373	372
51	50
51	50
262	261
266	265
356	355
486	509
207	206
312	311
507	506
317	316
148	276
84	276
312	311
261	260
747	746
401	400
73	72
390	566
905	1293
378	377
272	271
331	330
335	334
417	416
319	318
392	391
537	536
286	285
249	248
138	137
616	701
66	65
363	362
387	386
210	209
407	406
301	300
249	248
188	187
532	531
143	142
137	136
269	268
488	487
293	292
184	183
511	510
303	302
99	98
353	352
553	552
227	226
462	461
187	186
70	69
128	127
263	262
37	39
322	321
178	177
214	213
88	87
404	403
363	362
371	370
634	633
156	155
106	105
204	203
214	213
344	343
194	193
112	131
762	860
161	160
73	72
185	125
236	235
484	483
557	556
312	311
242	241
225	224
247	246
303	302
626	625
513	512
293	292
156	155
360	359
475	474
392	391
146	145
555	554
251	250
407	406
383	382
267	266
649	648
427	426
157	156
390	389
253	252
296	295
386	385
412	411
329	328
45	69
225	243
555	554
469	468
109	108
149	148
177	176
121	120
255	254
182	181
547	546
440	439
733	732
226	225
895	894
191	190
683	682
558	557
69	68
170	169
473	472
494	493
248	247
219	218
311	310
245	244
264	263
349	348
238	237
229	228
121	337
201	332
252	251
104	103
399	398
323	322
154	153
437	436
428	427
36	35
135	134
116	115
589	588
239	238
934	933
406	405
389	388
290	289
241	240
639	638
878	877
398	397
523	522
380	379
38	37
98	97
135	134
231	230
143	142
437	436
431	430
174	173
264	263
305	347
235	239
314	313
127	126
351	350
251	250
347	346
383	382
349	348
339	338
491	490
263	262
50	49
258	257
230	229
353	352
189	188
332	331
318	317
351	350
478	477
754	753
428	427
159	158
430	429
347	346
385	384
252	251
226	225
674	673
303	302
330	329
171	170
162	161
82	81
151	150
235	234
238	237
319	318
64	83
362	366
254	253
137	136
369	368
378	377
579	578
332	331
224	223
454	453
66	65
717	716
321	320
362	361
87	86
89	88
225	224
761	760
87	86
309	308
742	741
241	240
220	219
249	248
168	167
296	295
172	171
484	483
43	42
156	155
373	372
307	306
531	530
272	271
811	810
300	299
221	220
250	249
98	97
306	316
322	321
624	623
513	512
307	306
304	303
783	782
443	442
442	441
128	127
372	371
209	208
401	400
253	252
199	198
411	410
93	92
272	271
376	375
179	178
562	561
126	125
86	85
96	95
241	240
301	300
159	158
371	370
378	377
315	314
282	281
163	162
376	375
244	243
223	222
227	226
244	243
243	242
129	128
108	107
277	276
276	295
61	84
477	476
334	333
573	572
323	322
551	550
300	299
232	231
553	552
267	266
372	371
649	648
69	68
107	106
759	758
198	197
205	204
176	175
93	92
160	159
64	63
84	63
308	307
73	72
235	234
574	573
589	588
357	356
165	164
1171	1368
214	242
204	203
448	447
431	430
815	814
206	205
288	287
209	208
383	382
238	246
761	760
399	398
587	586
231	230
363	362
428	427
255	254
228	227
558	557
95	94
755	754
583	582
329	328
411	410
61	60
249	248
298	297
260	259
262	261
441	440
235	234
1487	1486
616	615
183	182
216	215
397	396
363	362
467	466
401	400
871	870
86	145
191	190
158	157
205	204
644	643
193	192
368	367
116	115
199	198
385	384
71	70
295	294
446	896
477	502
137	136
112	111
94	93
174	173
445	475
49	70
84	83
155	154
149	148
113	112
318	317
372	371
153	152
274	273
499	498
238	280
266	289
181	180
104	103
109	108
218	217
235	234
117	116
248	247
134	133
72	71
255	254
139	138
63	62
103	102
304	303
590	589
389	388
90	89
177	176
65	64
91	90
99	98
72	71
228	227
77	76
69	68
150	149
133	132
211	210
54	53
184	193
265	264
382	381
320	319
192	191
337	336
181	180
370	369
703	702
555	635
71	70
418	417
547	546
188	187
56	55
209	208
587	586
151	150
351	350
170	169
210	209
721	720
149	148
685	684
153	152
221	220
138	137
106	105
392	391
40	39
110	109
220	219
373	372
598	597
236	235
196	195
133	132
286	285
515	514
379	378
31	30
437	436
71	70
58	57
358	357
891	942
343	342
231	230
391	390
849	865
200	199
102	101
307	306
414	413
76	75
199	198
58	57
443	442
165	164
197	196
267	266
129	128
232	231
364	363
213	212
1321	1320
70	69
503	502
120	223
123	122
376	375
424	423
355	354
138	137
442	441
673	672
808	807
456	455
35	34
313	312
246	245
185	184
174	173
278	277
139	138
130	129
217	216
152	82
153	152
111	110
104	103
178	177
323	308
172	227
386	385
501	517
655	847
176	175
76	75
125	124
409	408
307	306
351	350
192	191
189	188
38	37
373	372
85	84
82	81
348	347
187	186
175	174
403	402
195	194
216	215
308	307
512	511
139	138
98	97
220	219
139	138
135	134
232	231
402	401
252	251
91	104
156	155
233	232
366	365
314	313
548	547
318	317
1062	1061
320	319
208	207
174	173
58	57
362	366
318	317
310	309
163	162
103	123
79	78
422	413
270	269
341	340
214	213
335	334
266	265
478	477
730	729
120	119
126	125
214	213
275	274
342	341
181	180
435	434
180	179
211	210
86	85
320	319
1173	1172
358	357
266	256
139	177
234	233
413	412
304	303
274	273
263	262
154	153
349	348
265	264
373	372
90	89
814	813
64	63
63	62
73	72
43	42
79	78
140	139
94	93
142	141
355	354
141	140
119	118
61	60
59	58
60	59
52	51
350	349
119	118
274	273
112	111
63	62
54	53
72	71
115	114
91	90
178	177
156	155
51	50
175	174
137	136
170	169
378	364
265	275
69	68
531	530
416	383
116	115
343	342
128	127
118	117
178	177
132	131
249	248
144	143
138	137
585	853
278	274
110	109
233	232
248	247
194	193
1074	1230
158	132
200	199
688	687
93	92
98	97
219	218
89	88
288	287
246	245
128	128
409	408
342	373
487	486
224	223
457	456
214	213
369	368
154	153
218	217
417	416
381	380
79	78
80	79
109	108
74	73
61	60
227	226
262	261
99	98
69	68
150	149
342	341
230	229
77	76
180	179
335	339
234	233
1303	1302
348	347
152	151
57	56
97	96
121	120
46	45
128	127
361	360
72	71
105	104
80	79
178	177
154	153
98	97
109	108
118	117
182	181
642	641
69	68
448	533
82	81
444	443
128	127
342	341
132	131
118	117
193	192
132	131
247	246
141	140
145	144
856	855
110	109
233	232
248	247
191	190
1161	1160
687	686
93	92
98	97
286	285
286	285
276	275
305	304
51	50
135	134
244	243
404	403
79	78
89	88
83	82
227	226
121	120
124	123
110	109
95	94
104	103
89	88
271	270
232	231
123	122
134	133
98	97
220	219
149	148
87	86
140	139
174	173
260	259
177	176
514	513
240	239
511	510
433	432
357	356
579	578
305	304
204	203
245	244
85	84
657	656
285	284
271	270
253	252
143	142
185	184
341	340
566	565
473	472
211	210
357	356
640	639
586	585
56	55
376	375
172	171
88	116
512	544
82	81
112	111
120	119
176	175
90	89
163	162
141	140
180	179
151	150
305	304
205	204
66	65
156	155
285	284
466	465
200	199
886	885
71	70
399	398
46	45
66	65
84	83
57	56
164	163
95	94
392	391
364	363
195	194
93	92
551	559
338	337
284	283
208	207
201	441
250	322
361	360
278	277
131	130
270	269
285	284
36	35
367	366
80	79
239	238
118	117
465	464
217	216
599	598
73	72
464	463
1248	1247
513	512
237	236
226	225
336	335
339	338
269	268
429	428
201	200
375	374
364	363
281	280
153	152
315	314
338	337
303	302
138	137
206	205
402	401
892	891
216	215
52	51
54	53
559	558
307	306
303	302
338	337
335	334
110	109
487	486
418	417
99	98
239	238
133	132
180	179
248	247
108	171
64	217
269	268
398	397
453	452
532	531
101	101
406	520
294	293
207	206
632	627
32	42
265	291
341	340
103	102
111	110
86	85
253	252
350	349
84	83
208	207
678	865
325	324
43	42
56	55
892	891
197	196
255	254
103	102
219	218
172	171
266	265
109	108
73	72
250	249
58	57
662	661
645	644
376	375
263	262
189	188
374	373
1036	1035
458	457
388	387
269	268
331	330
297	296
322	321
548	547
82	81
326	325
223	222
75	74
120	119
74	73
105	104
560	559
431	430
294	293
281	280
351	350
127	140
109	262
352	351
756	755
220	219
361	360
302	301
333	332
466	465
354	353
514	513
169	168
322	321
243	242
213	212
307	306
300	299
538	537
344	343
86	85
317	316
251	250
172	171
272	271
343	342
504	503
188	187
421	422
154	169
179	178
58	57
458	457
312	311
90	89
145	144
378	377
1175	1174
89	88
141	140
306	320
31	30
618	809
256	273
62	61
109	108
78	77
57	56
2830	1682
39	38
249	288
202	201
835	834
485	1300
267	266
260	254
220	219
84	83
251	257
177	176
58	57
56	55
98	97
308	307
448	447
540	551
61	59
180	179
327	326
331	330
198	197
223	222
391	390
179	178
668	667
57	56
469	468
382	381
338	337
314	313
265	264
169	174
145	313
179	198
58	57
78	77
150	149
173	172
79	78
701	700
354	353
500	499
379	378
190	189
282	281
33	32
298	297
227	226
232	231
515	514
1247	1246
463	462
275	274
196	195
804	1015
283	283
218	217
95	94
57	56
337	336
566	565
46	45
72	71
144	143
800	799
440	439
512	511
467	466
270	269
386	385
561	560
254	253
66	65
760	759
305	304
168	167
177	176
884	883
114	166
103	137
188	187
60	59
441	440
89	88
227	250
305	304
484	483
473	472
120	119
309	308
463	462
294	293
397	396
222	221
145	144
128	127
73	72
300	299
396	395
32	31
297	296
682	681
249	248
229	228
68	67
487	486
456	455
340	339
405	404
109	108
114	113
187	186
249	248
102	101
809	808
245	244
246	245
206	205
285	284
205	204
419	418
232	231
407	406
298	297
418	417
103	102
274	273
110	109
122	121
345	344
463	462
511	510
315	314
461	460
241	240
112	111
240	239
434	433
310	309
468	467
549	548
392	391
503	502
355	354
78	77
458	457
604	603
193	192
256	255
343	342
531	530
391	390
319	318
347	346
72	71
147	146
194	193
193	192
324	323
490	395
106	105
255	351
207	206
232	231
212	211
501	500
202	201
287	286
425	424
219	218
108	107
370	369
156	155
145	144
79	78
286	285
671	670
174	173
299	298
80	79
200	199
366	365
136	135
216	215
116	115
276	275
194	193
390	389
30	29
342	341
311	310
404	403
383	382
214	213
149	155
327	323
419	418
102	101
535	534
255	254
262	261
223	222
213	212
701	700
209	208
70	69
471	470
79	78
335	334
139	138
407	406
424	423
249	248
496	495
123	122
63	62
137	136
913	1018
107	106
182	181
208	232
119	118
405	404
422	421
289	288
253	252
532	531
384	383
304	303
255	254
313	312
430	429
98	97
549	566
793	792
278	277
349	348
64	63
479	478
166	177
155	154
250	249
184	183
327	326
100	99
796	795
328	327
119	118
66	65
145	144
643	642
96	95
36	35
253	252
311	310
97	96
262	215
179	178
223	222
197	196
464	463
88	87
754	753
253	252
451	450
280	279
117	116
453	452
107	106
113	112
276	275
296	295
192	191
162	161
323	322
448	447
493	492
345	344
407	406
269	268
237	236
226	225
235	234
77	76
99	119
389	388
512	511
218	217
436	435
207	206
136	135
91	90
448	447
541	651
348	347
184	183
619	618
237	236
339	338
214	213
453	452
253	252
327	326
316	315
279	278
348	347
460	459
359	358
53	44
138	137
332	331
295	294
285	284
249	248
645	644
428	427
492	491
497	496
147	146
103	102
47	46
209	272
76	101
394	393
116	115
85	84
342	341
83	82
61	60
120	119
213	212
372	371
584	583
194	193
232	231
547	634
92	91
116	115
100	99
60	59
208	186
267	453
193	192
455	454
533	532
519	518
324	323
267	266
284	283
153	152
189	188
270	269
70	69
96	95
80	79
264	263
458	457
294	293
683	682
233	232
184	183
428	427
878	877
482	481
79	78
219	218
114	113
104	103
208	290
125	124
77	76
219	218
221	220
687	686
220	219
119	118
97	96
393	392
214	213
604	603
492	491
50	49
232	231
481	480
324	323
441	440
329	328
252	251
262	261
201	200
174	173
337	336
204	203
201	200
174	173
247	246
148	147
591	590
88	89
112	111
273	272
132	131
248	247
324	323
810	809
367	366
249	248
189	188
578	577
131	130
693	692
383	382
215	214
130	129
350	349
287	286
40	39
554	553
168	167
655	654
309	308
296	295
193	192
117	116
143	142
475	474
267	266
329	328
505	504
330	329
168	167
84	83
108	107
166	165
80	79
404	403
222	221
140	139
182	347
141	128
75	74
130	129
193	243
350	546
94	93
171	170
501	500
130	129
395	394
209	208
208	306
130	129
301	300
179	178
81	226
134	226
127	126
140	139
345	344
110	109
436	435
525	524
78	77
627	626
189	188
160	159
91	90
128	127
224	223
98	97
199	198
60	59
214	213
78	77
163	162
202	201
117	141
119	117
308	307
263	262
74	73
39	38
75	74
104	103
79	78
137	136
472	471
252	251
75	74
159	158
77	76
138	137
107	106
739	738
190	189
61	60
88	87
51	130
269	277
183	182
611	610
219	218
75	74
241	240
251	250
223	222
329	328
286	285
184	183
240	239
350	349
472	471
137	136
122	121
496	495
138	137
402	401
78	77
166	165
90	89
183	182
266	265
184	183
111	110
105	104
553	552
332	331
229	228
458	457
148	147
376	375
155	154
335	334
138	137
122	121
246	245
90	89
262	261
41	40
159	207
63	62
76	75
272	271
481	564
83	99
61	60
306	305
307	306
157	156
473	472
232	231
37	36
372	371
284	283
453	452
261	260
138	137
335	334
212	211
201	200
174	173
217	216
266	265
421	420
435	434
427	426
601	600
146	190
404	432
320	319
2036	2035
3164	3163
367	366
268	267
526	525
674	673
250	249
421	420
159	158
351	350
439	438
485	484
239	238
485	484
317	316
306	305
312	311
360	359
248	247
181	180
314	313
393	392
43	42
215	214
366	365
218	217
399	398
175	174
258	257
39	38
405	404
253	252
322	321
345	344
208	207
146	172
134	133
190	189
67	66
399	398
69	68
201	200
231	230
341	340
382	381
86	85
256	255
353	352
330	329
722	721
145	144
795	794
302	301
122	121
233	232
226	225
137	136
273	272
82	81
158	157
159	158
74	73
215	214
123	122
125	124
65	64
110	109
353	352
158	157
389	388
476	475
153	152
453	454
113	112
199	198
275	274
85	84
84	83
240	239
435	434
357	356
356	355
197	196
246	245
259	258
204	203
326	325
389	388
469	468
264	263
367	366
59	201
150	201
206	219
208	406
383	382
322	321
420	419
181	180
293	292
300	299
362	361
298	297
354	464
131	130
407	406
316	426
101	100
493	492
465	464
457	456
479	478
408	407
161	160
322	321
374	373
183	182
249	248
407	406
406	405
163	162
280	279
721	720
148	147
380	379
528	527
618	617
194	193
214	213
1106	1105
283	282
451	450
647	646
254	253
220	219
49	48
416	415
694	1040
347	346
1026	1497
472	471
468	467
241	240
111	110
454	453
73	72
388	387
160	159
816	815
92	91
173	172
397	396
409	408
176	175
880	911
177	176
303	302
116	115
214	213
262	261
151	150
156	155
53	52
142	141
142	141
166	165
94	93
68	67
170	169
248	247
325	357
285	284
591	590
345	344
356	355
355	354
313	358
67	214
762	761
92	91
75	74
100	99
75	74
167	166
57	56
92	91
100	99
338	337
106	105
300	299
260	259
347	346
452	451
95	94
151	150
421	420
285	284
351	350
426	425
335	334
94	137
242	233
249	248
273	272
267	266
263	262
91	90
275	274
113	112
345	344
827	826
225	224
181	180
94	93
370	369
150	149
544	677
1267	1266
568	1253
683	1253
382	381
829	1117
62	61
363	362
760	759
208	316
153	228
111	110
577	667
154	153
157	156
240	239
562	561
244	243
36	35
244	243
309	308
386	385
306	305
756	755
572	571
311	310
196	195
193	192
254	253
479	508
317	316
133	132
232	231
295	294
240	239
80	79
413	412
412	411
337	336
507	506
333	332
347	346
386	385
223	222
279	278
223	222
419	426
490	489
294	293
350	349
286	285
363	362
314	313
233	232
417	416
313	312
314	313
564	563
313	312
377	376
394	393
85	84
191	190
489	488
329	328
127	144
92	91
126	125
189	188
519	518
605	604
365	364
342	341
530	529
115	114
397	396
232	231
587	586
95	94
336	335
76	75
587	586
83	82
130	129
68	67
216	215
351	350
186	185
648	647
160	159
70	69
217	245
221	220
206	205
201	200
150	149
288	287
232	231
805	804
40	48
88	87
165	164
55	54
163	162
549	548
548	547
217	216
355	354
352	351
374	373
891	890
217	216
950	949
609	608
462	461
221	220
217	216
441	440
395	394
259	258
518	549
1465	1464
208	207
563	562
591	875
294	293
241	240
174	173
201	200
963	1252
311	430
762	761
377	376
85	84
217	216
359	358
453	452
543	542
420	419
397	396
333	332
268	267
430	429
402	401
261	260
401	400
181	180
142	141
201	200
386	385
323	322
117	106
359	555
133	132
297	296
551	550
112	111
129	128
89	88
141	154
319	255
321	320
286	285
253	252
557	556
432	431
102	101
59	78
66	65
306	305
581	580
324	323
168	167
486	485
510	509
614	613
101	100
185	184
181	180
326	325
138	144
787	908
446	445
167	166
601	600
221	220
148	147
55	54
261	291
406	405
200	199
611	610
217	216
165	164
152	151
401	400
356	355
364	404
488	506
181	180
184	183
205	204
216	215
121	120
298	297
196	195
34	32
239	238
199	198
261	260
261	260
190	189
506	505
163	162
221	220
423	422
305	304
220	219
271	270
338	337
379	378
332	331
393	392
407	406
669	668
93	92
117	182
64	63
207	206
275	274
170	169
191	205
311	310
184	183
275	274
176	175
160	159
164	163
251	250
883	882
189	188
162	161
715	714
437	436
95	94
447	446
252	251
311	310
392	391
317	316
294	293
91	90
896	895
137	136
79	78
197	196
335	334
287	286
76	75
312	311
446	445
443	442
415	414
98	97
388	387
205	204
1198	1197
128	127
273	272
315	314
565	564
417	416
211	210
92	91
81	80
307	306
413	412
566	565
74	73
183	199
286	285
832	831
346	345
362	361
416	415
109	108
322	321
419	418
109	108
413	412
401	400
812	811
120	119
124	123
472	471
295	294
419	418
278	277
255	254
311	308
333	332
73	72
672	671
310	309
254	253
324	323
86	85
576	575
170	169
284	283
123	122
304	303
347	363
292	291
278	277
339	338
264	263
299	298
475	474
300	299
192	191
150	149
142	141
290	289
301	300
351	350
167	166
220	219
296	295
454	453
468	467
409	408
396	395
279	278
468	467
96	95
112	111
339	338
268	267
234	233
160	159
112	111
760	759
317	316
493	667
173	172
333	332
192	191
660	659
567	566
1038	1037
119	118
376	375
67	66
233	232
672	671
72	71
216	240
238	237
77	76
345	344
293	292
191	190
157	156
354	353
488	487
120	119
249	248
430	429
209	208
346	345
213	212
689	688
514	513
748	747
51	50
58	57
172	171
180	179
503	525
489	488
456	455
2694	2693
331	330
725	724
72	71
491	490
393	392
207	206
425	424
373	372
240	335
104	113
385	384
144	143
759	770
1654	1653
282	281
172	258
72	94
428	427
67	66
112	111
617	616
172	171
108	107
129	128
405	404
163	162
247	246
268	267
285	284
427	426
380	379
141	140
291	290
284	320
333	332
510	509
328	327
670	1093
225	247
209	208
398	397
418	417
397	396
113	112
445	445
238	237
461	460
1296	1295
519	518
168	167
150	149
283	282
87	86
127	126
244	243
243	242
302	301
227	226
325	324
600	599
160	159
319	318
114	113
122	121
192	191
541	540
246	245
445	444
294	293
196	195
128	127
230	229
346	345
140	139
233	232
887	886
452	451
91	90
433	432
85	84
237	236
616	692
244	243
327	326
246	245
114	113
387	386
374	373
357	356
121	120
173	172
409	408
161	160
116	115
256	255
183	182
83	82
454	453
232	263
414	413
198	197
293	292
35	34
501	553
114	113
97	96
150	149
161	160
410	409
386	385
584	583
75	344
280	340
104	103
495	494
602	601
177	176
196	195
123	122
157	156
93	92
136	135
417	416
886	885
175	174
255	254
63	157
128	217
52	46
64	163
117	116
81	80
117	116
79	78
99	98
105	104
68	67
110	109
326	325
422	421
483	482
427	426
467	466
221	220
150	149
53	52
100	99
175	174
135	134
150	149
115	114
97	96
82	81
137	136
715	714
320	319
401	400
355	354
331	330
395	394
246	245
112	111
177	176
391	390
513	512
236	235
371	370
172	171
519	518
138	137
189	188
217	145
62	61
877	876
167	166
354	353
166	165
80	79
362	361
188	187
320	319
124	123
260	259
93	92
258	257
322	321
505	504
480	479
378	377
72	71
681	750
176	175
68	67
146	145
140	139
156	155
137	136
256	255
181	180
570	569
308	307
609	608
204	203
154	153
117	116
291	290
91	90
374	373
337	336
693	692
143	142
115	114
60	59
854	853
219	218
256	255
303	302
421	420
213	212
228	258
455	454
348	347
184	183
331	330
380	379
209	208
254	253
350	349
160	159
237	236
104	103
44	65
64	107
202	201
197	196
296	295
303	302
346	345
35	34
51	50
245	244
571	570
600	599
122	121
424	423
87	86
192	191
287	286
260	259
470	469
485	484
262	261
426	425
493	492
307	306
506	505
457	456
468	469
336	335
224	223
36	35
291	290
433	432
546	545
122	121
137	148
150	188
199	344
414	449
434	433
919	918
447	446
447	446
451	450
150	149
261	260
110	109
182	181
238	246
455	454
430	429
456	455
282	281
383	382
216	215
439	438
573	591
444	466
141	140
244	243
367	366
132	131
306	305
76	75
402	401
148	147
269	268
366	365
167	166
513	514
446	445
222	221
551	550
164	163
879	878
775	774
788	787
217	197
793	792
274	273
176	175
623	622
838	837
201	200
161	160
405	404
1130	1129
546	545
473	472
141	140
587	586
360	359
179	178
143	142
260	443
186	214
316	315
199	198
392	391
527	526
275	274
418	417
444	443
609	608
855	926
327	326
963	962
1123	1122
108	107
136	135
188	187
157	156
265	264
129	128
129	135
749	748
177	176
49	48
230	229
238	237
73	72
347	346
398	397
720	719
344	343
421	420
312	311
231	230
473	472
254	253
279	278
394	393
262	262
167	151
252	251
766	765
305	304
160	159
593	592
163	162
228	264
399	398
404	403
462	461
311	310
507	541
37	32
257	256
177	176
1033	1032
443	442
260	259
957	956
467	466
439	438
456	455
163	162
640	639
483	482
42	41
183	182
506	505
294	293
578	577
237	236
299	298
174	173
136	135
50	49
327	326
220	219
67	98
478	477
958	957
130	129
365	364
401	400
393	392
442	441
193	192
110	109
201	200
411	410
220	219
77	76
298	297
352	351
299	298
247	246
212	211
287	286
360	359
388	387
340	339
143	142
193	192
236	235
226	225
226	225
238	237
170	169
63	62
426	425
463	462
148	147
303	302
664	663
253	252
307	306
244	243
659	658
84	83
385	384
465	464
184	183
236	235
244	243
317	316
212	211
139	138
327	326
235	234
172	172
97	96
198	197
379	378
336	335
349	348
240	239
109	108
240	239
351	350
92	91
360	359
419	418
712	711
236	235
434	421
348	347
92	91
126	125
167	166
126	125
92	91
90	89
105	105
74	73
267	266
109	108
249	248
87	86
187	186
143	142
110	109
307	305
398	397
575	593
71	73
207	259
312	308
269	268
426	425
734	733
1296	1299
58	57
123	122
384	383
273	272
152	151
154	153
180	179
68	67
72	71
123	122
81	80
697	696
302	301
51	50
329	328
245	244
312	311
349	369
237	236
270	269
491	490
292	291
306	305
142	141
117	116
367	366
83	82
448	455
103	102
128	127
190	189
69	68
191	190
376	399
42	97
52	68
291	290
1041	1042
358	357
152	151
78	77
273	272
162	161
159	158
74	73
88	96
71	70
123	122
126	125
163	162
66	65
282	281
132	131
247	246
97	96
328	327
383	382
559	558
247	246
676	675
390	389
371	370
252	251
268	261
101	100
563	563
229	230
225	224
259	258
179	178
393	392
326	325
202	201
124	123
188	187
152	151
408	407
498	497
687	686
281	280
137	136
270	269
1519	1518
561	560
415	434
313	354
135	134
408	407
351	350
500	499
255	254
381	380
574	576
305	304
83	82
391	390
360	359
357	356
187	186
279	278
450	449
257	256
233	232
108	109
104	103
500	499
620	619
289	288
83	82
114	113
163	162
165	164
568	567
393	392
329	328
373	372
96	95
296	295
104	103
174	173
201	200
221	220
165	164
295	294
142	141
245	244
396	395
234	233
319	318
388	387
276	275
309	308
86	85
740	739
250	249
491	490
339	338
337	336
328	327
161	160
435	434
471	470
246	245
753	752
298	385
243	275
161	160
131	130
220	219
450	449
111	110
237	236
160	159
145	144
105	104
296	295
316	315
350	349
328	327
270	269
714	713
631	630
194	193
276	275
141	140
210	209
494	493
224	223
387	386
599	598
223	222
224	223
272	271
258	257
57	56
188	187
73	177
765	840
247	246
350	349
218	217
100	99
67	66
210	209
554	553
478	477
947	946
434	433
207	206
413	412
274	273
123	122
206	205
311	310
304	303
202	201
488	487
338	337
72	71
582	581
614	613
169	168
255	254
208	207
507	506
497	496
111	110
328	327
1031	1030
150	149
478	477
357	356
784	783
673	672
139	138
105	104
379	378
168	167
231	230
329	328
322	321
415	414
184	183
340	388
152	190
471	470
433	432
139	129
116	115
221	220
128	127
123	122
102	101
135	134
100	99
161	160
329	328
123	122
299	298
234	233
55	54
437	436
444	443
455	454
130	129
765	764
403	402
444	443
330	329
313	312
382	381
297	296
257	256
445	444
524	523
112	111
155	154
270	269
427	426
158	157
260	259
293	292
145	144
378	377
385	384
287	286
159	158
268	267
47	47
208	235
238	237
288	287
679	678
132	131
197	196
192	191
347	346
212	211
173	172
148	147
101	100
168	167
175	174
332	331
293	292
336	335
415	414
630	629
295	294
712	711
90	89
315	314
134	133
283	282
611	890
496	495
151	150
448	447
506	518
111	110
446	445
283	282
648	647
210	209
98	97
159	158
478	477
391	390
322	321
86	85
104	103
324	323
93	92
420	419
90	89
98	97
212	211
184	183
261	260
270	269
326	325
329	328
189	188
192	191
186	185
242	241
478	477
96	95
164	163
285	284
91	90
211	210
243	242
218	217
779	778
310	309
796	1517
688	1486
473	472
155	154
292	291
230	229
497	496
298	297
261	260
166	165
213	212
131	130
143	142
376	375
133	132
54	53
412	455
356	355
313	312
157	156
88	87
91	90
656	655
311	310
68	67
310	309
482	481
1267	1266
490	489
198	197
163	162
368	367
348	347
647	646
325	324
157	156
450	449
349	348
321	320
330	329
500	499
297	296
285	284
272	271
319	318
81	80
484	483
335	292
322	321
99	98
200	191
554	553
119	118
51	50
148	147
98	97
113	112
394	393
187	186
389	388
282	281
115	114
590	589
71	70
65	64
337	354
237	236
95	94
310	309
409	408
295	294
60	59
221	220
386	385
443	472
601	1034
74	73
342	341
257	393
140	139
368	367
253	252
110	90
85	84
185	184
86	85
273	272
173	190
181	180
158	157
295	294
170	169
316	315
430	429
459	458
138	137
73	72
142	141
123	122
128	127
330	329
207	206
130	129
119	118
39	38
444	443
145	144
60	59
168	167
118	117
178	177
131	130
102	101
180	179
105	104
124	123
85	84
64	63
137	136
234	233
111	110
93	92
274	273
101	100
202	201
210	209
104	103
140	139
490	489
272	271
301	322
358	397
494	493
399	398
146	145
170	169
126	125
196	195
328	327
388	387
154	153
226	225
159	158
65	64
901	900
395	394
705	704
125	124
125	124
96	95
120	119
129	128
241	240
253	252
73	72
197	196
67	66
602	601
184	183
638	637
341	340
73	72
290	289
135	134
211	210
697	696
407	406
188	187
182	200
56	55
191	190
394	393
848	847
109	108
269	268
458	457
56	55
362	361
435	434
118	117
293	292
409	408
388	387
121	120
302	301
335	334
253	252
226	225
279	278
233	232
201	200
363	362
226	225
403	402
135	134
147	146
180	179
260	259
851	850
187	186
708	707
223	222
134	133
293	292
383	382
294	574
287	286
541	540
451	450
240	239
159	158
774	773
76	75
774	773
79	78
121	120
257	256
228	227
192	191
439	438
695	694
798	797
902	901
149	148
112	111
253	252
277	276
109	108
502	501
202	201
256	255
502	502
816	815
478	477
432	431
658	657
729	728
368	367
198	197
401	400
597	699
447	446
176	175
332	331
232	231
346	345
163	162
578	577
147	146
248	247
357	356
282	281
296	295
439	438
238	237
256	255
253	272
192	279
309	308
397	396
128	127
176	175
89	88
368	367
285	284
353	352
223	222
499	498
199	198
90	89
120	119
209	208
733	732
82	81
222	221
186	185
420	419
350	349
196	195
525	524
315	314
278	277
255	254
269	268
134	133
32	31
249	248
158	157
94	93
453	452
503	502
90	89
284	283
375	374
912	911
356	355
432	354
398	397
500	499
112	111
145	144
490	489
245	250
620	680
79	77
281	280
451	450
72	71
142	141
92	91
189	188
177	176
343	342
661	660
278	277
446	445
165	164
208	207
319	318
257	256
192	191
113	112
111	110
191	190
176	175
110	109
386	385
1038	1037
94	93
243	242
275	274
467	466
466	465
550	549
201	200
324	323
338	337
441	440
687	686
256	255
310	309
499	498
429	428
650	662
1158	1157
369	368
770	769
873	872
251	250
63	62
457	519
51	65
64	63
560	559
36	35
36	35
36	35
424	423
335	334
328	327
48	47
257	268
340	339
536	535
564	563
403	402
233	232
188	187
147	146
778	777
220	219
325	324
237	236
97	96
71	70
51	50
690	689
304	303
100	99
332	331
146	145
114	113
485	484
441	440
331	330
514	513
394	393
393	392
275	274
677	676
418	417
158	157
283	282
333	332
155	154
307	306
156	155
426	425
329	328
499	498
221	220
287	286
260	234
272	271
467	466
658	657
293	333
219	220
432	431
384	383
615	614
464	463
203	202
379	378
121	120
264	314
374	465
383	382
196	195
70	69
100	102
227	226
1448	1447
552	551
259	258
397	396
158	157
274	273
285	283
66	77
156	155
84	83
144	143
515	514
420	419
320	319
345	344
342	341
399	398
311	310
349	348
320	319
202	219
240	233
358	357
284	283
233	232
339	338
340	339
360	359
312	311
266	265
375	374
353	352
426	425
160	159
270	269
56	55
79	78
223	222
407	406
153	152
199	198
214	213
239	238
288	287
206	205
561	560
208	207
92	91
703	702
230	229
694	693
402	401
464	463
570	569
227	226
311	310
287	286
284	283
364	363
105	104
157	156
518	517
110	111
684	772
461	460
395	394
287	286
457	456
379	378
76	75
181	180
287	286
235	234
302	301
411	282
195	194
255	254
58	57
402	401
68	67
394	308
260	259
166	165
338	337
235	234
399	420
236	235
79	78
121	120
565	564
141	140
92	91
117	116
145	144
81	80
226	225
400	399
233	232
234	233
70	69
128	127
190	189
66	65
69	68
201	200
291	290
291	290
949	948
53	52
273	272
58	57
158	157
159	158
74	73
38	37
126	125
126	125
163	162
66	65
216	225
166	165
308	307
273	272
98	97
413	412
120	119
108	107
151	150
445	444
589	588
464	463
440	439
501	500
197	196
287	286
97	96
563	562
395	394
166	165
121	120
116	115
393	392
121	120
258	272
323	322
289	288
554	553
143	142
138	137
87	86
405	416
367	366
431	430
383	382
206	205
293	292
230	229
219	218
271	270
133	132
805	804
358	357
367	366
468	467
47	46
109	108
549	548
455	454
472	471
416	415
392	391
320	319
250	249
189	188
446	445
222	221
156	155
196	195
241	240
390	389
539	538
465	464
625	624
231	230
242	241
258	257
297	296
320	319
347	346
610	609
457	456
140	139
461	460
288	287
514	513
178	177
157	156
80	79
272	271
127	126
208	207
630	629
148	147
153	152
331	330
484	483
499	498
623	622
140	139
502	501
322	321
297	296
310	309
331	330
476	475
231	230
85	84
280	279
113	112
507	506
549	548
88	87
310	309
542	616
72	98
516	515
320	319
38	37
467	491
94	93
382	392
312	311
495	494
422	421
110	109
420	419
335	334
349	348
377	376
421	420
356	355
294	293
225	224
296	295
86	132
417	416
360	359
451	450
247	246
462	461
412	411
465	464
197	196
399	398
402	401
247	246
321	320
849	848
107	106
78	77
68	67
275	274
236	235
299	298
239	238
721	720
301	300
255	254
317	316
127	126
297	296
156	155
290	289
612	611
207	206
287	286
207	206
341	340
267	266
300	299
318	317
754	753
186	185
503	502
666	665
247	260
302	301
408	407
130	129
319	318
492	491
520	519
287	286
223	222
32	31
270	269
255	254
497	496
169	168
325	324
141	140
80	72
335	334
256	255
476	475
252	251
202	201
547	546
90	89
172	171
259	258
261	260
163	162
498	497
197	196
388	387
657	729
84	83
444	443
205	204
484	483
182	181
176	175
195	194
90	89
329	328
209	208
477	476
311	310
62	61
929	928
211	210
170	169
458	457
37	36
470	469
350	349
470	469
608	607
263	262
299	298
293	292
296	295
337	336
478	477
450	449
296	295
200	199
291	290
146	145
314	313
303	302
104	103
97	96
93	92
73	72
247	246
283	282
81	80
310	309
212	211
301	300
805	1016
196	195
278	277
182	181
465	464
105	104
275	274
420	419
490	489
279	278
313	312
345	344
207	206
328	327
225	224
458	457
233	232
167	166
301	300
35	34
321	320
330	329
252	251
256	255
200	199
147	146
100	99
143	142
249	248
337	336
503	502
282	281
80	79
162	161
260	259
444	443
177	176
285	284
342	341
619	732
122	121
71	70
203	202
106	105
387	386
811	810
377	376
518	517
261	296
727	726
302	301
206	205
368	367
221	220
834	833
360	359
107	106
766	765
293	292
114	113
284	283
578	577
884	883
384	383
335	334
259	258
458	457
306	305
467	466
389	388
115	118
314	366
120	145
121	147
120	119
367	366
615	614
286	285
235	234
302	301
413	412
195	194
255	254
58	57
402	401
280	279
116	115
239	237
183	182
254	253
235	234
126	125
92	91
53	52
169	168
254	253
647	646
176	175
460	459
428	427
377	376
232	231
162	161
162	161
150	149
107	106
168	167
160	159
109	108
87	86
170	169
116	115
112	111
97	96
87	86
46	45
292	291
259	258
754	753
392	391
89	88
109	108
160	159
508	507
119	118
135	134
116	115
86	85
253	252
310	307
260	259
143	142
264	263
657	656
122	121
38	37
390	389
247	246
326	325
107	106
214	213
56	55
73	72
102	101
270	269
92	91
215	214
324	323
131	130
78	77
511	510
331	330
146	145
83	82
173	172
407	406
309	308
228	227
74	73
145	144
257	256
142	141
141	140
64	63
174	168
77	76
454	453
188	187
77	76
176	175
78	77
653	652
145	144
240	239
71	70
96	95
274	273
170	169
128	127
229	228
76	75
120	119
104	103
189	188
243	242
469	475
197	196
107	106
78	77
172	171
74	73
158	157
154	153
877	876
129	128
211	210
331	330
102	101
213	212
275	278
358	421
86	85
248	247
114	113
112	111
95	94
182	181
96	95
131	130
458	460
941	940
160	159
244	243
246	245
784	750
1757	1756
249	248
287	286
187	186
154	153
70	69
197	196
87	86
286	285
218	217
86	85
111	110
437	436
287	286
235	234
41	40
287	286
323	322
144	135
235	234
76	75
379	378
349	348
235	234
164	163
233	232
400	399
218	217
279	278
268	267
272	271
58	57
194	168
64	63
141	140
142	141
149	148
259	258
145	144
74	73
228	227
309	308
83	82
146	145
425	424
139	138
327	326
103	102
215	214
260	259
138	137
88	87
86	85
197	196
116	115
112	111
627	626
449	448
203	202
170	169
359	358
96	95
178	177
228	227
189	188
85	84
151	150
197	196
356	355
146	145
561	560
432	431
151	150
518	517
200	247
148	167
205	204
187	186
219	218
431	430
45	44
385	384
275	274
400	399
195	194
153	152
273	272
383	382
97	96
184	183
1256	1255
116	115
231	230
328	327
430	429
235	234
176	175
135	134
63	62
267	266
1015	1014
205	204
401	400
195	194
723	722
217	216
70	69
59	58
32	31
84	83
52	51
403	402
357	356
764	763
900	899
111	110
112	111
283	282
84	83
53	52
297	296
89	88
145	144
167	166
199	198
240	239
146	145
653	652
78	77
158	158
118	154
160	244
53	244
576	575
102	101
72	71
133	132
186	341
168	341
64	63
422	421
302	301
228	227
48	47
356	355
76	75
235	234
915	914
99	98
235	234
69	68
71	70
160	159
122	121
242	241
39	90
53	90
100	99
46	45
168	177
181	180
90	89
82	81
100	99
117	116
216	215
78	77
88	87
172	171
