235	234
279	278
268	267
272	271
306	305
236	235
235	234
287	286
111	110
235	234
158	157
338	337
67	66
343	342
164	163
636	635
32	31
66	65
87	86
283	282
187	177
460	463
112	111
86	85
197	196
87	86
151	150
49	48
90	89
135	134
104	103
699	698
425	424
66	65
61	60
98	97
345	344
165	164
562	725
319	318
410	409
472	1261
749	1261
372	371
187	186
97	96
98	97
110	121
307	409
398	397
289	288
129	128
314	313
436	435
647	646
394	393
296	295
109	108
34	33
318	317
370	369
301	300
247	246
40	39
326	325
99	98
119	118
84	83
126	125
92	91
305	304
276	275
286	285
286	285
145	144
72	71
127	126
398	397
575	593
143	142
175	174
261	230
264	264
426	425
734	733
92	91
126	125
389	388
324	323
113	112
192	191
71	70
324	323
142	141
124	123
61	60
77	76
454	453
188	187
80	76
249	248
514	513
142	196
78	77
653	667
145	144
240	239
72	71
96	95
274	273
170	169
128	127
230	229
132	131
122	121
104	103
189	188
243	242
476	475
197	196
66	65
84	83
172	171
74	73
35	34
876	875
129	128
211	210
331	330
213	212
554	602
86	85
248	247
116	115
95	94
182	181
101	100
459	458
942	941
170	169
244	243
718	717
355	343
1405	1756
249	248
287	286
187	186
84	83
154	153
70	69
197	196
87	86
286	285
145	144
117	116
92	91
141	140
565	564
121	120
79	78
236	235
423	422
235	234
279	278
268	267
272	271
301	300
236	235
235	234
287	286
111	110
235	234
279	278
268	267
272	271
301	300
236	235
235	234
281	286
113	112
85	84
191	190
344	343
218	217
272	271
135	134
236	235
573	572
275	274
237	236
141	140
182	181
67	66
87	86
438	437
130	129
486	713
240	239
320	319
1161	1160
199	198
383	382
263	262
152	151
342	341
162	161
811	810
451	450
250	249
51	50
253	252
399	398
186	185
242	241
284	283
242	241
117	128
163	161
891	890
275	274
49	48
84	83
386	385
365	364
506	505
233	232
267	266
208	207
115	114
474	473
427	426
525	660
144	143
297	296
266	265
750	749
337	336
826	825
239	238
189	188
842	841
810	809
177	176
210	234
152	151
309	308
455	454
160	159
195	194
247	246
197	410
679	866
191	190
201	200
199	198
418	417
265	264
284	283
66	65
307	306
127	126
410	409
147	146
257	256
309	308
221	220
183	182
797	796
517	516
103	102
289	288
265	264
121	120
866	865
588	587
475	474
631	630
888	887
255	254
97	96
97	96
97	96
95	94
594	593
457	456
285	284
184	183
298	297
113	112
462	461
401	400
348	347
207	206
183	182
79	165
66	65
133	132
902	901
196	195
306	305
384	383
421	420
277	276
307	306
492	491
356	355
415	414
439	438
361	360
453	452
496	495
120	119
470	588
122	121
249	254
88	87
52	63
335	334
164	163
575	574
315	314
524	523
364	363
467	466
202	201
44	43
552	551
328	327
405	405
123	122
233	232
255	254
496	495
146	145
318	317
308	307
411	410
282	281
567	566
501	500
232	231
632	784
156	157
969	968
220	219
272	271
785	784
429	428
330	329
401	308
283	282
95	94
78	77
160	159
621	620
177	176
444	443
96	95
429	428
314	313
257	256
505	504
381	380
406	405
518	517
262	261
197	196
132	131
73	72
1074	1073
383	382
274	273
80	83
68	121
305	304
317	316
150	149
165	164
939	938
314	313
88	87
458	457
680	679
300	299
389	388
420	419
498	497
254	253
51	50
377	376
639	638
135	134
238	237
189	188
196	195
318	317
477	476
259	258
99	98
429	428
311	310
821	820
229	228
239	238
451	450
475	474
230	229
158	157
290	289
216	215
176	175
99	98
646	645
556	555
411	410
425	460
323	322
215	214
339	338
444	443
240	239
408	407
441	440
260	259
517	516
235	234
260	259
358	357
54	53
202	201
529	528
83	82
120	142
83	82
181	180
457	456
96	95
235	234
94	93
794	793
200	199
1160	1159
181	180
248	247
233	232
110	109
860	859
145	144
141	140
247	246
132	131
193	192
118	117
99	123
342	341
111	110
440	439
534	533
69	68
642	641
182	181
72	71
75	74
148	147
166	165
72	71
351	350
68	67
309	308
183	182
114	113
330	329
266	265
130	129
109	108
218	217
163	164
273	272
75	74
383	382
171	170
87	86
216	230
121	120
275	274
179	178
121	120
68	67
80	79
110	109
207	206
220	377
123	211
412	411
226	225
149	148
138	137
344	343
79	78
263	262
226	225
242	241
278	277
158	157
180	179
246	245
165	164
764	763
61	60
294	340
302	301
551	550
324	323
158	157
424	423
555	554
717	716
68	67
319	318
101	100
245	244
700	699
782	781
436	435
1088	1087
238	237
55	54
57	56
307	306
427	426
384	383
256	255
86	85
324	323
393	392
185	184
228	227
154	153
391	390
304	303
468	467
457	456
645	644
580	579
261	260
296	295
381	380
148	513
371	513
75	74
455	454
423	422
361	360
355	356
211	210
771	793
128	127
258	257
487	486
395	394
448	447
301	300
168	167
177	176
879	878
242	241
166	179
183	182
142	155
201	200
239	238
369	368
327	326
90	89
611	743
1248	1571
342	586
266	265
92	91
91	90
278	277
112	111
105	111
158	157
273	272
318	317
205	204
73	72
262	261
338	337
228	238
326	325
569	568
475	474
398	397
1045	1044
166	165
107	106
293	292
423	422
340	339
501	500
361	360
360	359
504	503
68	66
96	96
952	951
396	395
168	167
139	138
335	334
151	150
407	406
311	310
335	334
468	467
163	162
312	311
154	153
129	128
899	898
316	315
474	473
552	551
713	712
155	154
129	128
451	450
184	183
458	457
333	332
332	331
341	340
501	500
319	318
177	176
114	113
1260	1259
578	577
213	212
448	447
69	68
186	185
247	246
648	647
127	126
287	286
322	321
221	220
471	470
207	206
213	212
216	215
264	263
281	280
259	258
514	513
443	653
254	311
426	425
204	203
169	168
164	163
150	149
76	75
105	104
132	131
92	91
229	228
285	284
217	216
155	154
102	101
466	465
355	354
252	251
250	249
110	109
92	91
542	541
388	387
213	212
133	132
220	219
233	232
134	133
244	243
764	758
142	141
433	432
66	65
335	334
420	419
427	426
103	102
317	316
616	615
444	443
154	153
511	515
380	379
182	181
351	350
323	322
1097	1107
101	100
486	500
326	325
603	602
245	244
132	131
120	119
335	334
178	177
106	105
49	48
42	41
189	188
343	342
290	289
118	117
549	548
98	97
419	418
159	158
479	478
434	433
113	112
566	565
192	191
513	512
445	444
716	715
486	485
506	505
99	98
91	90
1310	1309
60	59
264	263
161	160
355	431
919	1272
175	174
231	230
120	221
676	845
91	90
77	76
783	782
447	446
549	548
217	216
452	451
303	302
757	756
254	253
446	445
548	547
223	222
367	366
30	29
501	500
293	292
743	742
112	111
148	147
263	262
339	338
260	259
242	241
151	150
195	194
327	354
282	281
253	252
227	226
379	378
186	185
145	144
253	252
113	112
150	149
297	296
312	311
511	510
327	326
232	231
310	309
662	661
92	91
344	343
684	683
489	488
140	139
560	715
523	522
350	349
278	277
279	278
235	234
230	229
438	437
199	198
128	127
280	287
279	278
319	318
224	223
189	188
479	478
653	652
105	104
550	549
230	229
137	136
295	294
550	549
450	449
155	154
108	107
529	528
94	93
277	276
88	87
1081	1080
463	462
711	710
385	384
714	713
75	74
184	183
381	380
159	158
523	669
159	212
70	212
143	217
392	391
179	178
941	940
119	118
139	138
238	237
607	606
453	452
358	357
500	499
291	290
390	389
473	472
261	367
137	235
804	914
95	120
382	397
335	334
186	185
360	359
472	471
345	344
524	523
260	259
427	426
679	678
328	327
81	80
332	331
172	171
70	69
442	441
203	202
123	122
808	807
291	290
166	165
264	306
447	446
372	371
397	396
515	514
297	296
137	136
53	52
504	698
176	217
246	245
213	212
81	43
550	549
446	449
91	90
291	290
316	315
269	268
136	135
165	164
266	265
275	274
410	409
230	229
544	543
150	149
35	34
1228	1227
275	274
422	425
104	110
435	434
534	533
310	309
148	147
128	127
85	84
530	529
354	429
442	441
459	458
140	139
212	211
91	90
197	196
224	223
355	354
258	257
159	158
632	631
212	211
252	251
67	66
257	256
378	377
1408	1407
1343	1342
122	121
166	165
235	234
143	142
182	181
128	127
395	394
309	308
322	321
343	342
85	84
286	285
615	614
367	366
120	119
235	234
439	438
389	388
467	466
306	305
458	457
259	258
335	334
384	383
884	883
506	577
284	283
114	113
279	292
766	765
107	106
360	359
834	833
221	220
368	367
206	205
302	301
727	726
297	296
518	517
377	376
811	810
387	386
106	105
203	202
71	70
733	732
342	341
285	284
141	141
444	443
309	308
101	123
78	115
80	79
282	281
503	502
337	336
249	248
143	142
100	99
147	146
200	199
256	255
252	251
330	329
321	320
301	300
167	166
233	232
458	457
225	224
314	313
207	206
345	344
313	312
279	278
490	489
420	419
275	274
105	104
465	464
182	181
278	277
196	195
805	1016
301	300
212	211
310	309
81	80
283	282
247	246
73	72
93	92
71	70
97	96
104	103
303	302
314	313
146	145
291	290
200	199
296	295
450	449
478	477
337	336
296	295
293	292
299	298
263	262
608	607
470	469
350	349
470	469
37	36
458	457
170	169
211	210
929	928
62	61
311	310
477	476
209	208
329	328
90	89
195	194
176	175
85	84
182	181
484	483
205	204
444	443
730	729
388	387
234	233
498	497
163	162
261	260
196	200
107	114
90	89
547	546
202	201
252	251
476	475
256	255
335	334
210	209
325	324
169	168
497	496
255	254
270	269
32	31
223	222
287	286
520	519
492	491
319	318
130	129
408	407
302	301
282	281
666	665
503	502
186	185
754	753
318	317
300	299
267	266
341	340
207	206
287	286
207	206
612	611
290	289
156	155
297	296
127	126
127	126
317	316
255	254
301	300
721	720
239	238
299	298
236	235
275	274
68	67
78	77
107	106
849	848
321	320
247	246
37	31
364	399
399	398
197	196
552	551
412	411
462	461
147	146
117	116
451	450
360	359
417	416
377	376
225	224
294	293
356	355
421	420
377	376
349	348
368	367
420	419
110	109
422	421
495	494
674	673
94	93
492	491
320	319
516	515
617	616
310	309
88	87
549	548
507	506
113	112
280	279
85	84
231	230
476	475
331	330
310	309
297	296
322	321
502	501
140	139
623	622
499	498
484	483
331	330
153	152
148	147
630	629
208	207
127	126
272	271
80	79
157	156
178	177
514	513
288	287
461	460
140	139
457	456
610	609
347	346
320	319
297	296
258	257
242	241
231	230
625	624
465	464
539	538
390	389
241	240
196	195
156	155
222	221
446	445
189	188
250	249
320	319
392	391
401	415
472	471
455	454
549	548
109	108
47	46
468	467
367	366
358	357
805	804
133	132
271	270
219	218
230	229
293	292
206	205
383	382
431	430
367	366
405	416
100	86
138	137
143	142
554	553
289	288
572	571
121	120
393	392
116	115
121	120
166	165
122	121
273	272
563	562
97	96
163	162
197	196
501	500
440	439
464	463
589	588
445	444
125	122
108	107
120	119
413	412
98	97
273	272
308	307
166	165
346	345
461	460
773	772
518	517
142	156
105	104
364	363
284	283
287	286
311	310
227	226
570	569
464	463
402	401
694	693
230	229
703	702
92	91
208	207
561	560
206	205
288	287
239	238
214	213
199	198
153	152
407	406
223	222
79	78
56	55
270	269
160	159
426	425
353	352
375	374
266	265
312	311
360	359
340	339
339	338
233	232
314	299
358	357
422	421
320	319
349	348
311	310
399	398
342	341
345	344
320	319
420	419
515	514
156	154
84	83
126	125
340	339
274	273
158	157
397	396
145	230
133	177
552	551
1448	1447
227	226
121	120
70	69
219	251
383	382
638	637
121	120
379	378
203	202
328	327
154	153
615	614
384	383
432	431
513	512
658	657
467	466
272	271
232	231
287	286
221	220
499	498
329	328
426	425
156	155
82	87
225	306
155	154
333	332
271	270
158	157
354	358
677	676
275	274
393	392
394	393
514	513
331	330
441	440
485	484
114	113
146	145
313	301
100	99
304	303
690	689
51	50
71	70
97	96
237	236
325	324
220	219
778	777
147	146
188	187
233	232
403	402
564	563
536	535
340	339
301	300
328	327
335	334
424	423
36	35
36	35
36	35
560	559
64	63
520	519
63	62
251	250
509	872
373	488
770	769
369	368
318	390
856	1157
650	662
429	428
499	498
310	309
256	255
687	686
441	440
338	337
324	323
201	200
550	549
466	465
467	466
275	274
243	242
94	93
1038	1037
386	385
110	109
176	175
191	190
111	110
113	112
192	191
257	256
319	318
208	207
165	164
446	445
278	277
661	660
343	342
177	176
189	188
92	91
142	141
72	71
451	450
281	280
681	680
251	250
490	489
145	144
112	111
471	530
398	397
355	354
356	355
912	911
375	374
284	283
90	89
503	502
453	452
94	93
158	157
249	248
32	31
134	133
269	268
255	254
278	277
315	314
525	524
196	195
350	349
420	419
186	185
222	221
82	81
733	732
209	208
120	119
90	89
199	198
499	498
223	222
353	352
285	284
368	367
89	88
176	175
128	127
397	396
309	308
83	118
340	339
256	255
205	198
51	50
39	101
399	421
296	295
235	238
46	65
357	356
248	247
104	146
578	577
163	162
346	345
232	231
332	331
176	175
447	446
700	699
401	400
198	197
368	367
729	728
658	657
432	431
478	477
816	815
99	129
412	442
256	255
149	148
502	501
109	108
277	276
253	252
112	111
149	148
902	901
798	797
695	694
439	438
192	191
228	227
257	256
121	120
79	78
774	773
76	75
774	773
159	158
240	239
451	450
541	540
575	574
383	382
293	292
134	133
223	222
712	711
187	186
851	850
260	259
180	179
147	146
135	134
403	402
174	173
363	362
429	428
279	278
226	225
253	252
335	334
302	301
121	120
388	387
409	408
293	292
103	108
435	434
362	361
56	55
458	457
269	268
109	108
848	847
394	393
191	190
56	55
201	200
188	187
407	406
697	696
211	210
135	134
260	275
73	72
341	340
638	637
184	183
602	601
67	66
197	196
73	72
271	270
241	240
129	128
120	119
96	95
125	124
157	156
705	704
395	394
901	900
159	158
114	113
154	153
388	387
328	327
196	195
126	125
170	169
146	145
399	398
494	493
651	650
272	271
490	489
140	139
104	103
200	199
202	201
101	100
274	273
93	92
111	110
234	233
137	136
64	63
85	84
124	123
105	104
180	179
102	101
131	130
178	177
118	117
168	167
60	59
145	144
444	443
39	38
119	118
130	129
207	206
330	329
128	127
123	122
142	141
73	72
138	137
459	458
430	429
316	315
170	169
375	374
158	157
181	180
191	190
273	272
86	85
185	184
85	84
91	90
253	252
368	367
394	393
342	341
74	73
1035	1034
386	385
221	220
60	59
295	294
99	98
322	321
294	293
484	483
81	80
319	318
168	204
285	284
297	296
500	499
330	329
321	320
349	348
450	449
157	156
325	324
634	646
348	347
368	367
163	162
198	197
490	489
1267	1266
482	481
310	309
68	67
311	310
428	427
198	223
91	90
88	87
157	156
313	312
356	355
456	455
133	132
376	375
143	142
131	130
213	212
166	165
261	260
298	297
497	496
230	229
292	291
155	154
473	472
1518	1517
310	309
779	778
218	217
243	242
211	210
91	90
285	284
164	163
96	95
478	477
242	241
186	185
192	191
189	188
329	328
326	325
270	269
261	260
179	178
212	211
98	97
90	89
420	419
93	92
324	323
104	103
86	85
322	321
391	390
478	477
159	158
98	97
210	209
648	647
283	282
446	445
111	110
506	518
448	447
151	150
483	495
891	890
134	133
315	314
90	89
712	711
295	294
630	629
415	414
336	335
293	292
332	331
175	174
168	167
101	100
148	147
173	172
212	211
347	346
192	191
197	196
132	131
679	678
288	287
238	237
264	263
268	267
159	158
287	286
385	384
378	377
145	144
293	292
260	259
158	157
256	337
184	221
270	269
155	154
112	111
524	523
445	444
257	256
297	296
382	381
313	312
330	329
444	443
403	402
765	764
130	129
455	454
444	443
437	436
55	54
234	233
299	298
99	109
329	328
161	160
100	99
135	134
102	101
123	122
128	127
221	220
259	258
433	432
471	470
496	495
184	183
415	414
322	321
329	328
231	230
168	167
379	378
105	104
139	138
272	271
400	399
784	783
357	356
478	477
150	149
1031	1030
349	348
46	45
66	65
430	429
507	506
208	207
234	240
169	168
614	613
396	395
169	168
72	71
338	337
488	487
202	201
304	303
311	310
206	205
123	122
274	273
413	412
207	206
434	433
947	946
478	477
554	553
210	209
67	66
100	99
218	217
350	349
247	246
841	840
188	187
57	56
258	257
272	271
224	223
223	222
599	598
387	386
224	223
494	493
210	209
141	140
276	275
194	193
631	630
714	713
270	269
328	327
350	349
316	315
296	295
105	104
194	193
160	159
237	236
111	110
450	449
220	219
131	130
161	160
536	535
753	752
229	245
280	288
204	226
435	434
161	160
328	327
181	336
174	292
339	338
491	490
250	249
740	739
86	85
309	308
276	275
388	387
319	318
220	219
396	395
245	244
142	141
295	294
165	164
347	346
296	295
96	95
373	372
329	328
393	392
568	567
165	164
163	162
114	113
83	82
289	288
620	619
500	499
231	230
233	232
257	256
450	449
279	278
187	186
357	356
360	359
391	390
83	82
305	304
575	577
381	380
255	254
500	499
293	350
229	407
192	196
135	134
724	723
561	560
1521	1520
270	269
137	136
320	319
687	686
498	497
408	407
152	151
188	187
124	123
202	201
326	325
368	392
179	178
259	258
223	222
340	339
431	557
269	327
210	209
197	415
194	193
676	675
247	246
559	558
383	382
328	327
35	34
190	189
66	65
163	162
125	124
123	122
38	37
74	73
159	158
162	161
274	273
152	151
358	357
434	428
1041	1040
291	290
495	494
201	200
69	92
79	78
66	65
190	189
58	54
145	144
44	43
261	260
307	306
439	438
338	337
95	94
419	418
96	95
148	147
344	343
208	207
536	590
3289	3288
107	106
177	397
95	94
373	372
90	89
333	405
410	409
77	76
149	148
119	118
133	146
186	185
127	119
122	121
455	454
361	405
670	669
416	415
71	92
74	73
74	73
91	90
184	183
167	186
101	97
745	836
240	239
188	154
179	178
174	173
168	167
336	335
167	166
54	53
123	122
247	246
501	500
348	347
145	146
269	287
236	235
709	708
419	418
360	359
92	91
181	180
167	204
240	239
109	108
240	239
349	348
336	335
379	378
198	197
97	96
189	188
235	234
153	144
188	187
139	138
212	211
317	316
244	243
236	235
152	151
465	464
385	384
84	83
581	658
85	95
244	243
307	306
253	252
664	663
303	302
148	147
463	462
426	425
322	321
170	169
238	237
226	225
226	225
236	235
193	192
144	143
340	339
388	387
360	359
287	286
212	211
247	246
92	91
98	97
104	103
352	351
298	297
77	76
220	219
411	410
201	200
110	109
193	192
442	441
393	392
401	400
365	364
130	129
958	957
478	477
104	103
220	219
327	326
89	88
136	135
174	173
299	298
237	236
578	577
294	293
506	505
183	182
42	41
483	482
640	639
163	162
456	455
439	438
422	421
55	56
957	956
260	259
443	442
1033	1032
177	176
257	256
37	32
507	541
311	310
462	461
404	403
399	398
396	395
593	592
160	159
305	304
766	765
117	116
410	409
394	393
279	278
254	253
473	472
231	230
312	311
421	420
344	343
720	719
398	397
347	346
73	72
238	237
230	229
49	48
177	176
749	748
292	291
265	264
157	156
188	187
136	135
108	107
1123	1122
963	962
1181	1180
609	608
444	443
418	417
275	274
527	526
385	384
199	198
316	315
459	458
143	142
179	178
360	359
587	586
141	140
473	472
354	427
192	545
751	1051
380	559
405	404
161	160
201	200
838	837
623	622
176	175
274	273
793	792
217	197
788	787
775	774
879	878
164	163
551	550
222	221
446	445
513	514
167	166
366	365
269	268
148	147
402	401
76	75
306	305
132	131
367	366
241	240
138	137
473	472
592	591
439	438
216	215
383	382
282	281
456	455
430	429
455	454
283	282
182	181
110	109
261	260
150	149
451	450
447	446
447	446
919	918
434	433
745	1178
264	263
546	545
433	432
291	290
36	35
224	223
336	335
468	469
389	419
71	79
506	505
248	247
64	37
493	492
426	425
262	261
485	484
470	469
260	259
287	286
192	191
87	86
424	423
122	121
600	599
571	570
245	244
51	50
35	34
346	345
303	302
476	475
202	201
108	107
104	103
237	236
160	159
350	349
254	253
209	208
380	379
331	330
112	105
83	183
348	347
455	454
259	258
213	212
421	420
303	302
256	255
219	218
854	853
115	114
143	142
693	692
337	336
374	373
91	90
291	290
117	116
154	153
204	203
609	608
308	307
570	569
181	180
256	255
137	136
156	155
140	139
146	145
68	67
176	175
520	637
167	312
67	745
378	377
480	479
505	504
322	321
258	257
120	119
260	259
124	123
320	319
188	187
184	218
194	213
80	79
166	165
354	353
167	166
877	876
62	61
217	145
189	188
143	142
519	518
172	171
371	370
215	223
513	512
391	390
177	176
112	111
246	245
363	362
142	149
183	174
355	354
401	400
320	319
268	348
435	714
137	136
82	81
110	109
115	114
150	149
135	134
175	174
100	99
53	52
150	149
221	220
467	466
427	426
483	482
422	421
326	325
161	160
159	158
97	96
114	113
554	553
293	292
198	197
414	413
289	288
454	453
83	82
183	182
256	255
116	115
161	160
409	408
173	172
121	120
357	356
374	373
387	386
114	113
246	245
327	326
244	243
616	692
237	236
85	84
433	432
91	90
452	451
887	886
233	232
140	139
346	345
230	229
128	127
196	195
294	293
445	444
246	245
541	540
192	191
217	216
319	318
160	159
289	301
253	288
325	324
227	226
302	301
243	242
244	243
127	126
87	86
283	282
212	211
168	167
519	518
1296	1295
461	460
238	237
445	445
113	112
397	396
418	417
398	397
1094	1093
328	327
510	509
333	332
284	320
67	73
291	290
141	140
380	379
427	426
285	284
268	267
247	246
163	162
405	404
129	128
108	107
172	171
617	616
112	111
67	66
428	427
259	258
282	281
1165	1653
491	1653
759	770
144	143
385	384
113	112
223	335
373	372
425	424
207	206
393	392
491	490
72	71
725	724
331	330
1165	2693
185	1634
1365	2693
456	455
489	488
526	525
148	147
161	164
58	57
51	50
748	747
514	513
689	688
213	212
346	345
209	208
430	429
249	248
120	119
488	487
354	353
157	156
191	190
293	292
345	344
77	76
238	237
288	287
435	671
236	313
233	232
67	66
376	375
119	118
497	1037
166	272
389	407
567	566
660	659
192	191
333	332
668	667
317	316
760	759
112	111
160	159
234	233
268	267
339	338
112	111
96	95
468	467
279	278
396	395
409	408
468	467
454	453
296	295
220	219
112	120
351	350
301	300
208	207
142	141
150	149
192	191
300	299
475	474
299	298
264	263
339	338
278	277
292	291
366	365
304	303
123	122
284	283
170	169
576	575
86	85
324	323
254	253
333	332
615	671
75	79
73	72
333	332
309	308
255	254
278	277
91	88
325	406
295	294
472	471
124	123
120	119
812	811
401	400
413	412
109	108
419	418
322	321
109	108
416	415
362	361
346	345
832	831
286	285
245	244
566	565
413	412
307	306
81	80
92	91
211	210
417	416
565	564
315	314
328	331
46	45
1148	1147
205	204
388	387
513	512
443	442
205	207
245	257
124	141
177	187
311	310
252	251
447	446
95	94
437	436
499	714
137	136
162	161
189	188
883	882
251	250
164	163
160	159
176	175
275	274
184	183
311	310
362	361
275	274
270	269
183	182
93	92
669	668
407	406
393	392
332	331
379	378
338	337
271	270
220	219
305	304
423	422
221	220
163	162
506	505
190	189
261	260
261	260
229	228
239	238
258	257
298	297
121	120
216	215
215	214
184	183
181	180
493	506
715	714
401	400
152	151
165	164
217	216
611	610
200	199
406	405
313	312
55	54
148	147
221	220
601	600
167	166
446	445
909	908
326	325
181	180
185	184
101	100
614	613
510	509
486	485
168	167
324	323
581	580
306	305
154	153
102	101
432	431
557	556
253	252
286	285
280	320
452	451
89	88
129	128
112	111
551	550
297	296
133	132
539	660
323	322
386	385
201	200
142	141
181	180
401	400
261	260
402	401
430	429
268	267
74	73
332	331
397	396
420	419
543	542
453	452
359	358
217	216
105	84
377	376
762	761
1255	1254
241	240
876	875
563	562
208	207
1465	1464
550	549
259	258
107	106
288	368
441	440
217	216
221	220
462	461
609	608
800	946
166	169
217	216
891	890
374	373
352	351
355	354
217	216
548	547
549	548
163	162
55	54
88	87
829	828
232	231
288	287
150	149
201	200
179	180
221	220
246	245
70	69
160	159
648	647
186	185
351	350
216	215
68	67
214	213
587	586
76	75
336	335
95	94
587	586
232	231
397	396
115	114
530	529
342	341
365	364
92	91
533	604
519	518
189	188
238	237
329	328
489	488
191	190
85	84
394	393
377	376
313	312
564	563
314	313
313	312
417	416
233	232
314	313
363	362
286	285
350	349
294	293
392	489
111	110
664	663
279	278
223	222
386	385
347	346
333	332
507	506
337	336
412	411
413	412
80	79
240	239
295	294
232	231
133	132
317	316
479	508
254	253
193	192
196	195
311	310
572	571
756	755
298	305
386	385
309	308
244	243
36	35
244	243
562	561
240	239
157	156
154	153
577	667
111	110
379	378
760	759
363	362
62	61
1211	1210
1254	1253
1267	1266
678	677
370	369
94	93
181	180
225	224
827	826
345	344
113	112
275	274
91	90
263	262
267	266
273	272
249	248
242	233
94	137
335	334
426	425
351	350
285	284
421	420
151	150
95	94
452	451
347	346
260	259
300	299
106	105
454	453
111	110
241	240
468	467
472	471
1026	1497
544	1040
506	505
416	415
220	219
254	253
647	646
451	450
283	282
1106	1105
214	213
194	193
618	617
400	411
129	127
380	379
148	147
721	720
280	279
163	162
406	405
407	406
258	248
183	182
374	373
322	321
161	160
408	407
479	478
457	456
465	464
508	459
427	426
407	406
131	130
354	464
298	297
146	168
227	253
300	299
293	292
181	180
420	419
322	321
83	88
295	296
406	405
202	201
367	366
264	263
469	468
389	388
326	325
204	203
259	258
246	245
51	77
134	144
356	355
357	356
435	434
300	299
84	83
85	84
275	274
317	316
453	454
153	152
476	475
389	388
158	157
353	352
110	109
65	64
125	124
123	122
215	214
74	73
159	158
158	157
82	81
273	272
137	136
226	225
357	356
302	301
795	794
145	144
722	721
330	329
353	352
256	255
86	85
382	381
341	340
231	230
201	200
69	68
51	52
399	398
67	66
190	189
134	133
137	136
238	238
345	344
322	321
253	252
242	241
148	147
39	38
258	257
175	174
399	398
218	217
408	407
215	214
43	42
716	715
181	180
248	247
308	308
176	227
147	229
306	305
317	316
485	484
239	238
485	484
439	438
351	350
159	158
421	420
250	249
674	673
526	525
268	267
367	366
3164	3163
1563	2035
489	1511
143	190
158	113
190	227
220	248
146	190
322	365
299	424
427	426
435	434
421	420
266	265
217	216
58	57
201	200
212	211
335	334
138	137
261	260
453	452
284	283
365	364
30	36
232	231
473	472
157	156
307	306
306	305
61	60
565	564
272	271
76	75
63	62
208	207
262	261
90	89
246	245
122	121
138	137
335	334
155	154
376	375
148	147
296	300
142	154
229	228
332	331
553	552
105	104
435	434
82	81
115	114
56	55
94	93
185	184
100	99
56	55
94	93
161	160
304	303
103	102
36	35
57	56
66	65
67	66
103	102
218	217
72	71
99	98
91	90
296	295
459	458
35	34
204	203
109	108
34	33
105	104
137	136
134	133
70	69
71	70
97	96
121	120
63	62
173	172
171	170
108	107
159	158
146	145
81	80
147	146
472	471
733	732
298	297
37	54
379	417
63	62
154	153
35	34
195	194
473	472
234	233
152	151
230	229
462	461
160	504
555	722
110	109
140	139
194	193
53	82
53	52
75	74
293	292
825	824
111	110
184	183
247	265
183	182
90	89
166	165
78	77
402	401
138	137
496	495
122	121
137	136
472	471
350	349
240	239
184	183
286	285
51	50
285	328
223	222
251	250
241	240
75	74
219	218
611	610
183	182
339	338
88	87
61	60
190	189
677	738
107	106
138	137
77	76
159	158
75	74
252	251
90	105
394	471
137	136
79	78
104	103
75	74
39	38
74	73
263	262
308	307
233	232
202	201
163	162
78	77
214	213
60	59
199	198
98	97
224	223
128	127
91	90
160	159
82	81
189	188
627	626
78	77
525	524
436	435
110	109
345	344
140	139
127	126
227	226
179	178
301	300
130	129
307	306
209	208
395	394
130	129
501	500
171	170
42	93
547	546
130	129
75	74
348	347
140	139
222	221
404	403
80	79
166	165
108	107
84	83
168	167
330	329
505	504
329	328
267	266
475	474
143	142
117	116
193	192
296	295
309	308
655	654
168	167
554	553
40	39
287	286
350	349
130	129
215	214
383	382
693	692
131	130
578	577
189	188
249	248
367	366
810	809
324	323
248	247
132	131
273	272
189	188
591	590
148	147
247	246
174	173
201	200
204	203
337	336
174	173
201	200
262	261
252	251
329	328
441	440
324	323
481	480
290	289
50	49
492	491
604	603
214	213
393	392
97	96
119	118
37	36
220	219
687	686
221	220
219	218
77	76
125	124
291	290
118	117
219	218
92	91
79	78
482	481
878	877
428	427
184	183
233	232
683	682
294	293
317	316
140	143
264	263
80	79
96	95
39	46
270	269
189	188
153	152
284	283
267	266
324	323
519	518
533	532
455	454
193	192
454	453
60	59
100	99
116	115
637	636
232	231
194	193
573	583
372	371
213	212
120	119
61	60
83	82
342	341
85	84
116	115
394	393
273	272
149	148
168	167
497	496
492	491
428	427
645	644
249	248
285	284
295	294
332	331
138	137
91	90
359	358
460	459
348	347
279	278
316	315
327	326
253	252
453	452
214	213
339	338
237	236
619	618
184	183
277	347
64	63
652	651
174	173
201	200
448	447
91	90
136	135
207	206
436	435
218	217
512	511
389	388
183	182
235	234
226	225
237	236
269	268
407	406
345	344
493	492
448	447
134	134
184	183
162	161
192	191
296	295
276	275
113	112
107	106
453	452
117	116
280	279
451	450
253	252
754	753
88	87
464	463
197	196
223	222
179	178
287	286
97	96
310	309
253	252
36	35
96	95
643	642
145	144
66	65
119	118
328	327
796	795
100	99
327	326
184	183
250	249
155	154
238	237
479	478
64	63
316	348
49	48
278	277
793	792
549	566
98	97
430	429
205	312
255	254
304	303
384	383
136	135
395	401
253	252
289	288
422	421
405	404
119	118
371	370
107	106
913	1018
137	136
63	62
123	122
496	495
249	248
424	423
407	406
139	138
335	334
79	78
471	470
70	69
178	208
103	130
599	700
213	212
223	222
262	261
255	254
535	534
102	101
419	418
458	457
214	213
249	253
147	145
172	171
231	230
311	310
342	341
30	29
390	389
194	193
276	275
116	115
216	215
136	135
366	365
200	199
80	79
299	298
174	173
671	670
286	285
79	78
145	144
156	155
370	369
108	107
219	218
425	424
287	286
202	201
501	500
212	211
232	231
207	206
353	352
807	628
193	192
194	193
147	146
72	71
347	346
334	333
391	390
531	530
343	342
256	255
180	179
604	603
458	457
78	77
355	354
503	502
392	391
549	548
468	467
310	309
434	433
240	239
112	111
241	240
207	214
260	254
315	314
511	510
463	462
345	344
122	121
110	109
274	273
103	102
213	216
188	226
298	297
407	406
232	231
419	418
205	204
285	284
206	205
246	245
245	244
809	808
102	101
249	248
187	186
114	113
109	108
405	404
340	339
35	34
427	426
79	78
824	823
64	63
63	62
206	205
52	51
136	135
70	76
174	173
322	321
126	131
546	545
71	70
71	70
84	83
350	349
251	250
71	70
72	71
69	68
104	103
178	177
164	163
71	70
58	57
137	136
69	68
44	56
176	175
700	699
71	70
503	502
676	675
108	107
92	91
126	157
134	133
248	247
129	128
110	109
1022	1021
110	109
233	232
216	215
1138	1137
791	790
94	93
347	346
98	97
197	196
78	77
428	427
487	486
68	67
229	228
249	248
682	681
297	296
32	31
396	395
300	299
73	72
128	127
145	144
222	221
389	396
294	293
463	462
309	308
120	119
473	472
484	483
305	304
227	250
89	88
441	440
60	59
188	187
237	236
884	883
177	176
168	167
305	304
639	759
117	116
66	65
254	253
561	560
386	385
270	269
467	466
512	511
440	439
800	799
144	143
72	71
46	45
566	565
337	336
57	56
95	94
218	217
295	294
804	1015
196	195
275	274
463	462
1247	1246
515	514
232	231
227	226
298	297
33	32
222	281
330	378
500	499
354	353
701	700
79	78
173	172
150	149
78	77
58	57
475	474
265	264
314	313
338	337
382	381
469	468
57	56
668	667
179	178
391	390
223	222
196	197
331	330
327	326
180	179
540	551
448	447
308	307
98	97
56	55
58	57
177	176
242	241
84	83
480	479
267	266
1301	1300
202	201
289	288
2648	2671
57	56
78	77
109	108
62	61
880	879
330	329
141	140
89	88
258	257
450	692
462	1174
378	377
145	144
90	89
160	158
168	167
495	494
191	190
274	273
238	237
97	96
93	92
687	686
1161	1160
183	182
200	247
233	232
1078	1077
150	149
321	320
131	130
127	126
129	127
132	131
75	74
380	379
255	254
182	291
191	371
469	468
434	433
365	364
70	69
311	310
264	263
87	185
406	474
155	154
166	165
72	71
179	178
97	96
200	199
71	70
229	228
139	138
254	253
249	248
286	285
141	140
99	98
159	158
45	44
163	162
74	73
57	56
92	91
361	362
544	883
270	269
63	62
72	71
412	411
312	311
458	457
58	57
179	178
154	169
411	410
188	187
388	388
235	280
272	271
105	104
67	66
251	250
43	42
270	268
86	85
344	343
538	537
300	299
307	306
213	212
243	242
322	321
169	168
514	513
354	353
466	465
333	332
302	301
361	360
220	219
756	755
352	351
263	262
351	350
281	280
284	283
431	430
410	462
159	212
105	104
74	73
120	119
75	74
223	222
326	325
82	81
533	547
322	321
297	296
331	330
269	268
388	387
458	457
1036	1035
374	373
189	188
263	262
376	375
645	644
662	661
58	57
250	249
73	72
109	108
266	265
172	171
219	218
103	102
255	254
197	196
892	891
56	55
43	42
325	324
866	865
84	83
350	349
253	252
86	85
111	110
103	102
341	340
292	291
632	631
207	206
294	293
521	520
532	531
453	452
398	397
269	268
218	217
248	247
180	179
133	132
239	238
99	98
418	417
487	486
110	109
335	334
338	337
303	302
307	306
559	558
54	53
52	51
216	215
892	891
402	401
206	205
138	137
303	302
338	337
316	314
153	152
281	280
364	363
142	285
227	264
149	200
429	428
269	268
339	338
336	335
226	225
237	236
513	512
1248	1247
289	300
169	175
73	72
598	598
217	216
465	464
118	117
239	238
80	79
367	366
36	35
285	284
270	269
131	130
278	277
361	360
419	418
208	207
284	283
338	337
551	559
93	92
195	194
364	363
392	391
95	94
164	163
57	56
84	83
66	65
46	45
412	411
71	70
886	885
200	199
466	465
285	284
156	155
66	65
205	204
305	304
151	150
180	179
141	140
163	162
90	89
176	175
120	119
112	111
82	81
629	628
172	171
336	349
56	55
586	585
73	75
640	639
357	356
211	210
473	472
566	565
341	340
327	326
253	252
271	270
285	284
270	378
224	444
180	198
85	84
245	244
204	203
305	304
579	578
357	356
433	432
511	510
240	239
514	513
177	176
248	259
147	174
33	42
140	139
87	86
149	148
220	219
98	97
134	133
123	122
232	231
236	235
89	88
104	103
58	57
95	94
110	109
124	123
121	120
227	226
83	82
89	88
79	78
404	403
244	243
135	134
51	50
52	51
253	252
166	206
115	114
276	275
286	285
286	285
98	97
93	92
674	673
1161	1160
181	180
200	199
233	232
110	109
755	853
100	99
145	130
141	140
247	246
132	131
193	192
118	117
133	132
342	341
111	110
55	70
386	397
82	81
439	452
642	641
182	181
118	117
109	108
98	97
154	153
159	158
102	101
230	229
46	45
121	120
97	96
57	56
152	151
348	347
1422	1421
234	233
335	334
180	179
77	76
252	251
69	68
99	98
262	261
227	226
61	60
94	93
74	73
109	108
80	79
79	78
381	380
417	416
218	217
154	153
369	368
214	213
457	456
224	223
487	486
342	373
409	408
379	378
286	285
265	264
349	348
154	153
232	262
274	273
304	303
236	246
176	168
234	233
400	399
358	357
1173	1172
135	214
180	234
42	70
145	124
93	129
180	179
435	434
181	180
342	341
275	274
214	213
131	125
120	119
730	729
478	477
266	265
335	334
214	213
341	340
270	269
414	413
79	78
245	244
207	264
104	103
318	317
347	346
58	57
174	173
208	207
320	319
1062	1061
318	317
548	547
314	313
366	365
233	232
261	260
252	251
402	401
232	231
135	134
139	138
220	219
98	97
139	138
512	511
308	307
216	215
195	194
403	402
216	215
187	186
348	347
82	81
85	84
373	372
38	37
189	188
192	191
351	350
307	306
409	408
125	124
76	75
176	175
655	847
501	517
386	385
494	493
178	177
95	103
111	110
153	152
152	82
217	216
130	129
139	138
278	277
174	173
185	184
246	245
313	312
83	84
456	455
808	807
673	672
442	441
138	137
355	354
424	423
376	375
286	285
503	502
70	69
1321	1320
213	212
364	363
232	231
129	128
267	266
40	78
71	70
165	164
443	442
58	57
199	198
76	75
414	413
307	306
102	101
200	199
849	865
391	390
231	230
343	342
891	942
305	357
58	57
71	70
71	70
437	436
31	30
379	378
515	514
286	285
133	132
196	195
236	235
598	597
373	372
220	219
110	109
93	92
86	99
322	367
106	105
138	137
221	220
153	152
154	205
543	684
149	148
721	720
210	209
170	169
351	350
151	150
587	586
209	208
56	55
188	187
547	546
418	417
636	635
703	702
370	369
181	180
337	336
192	191
320	319
382	381
265	264
256	255
871	870
357	400
467	466
363	362
397	396
216	215
183	182
616	615
1487	1486
235	234
441	440
262	261
260	259
298	297
249	248
61	60
411	410
329	328
583	582
358	382
398	621
95	94
558	557
228	227
255	254
167	166
260	259
363	362
231	230
587	586
399	398
761	760
73	72
106	122
227	205
160	159
816	815
92	91
53	172
514	513
249	248
131	172
397	396
48	290
286	285
415	414
193	192
873	872
177	176
303	302
116	115
212	211
151	150
156	155
53	57
142	141
142	141
166	165
94	93
68	67
170	169
248	247
358	357
285	284
591	590
330	329
494	493
766	765
92	91
75	74
100	99
75	74
167	166
119	118
100	99
332	331
266	265
383	382
209	208
288	287
142	205
815	814
431	430
448	447
204	203
1369	1368
165	164
357	356
589	588
574	573
235	234
73	72
759	758
107	106
75	74
649	648
372	371
331	330
553	552
232	231
300	299
551	550
323	322
573	572
334	333
477	476
338	337
277	276
108	107
129	128
243	242
244	243
239	238
223	222
244	243
376	375
163	162
282	281
315	314
246	245
132	127
371	370
159	158
301	300
241	240
96	95
86	85
126	125
562	561
179	178
376	375
272	271
93	92
411	410
199	198
253	252
401	400
209	208
372	371
128	127
442	441
443	442
783	782
304	303
307	306
513	512
624	623
322	321
412	411
250	249
221	220
300	299
811	810
272	271
531	530
307	306
373	372
156	155
43	42
528	527
172	171
296	295
168	167
249	248
220	219
110	150
142	142
742	741
309	308
87	86
674	761
225	224
89	88
87	86
362	361
321	320
717	716
66	65
454	453
224	223
332	331
579	578
378	377
369	368
137	136
254	253
414	413
319	318
238	237
235	234
151	150
82	81
162	161
171	170
330	329
303	302
674	673
226	225
252	251
385	384
347	346
430	429
68	67
73	85
428	427
754	753
478	477
351	350
318	317
332	331
273	272
353	352
230	229
258	257
50	49
263	262
491	490
339	338
349	348
383	382
347	346
251	250
351	350
127	126
314	313
240	239
305	347
264	263
174	173
431	430
437	436
143	142
141	140
98	97
135	134
98	97
38	37
380	379
523	522
295	383
122	267
878	877
333	366
325	638
241	240
290	289
389	388
406	405
934	933
239	238
589	588
116	115
135	134
36	35
44	55
170	210
228	293
437	436
154	153
323	322
399	398
104	103
252	251
280	332
79	337
229	228
238	237
349	348
264	263
245	244
311	310
219	218
248	247
494	493
473	472
170	169
69	68
558	557
683	682
191	190
895	894
226	225
733	732
162	161
286	353
547	546
182	181
210	254
121	120
177	176
149	148
109	108
469	468
555	554
254	253
329	328
412	411
386	385
296	295
253	252
390	389
157	156
427	426
649	648
267	266
60	73
326	382
407	406
251	250
555	554
146	145
392	391
475	474
360	359
156	155
293	292
513	512
626	625
303	302
247	246
225	224
242	241
312	311
557	556
484	483
236	235
185	125
73	72
161	160
861	860
194	193
344	343
214	213
204	203
106	105
156	155
634	633
371	370
363	362
404	403
88	87
214	213
322	321
68	67
263	262
128	127
70	69
187	186
462	461
227	226
553	552
190	180
179	178
99	98
303	302
511	510
184	183
293	292
488	487
269	268
137	136
30	29
143	142
532	531
188	187
249	248
301	300
407	406
210	209
387	386
363	362
66	65
702	701
118	123
199	248
286	285
537	536
392	391
319	318
417	416
335	334
331	330
272	271
378	377
1294	1293
73	72
401	400
747	746
261	260
312	311
84	276
148	276
317	316
507	506
312	311
207	206
515	514
356	355
266	265
262	261
51	50
51	50
373	372
83	82
128	127
218	217
416	415
461	460
1048	1047
315	407
111	110
461	460
228	227
481	480
746	745
991	990
297	296
318	317
223	222
100	99
289	288
71	70
174	173
462	461
165	164
241	240
110	109
170	169
356	355
298	297
272	271
420	419
556	555
350	349
412	411
262	261
382	381
434	433
454	453
485	484
293	292
259	258
594	593
272	271
161	160
309	308
369	368
223	222
223	222
221	219
668	667
805	804
200	199
198	197
257	256
285	284
260	259
226	225
306	305
153	152
160	159
136	135
431	430
311	310
835	834
114	113
101	100
265	264
160	159
267	266
168	167
551	550
407	406
559	558
435	434
320	319
321	320
215	214
625	624
202	201
110	109
644	643
184	183
126	125
176	175
55	54
1121	1120
216	215
398	397
1050	1049
125	124
73	72
184	183
157	156
517	516
118	117
104	103
191	190
287	286
429	428
59	58
594	593
591	590
153	152
273	272
567	566
232	231
133	132
124	123
624	623
91	90
785	784
425	424
208	207
433	432
105	104
193	192
492	491
316	315
442	453
229	241
205	204
110	109
297	296
455	454
164	163
304	303
197	196
483	482
81	80
300	299
237	236
209	426
173	172
325	324
173	172
326	325
140	139
157	156
172	314
201	178
150	149
207	179
295	294
116	115
324	323
605	615
111	110
376	375
357	356
194	193
606	605
458	457
440	439
432	431
230	229
401	400
1048	1047
423	422
303	302
326	325
61	60
95	94
226	225
64	63
175	174
153	152
270	269
372	371
107	69
472	471
87	86
365	364
71	70
103	102
365	364
407	406
34	33
386	385
208	207
996	995
325	324
284	283
276	275
256	255
133	132
171	170
92	91
370	369
278	277
180	179
404	403
338	337
317	316
270	269
289	288
315	314
555	554
278	277
364	363
1025	1024
418	417
207	206
428	427
420	419
629	628
484	483
390	389
297	296
529	528
92	91
211	210
350	349
461	460
317	316
473	472
516	515
288	287
202	201
166	165
311	310
363	362
678	677
196	195
77	80
429	464
557	556
94	93
188	187
265	264
47	46
254	253
764	763
223	222
232	231
476	475
240	239
285	284
442	556
198	197
290	289
286	285
852	1415
555	1415
284	283
330	329
298	297
309	308
307	306
381	380
34	33
89	88
47	46
181	180
196	195
223	222
842	841
548	547
237	236
205	204
112	111
259	258
307	306
261	260
1033	1032
546	545
416	415
157	156
418	417
368	367
352	351
134	133
415	414
153	152
486	485
205	204
380	379
125	124
352	351
308	307
288	287
239	238
156	155
354	353
104	103
131	130
439	438
305	304
281	280
326	325
310	309
459	458
100	99
367	366
247	246
262	261
246	245
401	400
238	237
144	143
87	111
104	241
139	245
93	92
132	142
311	310
813	812
32	31
134	133
116	115
132	131
145	144
447	464
237	236
337	336
549	548
114	113
329	328
284	283
124	123
251	250
91	90
261	260
380	379
698	697
166	165
253	252
247	246
256	255
193	192
815	814
149	148
257	256
247	246
156	155
241	240
252	251
407	406
257	256
275	274
305	304
268	267
106	100
