197	196
134	133
137	136
238	238
109	108
254	258
322	321
253	252
405	404
39	38
258	257
147	146
298	398
101	176
218	217
98	153
291	365
215	214
43	42
428	427
294	206
181	180
248	247
360	359
176	227
147	229
306	305
317	316
522	484
239	238
485	484
439	438
265	264
92	91
126	125
159	158
490	489
154	158
674	673
526	525
268	267
111	125
2843	3163
205	445
246	252
1289	1702
731	2035
320	319
571	600
1025	600
435	434
321	320
266	265
217	216
212	211
335	334
138	137
261	260
442	452
284	283
353	352
37	36
232	231
473	472
157	156
307	306
306	305
61	60
565	564
272	271
76	75
63	62
61	60
127	207
262	261
90	89
109	108
147	174
122	121
138	137
335	334
155	154
376	375
148	147
126	130
341	387
229	228
332	331
553	552
105	104
111	110
184	183
266	265
90	89
78	77
402	401
138	137
496	495
122	121
137	136
472	471
437	436
240	239
184	183
286	285
329	328
223	222
251	250
241	240
75	74
219	218
611	610
183	182
222	221
404	403
80	79
166	165
108	107
84	83
168	167
330	329
505	504
329	328
267	266
475	474
143	142
117	116
171	170
296	295
309	308
655	654
168	167
554	553
40	39
287	286
331	299
130	129
215	214
150	149
234	262
693	692
131	130
578	577
189	188
249	248
379	378
810	809
324	323
248	247
132	131
273	272
189	188
591	590
148	147
247	246
107	106
64	63
201	200
204	203
337	336
58	57
201	200
262	261
252	251
329	328
441	440
324	323
481	480
290	289
50	49
492	491
604	603
214	213
393	392
97	96
131	130
164	219
537	536
152	157
221	220
219	218
77	76
125	124
291	290
114	113
219	218
92	91
79	78
482	481
878	877
282	281
143	142
184	183
233	232
683	682
294	293
458	457
264	263
80	79
96	95
70	69
270	269
189	188
153	152
284	283
267	266
324	323
519	518
533	532
455	454
193	192
454	453
60	59
100	99
116	115
637	636
232	231
194	193
306	390
228	378
372	371
213	212
120	119
61	60
83	82
136	135
110	109
85	84
116	115
394	393
273	272
149	148
168	167
497	496
492	491
428	427
645	644
249	248
285	284
295	294
332	331
138	137
53	44
359	358
460	459
348	347
279	278
316	315
327	326
234	240
453	452
214	213
339	338
237	236
302	301
303	304
184	183
277	347
64	63
133	142
467	651
448	447
91	90
136	135
207	206
436	435
218	217
512	511
389	388
183	182
235	234
226	225
237	236
269	268
407	406
345	344
358	369
448	447
323	322
162	161
192	191
296	295
276	275
113	112
107	106
453	452
117	116
280	279
451	450
253	252
754	753
88	87
464	463
197	196
223	222
179	178
287	286
97	96
310	309
253	252
36	35
96	95
643	642
145	144
66	65
119	118
102	101
210	218
796	795
100	99
327	326
184	183
250	249
155	154
238	237
479	478
64	63
349	348
278	277
793	792
231	277
329	442
98	97
430	429
313	312
255	254
224	223
384	383
532	531
253	252
289	288
147	146
292	291
405	404
119	118
202	201
169	168
107	106
913	1018
137	136
63	62
249	248
424	423
407	406
139	138
335	334
79	78
471	470
70	69
209	208
293	291
387	386
213	212
223	222
223	261
255	254
535	534
102	101
378	418
458	457
214	213
383	382
404	403
311	310
233	232
92	91
30	29
390	389
194	193
276	275
116	115
216	215
136	135
366	365
200	199
80	79
299	298
174	173
671	670
286	285
79	78
145	144
156	155
370	369
108	107
219	218
425	424
287	286
202	201
501	500
212	211
232	231
207	206
353	352
807	628
193	192
194	193
147	146
72	71
347	346
334	333
391	390
531	530
343	342
256	255
193	192
604	603
458	457
422	421
503	502
392	391
549	548
468	467
310	309
434	433
240	239
112	111
241	240
461	460
315	314
511	510
463	462
345	344
122	121
110	109
274	273
103	102
213	216
205	226
298	297
407	406
232	231
155	169
265	257
205	204
285	284
206	205
246	245
245	244
809	808
102	101
249	248
187	186
114	113
109	108
361	360
42	69
340	339
456	455
487	486
68	67
229	228
249	248
682	681
297	296
32	31
396	395
300	299
73	72
128	127
145	144
222	221
397	396
294	293
463	462
309	308
120	119
473	472
484	483
305	304
227	250
83	82
60	59
188	187
237	236
884	883
177	176
168	167
305	304
760	759
66	65
254	253
364	394
186	185
386	385
270	269
467	466
512	511
440	439
800	799
144	143
72	71
46	45
566	565
337	336
57	56
95	94
144	166
83	95
295	294
276	340
475	1015
181	180
275	274
463	462
1089	1246
655	1760
232	231
227	226
68	65
194	297
33	32
282	281
190	189
379	378
500	499
354	353
745	744
79	78
173	172
150	149
78	77
58	57
475	474
265	264
314	313
338	337
382	381
155	154
331	330
57	56
668	667
192	191
391	390
223	222
198	197
331	330
327	326
180	179
75	74
540	551
448	447
308	307
98	97
56	55
58	57
177	176
251	257
84	83
480	479
267	266
1301	1300
202	201
271	288
2868	1690
57	56
78	77
109	108
62	61
256	273
622	880
330	329
141	140
89	88
542	1174
634	1174
378	377
145	144
90	89
126	125
92	91
305	275
458	457
58	57
328	327
136	196
270	269
188	187
396	388
326	342
272	271
172	171
150	156
105	115
317	316
86	85
344	343
538	537
300	299
307	306
213	212
164	168
322	321
169	168
514	513
354	353
466	465
333	332
302	301
361	360
220	219
756	755
352	351
263	262
351	350
281	280
294	293
431	430
178	177
373	458
79	69
74	73
120	119
75	74
223	222
326	325
82	81
548	547
322	321
297	296
331	330
269	268
388	387
458	457
1036	1035
374	373
189	188
263	262
376	375
645	644
662	661
58	57
250	249
73	72
109	108
266	265
390	389
103	102
255	254
197	196
892	891
56	55
43	42
325	324
866	865
84	83
350	349
253	252
197	196
103	102
341	340
292	291
633	632
207	206
294	293
521	520
532	531
425	452
140	139
247	246
269	268
218	217
248	247
180	179
133	132
216	238
99	98
418	417
487	486
110	109
335	334
338	337
303	302
307	306
559	558
54	53
52	51
216	215
892	891
402	401
215	207
138	137
303	302
342	337
315	314
153	152
281	280
364	363
142	285
227	264
63	62
697	428
339	338
336	335
226	225
237	236
1760	1760
464	463
73	72
599	598
217	216
465	464
118	117
239	238
80	79
204	227
182	181
36	35
285	284
270	269
131	130
278	277
361	360
36	35
382	441
208	207
284	283
338	337
72	106
471	512
93	92
195	194
364	363
392	391
95	94
164	163
57	56
84	83
66	65
46	45
412	411
71	70
886	885
227	226
288	457
134	281
285	284
156	155
66	65
205	204
318	304
151	150
180	179
141	140
163	162
90	89
176	175
120	119
112	111
82	81
587	628
57	75
85	86
376	375
586	585
80	79
640	639
357	356
211	210
473	472
566	565
341	340
83	121
143	142
253	252
94	130
179	178
285	284
657	656
85	84
245	244
204	203
305	304
579	578
357	356
433	432
511	510
240	239
505	513
177	176
339	422
71	76
140	139
87	86
149	148
220	219
98	97
134	133
123	122
232	231
271	270
89	88
104	103
58	57
95	94
110	109
124	123
121	120
227	226
83	82
89	88
79	78
404	403
244	243
135	134
51	50
166	206
115	114
276	275
286	285
286	285
98	97
93	92
199	198
189	348
162	161
117	116
142	141
643	685
481	985
662	1132
99	98
102	115
200	247
233	232
99	98
854	853
145	130
141	140
247	246
132	131
64	63
148	192
118	117
125	124
343	342
116	115
502	501
531	530
69	68
643	642
183	182
61	60
125	124
148	147
166	165
72	71
361	360
128	127
46	45
121	120
97	96
57	56
152	151
348	347
509	508
111	110
101	100
234	233
335	334
180	179
76	75
162	161
33	70
310	309
126	125
69	68
99	98
262	261
40	20
175	179
61	60
50	49
72	71
30	29
73	72
46	40
79	78
313	303
417	416
218	217
154	153
369	368
214	213
457	456
224	223
487	486
374	373
409	408
128	128
246	245
286	285
265	264
349	348
154	153
263	262
274	273
304	303
413	414
234	233
400	399
358	357
1173	1172
320	319
86	85
145	124
93	129
180	179
435	434
181	180
342	341
275	274
214	213
126	125
120	119
730	729
326	347
159	165
266	265
335	334
214	213
341	340
270	269
414	413
79	78
103	123
163	162
115	114
93	195
104	103
318	317
347	346
58	57
174	173
208	207
320	319
1062	1061
318	317
548	547
314	313
366	365
233	232
261	260
252	251
361	401
232	231
135	134
139	138
220	219
98	97
139	138
512	511
308	307
216	215
195	194
403	402
216	215
187	186
348	347
82	81
85	84
373	372
38	37
189	188
192	191
351	350
307	306
409	408
106	105
35	29
76	75
320	319
529	847
501	517
386	385
494	493
178	177
104	103
111	110
153	152
152	82
217	216
130	129
139	138
278	277
174	173
185	184
246	245
313	312
35	34
456	455
808	807
493	472
92	91
126	125
442	441
138	137
355	354
424	423
376	375
277	276
503	502
70	69
1321	1320
213	212
364	363
232	231
103	128
267	266
79	91
71	70
165	164
443	442
58	57
199	198
76	75
414	413
307	306
102	101
200	199
849	865
391	390
231	230
331	330
896	910
368	367
58	57
71	70
71	70
437	436
31	30
379	378
475	514
273	285
133	132
189	195
236	235
278	277
328	375
373	372
220	219
110	109
93	92
392	391
106	105
138	137
221	220
153	152
685	684
149	148
721	720
210	209
170	169
351	350
151	150
587	586
161	171
49	71
56	55
188	187
372	371
143	186
56	55
418	417
636	635
703	702
370	369
181	180
337	336
192	191
320	319
382	381
265	264
256	255
871	870
401	400
467	466
363	362
397	396
216	215
183	182
616	615
1487	1486
235	234
395	440
262	261
260	259
298	297
249	248
61	60
411	410
329	328
583	582
755	754
95	94
558	557
228	227
255	254
428	427
363	362
231	230
587	586
399	398
761	760
247	246
383	382
209	208
288	287
142	205
815	814
431	430
448	447
204	203
101	100
1283	1368
165	164
357	356
589	588
470	573
112	131
235	234
73	72
759	758
107	106
75	74
653	669
372	371
331	330
553	552
232	231
306	299
78	77
484	490
339	322
573	572
334	333
477	476
61	84
276	295
60	113
228	276
108	107
172	171
243	242
244	243
239	238
223	222
244	243
376	375
163	162
293	292
315	314
76	75
320	377
371	370
159	158
301	300
241	240
96	95
86	85
126	125
93	92
66	66
416	415
135	169
53	56
376	375
272	271
93	92
411	410
199	198
253	252
401	400
209	208
372	371
128	127
250	250
192	223
443	442
298	297
446	502
304	303
307	306
513	512
624	623
322	321
412	411
250	249
221	220
300	299
811	810
272	271
531	530
307	306
373	372
156	155
43	42
419	418
172	171
296	295
168	167
249	248
220	219
241	240
250	249
510	741
290	294
87	86
761	760
225	224
89	88
87	86
362	361
321	320
372	471
304	323
454	453
224	223
332	331
579	578
378	377
340	368
137	136
254	253
414	413
319	318
238	237
235	234
151	150
82	81
162	161
171	170
330	329
303	302
674	673
221	205
247	251
385	384
347	346
430	429
159	158
428	427
754	753
478	477
351	350
318	317
347	331
273	272
353	352
230	229
233	257
50	49
263	262
491	490
339	338
349	348
383	382
347	346
251	250
351	350
127	126
314	313
240	239
305	347
264	263
174	173
431	430
432	421
143	142
231	230
135	134
98	97
38	37
380	379
296	316
239	307
398	397
873	877
639	638
166	240
85	240
290	289
389	388
406	405
934	933
239	238
589	588
116	115
135	134
36	35
428	427
437	436
154	153
323	322
399	398
104	103
252	251
222	332
121	337
229	228
234	237
349	348
264	263
245	244
311	310
219	218
226	225
354	331
153	191
473	472
170	169
66	68
565	557
445	444
252	251
42	41
160	190
895	894
226	225
733	732
162	161
286	353
547	546
91	110
102	101
255	254
121	120
177	176
149	148
109	108
469	468
555	554
225	243
45	69
329	328
412	411
386	385
296	295
253	252
390	389
157	156
427	426
649	648
267	266
60	73
236	245
407	406
251	250
555	554
146	145
392	391
513	512
360	359
156	155
293	292
513	512
626	625
303	302
217	216
225	224
242	241
312	311
557	556
484	483
236	235
185	125
73	72
161	160
835	860
194	193
344	343
214	213
204	203
60	69
156	155
634	633
371	370
363	362
404	403
88	87
214	213
178	177
322	321
68	67
263	262
128	127
70	69
187	186
194	193
273	280
227	226
553	552
353	352
99	98
303	302
511	510
184	183
293	292
496	495
269	268
137	136
143	142
498	531
188	187
249	248
301	300
407	406
210	209
387	386
363	362
66	65
702	701
138	137
249	248
286	285
537	536
392	391
319	318
417	416
335	334
331	330
272	271
378	377
749	1293
544	1293
73	72
401	400
747	746
261	260
312	311
277	276
317	316
507	506
312	311
207	206
390	498
278	331
266	265
262	261
51	50
51	50
373	372
83	82
128	127
218	217
416	415
461	460
1048	1047
408	407
93	110
461	460
228	227
481	480
746	745
844	861
139	138
297	296
318	317
223	222
209	208
289	288
71	70
174	173
462	461
165	164
241	240
110	109
170	169
356	355
298	297
272	271
420	419
573	555
350	349
412	411
262	261
382	381
434	433
454	453
485	484
89	88
202	201
259	258
549	593
272	271
161	160
309	308
369	368
108	80
121	138
223	222
93	92
121	130
169	219
55	66
688	667
805	804
200	199
198	197
142	128
144	225
285	284
260	259
226	225
306	305
153	152
160	159
136	135
431	430
311	310
835	834
114	113
101	100
265	264
160	159
228	266
168	167
353	352
153	154
407	406
559	558
435	434
320	319
321	320
215	214
625	624
202	201
110	109
203	228
442	441
184	183
126	125
176	175
55	54
1121	1120
216	215
398	397
858	1049
189	206
125	124
73	72
184	183
157	156
517	516
118	117
104	103
191	190
287	286
429	428
51	50
59	58
594	593
591	590
153	152
273	272
567	566
232	231
133	132
124	123
624	623
91	90
680	784
123	122
425	424
208	207
433	432
105	104
193	192
492	491
316	315
442	453
229	241
205	204
110	109
297	296
455	454
164	163
304	303
197	196
483	482
81	80
300	299
237	236
403	402
325	324
173	172
326	325
140	139
157	156
368	367
150	149
180	179
295	294
116	115
121	120
196	239
605	615
111	110
376	375
357	356
85	193
297	374
310	308
458	457
440	439
432	431
230	229
401	400
1048	1047
423	422
303	302
326	325
61	60
95	94
101	164
139	143
64	63
175	174
153	152
270	269
372	371
107	69
472	471
87	86
365	364
71	70
103	102
365	364
373	372
34	33
386	385
208	207
996	995
325	324
284	283
276	275
256	255
321	320
92	91
370	369
236	277
180	179
404	403
338	337
317	316
270	269
289	288
315	314
555	554
278	277
364	363
1025	1024
418	417
207	206
428	427
325	347
79	78
610	628
484	483
390	389
297	296
148	147
374	373
92	91
185	183
350	349
461	460
317	316
90	88
396	425
516	515
288	287
202	201
166	165
311	310
363	362
678	677
196	195
381	418
111	155
557	556
94	93
188	187
265	264
47	46
254	253
764	763
198	207
232	231
250	334
219	258
240	239
285	284
442	556
198	197
290	289
286	285
1416	1415
284	283
330	329
298	297
309	308
307	306
381	380
34	33
89	88
47	46
181	180
137	136
73	72
223	222
490	489
369	405
548	547
237	236
205	204
112	111
259	258
176	306
151	145
202	260
1033	1032
546	545
416	415
157	156
418	417
368	367
352	351
134	133
415	414
153	152
486	485
187	186
406	405
125	124
352	351
229	228
580	579
253	252
247	246
256	255
193	192
815	814
149	148
257	256
247	246
147	146
241	240
252	251
407	406
257	256
275	274
305	304
268	267
85	84
147	152
51	50
344	343
218	217
272	271
135	134
236	235
573	572
275	274
237	236
141	140
95	181
108	99
67	66
87	86
244	253
162	193
130	129
525	713
169	261
320	319
891	1160
262	261
199	198
383	382
263	262
152	151
342	341
134	133
811	810
451	450
250	249
232	231
399	398
186	185
242	241
284	283
242	241
265	264
891	890
275	274
129	128
386	385
365	364
444	505
233	232
267	266
208	207
115	114
474	473
399	426
661	660
297	296
266	265
750	749
337	336
826	825
239	238
189	188
842	841
767	809
177	176
235	234
152	151
309	308
455	454
160	159
195	194
247	246
867	866
191	190
201	200
199	198
418	417
265	264
284	283
68	67
311	310
127	126
410	409
147	146
257	256
309	308
52	51
142	204
183	182
797	796
517	516
103	102
289	288
265	264
121	120
866	865
588	587
475	474
512	630
109	92
888	887
255	254
97	96
97	96
97	96
95	94
594	593
457	456
285	284
184	183
298	297
147	146
462	461
401	400
348	347
207	206
248	247
66	65
133	132
902	901
196	195
306	305
384	383
421	420
277	276
307	306
492	491
356	355
415	414
439	438
361	360
453	452
496	495
120	119
361	365
122	121
66	65
249	254
153	152
335	334
164	163
575	574
315	314
524	523
364	363
467	466
202	201
552	551
328	327
405	405
123	122
233	232
255	254
496	495
146	145
318	317
308	307
411	410
282	281
399	566
175	174
501	500
232	231
784	783
969	968
220	219
272	271
785	784
429	428
330	329
274	273
126	125
283	282
105	104
78	77
197	196
621	620
114	113
224	259
238	453
96	95
429	428
314	313
257	256
505	504
381	380
406	405
518	517
262	261
197	196
132	131
968	1073
96	95
383	382
274	273
122	121
305	304
317	316
150	149
165	164
939	938
314	313
88	87
458	457
680	679
300	299
389	388
412	419
498	497
254	253
377	376
639	638
135	134
238	237
189	188
196	195
318	317
477	476
259	258
99	98
429	428
311	310
821	820
229	228
239	238
451	450
475	474
230	229
158	157
290	289
216	215
172	171
99	98
646	645
556	555
95	94
111	110
411	410
425	447
323	322
215	214
241	310
111	109
88	87
240	239
408	407
441	440
260	259
517	516
235	234
261	260
358	357
202	201
539	538
226	225
149	148
138	137
344	343
79	78
263	262
226	225
242	241
278	277
158	157
180	179
205	204
165	164
764	763
341	340
305	304
454	453
555	554
717	716
68	67
319	318
101	100
96	95
70	69
98	97
420	419
427	426
116	129
158	245
129	128
256	255
86	85
324	323
393	392
185	184
228	227
154	153
391	390
304	303
131	130
281	280
92	91
126	125
242	241
65	64
487	486
395	394
448	447
178	175
130	163
168	167
183	176
449	878
441	440
242	241
166	165
183	182
199	198
201	200
132	131
239	238
187	266
194	202
327	326
115	114
142	141
117	116
538	542
215	378
100	99
37	36
86	85
184	183
249	248
87	86
374	373
93	92
438	437
269	268
144	143
211	210
261	260
263	262
320	319
656	655
450	449
329	328
335	334
214	213
372	371
420	419
85	84
589	691
104	113
429	428
580	579
397	396
541	540
142	141
52	51
59	58
163	162
126	125
104	122
38	37
74	73
159	158
155	154
273	272
53	52
617	616
190	206
321	320
232	247
326	325
291	290
291	290
36	70
201	200
69	68
71	70
66	65
190	189
134	133
138	129
79	78
127	126
116	115
473	472
453	452
261	260
307	306
439	438
338	337
85	84
419	418
96	95
148	147
344	343
98	97
230	229
519	518
275	274
98	97
210	209
359	358
223	222
300	299
199	198
399	398
592	989
318	394
608	607
291	290
98	97
39	150
266	303
540	539
172	110
340	339
188	187
344	343
36	54
167	166
440	439
333	332
88	87
466	559
361	360
360	359
504	503
148	147
952	951
396	395
168	167
139	138
335	334
151	150
359	406
48	71
311	310
335	334
468	467
163	162
45	44
208	229
154	153
129	128
899	898
316	315
474	473
296	551
242	300
713	712
155	154
129	128
451	450
184	183
458	457
333	332
332	331
341	340
147	146
280	279
319	318
177	176
114	113
82	81
1188	1259
578	577
213	212
58	236
337	336
69	68
186	185
247	246
648	647
127	126
287	286
322	321
221	220
471	470
207	206
213	212
216	215
264	263
281	280
259	258
135	134
397	513
691	690
426	425
204	203
169	168
164	163
150	149
76	75
105	104
132	131
92	91
229	228
285	284
217	216
155	154
102	101
466	465
355	354
252	251
250	249
110	109
92	91
542	541
388	387
213	212
133	132
220	219
233	232
134	133
236	230
814	813
142	141
161	157
285	303
66	65
335	334
420	419
427	426
103	102
317	316
487	615
108	107
444	443
154	153
167	196
352	356
380	379
182	181
351	350
323	322
138	153
957	1029
101	100
486	500
326	325
71	70
521	520
245	244
132	131
120	119
192	229
153	188
178	177
106	105
49	48
42	41
189	188
343	342
290	289
118	117
549	548
98	97
419	418
159	158
479	478
434	433
113	112
277	285
289	360
192	191
513	512
445	444
716	715
486	485
506	505
58	57
99	98
91	90
181	180
858	1309
290	312
60	59
197	241
355	431
876	1283
171	170
247	234
465	845
394	476
91	90
77	76
544	543
240	239
447	446
549	548
217	216
452	451
303	302
756	755
254	253
446	445
548	547
223	222
367	366
30	29
501	500
293	292
131	150
630	742
112	111
148	147
263	262
290	289
260	259
242	241
151	150
195	194
327	354
282	281
253	252
227	226
379	378
186	185
145	144
253	252
113	112
150	149
297	296
312	311
511	510
327	326
232	231
310	309
662	661
92	91
344	343
684	683
489	488
140	139
560	715
523	522
350	349
278	277
279	278
235	234
230	229
438	437
199	198
128	127
523	540
319	318
224	223
189	188
479	478
456	652
210	209
105	104
550	549
230	229
137	136
295	294
550	549
450	449
155	154
108	107
529	528
94	93
179	178
941	940
119	118
139	138
134	133
96	95
607	606
453	452
358	357
500	499
291	290
390	389
473	472
385	384
915	914
398	397
335	334
186	185
323	359
53	52
472	471
345	344
524	523
260	259
427	426
679	678
328	327
81	80
332	331
172	171
70	69
442	441
203	202
123	122
808	807
291	290
166	165
307	306
447	446
372	371
397	396
515	514
297	296
137	136
53	52
699	698
246	245
213	212
81	43
335	334
196	215
450	449
91	90
291	290
316	315
269	268
136	135
165	164
266	265
275	274
410	409
230	229
544	543
150	149
304	348
943	1227
275	274
575	574
435	439
534	533
310	309
148	147
128	127
85	84
530	529
430	429
230	232
231	298
180	179
259	278
140	139
77	89
149	148
91	90
197	196
224	223
355	354
258	257
159	158
632	631
212	211
252	251
93	66
232	256
378	377
1356	1363
1343	1342
122	121
107	106
235	234
143	142
182	181
128	127
395	394
309	308
322	321
343	342
85	84
286	285
615	614
367	366
120	119
235	234
439	438
389	388
467	466
306	305
458	457
259	258
335	334
384	383
884	883
578	577
284	283
114	113
293	292
766	765
107	106
182	199
197	205
834	833
221	220
368	367
206	205
302	301
727	726
297	296
518	517
377	376
811	810
387	386
106	105
203	202
71	70
733	732
312	341
285	284
177	176
444	443
294	308
162	161
80	79
282	281
588	507
298	297
249	248
143	142
100	99
147	146
200	199
256	255
252	251
330	329
321	320
301	300
167	166
233	232
458	457
225	224
328	327
207	206
345	344
313	312
279	278
490	489
415	419
275	274
105	104
465	464
149	148
484	483
357	356
583	582
348	347
484	768
300	768
612	611
279	278
196	195
805	1016
301	300
212	211
310	309
43	42
81	80
283	282
247	246
73	72
93	92
71	70
97	96
303	302
92	123
243	262
146	145
283	287
200	199
133	132
123	122
299	298
299	298
293	292
414	413
301	300
292	291
679	678
462	461
468	467
231	230
608	607
470	469
350	349
470	469
37	36
458	457
170	169
211	210
929	928
62	61
311	310
477	476
209	208
329	328
90	89
195	194
176	175
85	84
182	181
484	483
205	204
444	443
730	729
388	387
234	233
498	497
163	162
261	260
259	258
172	171
90	89
547	546
202	201
252	251
476	475
256	255
49	86
297	334
210	209
325	324
169	168
497	496
255	254
270	269
32	31
223	222
287	286
520	519
492	491
319	318
130	129
408	407
302	301
148	147
116	126
666	665
503	502
186	185
754	753
318	317
300	299
267	266
341	340
207	206
287	286
207	206
612	611
290	289
156	155
297	296
127	126
127	126
317	316
255	254
301	300
297	310
420	413
239	238
299	298
236	235
275	274
68	67
78	77
107	106
849	848
321	320
247	246
412	411
399	398
197	196
552	551
412	411
470	469
247	246
451	450
360	359
417	416
377	376
95	177
117	224
294	293
356	355
421	420
171	170
216	212
349	348
368	367
420	419
110	109
362	361
495	494
674	673
94	93
492	491
320	319
242	241
268	266
617	616
310	309
88	87
549	548
507	506
113	112
280	279
85	84
231	230
476	475
331	330
310	309
297	296
322	321
502	501
140	139
537	622
84	83
499	498
484	483
331	330
153	152
148	147
630	629
208	207
127	126
272	271
80	79
157	156
178	177
514	513
288	287
461	460
140	139
299	337
161	163
610	609
347	346
320	319
297	296
258	257
242	241
279	278
625	624
447	464
539	538
390	389
241	240
196	195
156	155
194	221
446	445
189	188
250	249
320	319
392	391
416	415
472	471
455	454
483	548
60	113
109	108
47	46
468	467
367	366
358	357
805	804
133	132
271	270
219	218
230	229
293	292
206	205
383	382
431	430
367	366
405	416
87	86
138	137
143	142
554	553
289	288
572	571
498	497
116	115
121	120
166	165
395	394
563	562
97	96
44	43
206	286
197	196
501	500
440	439
460	459
589	588
445	444
151	150
108	107
120	119
413	412
98	97
273	272
308	307
166	165
282	281
74	73
163	162
126	125
143	142
74	73
159	158
162	161
273	272
78	77
949	948
287	290
306	305
43	42
201	200
69	68
67	66
190	189
140	139
137	136
178	177
950	970
294	293
524	523
116	115
216	215
102	101
202	217
595	860
226	286
148	147
58	57
182	181
181	180
257	343
62	61
182	181
109	108
160	159
508	507
149	148
161	160
695	694
610	865
245	865
1202	1201
1214	1213
201	200
202	201
90	89
154	153
98	97
748	793
434	433
357	356
164	193
199	203
333	394
461	460
773	772
518	517
157	156
105	104
364	363
284	283
287	286
311	310
141	135
106	105
570	569
464	463
402	401
694	693
230	229
703	702
92	91
208	207
561	560
206	205
288	287
239	238
214	213
199	198
153	152
407	406
149	148
79	78
56	55
270	269
160	159
114	113
312	311
360	352
375	374
266	265
312	311
360	359
340	339
296	299
233	232
284	283
358	357
422	421
320	319
349	348
311	310
399	398
342	341
345	344
320	319
98	97
317	370
515	514
144	143
84	83
156	155
340	339
274	273
158	157
397	396
195	258
552	551
1448	1447
227	226
121	120
70	69
196	195
383	382
374	465
264	314
121	120
379	378
203	202
424	454
615	614
362	361
432	431
513	512
658	657
467	466
272	271
232	231
287	286
221	220
499	498
329	328
426	425
156	155
127	306
178	211
155	154
333	332
283	282
158	157
418	417
677	676
275	274
393	392
394	393
514	513
331	330
441	440
485	484
114	113
146	145
332	331
100	99
304	303
690	689
174	173
93	91
51	50
71	70
97	96
237	236
325	324
220	219
778	777
147	146
188	187
233	232
403	402
564	563
536	535
340	339
301	300
328	327
338	337
108	107
104	103
336	335
424	423
36	35
36	35
36	35
453	468
84	93
64	63
520	519
63	62
251	250
873	872
770	769
369	368
1158	1157
650	662
429	428
499	498
310	309
256	255
506	505
198	210
441	440
338	337
324	323
201	200
550	549
466	465
467	466
275	274
243	242
1038	1037
386	385
110	109
176	175
191	190
111	110
113	112
192	191
257	256
319	318
208	207
165	164
446	445
278	277
661	660
343	342
168	167
189	188
92	91
142	141
72	71
451	450
281	280
629	628
251	250
490	489
145	144
69	69
500	499
398	397
355	354
356	355
912	911
375	374
284	283
90	89
503	502
453	452
94	93
158	157
249	248
32	31
134	133
269	268
255	254
278	277
315	314
525	524
157	156
350	349
417	416
186	185
222	221
82	81
733	732
209	208
120	119
90	89
199	198
499	498
223	222
353	352
285	284
368	367
89	88
176	175
128	127
397	396
309	308
129	128
297	296
256	255
238	237
439	438
296	295
282	281
357	356
248	247
147	146
578	577
163	162
346	345
232	231
332	331
176	175
447	446
700	699
401	400
198	197
368	367
729	728
475	482
201	216
432	431
478	477
816	815
502	502
256	255
202	201
502	501
109	108
277	276
253	252
112	111
149	148
902	901
798	797
695	694
439	438
192	191
114	227
257	256
121	120
79	78
774	773
76	75
774	773
159	158
240	239
451	450
264	296
265	276
575	574
383	382
293	292
134	133
223	222
351	363
378	413
187	186
851	850
260	259
180	179
147	146
135	134
403	402
174	173
363	362
429	428
279	278
226	225
253	252
335	334
302	301
121	120
388	387
409	408
293	292
103	108
435	434
362	361
56	55
287	286
174	173
269	268
109	108
848	847
394	393
191	190
56	55
182	200
188	187
407	406
697	696
211	210
135	134
290	289
73	72
341	340
638	637
148	147
602	601
67	66
197	196
73	72
271	270
241	240
129	128
120	119
96	95
125	124
125	124
705	704
395	394
901	900
65	64
159	158
226	225
154	153
388	387
328	327
196	195
126	125
170	169
146	145
399	398
494	493
655	654
272	271
490	489
140	139
111	110
210	209
202	201
87	104
274	273
93	92
111	110
234	233
137	136
64	63
85	84
124	123
105	104
180	179
102	101
131	130
178	177
118	117
168	167
60	59
145	144
430	443
39	38
119	118
130	129
207	206
330	329
128	127
123	122
142	141
73	72
138	137
459	458
430	429
316	315
170	169
375	374
158	157
181	180
191	190
273	272
86	85
185	184
85	84
91	90
253	252
368	367
394	393
342	341
74	73
1035	1034
386	385
221	220
60	59
284	283
99	98
322	321
294	293
484	483
81	80
319	318
272	271
285	284
297	296
500	499
330	329
321	320
349	348
450	449
157	156
325	324
647	646
348	347
368	367
163	162
198	197
490	489
1267	1266
403	407
310	309
68	67
174	194
126	125
647	655
91	90
88	87
157	156
313	312
356	355
456	455
133	132
376	375
143	142
131	130
213	212
166	165
261	260
298	297
497	496
230	229
292	291
155	154
473	472
1518	1517
310	309
779	778
218	217
243	242
211	210
91	90
285	284
164	163
96	95
478	477
242	241
186	185
192	191
189	188
329	328
326	325
270	269
261	260
184	183
212	211
98	97
90	89
420	419
93	92
324	323
104	103
86	85
322	321
391	390
478	477
159	158
98	97
210	209
648	647
283	282
446	445
111	110
506	518
448	447
151	150
496	495
891	890
134	133
315	314
90	89
712	711
295	294
630	629
415	414
336	335
293	292
332	331
175	174
168	167
101	100
148	147
173	172
212	211
347	346
192	191
197	196
132	131
679	678
288	287
238	237
264	263
268	267
159	158
287	286
385	384
205	377
181	174
145	144
293	292
260	259
158	157
427	426
270	269
45	44
111	109
112	111
524	523
445	444
257	256
297	296
382	381
313	312
330	329
444	443
403	402
765	764
130	129
455	454
444	443
43	42
378	436
55	54
234	233
299	298
123	122
329	328
161	160
100	99
135	134
102	101
123	122
128	127
221	220
259	258
433	432
471	470
496	495
184	183
78	78
356	414
322	321
329	328
231	230
168	167
379	378
105	104
139	138
272	271
400	399
285	284
494	783
357	356
478	477
150	149
1031	1030
328	327
111	110
430	459
507	506
198	207
234	240
169	168
614	613
217	216
285	344
72	71
338	337
488	487
202	201
304	303
311	310
206	205
123	122
274	273
413	412
152	206
434	433
947	946
478	477
554	553
210	209
67	66
100	99
218	217
350	349
247	246
841	840
188	187
57	56
258	257
272	271
224	223
223	222
599	598
387	386
224	223
494	493
210	209
141	140
276	275
194	193
631	630
714	713
270	269
328	327
350	349
285	270
296	295
105	104
194	193
160	159
237	236
111	110
450	449
220	219
128	127
161	160
536	535
753	752
246	245
471	470
435	434
161	160
138	183
206	276
337	336
339	338
491	490
250	249
740	739
86	85
218	217
276	275
388	387
319	318
182	181
396	395
245	244
142	141
295	294
165	164
347	346
48	47
255	254
96	95
373	372
329	328
393	392
568	567
165	164
163	162
114	113
83	82
256	255
620	619
500	499
231	230
258	254
253	252
450	449
233	274
43	42
187	186
357	356
360	359
310	328
93	86
83	82
305	304
553	552
381	380
204	256
52	49
500	499
351	350
408	407
135	134
724	723
561	560
1522	1521
270	269
137	136
273	272
687	686
68	80
413	497
95	94
325	407
123	151
44	34
188	187
124	123
202	201
326	325
393	392
179	178
259	258
224	223
390	599
152	273
484	1107
458	457
379	378
399	398
676	675
247	246
559	559
383	382
328	327
187	186
500	499
52	51
306	305
132	131
282	281
66	65
70	70
126	125
127	126
215	214
74	73
159	158
162	161
273	272
78	77
152	151
839	838
1040	1039
291	290
497	496
191	190
69	68
190	189
128	127
103	102
513	512
367	366
117	116
142	141
306	305
292	291
304	307
157	156
270	269
237	236
349	369
92	139
222	289
245	244
329	328
122	121
302	301
697	696
81	80
123	122
72	71
68	67
153	152
154	153
152	151
273	272
89	88
101	100
80	79
508	507
118	117
234	182
123	122
58	57
1296	1295
734	733
426	425
340	346
261	231
316	315
575	593
398	397
302	301
122	121
143	142
187	186
87	86
249	248
109	108
160	159
508	507
120	119
74	73
190	189
92	91
126	125
167	166
126	125
92	91
348	347
422	421
236	235
712	711
419	418
360	359
92	91
325	350
240	239
109	108
240	239
349	348
336	335
379	378
198	197
97	96
189	188
235	234
327	326
139	138
212	211
317	316
244	243
236	235
152	151
465	464
385	384
84	83
659	658
244	243
307	306
253	252
664	663
303	302
148	147
463	462
426	425
280	321
170	169
238	237
226	225
226	225
236	235
193	192
144	143
340	339
388	387
360	359
287	286
212	211
247	246
92	91
98	97
104	103
352	351
298	297
77	76
220	219
411	410
201	200
105	104
92	125
113	122
442	441
393	392
401	400
365	364
130	129
958	957
447	446
67	98
220	219
327	326
89	88
136	135
174	173
194	254
82	82
237	236
578	577
294	293
506	505
183	182
42	41
483	482
640	639
163	162
456	455
439	438
467	466
957	956
260	259
443	442
1033	1032
177	176
257	256
542	541
311	310
462	461
404	403
399	398
396	395
593	592
160	159
305	304
766	765
252	251
410	409
394	393
279	278
254	253
349	343
140	139
231	230
312	311
421	420
344	343
720	719
398	397
101	102
256	264
73	72
238	237
230	229
49	48
177	176
749	748
129	135
129	128
265	264
157	156
188	187
136	135
108	107
1123	1122
963	962
310	338
861	926
609	608
444	443
418	417
275	274
527	526
392	391
199	198
316	315
514	513
249	248
459	458
143	142
179	178
360	359
587	586
141	140
473	472
546	545
751	1051
380	559
405	404
161	160
213	212
838	837
595	622
178	175
274	273
793	792
217	197
788	787
775	774
816	878
164	163
551	550
222	221
446	445
513	514
144	166
30	97
257	338
97	96
269	268
148	147
402	401
76	75
306	305
132	131
367	366
226	243
138	137
473	472
573	591
439	438
216	215
383	382
282	281
456	455
430	429
455	454
283	282
182	181
110	109
261	260
150	149
315	325
136	135
447	446
447	446
919	918
434	433
745	1178
264	263
546	545
433	432
291	290
36	35
90	137
150	202
336	335
468	469
457	456
506	505
248	247
64	51
493	492
426	425
262	261
485	484
470	469
260	259
287	286
192	191
87	86
424	423
122	121
600	599
571	570
245	244
51	50
35	34
346	345
303	302
476	475
202	201
108	107
104	103
237	236
160	159
350	349
254	253
209	208
380	379
331	330
184	183
348	347
126	132
338	271
259	258
213	212
421	420
303	302
256	255
219	218
854	853
115	114
143	142
693	692
337	336
374	373
91	90
291	290
117	116
154	153
131	119
609	608
308	307
570	569
181	180
256	255
137	136
156	155
140	139
146	145
68	67
176	175
352	496
180	519
167	312
72	71
378	377
480	479
364	434
147	150
322	321
258	257
120	119
260	259
124	123
320	319
188	187
362	361
80	79
166	165
354	353
167	166
877	876
62	61
217	145
189	188
143	142
519	518
172	171
371	370
236	235
513	512
391	390
177	176
112	111
246	245
395	394
331	330
355	354
401	400
320	319
268	348
226	460
222	247
137	136
82	81
110	109
115	114
150	149
135	134
175	174
100	99
53	52
85	86
80	76
221	220
467	466
427	426
483	482
174	223
234	224
326	325
161	160
150	149
97	96
114	113
554	553
293	292
198	197
414	413
289	288
341	326
114	129
83	82
183	182
256	255
116	115
161	160
409	408
173	172
121	120
357	356
374	373
369	368
114	113
246	245
327	326
244	243
858	857
85	84
433	432
91	90
452	451
887	886
233	232
140	139
346	345
230	229
128	127
196	195
294	293
375	352
246	245
541	540
192	191
217	216
319	318
160	159
600	599
325	324
227	226
302	301
243	242
244	243
127	126
87	86
283	282
220	211
168	167
436	460
1296	1295
461	460
202	237
445	445
113	112
397	396
418	417
398	397
209	208
225	247
638	1093
148	147
199	198
510	509
333	332
284	320
67	73
291	290
113	140
380	379
427	426
285	284
268	267
247	246
163	162
405	404
77	76
53	52
108	107
172	171
617	616
112	111
67	66
428	427
259	258
282	281
1654	1653
176	174
577	770
61	59
94	96
385	384
336	335
373	372
320	325
119	118
202	206
393	392
491	490
72	71
725	724
331	330
2694	2693
456	455
489	488
526	525
180	179
172	171
58	57
51	50
120	119
619	747
514	513
689	688
213	212
346	345
209	208
430	429
249	248
120	119
472	487
354	353
137	156
191	190
293	292
345	344
77	76
238	237
288	287
672	671
233	232
67	66
354	375
119	118
1038	1037
567	566
660	659
192	191
333	332
341	340
346	369
317	316
760	759
112	111
160	159
234	233
268	267
339	338
112	111
96	95
192	213
256	255
279	278
396	395
409	408
358	467
128	145
454	453
296	295
220	219
167	166
351	350
301	300
290	289
142	141
150	149
192	191
300	299
458	455
299	298
264	263
339	338
278	277
292	291
366	365
304	303
123	122
284	283
170	169
576	575
86	85
324	323
254	253
333	332
672	671
73	72
333	332
311	308
255	254
278	277
419	418
295	294
472	471
124	123
120	119
812	811
401	400
413	412
109	108
419	418
322	321
109	108
416	415
362	361
346	345
832	831
286	285
245	244
566	565
413	412
307	306
81	80
92	91
211	210
417	416
565	564
315	314
382	381
1198	1197
205	204
388	387
485	512
443	442
446	445
312	311
311	310
252	251
447	446
85	94
437	436
715	714
162	161
189	188
121	113
126	125
92	91
281	769
487	770
251	250
164	163
160	159
176	175
275	274
184	183
311	310
362	361
275	274
270	269
183	182
93	92
392	518
290	337
407	406
393	392
332	331
379	378
338	337
271	270
86	71
143	219
305	304
423	422
221	220
163	162
506	505
190	189
199	198
261	260
229	228
239	238
34	32
145	167
54	89
298	297
121	120
216	215
215	214
184	183
181	180
493	506
385	404
332	355
401	400
152	151
165	164
217	216
611	610
200	199
406	405
313	312
55	54
148	147
221	220
601	600
167	166
446	445
909	908
326	325
181	180
185	184
101	100
614	613
510	509
486	485
168	167
324	323
581	580
215	305
108	109
137	153
102	101
198	267
223	222
557	556
253	252
286	285
291	320
452	451
89	88
129	128
112	111
551	550
297	296
661	660
210	209
119	216
386	385
201	200
142	141
181	180
401	400
261	260
402	401
430	429
268	267
82	81
332	331
397	396
363	362
543	542
453	452
359	358
217	216
85	84
377	376
762	761
1255	1254
241	240
876	875
563	562
208	207
1465	1464
550	549
259	258
107	106
210	238
77	102
441	440
217	216
221	220
462	461
609	608
980	946
217	216
891	890
374	373
367	366
355	354
217	216
548	547
549	548
163	162
55	54
165	164
88	87
562	828
88	232
169	169
232	231
288	287
150	149
201	200
206	205
155	154
246	245
71	69
78	77
90	89
648	647
186	185
351	350
216	215
68	67
214	213
587	586
76	75
336	335
95	94
624	586
232	231
397	396
115	114
428	529
65	91
342	341
365	364
605	604
519	518
189	188
238	237
329	328
489	488
191	190
85	84
394	393
377	376
313	312
564	563
314	313
313	312
417	416
233	232
314	313
363	362
286	285
350	349
294	293
490	489
664	663
279	278
223	222
386	385
347	346
333	332
507	506
337	336
412	411
413	412
80	79
240	239
295	294
232	231
133	132
317	316
479	508
216	248
193	192
196	195
311	310
572	571
756	755
241	256
386	385
309	308
244	243
36	35
244	243
562	561
240	239
157	156
154	153
577	667
111	110
64	104
317	316
760	759
363	362
62	61
1211	1210
1254	1253
595	1266
582	1222
154	153
390	525
150	149
370	369
94	93
181	180
225	224
827	826
345	344
113	112
275	274
91	90
263	262
267	266
273	272
249	248
242	233
94	137
335	334
426	425
351	350
285	284
421	420
151	150
95	94
452	451
347	346
260	259
300	299
106	105
454	453
70	69
241	240
468	467
472	471
1026	1497
893	1040
416	415
220	219
227	226
647	646
451	450
283	282
1106	1105
204	208
194	193
618	617
528	527
152	135
244	245
148	147
721	720
280	279
163	162
406	405
406	405
249	248
183	182
374	373
322	321
161	160
405	404
479	478
207	220
253	257
465	464
493	492
427	426
206	207
216	247
465	464
298	297
362	361
300	299
294	293
186	185
416	415
368	367
389	388
331	330
90	196
373	372
265	264
469	468
389	388
326	325
204	203
259	258
246	245
197	196
356	355
357	356
435	434
300	299
64	63
85	84
275	274
317	316
453	454
476	475
389	388
158	157
353	352
110	109
514	513
249	248
65	64
125	124
123	122
74	73
159	158
158	157
49	48
274	273
137	136
161	159
357	356
302	301
795	794
145	144
722	721
330	329
353	352
256	255
86	85
349	381
31	30
412	388
109	108
201	200
69	68
51	52
399	398
538	542
117	116
142	141
31	47
109	108
160	159
508	507
119	118
135	134
116	115
86	85
253	252
119	118
218	217
120	119
139	138
144	143
264	263
629	656
122	121
38	37
249	307
99	90
247	246
215	241
125	115
107	106
214	213
56	55
73	72
102	101
270	269
92	91
215	214
324	323
131	130
78	77
266	265
391	390
166	212
127	126
129	128
83	82
173	172
407	406
309	308
228	227
74	73
145	144
257	256
142	141
141	140
64	63
77	76
411	410
57	59
188	187
68	63
176	175
78	77
653	652
145	144
240	239
71	70
96	95
274	273
170	169
128	127
229	228
120	119
75	74
189	188
243	242
226	208
254	259
197	196
107	106
78	77
172	171
74	73
158	157
154	153
424	424
447	876
129	128
177	193
331	330
102	101
213	212
617	616
86	85
248	247
114	113
112	111
95	94
182	181
96	95
131	130
290	289
186	196
644	643
311	310
160	159
244	243
175	213
769	750
100	99
94	93
1022	1568
552	1756
249	248
123	122
184	229
187	186
86	85
154	153
70	69
197	196
87	86
224	240
183	203
86	85
111	110
92	91
126	125
145	144
117	116
92	91
141	140
565	564
121	120
79	78
236	235
435	408
235	234
279	278
268	267
264	263
284	283
236	235
235	234
287	286
111	110
235	234
203	197
67	66
253	252
234	233
126	125
92	91
220	219
92	91
84	83
58	57
129	128
208	207
208	207
402	401
126	125
92	91
39	52
113	117
188	271
82	109
647	646
176	175
460	459
296	257
133	185
377	376
232	231
111	139
162	161
248	247
168	167
160	159
109	108
89	88
392	391
754	753
259	258
292	291
46	45
87	86
97	96
112	111
116	115
170	169
87	86
