74	392
65	143
110	169
68	106
42	55
73	163
54	43
94	350
169	258
83	85
35	34
98	158
81	80
66	248
45	46
112	50
70	129
60	82
83	257
150	131
111	195
83	153
69	68
62	129
52	158
85	166
105	71
61	95
55	85
52	47
154	379
116	122
115	223
164	284
95	97
84	298
35	82
100	294
332	331
138	137
91	90
359	358
460	459
206	200
159	163
213	234
75	80
211	247
118	117
233	337
63	115
174	173
60	236
217	316
91	265
113	201
73	90
143	229
152	151
123	236
55	220
153	214
74	130
66	130
147	142
98	99
51	50
72	65
277	347
88	108
133	142
181	374
297	340
197	210
197	223
91	90
118	107
180	206
166	214
98	61
143	142
76	113
158	148
106	191
217	318
137	186
259	302
76	76
58	213
170	236
70	101
121	120
118	272
90	96
318	406
55	54
150	282
160	182
310	324
148	146
150	189
83	76
56	248
158	248
40	47
33	32
48	111
55	82
116	115
89	88
82	108
124	225
48	150
232	244
88	65
46	45
54	73
257	409
63	92
73	80
33	58
31	98
87	109
295	329
86	83
57	54
204	252
113	428
91	121
82	79
46	56
109	94
76	113
80	78
191	196
85	95
51	43
59	75
149	143
61	64
249	248
181	164
86	85
83	107
51	83
71	70
91	90
125	129
181	166
67	67
165	221
52	65
170	181
108	83
37	39
96	76
166	166
114	112
108	106
51	90
51	78
178	177
114	90
163	82
75	74
78	97
100	99
80	94
253	246
226	339
91	90
133	132
253	287
185	187
74	73
42	42
399	425
408	407
70	67
117	116
112	111
42	42
131	114
58	70
34	95
136	188
115	93
73	93
38	37
84	113
133	184
122	164
269	238
59	94
342	479
138	133
98	102
62	47
171	212
474	494
323	319
161	199
137	219
288	307
80	90
145	149
99	79
73	63
140	152
54	54
42	33
106	169
41	40
97	139
115	161
96	227
84	72
134	139
223	215
125	68
88	86
46	60
134	189
73	86
71	91
66	119
100	152
50	48
62	130
113	68
78	103
69	110
48	152
83	322
242	520
98	202
35	42
88	86
69	83
140	214
76	164
75	164
89	381
66	86
67	79
57	65
83	122
83	205
75	79
103	102
83	92
59	117
111	182
110	86
88	145
202	230
51	65
88	879
208	304
109	268
57	126
100	131
345	364
56	55
121	157
82	100
80	79
53	54
56	55
99	104
391	477
361	401
144	143
316	289
75	74
381	389
126	183
136	180
109	108
51	50
55	54
56	68
53	104
131	120
58	57
167	236
239	223
227	265
322	419
46	121
218	290
51	50
99	148
59	74
42	89
93	373
87	167
114	387
52	40
87	435
45	65
122	583
254	253
264	407
115	198
199	196
193	215
85	84
176	175
331	332
202	197
81	98
324	321
34	48
100	253
78	305
53	133
73	68
105	64
207	212
114	325
82	92
98	152
75	74
90	100
74	73
45	44
58	57
230	458
82	149
143	177
95	122
197	260
47	37
201	233
160	213
170	121
74	119
62	166
43	42
79	77
119	172
73	120
175	174
78	77
88	87
153	176
94	184
54	126
80	339
109	208
87	86
89	88
59	58
209	258
44	202
71	64
297	296
212	273
42	41
70	385
106	248
86	121
66	106
184	164
99	114
50	53
120	234
106	234
44	67
121	136
90	89
57	59
72	88
131	147
80	79
243	242
151	150
50	64
259	291
62	61
191	257
538	537
370	343
47	55
35	34
270	268
48	47
132	131
117	139
104	126
72	145
86	224
146	168
127	122
81	194
80	281
57	388
188	187
73	73
178	356
142	178
64	83
100	260
145	174
58	57
75	81
148	259
148	213
42	63
42	42
71	114
51	75
41	59
190	372
103	112
77	55
68	147
220	328
83	81
168	673
54	161
85	92
162	203
180	167
209	475
145	192
98	83
98	97
273	282
131	130
123	153
34	56
91	284
176	177
56	117
44	162
99	162
77	92
96	249
177	194
86	283
137	149
79	78
91	90
71	65
83	82
227	226
73	72
51	50
88	87
121	120
122	123
110	109
95	94
60	57
75	103
68	88
54	77
148	235
201	231
82	83
54	66
95	133
82	87
221	219
149	148
102	129
140	139
71	76
286	410
50	69
177	176
156	231
206	254
148	165
240	239
110	135
132	220
123	157
86	105
62	61
348	373
43	43
91	127
227	229
139	185
159	212
102	167
305	304
204	203
191	244
85	84
233	292
123	147
239	243
187	230
56	53
164	178
87	130
56	53
118	252
250	318
53	121
313	309
340	376
140	155
72	71
130	145
260	416
211	210
267	356
101	90
453	441
157	270
66	88
73	75
175	180
69	194
201	267
56	55
257	343
78	148
87	64
52	86
80	273
94	273
118	293
87	99
112	111
120	119
163	162
66	140
63	93
61	48
73	153
33	150
106	150
47	175
75	74
83	81
66	65
89	86
41	284
89	262
60	97
88	281
148	281
46	281
52	184
164	122
132	226
167	885
127	885
53	883
190	647
224	647
71	70
68	398
274	389
71	389
46	45
66	65
84	83
178	163
82	81
110	285
96	156
53	105
58	90
47	46
149	187
78	168
120	119
118	117
85	84
67	84
128	174
209	550
128	162
288	353
60	59
206	283
230	229
74	252
134	215
198	226
36	35
361	360
90	139
85	136
61	99
138	137
179	177
68	73
66	101
40	38
86	68
87	140
105	179
34	58
75	75
84	112
95	183
241	240
156	160
73	72
157	169
409	440
73	72
376	411
67	113
204	320
67	113
122	147
44	127
198	273
72	452
57	102
139	62
101	176
80	159
107	231
71	226
92	268
105	268
113	428
101	278
181	310
97	363
53	48
75	85
157	86
90	157
230	237
85	158
164	154
53	122
133	279
98	116
92	100
55	35
167	321
81	130
90	90
133	132
201	216
91	159
48	69
111	110
75	434
59	367
91	137
64	75
97	472
168	192
105	153
147	121
69	68
65	70
134	323
183	271
82	81
95	41
60	60
73	83
78	106
94	268
78	173
76	120
87	84
130	257
76	271
122	358
100	268
166	206
184	209
77	224
277	349
83	118
97	96
86	96
335	179
83	180
171	161
81	68
67	65
262	261
227	226
46	60
64	63
102	56
73	73
73	76
53	77
147	261
58	69
87	76
57	85
44	61
160	172
92	107
96	120
140	312
50	133
77	135
61	119
70	92
89	73
85	92
57	92
58	206
131	197
47	57
100	221
125	211
409	408
128	128
111	142
286	285
265	264
349	348
89	88
174	262
80	79
270	279
168	300
127	142
34	33
250	261
176	168
92	111
411	630
87	133
45	265
180	376
31	63
116	161
48	238
250	599
167	321
113	198
142	352
120	214
72	156
85	137
68	139
89	225
198	312
69	98
128	419
124	187
55	54
67	57
121	95
52	55
89	31
150	208
55	322
103	450
55	105
65	96
86	116
125	332
81	132
85	86
77	132
45	52
143	208
34	159
92	129
79	49
47	130
74	93
76	137
121	105
124	201
121	192
48	179
79	102
90	232
68	157
115	114
65	195
35	34
55	58
68	273
138	171
64	89
110	226
45	148
91	135
190	207
53	73
61	60
68	151
67	100
297	405
188	489
65	102
146	489
282	317
343	359
226	206
99	191
195	237
119	204
112	174
31	48
71	70
179	246
112	218
78	120
30	29
43	73
58	64
174	360
76	99
73	166
113	131
63	87
67	123
48	47
95	92
274	247
85	47
151	511
165	269
87	176
55	93
59	152
78	135
52	53
200	199
82	318
191	337
80	85
116	219
75	74
94	95
70	74
186	261
76	81
62	114
109	250
148	161
192	191
228	350
90	105
202	306
80	131
127	211
132	351
106	105
35	29
61	47
87	175
71	143
62	125
188	176
78	156
114	123
180	397
50	100
53	458
222	325
123	181
80	79
95	303
62	145
134	186
147	227
299	426
178	177
95	103
111	110
61	108
46	29
161	85
217	216
105	105
37	41
104	168
48	54
109	145
122	68
174	173
128	127
146	160
33	47
313	312
76	108
171	248
251	299
368	502
96	255
141	226
69	158
90	158
47	59
63	147
143	244
105	281
80	103
285	295
76	73
39	43
102	112
191	257
117	141
112	236
150	220
73	119
168	336
108	169
68	285
131	218
58	76
223	146
74	297
93	111
104	161
46	81
106	96
116	223
64	1114
53	114
137	246
195	278
288	329
141	158
112	165
73	33
32	79
78	85
125	264
107	122
77	76
57	118
145	299
88	128
44	79
132	255
93	191
81	129
97	244
53	171
118	146
49	48
170	166
76	75
93	166
105	204
46	60
88	79
35	34
106	201
146	170
102	101
200	199
110	116
254	406
300	469
52	161
32	43
134	141
117	329
155	157
184	189
84	71
86	286
92	366
65	80
59	170
92	99
51	130
61	171
85	88
58	57
97	107
135	278
161	131
41	30
67	86
77	161
49	200
169	162
42	41
164	237
204	226
136	181
162	285
76	132
76	70
97	103
72	124
59	73
84	83
115	125
85	163
67	127
70	271
175	544
66	63
101	182
87	92
66	66
55	64
86	91
86	99
56	97
98	122
86	85
55	118
112	52
79	77
105	103
47	85
56	120
106	88
83	111
43	684
52	124
88	169
75	304
108	134
135	300
142	123
76	109
200	199
73	72
109	108
179	374
221	100
106	227
50	49
140	76
78	110
102	137
78	75
73	83
90	143
86	129
62	61
105	92
85	115
89	81
42	41
80	76
54	76
51	43
98	105
180	354
92	82
132	129
73	82
40	50
135	212
181	337
316	355
226	331
115	114
61	113
68	67
76	75
63	62
159	207
41	40
241	261
90	89
38	37
48	115
76	59
102	101
117	137
278	334
76	113
172	186
325	375
64	63
145	147
157	157
78	316
108	184
127	496
84	181
41	135
290	307
131	152
33	123
171	208
84	239
148	172
66	67
41	108
62	70
143	183
59	79
184	202
126	125
134	89
69	71
51	50
31	30
402	401
60	55
434	379
123	128
85	101
97	53
90	100
62	94
163	269
66	67
62	60
208	349
104	72
153	224
141	183
64	85
78	111
38	193
169	201
49	129
56	63
66	66
74	83
104	150
234	242
239	238
75	74
169	218
64	69
46	55
259	357
94	105
135	351
217	181
63	58
197	196
146	61
75	74
54	60
62	176
78	176
236	293
200	420
110	106
89	130
53	74
139	251
133	251
38	105
89	471
150	471
70	103
75	74
43	38
73	73
69	124
104	107
81	95
74	116
66	202
91	92
58	150
75	114
159	143
44	91
110	201
163	162
62	77
157	146
117	134
157	158
251	259
60	59
135	198
45	198
108	97
80	221
145	223
99	127
110	159
188	188
254	437
197	301
83	216
268	308
143	369
137	369
88	369
110	109
44	344
62	270
85	270
71	344
140	139
143	126
99	226
68	66
165	169
103	147
68	129
194	269
164	208
325	349
130	129
167	185
325	388
68	56
120	170
84	93
93	102
87	216
52	298
104	243
75	74
100	128
55	54
60	104
73	72
64	63
120	402
68	216
112	220
83	86
96	117
63	100
80	72
84	83
115	114
32	42
138	177
104	118
505	504
329	328
267	266
148	155
179	259
173	171
70	71
117	116
78	83
120	217
132	131
175	204
55	58
196	308
75	54
149	225
95	110
164	201
70	88
129	160
186	308
210	208
40	39
211	224
56	101
350	349
108	108
87	102
65	78
46	133
48	79
59	136
100	140
65	128
111	130
66	108
152	506
91	160
87	167
66	82
154	250
145	144
98	96
255	330
31	165
101	193
72	151
85	117
92	96
83	251
92	119
90	86
80	83
64	103
99	197
86	346
40	51
95	147
92	120
47	89
154	162
69	109
100	110
114	111
203	203
76	196
41	43
68	64
130	110
123	261
96	104
115	125
67	138
79	67
150	168
43	80
132	226
87	158
79	111
121	231
130	138
83	118
135	148
119	69
133	126
206	305
40	79
48	166
180	142
127	283
129	354
123	253
114	113
54	61
175	182
140	154
245	233
238	130
37	36
227	226
276	275
356	387
107	121
119	144
219	218
77	76
88	87
210	290
139	117
219	211
65	64
79	78
70	94
63	81
124	227
90	140
100	112
124	137
237	286
184	214
87	106
216	254
77	166
67	142
61	60
71	140
71	34
75	232
60	193
95	179
55	124
176	240
53	51
64	221
89	115
94	160
94	468
154	199
125	129
98	163
126	112
98	1714
78	205
140	240
91	39
51	58
60	66
176	144
141	188
110	258
126	133
60	79
201	88
64	149
106	105
159	312
198	293
54	364
109	201
70	117
86	255
108	132
89	88
59	76
59	67
209	192
123	161
85	125
467	513
107	114
114	112
96	119
56	165
91	102
50	49
146	178
57	97
78	167
91	90
99	141
69	145
86	241
149	168
59	82
42	77
81	112
144	158
163	162
164	179
100	205
150	65
60	119
85	165
54	55
75	99
63	172
58	233
103	159
257	476
122	129
63	89
85	82
119	168
180	301
96	104
341	348
63	52
68	106
140	158
62	141
84	212
53	58
93	119
186	185
485	492
82	103
67	71
245	284
85	133
179	260
169	168
399	464
123	122
99	198
89	109
143	168
132	162
135	216
207	195
86	87
101	120
81	129
173	247
122	192
119	181
75	109
384	382
146	168
53	141
123	188
134	201
207	204
154	145
184	181
345	452
164	159
58	67
192	290
68	67
186	196
140	196
186	203
82	81
118	185
66	75
78	164
52	49
124	133
77	98
50	130
97	178
33	38
132	144
59	175
62	145
51	79
83	211
60	76
60	79
57	80
66	113
31	34
60	59
48	85
94	134
103	160
46	102
85	144
204	308
37	311
88	444
91	181
77	75
116	178
153	52
56	108
167	197
39	34
67	97
69	78
131	182
60	89
57	79
89	101
42	96
100	118
48	42
77	74
90	197
71	301
99	239
108	154
84	79
74	184
213	231
128	325
129	222
80	102
95	137
48	46
184	315
100	409
102	151
94	84
87	538
78	252
65	112
70	207
85	83
84	121
55	53
78	91
36	69
83	124
114	459
114	188
111	154
47	224
45	197
80	65
61	126
88	282
70	104
91	924
329	375
47	50
64	185
55	103
51	146
70	69
103	107
176	348
83	125
53	52
89	42
150	149
89	257
113	119
110	109
75	194
59	58
87	142
69	119
58	255
122	281
132	374
75	85
104	135
149	229
156	197
69	71
201	281
71	49
84	76
34	38
103	102
75	170
40	38
164	184
227	226
123	141
230	317
135	132
133	129
333	472
141	140
132	145
114	240
333	332
45	57
132	131
71	70
227	305
76	75
213	254
183	200
148	147
297	266
103	102
86	106
67	172
125	92
167	166
359	512
223	965
62	123
119	187
66	136
67	138
144	168
549	550
165	163
145	233
115	319
158	213
179	255
304	370
88	121
114	209
117	175
99	369
71	369
71	369
102	524
82	642
63	140
50	49
49	93
69	188
185	212
202	380
117	209
200	273
151	175
87	205
142	205
60	401
77	401
104	206
205	241
52	191
85	154
331	482
76	102
68	136
213	212
41	106
80	202
83	377
220	301
161	196
40	61
51	55
71	146
318	318
103	107
75	78
84	219
58	179
277	545
104	146
82	56
69	303
66	64
30	43
83	100
63	81
145	167
169	209
67	100
78	89
71	99
85	179
60	56
112	150
40	213
49	50
160	214
81	92
216	278
113	185
37	151
185	320
142	248
84	248
104	253
122	199
167	210
88	75
90	217
97	447
77	73
70	102
184	305
438	608
140	150
244	377
240	447
135	285
84	108
107	163
62	101
97	168
97	180
182	203
185	258
60	131
337	375
138	200
492	597
92	154
108	107
77	135
155	172
82	82
79	78
103	169
68	67
118	117
158	135
105	96
186	260
201	472
221	203
177	176
49	48
100	84
89	112
238	237
73	72
347	346
44	43
334	334
143	153
185	232
379	376
192	81
272	312
132	131
105	128
107	176
79	109
69	86
74	243
80	79
178	214
71	308
135	278
108	113
135	238
89	149
30	29
93	166
60	62
50	156
176	203
97	389
52	52
93	125
73	86
65	116
77	76
111	114
89	208
181	167
126	170
166	199
33	33
96	227
303	451
278	296
294	366
237	233
169	204
59	58
287	286
404	403
407	406
311	310
507	541
37	32
160	159
107	256
154	176
121	139
110	177
280	579
376	353
181	175
278	442
149	259
100	93
66	65
78	107
170	215
53	112
93	259
84	162
165	264
292	273
137	199
116	136
51	116
122	121
102	175
128	137
42	43
58	65
65	157
74	252
66	66
68	381
119	114
186	107
58	143
174	228
67	78
80	118
148	295
32	95
134	281
304	563
53	580
91	149
72	81
39	77
66	111
147	356
71	128
110	102
164	260
44	257
81	73
66	95
121	236
56	156
61	149
104	137
99	116
178	462
189	232
127	321
128	215
100	144
289	283
314	393
138	165
138	137
116	133
274	423
184	183
210	220
76	75
55	54
313	312
191	189
71	88
47	109
72	110
200	199
136	135
76	327
117	209
92	209
102	167
59	70
247	216
60	164
121	149
152	151
401	400
98	86
463	714
65	65
121	277
134	183
88	203
80	87
104	93
67	66
117	152
92	101
134	107
71	130
68	74
44	44
50	93
89	159
108	252
46	124
109	127
54	85
163	215
53	54
90	264
82	98
47	46
133	198
79	76
108	161
60	189
79	137
180	256
186	196
163	162
178	220
55	54
99	414
101	202
134	225
138	110
40	41
167	219
87	36
114	190
86	68
185	186
94	126
95	94
53	75
54	165
84	83
162	161
55	115
63	103
112	99
64	128
57	132
126	401
82	327
143	183
97	73
102	126
104	176
155	237
95	78
80	272
50	313
82	313
105	254
93	92
51	74
99	98
65	63
185	184
195	142
212	229
152	153
160	170
36	74
103	119
184	183
58	210
52	65
128	175
63	163
39	150
115	119
109	201
38	884
158	436
106	351
117	65
62	83
87	131
97	130
215	296
182	275
215	407
276	1145
108	137
70	151
95	94
66	65
232	310
168	174
113	155
40	135
78	77
36	54
306	273
166	391
136	391
270	313
91	90
129	536
114	282
634	895
67	102
86	103
66	60
197	196
66	193
125	142
167	279
237	263
446	445
144	116
118	126
78	122
132	131
68	108
258	396
50	68
340	342
69	58
100	99
106	105
395	613
79	222
119	116
119	120
122	184
94	145
147	357
101	191
73	91
317	314
88	578
160	202
203	205
86	92
110	110
40	39
144	143
99	111
57	55
93	158
68	49
125	181
51	58
95	114
92	89
125	172
45	46
86	158
128	93
88	88
108	226
156	276
177	257
156	189
110	165
178	185
161	165
62	59
149	253
62	73
71	115
56	83
108	191
78	162
72	79
53	57
150	199
172	286
89	376
120	115
56	68
83	127
62	98
67	67
119	203
60	183
100	101
60	127
41	110
61	262
36	55
213	111
90	114
91	145
72	104
53	51
73	179
155	239
91	90
240	239
100	119
103	102
40	50
59	48
99	599
163	210
114	314
114	178
83	70
56	104
286	316
33	37
152	341
171	150
129	219
163	207
135	151
88	151
41	40
60	61
167	197
110	212
103	734
125	401
43	1210
82	80
108	99
87	219
104	177
102	559
135	315
121	149
160	130
133	622
69	139
87	622
103	418
105	104
544	677
81	152
126	125
244	398
104	93
147	165
131	165
64	63
181	207
316	432
74	777
61	50
66	61
52	76
94	89
69	96
94	96
36	35
183	255
53	80
71	70
93	262
137	123
77	134
202	266
244	241
170	291
329	328
271	270
77	76
64	68
97	218
63	201
132	125
245	262
48	77
57	159
201	284
112	285
96	119
85	143
54	197
129	127
36	37
41	94
37	48
61	72
116	156
62	65
89	88
69	102
76	162
123	159
77	68
112	101
55	103
48	106
49	22
49	110
124	85
110	194
70	114
90	103
119	117
119	151
151	150
42	121
213	437
82	195
106	1497
170	273
75	233
44	85
104	95
81	189
58	124
63	112
180	152
38	100
80	155
89	187
56	107
91	255
106	262
82	116
67	79
129	238
43	48
58	57
71	103
148	199
94	120
52	208
120	168
44	349
84	207
172	217
41	94
137	340
72	113
94	93
45	68
63	103
87	86
76	89
80	84
50	49
129	159
87	90
74	73
96	35
100	143
90	89
100	99
126	125
35	34
124	125
59	95
90	80
59	162
132	164
48	52
100	123
95	75
80	330
112	155
137	195
85	304
92	197
67	126
95	94
244	337
102	184
123	186
82	70
123	162
90	91
181	180
125	169
57	166
73	189
64	63
67	48
80	120
131	130
52	50
229	289
60	59
177	292
104	151
287	294
62	68
101	139
130	171
147	149
178	214
45	57
69	171
91	90
97	96
111	110
66	75
161	252
63	87
54	40
231	260
72	345
139	138
180	187
118	184
52	132
82	107
91	90
91	154
73	205
125	166
74	120
130	129
67	66
75	102
138	152
67	66
227	262
91	218
118	88
75	74
95	126
266	512
210	241
53	51
72	211
124	167
207	229
91	95
39	137
61	150
50	94
232	328
66	74
79	529
196	228
122	178
96	129
163	231
148	147
34	33
101	168
248	319
78	81
119	118
308	307
60	58
151	154
82	140
51	49
170	169
223	222
168	167
108	113
77	82
98	235
54	127
73	142
53	83
103	127
179	243
138	136
94	230
75	233
68	76
279	351
97	74
258	286
212	211
247	246
92	91
98	97
104	103
115	351
134	312
126	137
298	297
68	65
179	203
43	44
388	410
209	200
84	83
54	149
152	164
61	140
158	172
139	169
264	392
150	177
167	166
162	365
67	76
89	94
32	73
115	164
110	125
73	100
168	259
133	408
110	193
156	222
206	367
103	104
120	444
74	177
142	157
52	50
212	244
59	82
149	163
48	47
131	153
134	382
105	125
162	176
257	259
119	123
61	100
96	144
154	142
89	181
30	29
105	104
152	259
194	268
34	37
153	156
73	133
75	67
51	141
529	727
96	114
112	111
148	147
177	141
161	361
188	239
84	221
101	118
150	173
200	199
345	344
327	354
282	281
253	252
227	226
339	378
68	67
116	185
145	144
210	220
119	118
150	149
298	297
115	108
194	208
468	510
48	59
321	326
232	231
52	51
121	171
139	138
190	194
466	661
109	109
153	271
64	65
247	300
78	143
124	329
186	227
522	488
92	81
75	74
144	143
113	147
156	264
128	181
65	64
139	216
153	346
178	190
340	374
98	110
56	150
133	192
276	278
127	88
52	55
180	179
423	437
133	95
128	127
168	532
108	107
347	244
64	136
171	195
79	141
74	111
98	117
54	95
153	154
55	133
81	143
52	83
419	652
105	104
227	239
189	399
137	144
274	229
129	136
42	42
215	286
165	147
114	282
94	166
58	68
57	83
201	280
122	88
133	154
68	67
159	201
130	302
75	117
108	165
86	110
81	127
267	393
150	187
88	188
49	65
113	118
139	138
177	260
115	208
466	464
236	247
228	219
144	336
698	491
279	290
224	210
42	171
120	99
86	148
65	148
86	178
116	403
129	122
385	384
778	911
46	45
382	397
356	334
58	185
92	171
360	359
472	471
96	344
70	344
218	344
94	202
393	517
260	259
427	426
325	678
363	374
328	327
64	61
224	223
102	90
172	171
70	69
460	459
203	202
123	122
52	68
259	298
155	243
357	424
291	290
221	202
162	170
148	141
252	277
117	446
71	91
194	263
109	110
48	62
161	195
107	180
128	267
127	286
85	340
145	144
151	144
168	167
94	93
44	52
110	73
271	409
239	261
60	59
246	245
213	212
86	85
231	233
183	237
90	89
40	39
190	235
138	161
71	70
169	168
113	127
85	84
172	237
48	47
269	268
58	60
74	114
97	112
59	70
45	45
197	215
43	42
100	232
50	72
133	215
110	155
42	45
62	55
79	78
48	75
113	193
328	307
66	65
153	165
107	260
185	293
148	293
51	174
102	102
175	209
93	116
102	111
42	117
73	86
71	77
105	485
126	158
186	260
122	176
99	263
114	169
89	116
75	358
52	181
74	134
60	97
310	309
106	106
59	129
51	126
73	127
64	63
118	294
155	301
82	95
79	118
83	82
145	235
233	436
230	232
84	197
108	102
219	151
74	318
148	195
103	102
85	141
99	228
70	110
65	93
69	150
127	334
139	143
124	123
149	228
92	110
96	95
149	174
106	117
56	94
204	204
121	245
273	598
42	41
212	211
225	251
93	66
123	147
53	112
82	115
99	124
141	137
78	104
104	295
98	1179
54	162
77	133
42	552
197	231
51	97
34	97
147	276
82	112
45	188
71	125
244	280
99	785
147	289
74	124
184	238
228	522
128	205
142	197
47	48
64	78
54	64
235	234
47	46
80	70
235	412
304	303
186	368
167	246
130	180
192	179
65	173
281	342
109	101
85	84
117	66
84	241
120	123
271	330
92	159
122	185
64	78
223	222
30	44
201	200
40	39
398	397
57	52
227	265
144	183
184	225
127	176
103	161
104	136
69	200
189	259
72	455
139	147
83	84
193	260
88	87
352	351
79	128
72	171
284	576
175	284
119	157
161	179
46	71
105	261
151	164
73	85
132	217
38	35
261	279
45	56
65	65
191	312
67	126
93	432
159	483
126	164
39	51
107	106
103	105
183	230
156	415
188	272
233	526
124	475
191	541
40	52
104	100
54	380
92	133
74	150
55	55
101	64
83	109
49	111
65	162
179	166
89	546
128	285
42	87
155	134
110	296
73	93
124	505
63	334
93	303
85	122
234	217
167	187
197	295
307	368
136	117
446	445
106	105
203	202
71	70
733	732
312	341
252	255
183	176
444	443
309	308
101	123
78	115
80	79
284	283
185	116
300	322
337	336
231	239
129	111
47	46
77	115
77	178
75	73
80	87
48	84
130	121
60	89
77	182
253	244
122	121
99	89
66	73
60	254
107	300
90	156
75	111
70	114
96	131
45	171
69	165
49	61
75	74
128	133
86	77
264	263
241	261
67	69
114	128
121	259
40	38
46	126
45	92
216	419
85	145
210	242
155	106
133	70
92	89
89	104
80	129
74	73
190	229
238	378
79	83
40	110
73	77
121	148
159	186
66	80
103	139
68	72
100	206
82	109
48	75
247	378
203	200
169	168
310	309
90	80
140	131
247	246
73	72
72	70
103	96
41	75
177	327
75	90
140	146
66	82
128	125
87	100
134	107
73	88
51	130
111	295
116	310
144	197
58	35
264	253
133	176
142	300
65	83
68	176
72	77
65	127
129	147
73	339
103	164
120	210
42	61
108	107
123	238
129	128
114	179
161	189
90	141
73	95
84	85
154	152
81	180
167	209
208	188
70	169
66	65
84	72
226	288
132	167
37	36
65	85
98	159
66	74
134	184
63	72
42	65
109	141
53	90
82	127
193	338
120	121
321	477
130	154
118	120
76	97
60	92
265	222
87	102
44	43
209	208
124	335
166	179
67	83
195	194
111	131
74	73
102	101
85	84
90	50
77	151
99	175
73	96
78	106
139	136
93	99
73	112
68	65
126	145
112	140
88	156
88	149
53	155
111	93
126	173
67	176
109	164
71	509
55	177
291	349
60	59
107	143
230	391
74	132
101	116
320	522
121	167
74	114
104	168
68	374
245	247
78	170
112	270
163	299
144	197
197	196
142	190
119	84
114	96
143	240
53	103
70	68
66	65
87	86
169	266
122	205
106	160
165	204
44	81
84	156
97	166
155	392
84	151
84	85
101	97
85	82
95	94
91	90
179	282
262	289
186	196
53	62
148	199
345	371
59	223
307	310
161	159
134	132
138	125
206	245
538	542
113	112
142	141
47	46
349	416
104	103
60	79
159	217
125	124
246	290
619	1756
188	308
374	424
144	198
91	76
127	193
53	258
177	176
123	118
75	180
97	78
92	91
126	125
152	167
70	69
120	113
85	84
92	84
255	261
236	149
86	85
111	110
303	311
90	493
342	470
73	77
167	166
158	201
115	112
158	94
93	70
76	153
50	44
54	184
79	335
89	105
59	133
76	94
76	63
38	248
132	243
74	211
90	652
56	263
53	263
154	233
60	82
110	137
40	58
93	89
52	57
63	94
55	134
50	140
83	76
59	208
103	118
107	223
124	162
64	299
71	94
58	164
85	194
58	185
84	79
70	171
89	157
55	190
47	190
80	169
92	169
211	265
62	107
113	107
81	179
375	374
246	254
131	200
64	208
46	84
110	115
74	156
73	87
74	199
43	40
83	173
118	332
157	155
199	198
82	93
120	119
162	151
122	165
85	85
61	159
59	114
49	43
173	165
49	55
344	368
84	113
55	76
224	156
59	58
92	91
91	96
99	196
119	318
53	113
108	140
59	246
58	299
98	227
68	114
129	88
50	138
73	107
99	111
240	309
51	49
88	266
216	254
81	140
152	129
71	115
155	239
56	113
146	288
61	80
104	80
85	42
69	156
100	99
87	105
176	163
67	71
42	76
46	98
305	312
217	217
160	221
74	194
115	564
81	268
73	271
67	103
59	784
85	161
124	239
143	158
50	77
173	204
55	59
104	172
82	198
73	193
108	42
47	162
95	207
181	297
76	149
259	217
129	319
132	491
203	580
103	200
99	98
77	153
58	89
112	145
63	137
83	154
82	178
69	222
142	365
178	1213
64	149
109	237
52	82
96	374
55	891
58	891
96	891
101	1184
101	251
82	865
105	211
190	738
55	46
234	177
45	177
136	291
70	199
276	554
69	74
127	183
149	148
146	201
79	431
156	204
41	40
84	83
252	404
62	61
100	210
221	69
87	98
88	195
56	139
134	82
69	59
123	96
71	57
75	140
73	168
97	115
177	179
61	114
70	217
67	139
86	85
216	215
52	52
61	59
61	60
347	373
103	499
76	62
143	242
83	77
307	385
81	76
187	179
384	512
298	302
178	177
86	85
137	136
140	139
190	189
65	64
108	107
47	46
69	68
201	200
116	117
142	141
117	116
146	145
377	376
100	103
114	129
106	118
291	290
267	237
691	771
65	67
149	143
136	185
162	161
159	158
85	84
448	460
53	54
249	248
38	37
123	122
74	81
163	162
78	87
52	51
52	57
71	70
84	83
290	299
211	207
154	156
131	132
66	166
235	412
153	173
168	208
185	297
84	108
189	189
265	437
218	253
85	84
48	63
125	134
119	176
148	113
88	142
61	135
58	62
309	312
118	266
70	228
117	228
120	174
62	296
59	89
118	115
208	282
63	180
79	130
168	238
114	163
44	44
164	158
66	109
43	139
154	308
115	107
60	76
191	239
87	86
41	114
68	98
176	183
66	75
91	147
177	182
218	319
161	202
82	101
37	62
90	76
67	77
56	105
102	158
112	123
97	175
57	101
157	154
145	129
173	165
105	101
142	149
55	60
155	173
127	141
449	878
98	172
59	60
114	113
91	82
176	183
336	404
78	76
79	78
87	123
61	88
188	166
100	119
197	297
122	135
81	120
70	64
67	84
123	133
46	38
86	192
77	85
324	310
199	210
224	257
48	90
49	55
59	167
156	111
117	184
257	352
130	191
108	198
256	255
128	172
73	239
81	79
53	127
157	383
94	79
339	219
50	64
319	318
155	474
126	235
141	216
70	85
40	39
107	112
63	62
324	506
171	425
111	465
215	394
53	127
133	163
30	163
72	71
152	239
54	65
34	81
472	539
389	388
96	95
101	100
319	318
68	67
203	241
108	346
353	455
64	76
445	554
130	129
329	355
305	304
124	124
228	227
474	763
188	194
208	164
246	245
180	179
158	157
61	60
134	232
99	152
248	241
220	225
151	262
128	133
92	91
79	117
139	181
130	129
209	496
91	128
35	46
57	86
164	257
89	103
93	96
91	97
54	53
324	330
120	119
70	88
274	271
273	283
250	285
110	109
139	147
263	239
215	280
95	142
182	256
120	119
117	116
133	132
132	117
150	222
159	178
185	194
244	214
323	322
177	176
274	471
167	166
113	117
87	81
189	188
341	364
119	115
289	284
217	211
99	98
173	175
216	215
290	289
158	157
230	229
107	110
165	286
101	182
67	80
74	74
152	219
99	111
89	185
71	110
66	228
181	228
122	76
73	45
49	181
188	293
144	218
89	173
117	227
123	180
271	270
198	197
171	236
58	79
80	80
169	202
76	75
249	349
66	65
318	317
196	195
189	188
208	207
135	134
340	370
258	454
41	40
57	58
85	136
175	155
58	43
191	190
153	154
63	143
89	297
139	180
86	155
243	285
185	239
389	388
248	247
67	73
109	679
59	679
200	679
240	679
204	240
100	169
104	169
62	61
197	277
64	291
229	373
81	354
85	148
92	169
99	186
76	89
47	58
124	164
42	44
114	114
120	225
70	71
160	159
46	152
143	311
83	97
35	34
50	96
64	54
73	109
73	70
119	170
118	218
130	367
41	66
62	347
65	195
124	125
88	196
78	76
71	97
59	57
49	85
107	175
60	112
116	135
105	355
120	214
54	83
152	495
129	233
147	203
42	82
51	47
138	136
120	168
96	92
70	65
210	358
49	68
133	166
113	163
70	69
52	84
58	57
40	53
72	131
72	110
63	89
225	412
224	259
55	60
300	300
278	277
319	318
134	133
37	36
38	47
69	68
96	146
66	345
271	385
125	124
106	156
91	161
112	111
53	52
86	59
79	136
163	288
56	212
219	218
35	34
36	35
68	67
82	66
121	201
57	95
180	181
123	127
80	84
102	168
128	280
80	47
114	168
90	111
62	61
289	331
124	194
84	75
45	82
98	109
74	73
71	95
160	295
175	195
158	190
129	152
196	185
51	128
65	128
135	205
134	294
110	190
248	299
153	278
92	254
57	71
91	91
77	76
91	78
114	139
60	67
49	48
116	154
86	86
110	187
43	131
85	313
155	211
73	121
163	189
115	121
384	383
52	70
185	224
38	130
80	332
149	171
140	310
102	623
101	623
100	238
92	62
52	101
132	67
86	86
94	151
85	203
99	173
116	112
279	423
70	164
71	101
79	150
69	91
167	241
95	231
45	44
202	245
68	77
72	128
47	154
111	109
45	258
65	593
52	129
36	96
205	445
89	162
118	117
106	187
98	98
49	99
75	180
256	207
102	120
112	173
33	126
113	160
130	294
205	204
303	389
252	175
111	193
131	173
84	82
168	268
97	139
69	465
99	112
48	313
98	180
119	131
277	273
119	359
127	126
203	200
125	174
103	231
89	587
43	44
118	269
98	165
53	82
131	210
86	83
92	143
128	185
88	150
50	113
80	86
73	123
44	56
81	100
36	35
194	237
58	77
56	92
66	136
115	257
137	171
93	457
45	50
78	128
81	142
90	220
85	186
60	46
104	150
103	84
52	52
78	147
53	77
128	210
79	165
113	269
180	517
124	100
129	189
32	103
83	141
98	224
54	116
62	71
110	109
321	345
204	207
56	245
120	216
229	322
192	196
135	134
668	723
92	91
440	510
111	1477
534	1518
57	1104
70	597
239	562
182	216
279	278
61	82
90	41
136	272
71	114
107	216
67	217
311	696
54	80
111	231
124	170
132	130
202	177
74	73
128	151
53	132
40	105
81	162
150	154
230	362
61	55
65	178
82	101
194	223
62	243
271	357
123	257
165	165
174	485
300	452
190	189
123	165
211	307
132	193
109	168
54	149
161	387
133	159
55	246
77	246
75	246
96	92
123	246
114	217
168	243
71	134
70	130
109	108
47	160
105	259
85	124
55	54
137	186
41	66
109	77
42	190
87	87
103	77
113	154
98	114
65	70
44	53
83	278
97	66
147	105
72	68
112	141
162	161
129	128
104	103
119	107
104	838
125	452
47	90
78	129
111	78
139	1041
61	231
59	1197
176	243
701	1295
213	254
171	205
284	330
134	167
36	132
253	234
234	277
112	134
77	252
89	191
86	79
117	412
33	71
129	241
87	42
179	143
104	183
79	164
79	174
123	166
107	176
112	196
49	64
209	216
68	67
147	178
245	244
124	170
57	83
52	53
38	278
45	80
109	107
242	285
346	728
183	190
224	312
75	90
69	70
240	293
45	67
62	161
213	205
96	103
54	132
39	38
80	79
239	302
181	296
37	104
118	79
44	65
83	142
79	81
121	364
61	156
115	125
98	44
148	172
78	70
45	44
66	134
96	131
91	85
156	308
82	92
65	148
87	135
110	232
68	67
40	52
117	153
64	65
79	63
63	123
136	166
166	165
53	28
116	115
128	127
131	130
141	220
62	200
222	193
83	117
83	86
58	66
149	54
82	148
71	159
60	159
96	163
68	75
55	54
46	130
106	269
105	347
97	136
68	126
158	204
176	154
187	194
104	163
47	49
311	359
111	164
79	128
57	72
44	70
151	142
120	150
82	106
76	130
68	114
69	143
155	209
65	232
49	48
89	115
95	117
72	118
100	184
66	79
62	77
69	57
102	181
57	132
52	208
59	352
177	236
61	54
95	142
63	85
101	86
65	293
89	199
85	101
109	244
116	93
50	84
62	62
78	77
95	201
49	56
109	137
208	226
158	240
63	88
101	276
149	118
84	201
122	156
118	140
135	188
206	242
34	39
183	168
118	260
76	160
86	85
164	291
67	66
64	61
90	89
78	77
64	63
37	36
718	270
70	73
239	110
138	156
100	140
224	1537
59	221
130	231
129	271
104	1594
86	1586
77	859
72	761
114	761
80	761
62	109
74	240
39	38
88	155
51	191
193	125
54	94
91	123
87	97
44	97
111	166
114	147
75	79
57	525
69	76
68	79
154	153
151	178
68	327
103	134
78	89
65	89
79	85
191	220
131	176
44	42
50	49
66	62
83	119
57	59
110	112
189	213
31	61
76	266
50	63
74	70
72	119
83	130
134	176
139	210
60	202
39	68
44	73
45	87
79	108
97	140
89	90
79	78
56	66
117	124
187	331
226	255
44	96
64	76
68	67
85	84
183	277
77	106
59	149
124	127
124	150
54	73
174	168
93	264
37	66
94	171
92	111
76	64
59	69
151	149
53	57
41	89
91	113
75	492
114	211
92	103
49	80
101	100
93	138
111	97
169	473
111	162
68	67
111	189
112	61
40	91
85	281
41	244
99	105
108	215
87	104
87	208
58	88
63	98
93	1269
126	266
117	119
205	281
116	159
212	364
83	113
75	94
167	191
76	64
160	219
60	59
91	122
65	156
149	187
267	340
97	149
111	509
121	107
169	93
82	89
96	56
173	172
113	185
44	64
163	232
195	397
72	122
100	90
46	45
72	71
73	99
79	823
123	196
174	88
39	66
70	98
100	79
83	507
69	185
70	139
111	90
139	112
330	324
116	152
90	160
121	114
95	197
83	97
139	185
197	335
71	178
62	33
82	79
44	44
81	77
74	101
90	187
136	515
200	349
105	280
155	137
52	85
89	100
52	59
62	132
200	380
197	214
157	166
122	235
82	81
87	184
104	131
411	483
81	100
346	472
130	150
120	119
84	83
221	201
463	462
283	293
194	219
177	178
222	221
59	58
62	71
60	65
99	98
90	94
116	116
67	205
97	140
32	31
297	296
83	53
198	308
231	336
106	138
68	69
211	248
104	103
123	125
68	67
353	486
94	90
58	112
62	79
35	97
131	172
160	195
42	51
117	328
147	164
47	79
133	112
97	115
71	72
207	307
54	90
115	196
84	142
59	60
90	165
297	1890
103	221
50	89
42	62
59	74
106	136
122	130
54	98
72	74
158	193
97	187
114	84
80	120
95	131
151	217
74	65
141	257
90	89
358	391
241	295
49	69
108	162
100	99
77	76
72	104
54	54
245	262
158	174
38	37
194	221
103	72
161	195
176	203
85	101
353	358
205	223
111	201
147	146
94	166
79	80
80	141
182	345
124	154
210	208
173	446
235	234
214	230
67	70
152	125
54	53
58	173
49	48
52	55
60	149
95	128
45	66
188	225
85	130
132	169
128	436
56	75
42	368
281	315
44	42
35	461
116	429
131	237
135	143
140	139
142	141
160	199
156	155
198	221
94	93
199	197
216	304
76	95
40	107
87	81
80	109
80	79
58	57
79	201
126	142
103	126
109	100
89	123
123	116
282	424
153	187
148	147
66	84
268	291
82	81
100	134
127	296
158	169
126	237
280	481
84	83
112	197
235	330
192	212
160	159
43	56
192	221
140	206
135	147
45	44
187	217
84	83
35	77
75	156
178	195
200	199
331	330
99	271
139	268
131	96
137	136
48	47
85	84
64	63
181	217
74	75
70	114
105	110
120	189
371	548
62	61
80	78
190	247
116	129
66	91
51	91
109	111
231	142
119	198
83	95
118	132
80	87
87	188
73	204
92	322
60	87
91	177
36	36
52	49
58	53
254	340
312	311
395	488
114	113
60	59
98	116
265	341
71	109
117	116
137	305
134	133
287	286
66	65
284	344
265	335
74	73
199	198
568	775
294	293
225	224
377	376
295	276
125	124
108	180
257	359
287	326
140	195
117	116
147	146
232	272
173	172
83	65
135	257
230	405
55	59
465	464
100	195
57	74
356	398
70	71
81	140
254	303
77	82
114	113
211	210
215	214
647	848
107	106
78	77
68	67
40	42
224	228
236	235
299	298
132	167
588	720
81	80
346	300
62	99
162	161
81	66
79	139
137	154
41	43
122	126
45	51
242	255
80	93
89	90
182	181
96	289
612	611
62	70
141	206
46	286
241	284
207	206
341	340
267	266
85	72
218	239
231	295
34	35
132	132
217	283
344	342
152	185
40	185
67	205
105	205
315	502
119	156
168	305
96	236
297	359
247	260
94	301
205	220
162	298
205	196
130	129
239	253
78	183
368	474
76	238
334	519
87	117
143	132
39	37
191	186
170	269
60	108
142	143
72	96
120	178
192	377
98	155
148	168
325	324
122	140
105	234
106	334
102	86
110	147
184	152
276	310
116	223
90	119
67	159
63	76
48	84
121	201
53	65
166	250
73	109
158	327
88	168
183	206
64	172
74	71
210	282
132	131
826	857
58	69
188	177
283	300
121	121
130	137
114	113
64	90
153	197
132	149
67	83
81	315
241	274
357	356
85	112
131	130
409	408
128	160
116	115
197	196
80	79
112	199
74	73
56	46
110	122
157	311
150	160
81	138
78	227
121	138
126	145
120	296
191	197
157	237
39	31
144	207
121	259
90	185
100	99
97	96
51	158
85	114
136	204
115	129
102	118
75	224
155	196
207	206
170	235
69	129
94	119
83	113
93	175
74	106
102	111
223	262
83	53
94	83
101	152
106	106
46	148
63	62
77	174
78	61
216	247
79	207
54	258
71	189
55	53
89	88
121	170
54	90
79	264
34	67
132	230
64	2956
71	82
55	98
124	79
47	97
39	77
94	184
194	235
96	119
78	42
44	76
76	157
57	156
91	147
64	72
120	173
76	101
93	93
194	131
188	170
152	270
78	108
47	71
65	64
79	92
149	279
72	266
48	101
67	537
81	78
53	129
74	85
62	61
51	62
95	235
188	236
157	337
55	142
160	129
140	166
75	74
134	160
159	161
174	165
80	79
275	361
97	129
204	203
89	111
167	167
124	123
77	76
185	201
120	119
147	236
55	63
86	85
237	321
89	108
150	222
264	282
54	47
459	460
53	87
48	141
122	234
68	107
72	71
112	235
275	565
352	774
182	179
114	112
157	162
156	155
59	64
98	110
256	255
126	125
64	715
197	228
171	234
144	171
255	257
84	107
155	204
92	123
135	265
62	79
52	82
187	218
57	56
91	90
170	230
69	170
68	104
189	196
83	121
122	121
112	170
346	402
84	101
143	142
115	114
397	460
102	93
215	837
96	116
127	218
59	137
188	255
151	208
148	150
338	420
128	212
200	258
64	77
176	259
140	173
74	126
88	176
62	137
125	119
216	216
94	108
97	204
117	166
86	85
121	142
121	234
43	100
57	69
142	177
93	189
40	71
36	65
150	148
237	236
71	68
44	65
64	107
176	172
40	53
108	137
150	176
95	216
164	450
53	80
136	239
91	100
156	170
54	182
60	59
152	77
186	244
43	90
73	220
40	80
93	208
42	66
153	206
75	104
76	475
82	87
135	190
65	83
175	330
189	257
99	107
132	191
140	139
76	137
107	204
135	218
72	76
87	255
48	66
95	168
49	49
99	80
78	222
89	87
86	76
97	167
105	83
156	131
35	34
92	91
73	81
63	63
61	71
73	67
145	134
54	53
300	431
53	47
75	69
78	44
85	95
65	69
79	70
72	71
66	232
96	134
76	86
221	258
185	203
79	180
134	133
89	108
142	173
79	161
84	80
134	104
97	77
155	188
89	63
172	154
147	176
245	245
160	217
78	54
225	269
152	415
41	79
72	150
55	55
86	133
316	392
139	313
125	130
55	54
65	122
104	104
248	247
318	275
230	285
76	75
169	249
222	221
135	127
70	219
171	248
145	107
223	223
300	304
133	131
105	104
73	154
122	227
152	157
187	261
94	108
159	158
396	410
43	46
134	147
82	89
97	96
354	482
214	212
275	332
107	195
268	267
301	353
64	64
170	126
197	468
503	767
147	2167
420	401
236	520
78	166
137	133
89	195
140	277
251	339
74	170
161	500
93	410
333	391
266	349
216	352
127	327
633	2035
134	164
195	433
84	326
261	293
50	111
245	319
582	600
184	211
137	291
225	228
427	426
435	434
425	420
65	252
158	207
76	85
286	282
68	67
246	332
398	468
72	92
152	141
64	63
63	62
55	54
73	72
57	56
79	78
51	139
36	84
142	141
71	74
60	71
41	73
131	126
46	36
129	153
67	81
215	227
57	53
171	170
77	77
73	136
79	78
158	616
43	42
76	112
131	226
108	75
237	235
177	203
196	339
123	163
46	44
98	141
76	144
84	215
90	219
131	142
50	55
187	169
287	486
152	334
142	141
200	242
130	129
103	67
192	260
33	32
37	37
103	102
221	222
97	96
221	306
164	413
60	80
30	47
265	271
321	617
65	135
186	222
165	169
59	59
166	266
140	146
107	134
99	98
108	191
214	215
226	225
368	362
202	200
91	129
76	167
82	83
55	225
79	249
112	135
68	96
135	215
149	212
98	125
79	58
41	59
47	99
47	42
218	243
232	230
193	297
40	39
159	292
69	70
103	108
219	219
191	243
61	56
287	361
45	54
77	78
225	224
174	173
119	118
113	174
57	62
110	496
104	509
218	341
40	51
168	185
162	178
100	248
126	124
169	140
48	35
122	149
78	77
100	152
111	158
101	143
152	153
154	192
148	315
165	180
97	96
111	105
144	134
47	88
102	165
97	141
46	68
36	54
46	54
58	81
68	63
59	208
104	83
64	62
106	262
106	68
50	62
79	94
43	130
95	266
162	304
75	145
67	66
57	66
92	92
50	112
73	72
91	252
73	188
48	47
73	124
55	76
91	145
90	128
159	126
50	56
103	148
157	156
85	130
43	185
134	177
58	85
312	367
131	367
263	266
159	192
130	142
159	257
87	180
87	97
95	63
159	158
87	95
93	56
154	153
168	298
71	148
161	327
103	154
30	40
121	209
116	104
153	293
91	121
95	180
64	147
109	183
99	108
70	112
175	406
112	110
44	42
56	55
149	148
124	123
105	104
67	41
50	104
39	42
112	110
178	177
88	207
111	183
60	59
44	44
57	58
80	443
130	206
137	126
83	103
104	117
95	206
67	84
123	240
49	46
75	74
73	125
82	138
55	54
238	239
60	207
79	145
77	78
136	135
52	51
110	217
59	58
166	231
47	89
94	133
96	98
69	72
99	114
114	183
150	294
96	95
77	80
86	85
79	78
42	51
56	86
68	67
50	192
82	252
50	133
45	162
96	89
45	71
160	127
78	121
105	183
100	425
85	93
84	101
65	116
116	63
67	86
132	317
63	74
45	133
130	183
78	92
87	440
123	275
65	239
55	56
79	97
109	65
56	449
93	84
95	159
156	350
84	436
65	70
102	128
45	63
47	50
122	130
117	236
61	60
38	37
82	81
78	77
242	287
101	119
101	123
168	280
78	187
60	86
35	77
58	152
76	215
244	247
75	56
87	181
116	314
106	147
358	469
192	207
167	248
61	85
53	119
83	73
92	91
199	210
219	290
127	147
224	242
49	54
92	95
146	239
69	176
72	122
96	78
59	152
81	147
124	337
60	59
56	56
71	70
82	169
74	158
248	353
112	173
90	91
174	190
252	251
242	299
127	137
207	206
408	407
100	104
149	313
741	1024
364	363
282	281
555	554
216	224
289	288
265	264
317	316
338	337
276	282
136	136
180	179
278	277
54	69
328	327
92	91
309	320
185	153
75	75
205	273
132	164
62	126
70	80
205	243
36	70
141	201
105	288
77	111
85	150
183	303
304	330
74	65
138	137
295	320
83	113
65	64
237	270
115	136
96	137
77	114
83	81
45	50
68	73
89	280
154	179
87	86
111	110
123	226
98	133
105	124
115	69
372	371
85	140
181	269
41	50
153	152
156	155
64	63
226	225
95	94
61	60
326	325
303	302
187	201
183	164
323	485
124	260
491	1047
59	62
354	400
204	187
82	86
71	159
52	273
93	202
132	441
300	439
83	137
58	338
88	179
135	169
312	309
41	194
111	417
155	214
85	193
63	62
160	168
73	155
100	107
41	82
121	296
176	293
50	51
52	50
95	102
178	377
86	272
85	122
82	116
209	210
98	106
138	184
74	72
101	179
87	34
38	37
84	202
138	205
65	103
55	50
131	118
84	60
79	92
170	169
89	151
71	172
116	139
200	241
217	231
160	252
191	221
43	111
300	299
39	38
52	65
288	308
168	178
54	53
166	165
184	282
74	88
164	163
368	454
92	72
51	50
88	252
138	156
110	109
177	171
196	195
147	198
138	289
144	152
316	315
64	44
64	63
164	235
194	406
117	103
193	192
105	104
164	143
143	303
168	433
78	77
105	120
148	154
273	272
159	122
99	209
58	83
81	128
353	364
41	51
66	81
64	63
325	410
71	162
102	123
69	98
117	116
90	89
66	71
100	117
64	63
507	529
328	475
40	39
83	150
128	396
145	214
99	100
57	90
43	61
50	50
101	91
73	150
127	439
67	92
168	152
65	64
46	45
102	117
64	171
81	141
217	206
74	63
174	183
95	93
58	77
81	97
96	111
133	277
92	140
57	177
49	142
75	508
36	91
74	231
69	96
57	73
50	98
43	62
72	69
73	123
55	187
124	139
78	98
45	116
69	56
67	135
34	236
71	204
49	139
79	103
147	200
143	169
119	155
116	139
117	117
85	54
82	104
99	101
127	125
50	49
105	115
159	134
84	91
149	385
43	65
148	146
112	148
117	212
236	325
162	467
157	156
186	234
264	318
56	68
320	319
132	156
311	318
124	160
316	444
142	153
306	305
501	550
102	154
38	78
149	194
161	182
70	167
155	166
101	100
60	59
272	804
169	137
127	202
204	203
46	45
266	310
123	122
103	236
99	109
125	427
136	135
160	159
153	152
306	305
226	225
260	259
132	176
98	159
62	67
144	225
142	128
198	197
104	101
132	157
137	156
118	288
83	369
94	148
272	420
75	816
80	121
83	220
188	531
79	376
199	376
55	66
79	133
62	61
131	185
62	61
77	97
93	92
336	368
264	308
87	86
78	77
61	122
142	165
194	213
124	370
228	235
33	32
73	244
89	219
297	292
404	403
431	430
104	119
330	329
382	381
262	261
366	411
66	65
307	349
217	232
322	506
420	419
211	217
143	192
120	120
279	288
89	91
170	169
241	240
165	164
104	98
353	353
174	173
71	70
126	125
164	163
103	102
100	99
89	59
100	101
318	317
108	109
101	200
115	114
558	888
171	355
198	209
124	112
94	152
269	415
59	90
58	61
402	480
133	132
228	227
461	460
111	110
143	142
285	407
141	149
155	157
557	779
140	173
207	284
57	266
98	228
68	412
66	410
60	59
123	185
94	147
112	129
45	118
112	127
232	281
70	61
30	38
51	50
62	52
83	58
51	178
116	272
106	265
97	265
56	331
94	100
227	311
171	227
77	106
79	173
98	96
76	133
52	138
72	246
147	246
82	476
115	506
63	191
111	128
90	71
86	276
74	155
87	311
113	203
129	311
165	709
71	61
56	83
155	255
33	75
79	66
55	64
89	105
130	103
115	207
188	286
297	334
169	81
109	348
49	85
130	167
109	242
165	301
127	149
97	101
225	334
93	127
69	179
41	348
57	56
83	164
45	38
93	211
32	536
98	204
88	73
91	392
35	83
56	126
84	534
67	164
61	60
157	143
115	107
171	207
51	119
70	128
102	118
109	70
111	200
63	65
80	243
61	121
107	108
113	219
160	192
70	73
147	190
53	67
64	85
60	78
89	154
53	117
93	153
96	154
57	55
80	142
32	28
66	67
85	83
77	178
72	74
131	154
103	305
38	98
87	188
73	73
90	89
327	349
69	147
100	99
303	302
99	98
353	352
553	552
67	120
130	183
66	95
158	209
151	194
105	100
128	162
74	73
75	44
70	69
113	110
252	226
92	95
64	87
176	281
176	130
82	104
102	105
74	80
234	246
162	154
123	122
181	222
137	177
156	154
220	332
137	136
156	155
106	105
106	108
67	142
214	213
344	343
115	146
88	78
67	66
177	219
126	210
89	238
402	907
112	149
73	68
91	94
49	105
177	220
40	38
331	379
62	61
349	352
55	209
118	120
312	311
242	241
141	145
100	99
151	149
75	77
118	171
75	123
283	283
76	161
112	134
47	170
76	131
214	288
78	263
125	164
66	297
133	214
51	78
68	45
128	60
52	357
88	118
57	177
116	115
78	82
114	198
71	271
57	80
75	68
134	93
73	382
168	267
48	48
140	60
146	145
92	96
84	154
75	73
119	315
132	148
130	145
153	234
138	137
193	245
60	73
78	106
41	85
129	135
37	53
309	388
156	139
56	71
86	141
431	504
72	64
105	389
151	145
99	106
100	240
52	97
249	253
366	385
83	91
49	275
151	321
75	137
173	172
129	328
67	72
69	69
152	243
316	363
137	178
96	101
79	62
116	116
92	187
265	276
97	96
109	104
102	84
212	215
51	97
151	254
95	85
104	124
142	146
393	542
92	416
61	100
155	212
68	67
86	95
105	75
310	562
114	157
106	97
56	131
46	48
162	150
56	337
46	73
224	579
75	122
65	190
65	70
170	228
71	83
127	81
85	516
98	123
269	335
34	95
30	29
78	161
46	45
88	127
71	107
105	264
76	554
94	127
44	49
55	112
57	145
153	263
182	159
114	237
75	237
197	228
158	337
86	332
58	251
126	251
70	157
68	390
83	390
74	390
53	323
86	166
48	95
106	153
57	153
55	253
178	253
63	90
99	182
107	191
36	35
154	148
49	123
173	153
101	124
103	197
105	136
38	62
99	107
156	64
147	124
58	132
86	224
135	438
109	182
42	34
138	151
66	167
81	125
43	54
92	314
87	246
92	288
100	122
213	353
134	709
70	146
147	168
123	267
143	267
76	109
160	192
75	113
84	223
90	130
60	63
165	241
159	157
82	103
75	115
103	192
57	51
49	100
53	114
118	116
188	266
239	417
31	34
112	157
68	60
92	217
135	210
133	262
47	69
175	234
63	239
106	132
169	199
49	48
30	51
79	108
104	123
40	72
46	55
58	87
66	85
96	201
38	145
93	91
86	89
148	287
74	156
33	62
176	288
92	151
58	63
333	320
111	110
219	490
81	106
66	223
53	52
109	107
99	185
77	76
230	229
111	110
198	248
42	53
305	304
332	331
290	289
250	250
110	111
460	477
746	753
428	427
154	149
418	417
347	346
113	138
169	223
186	251
115	123
114	127
201	208
106	150
402	414
176	175
75	82
349	356
74	73
97	103
139	137
82	81
151	150
235	234
175	191
167	176
172	183
90	306
316	253
66	67
84	83
62	62
102	130
124	118
85	83
88	165
128	229
76	128
50	103
162	154
143	142
68	67
236	331
55	79
119	130
99	96
103	112
132	299
169	453
76	140
288	433
137	231
68	117
118	117
154	246
103	83
281	269
89	88
225	224
423	595
184	335
81	107
120	82
361	358
377	433
108	107
82	269
184	183
221	219
114	126
137	215
168	167
171	170
53	54
160	159
146	184
124	317
116	167
138	137
66	169
211	372
151	150
137	216
68	61
372	462
47	52
147	146
117	116
102	182
211	350
67	168
82	153
73	87
35	84
133	220
70	102
58	57
60	132
119	147
120	187
89	157
158	164
97	95
155	211
88	479
175	254
122	142
100	117
111	174
101	130
106	50
102	306
41	39
76	189
120	301
66	66
32	125
67	180
81	286
103	236
107	201
88	56
46	101
95	220
115	234
160	189
152	124
91	107
177	201
128	127
220	312
209	208
357	379
253	252
199	198
66	60
92	91
126	125
137	199
41	410
191	219
93	92
272	271
147	179
85	206
115	99
179	178
142	257
285	381
93	92
97	114
54	53
48	95
49	85
135	207
103	102
87	123
92	249
108	122
128	246
94	230
115	358
249	263
85	266
250	232
76	487
72	144
105	167
191	162
102	111
87	108
50	68
126	130
49	138
125	107
97	164
78	77
66	100
80	134
172	171
108	107
214	276
45	44
296	295
73	63
134	137
199	373
118	185
86	108
103	191
121	132
181	188
349	348
266	322
61	64
327	491
118	184
55	77
226	299
88	181
101	94
42	41
92	123
93	129
92	143
85	142
77	76
99	135
89	228
231	230
153	167
499	648
141	140
127	96
55	87
169	562
94	225
200	288
61	77
66	108
73	72
122	144
83	76
178	176
78	241
212	211
102	101
96	157
171	269
153	152
163	229
125	163
140	188
652	1355
221	191
32	49
193	296
214	242
72	68
129	128
53	52
408	428
431	430
47	46
87	86
375	367
395	394
171	170
125	124
881	935
65	68
163	162
190	199
263	261
176	175
178	177
51	128
185	153
399	406
88	85
69	53
149	203
129	130
117	116
194	193
215	214
156	155
225	221
97	269
92	269
69	70
113	93
167	170
131	130
96	107
60	59
165	164
179	206
71	131
251	290
46	60
279	278
89	94
434	578
74	73
266	265
93	92
86	90
98	108
166	165
281	280
105	104
92	105
241	252
68	67
128	225
349	721
104	153
145	235
45	88
122	121
77	76
100	99
41	49
68	67
138	136
38	37
81	80
86	85
117	116
64	63
133	140
144	173
331	330
815	814
142	205
138	137
166	165
97	96
97	96
375	374
247	246
110	124
271	298
58	188
268	377
49	48
399	398
178	217
75	218
232	211
231	230
279	278
85	84
192	259
83	259
144	166
43	79
107	118
148	147
131	141
77	49
161	160
86	56
145	171
58	43
68	55
145	140
234	280
116	115
199	198
286	313
71	70
110	134
189	148
306	341
189	241
69	153
187	224
110	231
62	129
73	103
145	56
63	74
76	52
97	475
60	88
101	116
53	83
89	85
113	112
156	181
121	137
112	99
79	133
39	77
168	169
30	65
149	138
45	68
169	180
73	76
83	149
58	80
163	160
66	103
57	56
86	102
106	109
81	250
71	119
64	159
75	99
116	116
144	106
51	70
78	76
53	116
49	71
97	105
64	115
82	62
103	102
280	306
112	105
46	49
119	159
222	336
173	176
169	250
54	119
53	55
48	82
65	64
91	90
40	95
106	66
105	166
70	68
60	61
100	86
149	254
97	167
191	194
346	351
91	227
86	94
296	383
94	174
186	275
280	324
126	180
142	380
60	100
113	103
91	181
135	144
185	262
106	408
56	60
145	248
91	104
64	88
81	98
227	261
311	425
62	61
125	142
56	47
152	243
46	72
287	603
166	213
392	586
377	387
72	97
482	615
82	101
45	44
84	83
85	215
51	50
179	351
162	181
85	84
93	232
163	174
196	200
268	411
330	416
193	194
230	490
111	210
268	364
87	110
116	145
83	88
142	141
100	123
110	112
109	202
48	55
104	331
76	140
33	50
124	124
123	70
102	139
43	138
112	123
39	38
78	102
74	118
78	109
125	193
85	168
64	89
66	119
71	136
92	97
91	175
121	151
48	142
55	80
159	125
107	236
69	82
131	101
99	121
176	195
77	75
48	341
138	103
113	110
103	96
129	146
88	85
289	389
102	158
70	70
64	170
159	148
76	204
62	67
74	137
52	111
130	176
117	253
101	174
108	233
115	152
126	150
55	208
55	75
156	148
74	228
80	136
154	170
113	222
103	103
162	166
289	288
157	156
159	189
64	115
62	61
50	51
136	252
60	317
77	95
40	120
88	111
88	121
208	244
108	166
82	117
155	162
48	363
74	106
31	103
75	216
67	220
74	150
150	237
77	112
283	364
203	385
95	268
105	209
148	276
101	355
104	820
186	184
60	70
58	57
90	94
54	38
119	195
61	120
103	210
120	126
31	47
89	184
103	120
100	138
121	184
136	255
91	293
163	202
115	155
89	196
61	88
56	60
240	367
91	149
51	91
77	125
243	365
72	159
115	244
85	107
93	210
83	86
81	108
70	95
141	416
81	153
193	144
98	205
52	88
84	231
37	97
181	382
153	165
159	518
68	78
72	69
65	106
62	166
103	263
61	118
90	120
74	78
96	88
150	249
77	91
93	144
38	42
35	69
82	113
129	234
59	110
210	209
235	216
141	155
101	248
147	362
91	274
86	159
88	186
50	53
87	116
116	151
55	69
68	67
146	136
234	233
35	63
331	364
82	116
67	439
55	172
51	70
73	182
89	229
92	91
217	232
78	164
208	207
115	114
84	99
197	303
81	170
303	426
68	94
183	197
209	485
140	329
54	129
46	114
126	127
48	90
78	161
75	106
105	91
85	97
166	328
36	218
99	81
105	335
68	329
68	648
88	309
131	234
202	188
61	83
170	238
33	70
74	139
75	149
59	844
75	70
186	192
117	514
55	209
33	115
126	333
126	167
91	122
34	44
85	174
145	114
86	88
81	86
96	159
129	147
50	176
55	100
90	125
62	157
52	90
259	267
44	84
86	108
124	190
189	200
49	49
140	173
312	329
267	265
263	265
67	306
110	125
120	152
95	131
197	409
90	99
147	146
257	256
202	202
122	121
149	147
85	136
213	208
92	128
257	382
65	616
56	75
118	102
235	232
256	243
79	85
137	134
137	198
183	182
121	120
63	68
57	78
227	420
64	85
102	100
35	82
57	51
134	439
104	221
131	156
45	44
112	361
110	190
82	96
62	66
68	143
67	108
99	160
128	238
64	63
62	63
166	217
212	242
95	220
52	200
199	292
52	47
137	206
45	62
66	71
97	96
117	116
38	93
314	277
299	314
109	198
66	45
172	157
95	146
76	97
58	68
298	297
147	146
380	379
202	306
139	226
59	58
219	218
58	113
73	69
85	91
96	95
135	168
115	165
66	65
82	132
308	307
95	94
212	226
120	229
196	219
76	107
136	227
306	305
165	191
136	163
73	72
86	88
139	297
201	200
85	84
205	185
49	48
257	306
116	115
111	108
278	292
163	202
180	226
153	159
236	281
433	438
159	176
146	212
77	78
312	351
97	114
30	42
119	117
147	360
240	273
70	156
173	185
198	276
122	121
129	137
153	152
129	123
53	84
111	110
119	118
279	318
172	370
47	71
51	50
176	221
61	65
131	147
219	346
156	183
126	129
119	227
106	134
467	466
202	201
44	43
503	551
328	327
476	536
67	122
213	212
250	254
86	233
92	233
355	495
146	145
304	317
246	307
206	206
139	225
282	281
65	64
567	566
501	500
232	231
432	783
274	411
189	230
247	256
110	198
325	378
68	87
133	132
82	79
152	210
53	86
183	228
310	557
251	521
130	172
191	210
90	316
61	72
58	210
147	290
110	144
69	104
94	77
63	76
79	113
44	75
150	283
230	457
70	171
42	57
106	219
55	184
79	78
89	95
85	112
108	150
66	68
77	136
105	313
63	144
42	156
82	128
119	174
64	52
39	37
127	170
140	211
59	57
87	93
158	196
113	132
102	142
91	77
50	201
84	136
56	55
122	124
131	130
97	97
133	133
97	96
82	165
66	160
193	211
298	297
49	57
146	201
531	315
137	183
90	154
56	55
75	74
92	91
149	166
321	317
584	1486
88	172
199	190
148	223
82	131
340	354
137	153
82	107
198	237
115	342
163	358
133	190
101	100
87	128
90	130
64	129
73	110
129	116
376	374
86	181
95	163
96	95
103	113
344	422
39	84
142	190
102	129
85	102
192	191
189	188
46	45
159	293
82	147
85	84
87	189
151	194
95	93
160	246
142	202
97	96
114	113
182	183
63	62
97	89
67	72
351	419
83	82
324	323
45	44
65	64
86	85
68	67
109	184
155	116
82	87
197	289
155	163
40	39
96	148
224	342
151	150
59	80
102	109
62	152
189	191
46	237
102	138
48	224
159	282
133	142
56	56
204	211
87	86
63	170
54	134
41	79
94	108
56	52
95	140
94	94
98	160
81	78
252	263
71	63
65	185
182	289
54	204
75	138
63	122
82	97
145	119
94	119
53	332
89	248
295	426
80	185
82	88
134	133
37	36
80	100
53	103
90	197
63	161
66	69
476	595
119	117
195	194
90	172
167	166
266	265
267	292
170	169
122	212
87	264
81	80
44	54
131	144
178	271
78	70
232	231
134	133
162	215
164	171
168	167
122	135
239	172
212	211
170	193
124	106
111	136
158	165
49	62
53	54
61	131
389	413
103	294
153	242
39	74
91	85
88	278
211	210
218	235
239	256
159	158
254	286
214	384
190	154
206	377
162	174
64	144
89	104
118	141
277	240
76	86
73	102
91	87
81	178
80	426
112	110
102	87
55	72
89	88
45	44
104	109
103	103
133	145
60	131
63	148
164	202
47	46
220	250
221	232
236	234
297	296
49	110
132	164
184	261
132	140
136	201
67	65
86	153
127	192
157	156
145	175
141	183
220	219
181	180
329	341
118	220
338	379
83	82
63	62
455	454
153	152
273	272
125	124
92	142
129	128
270	269
135	177
55	54
153	200
102	136
69	92
107	102
87	107
81	91
45	43
193	194
131	130
100	99
133	134
102	101
123	122
47	47
81	115
184	281
44	115
115	81
151	190
134	158
48	62
98	186
88	86
95	302
66	62
85	83
81	169
80	288
58	357
65	77
162	184
57	115
124	157
58	84
101	127
119	137
120	147
39	85
63	77
53	116
118	225
53	129
68	135
78	69
68	131
108	174
83	73
228	116
58	56
127	399
63	99
65	68
42	172
77	79
100	183
97	237
97	181
155	188
88	168
66	66
66	65
70	132
67	282
63	182
125	133
133	131
94	216
92	221
114	231
104	203
179	283
133	211
94	174
89	192
90	115
76	76
112	111
92	396
110	125
116	319
104	506
48	290
63	255
59	55
116	108
40	36
118	200
76	89
57	47
50	56
111	195
70	111
46	136
60	124
60	124
95	106
83	223
174	184
104	114
104	300
92	300
82	98
92	97
119	327
78	204
76	204
59	200
253	297
80	106
80	106
92	169
238	244
88	397
175	310
93	110
47	94
54	69
135	270
166	134
145	300
197	605
144	242
180	248
94	93
141	222
125	133
172	171
145	113
109	349
142	192
46	45
78	123
82	372
276	346
163	138
181	285
75	97
205	204
91	106
195	219
46	49
195	231
60	90
131	161
139	193
217	188
88	93
398	495
97	167
74	77
170	247
72	71
357	356
36	32
235	238
296	295
439	438
238	237
68	242
169	168
331	339
377	733
397	396
128	127
70	175
92	175
105	104
59	58
278	317
59	58
130	129
160	162
217	226
146	153
223	222
499	498
135	121
76	75
77	76
51	85
63	69
209	208
733	732
82	81
163	221
37	61
166	165
86	87
87	190
136	134
116	133
232	239
158	195
59	58
175	241
115	120
254	253
218	216
82	123
187	277
65	68
255	254
269	268
134	133
32	31
165	190
97	96
158	157
94	93
294	367
103	102
239	239
262	306
90	89
158	111
375	374
186	213
737	911
368	355
355	354
159	186
251	253
70	69
438	461
70	69
151	150
262	226
169	188
193	203
218	269
245	312
212	211
244	243
63	46
181	243
103	169
191	192
72	71
142	141
92	91
209	188
177	176
158	154
204	306
661	660
35	34
179	187
115	114
284	274
165	164
91	88
68	131
85	84
377	574
160	171
224	219
108	112
111	110
191	190
81	89
74	95
49	48
138	156
202	338
66	68
278	326
199	633
134	568
68	139
93	208
68	73
59	59
109	218
123	211
273	274
201	200
276	275
48	47
138	195
154	232
91	87
53	52
267	332
117	535
80	88
99	98
186	299
72	53
105	162
111	169
174	226
61	130
185	186
215	214
82	131
168	193
127	308
123	169
78	72
91	167
61	147
97	105
63	101
64	74
92	180
53	217
73	173
94	107
81	70
116	150
145	217
49	81
144	269
67	137
86	177
105	405
97	128
85	949
70	121
94	192
101	267
46	73
77	137
192	315
122	166
64	69
369	368
242	258
86	130
57	66
159	248
278	277
134	184
152	398
56	93
143	142
220	212
49	55
63	62
204	520
94	138
79	116
105	104
64	92
177	176
107	147
170	282
122	121
92	91
36	35
36	35
74	124
152	320
170	208
335	334
238	248
93	122
301	300
340	339
134	138
416	438
564	563
403	402
255	254
118	169
147	146
70	91
709	710
123	238
51	50
277	324
82	81
140	184
51	50
44	50
71	74
72	108
93	103
87	90
100	300
112	273
197	223
91	129
88	103
99	99
90	107
99	121
67	63
61	64
115	104
219	484
103	132
142	284
71	107
116	176
48	45
58	111
94	164
116	204
47	46
52	52
148	221
61	184
46	52
133	134
154	238
59	56
172	190
58	274
120	119
91	107
91	189
87	157
196	237
83	101
132	153
156	197
62	116
132	131
111	135
77	73
51	50
67	266
105	129
120	154
130	211
93	94
49	35
139	491
156	224
83	121
129	117
147	146
125	124
122	172
111	297
242	718
66	110
100	317
97	183
115	180
50	65
82	234
116	162
93	114
77	488
268	294
70	111
70	165
53	101
144	209
84	96
174	267
62	91
95	140
43	69
68	307
91	163
50	164
105	230
110	121
103	67
82	61
140	86
90	219
189	409
64	63
60	86
63	153
72	216
87	90
208	206
137	240
63	118
54	235
86	213
51	166
62	62
113	176
81	444
77	135
62	61
34	98
71	264
46	142
63	112
113	307
131	208
61	74
77	82
71	132
146	146
47	45
100	114
85	156
182	126
298	189
82	195
129	195
218	256
194	252
87	212
134	129
76	77
43	89
89	126
77	77
186	187
222	223
105	118
371	370
477	1018
197	254
140	181
110	71
103	131
63	62
61	65
69	78
301	366
51	490
131	132
117	125
407	423
407	406
68	67
174	170
75	123
79	78
86	43
112	420
152	310
75	103
59	58
82	80
51	50
104	130
175	264
76	179
104	209
85	89
158	212
125	184
106	116
154	261
200	197
65	64
161	182
156	189
91	101
198	227
233	226
101	138
368	367
214	213
383	382
174	166
188	192
112	108
202	201
187	220
102	163
126	78
46	44
81	101
83	210
97	114
130	145
147	303
69	115
83	82
112	154
67	66
85	120
42	40
88	193
66	79
290	298
174	173
119	130
100	81
39	419
87	158
93	95
57	50
84	155
76	76
74	73
88	67
45	42
181	152
66	65
205	326
77	76
86	124
103	140
84	218
74	476
124	137
92	313
115	112
300	299
67	66
104	103
110	116
82	77
165	318
61	124
72	71
46	49
63	197
104	107
105	132
54	67
105	126
107	108
139	66
35	115
82	86
69	79
105	121
80	79
43	42
31	56
96	68
73	98
71	217
73	166
144	120
128	185
114	154
109	108
34	37
63	61
45	84
65	64
98	169
154	153
98	97
81	40
114	117
88	106
35	41
34	43
257	294
161	124
138	152
54	53
116	127
304	408
153	148
48	87
406	405
106	105
113	112
149	148
44	66
74	74
153	234
69	130
124	123
97	96
465	414
165	254
100	761
122	327
152	244
114	113
83	104
118	124
58	68
