85	84
286	285
518	594
101	103
367	366
120	119
235	234
439	438
389	388
359	372
99	98
306	305
108	118
352	407
259	258
335	334
144	142
237	236
884	883
578	577
284	283
114	113
293	292
403	425
356	483
107	106
360	359
834	833
221	220
368	367
206	205
302	301
727	726
297	296
518	517
377	376
811	810
48	57
333	332
106	105
203	202
71	70
733	732
342	341
252	255
177	176
444	443
260	259
162	161
443	442
80	79
282	281
588	507
298	297
249	248
143	142
100	99
147	146
200	199
256	255
252	251
330	329
321	320
301	300
167	166
233	232
458	457
225	224
328	327
207	206
345	344
313	312
279	278
490	489
420	419
275	274
105	104
465	464
182	181
278	277
196	195
805	1016
301	300
212	211
310	309
81	80
283	282
247	246
73	72
93	92
71	70
97	96
104	103
303	302
314	313
146	145
291	290
200	199
296	295
402	401
478	477
337	336
296	295
293	292
299	298
263	262
608	607
470	469
350	349
470	469
37	36
458	457
170	169
211	210
929	928
62	61
311	310
477	476
135	134
65	49
329	328
90	89
195	194
148	166
85	84
182	181
484	483
205	204
171	170
295	278
730	729
388	387
234	233
498	497
163	162
261	260
259	258
172	171
90	89
547	546
202	201
252	251
476	475
256	255
335	334
80	72
141	140
325	324
169	168
497	496
255	254
270	269
32	31
223	222
287	286
520	519
434	491
319	318
130	129
408	407
302	301
282	281
666	665
503	502
186	185
754	753
318	317
300	299
155	266
82	83
341	340
207	206
287	286
207	206
612	611
290	289
156	155
297	296
127	126
317	316
113	111
443	442
144	143
301	300
721	720
239	238
299	298
236	235
121	134
170	144
68	67
78	77
107	106
849	848
321	320
247	246
402	401
399	398
197	196
552	551
412	411
462	461
247	246
451	450
360	359
417	416
377	376
225	224
294	293
356	355
421	420
377	376
349	348
368	367
420	419
110	109
362	361
495	494
674	673
94	93
492	491
320	319
235	241
280	279
617	616
310	309
88	87
549	548
507	506
113	112
280	279
85	84
231	230
476	475
331	330
310	309
297	296
322	321
502	501
140	139
389	388
234	254
172	171
329	426
484	483
281	291
64	63
153	152
148	147
630	629
208	207
127	126
272	271
80	79
157	156
178	177
514	513
288	287
461	460
140	139
457	456
610	609
347	346
320	319
297	296
258	257
242	241
231	230
625	624
465	464
539	538
390	389
241	240
196	195
156	155
222	221
446	445
189	188
250	249
320	319
392	391
416	415
472	471
455	454
549	548
109	108
47	46
468	467
367	366
358	357
805	804
133	132
271	270
219	218
230	229
148	128
157	292
206	205
383	382
431	430
301	336
405	416
87	86
138	137
143	142
554	553
289	288
572	571
121	120
393	392
116	115
121	120
166	165
395	394
563	562
97	96
287	286
197	196
501	500
440	439
464	463
589	588
445	444
151	150
108	107
120	119
260	259
154	220
98	97
273	272
205	220
92	121
166	165
282	281
74	73
163	162
126	125
143	142
74	73
159	158
162	161
273	272
78	77
949	948
291	290
293	305
43	42
201	200
69	68
67	66
190	189
140	139
137	136
178	177
950	970
294	293
76	75
524	523
116	115
216	215
102	101
202	217
448	575
429	852
148	147
58	57
182	181
181	180
257	343
62	61
182	181
109	108
160	159
508	507
149	148
161	160
695	694
251	865
618	865
1202	1201
677	1213
531	1213
201	200
202	201
113	112
98	97
794	793
434	433
262	355
80	141
348	347
395	394
461	460
773	772
518	517
157	156
105	104
364	363
284	283
274	286
311	310
227	226
570	569
464	463
402	401
418	509
260	296
230	229
703	702
92	91
208	207
561	560
206	205
288	287
239	238
214	213
199	198
153	152
407	406
223	222
79	78
56	55
270	269
160	159
426	425
353	352
375	374
266	265
312	311
360	359
340	339
339	338
233	232
284	283
358	357
390	389
273	300
349	348
311	310
399	398
342	341
345	344
320	319
420	419
515	514
159	143
84	83
156	155
340	339
274	273
158	157
39	44
363	345
231	230
552	551
1448	1447
227	226
121	120
70	69
196	195
383	382
374	465
264	314
121	120
379	378
203	202
464	463
615	614
384	383
432	431
513	512
592	657
81	119
467	466
272	271
232	231
287	286
221	220
499	498
329	328
426	425
156	155
307	306
155	154
333	332
283	282
158	157
418	417
677	676
275	274
393	392
394	393
514	513
331	330
441	440
485	484
114	113
146	145
332	331
100	99
304	303
690	689
51	50
71	70
97	96
237	236
325	324
220	219
778	777
147	146
188	187
233	232
403	402
564	563
536	535
340	339
301	300
328	327
335	334
424	423
36	35
36	35
36	35
443	559
443	442
126	125
64	63
51	65
457	519
63	62
1123	888
770	769
369	368
569	542
583	1157
650	662
429	428
499	498
310	309
256	255
687	686
441	440
238	237
119	118
324	323
201	200
550	549
466	465
467	466
275	274
243	242
94	93
1038	1037
386	385
110	109
176	175
191	190
111	110
113	112
192	191
257	256
319	318
208	207
165	164
446	445
305	304
661	660
343	342
177	176
189	188
92	91
142	141
72	71
451	450
281	280
681	680
251	250
490	489
145	144
112	111
500	499
398	397
432	354
356	355
737	911
181	178
375	374
284	283
90	89
503	502
453	452
94	93
158	157
249	248
32	31
134	133
269	268
255	254
278	277
290	296
525	524
124	204
76	117
350	349
420	419
186	185
222	221
82	81
733	732
209	208
120	119
90	89
199	198
493	498
223	222
353	352
285	284
368	367
89	88
176	175
128	127
397	396
309	308
426	425
169	168
81	113
238	237
439	438
296	295
235	238
46	65
357	356
248	247
76	75
578	577
163	162
346	345
232	231
332	331
176	175
447	446
78	177
622	698
119	190
229	228
198	197
368	367
454	728
291	290
535	657
432	431
478	477
816	815
502	502
256	255
202	201
502	501
109	108
277	276
253	252
112	111
149	148
902	901
798	797
695	694
439	438
192	191
228	227
257	256
121	120
79	78
774	773
76	75
774	773
159	158
240	239
108	107
340	411
541	540
575	574
383	382
293	292
134	133
223	222
263	262
450	449
187	186
851	850
260	259
180	179
147	146
135	134
403	402
174	173
363	362
429	428
279	278
226	225
253	252
335	334
283	282
121	120
388	387
409	408
293	292
118	117
435	434
362	361
56	55
458	457
269	268
109	108
848	847
394	393
191	190
56	55
201	200
188	187
407	406
697	696
97	96
106	105
135	134
290	289
73	72
341	340
199	229
344	343
108	107
77	76
602	601
67	66
197	196
73	72
271	270
241	240
129	128
120	119
96	95
125	124
157	156
705	704
395	394
901	900
65	64
159	158
172	171
52	113
154	153
388	387
335	334
196	195
126	125
170	169
146	145
399	398
494	493
651	650
272	271
490	489
140	139
104	103
210	209
97	96
103	102
101	100
274	273
93	92
111	110
234	233
137	136
64	63
85	84
124	123
105	104
180	179
102	101
131	130
178	177
118	117
168	167
60	59
145	144
444	443
39	38
119	118
130	129
207	206
330	329
128	127
123	122
142	141
73	72
138	137
459	458
430	429
316	315
170	169
375	374
158	157
181	180
191	190
273	272
86	85
185	184
85	84
253	252
281	367
61	60
394	393
342	341
74	73
601	1034
443	472
386	385
139	158
60	59
295	294
99	98
322	321
294	293
484	483
81	80
319	318
272	271
285	284
297	296
500	499
330	329
126	90
187	228
349	348
450	449
157	156
312	311
647	646
348	347
368	367
121	138
198	197
490	489
509	1266
749	1266
482	481
310	309
68	67
311	310
656	655
91	90
88	87
157	156
313	312
356	355
412	455
54	53
133	132
376	375
143	142
131	130
213	212
166	165
261	260
298	297
497	496
230	229
292	291
155	154
473	472
1518	1517
310	309
779	778
101	100
95	94
243	242
211	210
91	90
285	284
164	163
96	95
478	477
242	241
186	185
192	191
189	188
329	328
236	235
270	269
261	260
184	183
212	211
98	97
90	89
420	419
93	92
324	323
73	75
86	85
322	321
391	390
478	477
159	158
98	97
210	209
648	647
138	137
145	170
446	445
111	110
187	186
333	458
448	447
151	150
496	495
891	890
134	133
315	314
90	89
596	711
295	294
582	629
415	414
336	335
293	292
332	331
175	174
168	167
101	100
148	147
173	172
97	81
122	156
347	346
192	191
197	196
132	131
679	678
288	287
238	237
208	235
47	47
268	267
159	158
287	286
387	386
378	377
145	144
293	292
260	259
158	157
427	426
270	269
155	154
112	111
524	523
445	444
257	256
297	296
382	381
313	312
330	329
444	443
64	63
302	402
765	764
130	129
455	454
444	443
437	436
55	54
234	233
299	298
123	122
329	328
161	160
100	99
135	134
102	101
123	122
128	127
221	220
116	115
139	129
180	190
247	295
471	470
496	495
184	183
415	414
322	321
329	328
231	230
168	167
379	378
105	104
139	138
272	271
400	399
784	783
357	356
478	477
150	149
1031	1030
328	327
46	45
66	65
430	429
507	506
208	207
255	254
169	168
614	613
582	581
72	71
338	337
488	487
202	201
304	303
311	310
206	205
123	122
274	273
413	412
207	206
434	433
947	946
478	477
554	553
210	209
67	66
100	99
218	217
350	349
247	246
841	840
188	187
57	56
258	257
272	271
224	223
223	222
599	598
162	193
242	226
224	223
368	406
143	126
210	209
141	140
276	275
194	193
631	630
714	713
237	269
328	327
350	349
316	315
296	295
105	104
194	193
160	159
237	236
111	110
450	449
220	219
131	130
161	160
536	535
753	752
246	245
471	470
98	97
319	393
161	160
328	327
337	336
339	338
491	490
166	249
84	78
267	279
482	739
86	85
309	308
276	275
388	387
319	318
220	219
396	395
245	244
142	141
295	294
165	164
221	220
201	200
174	173
104	103
296	295
96	95
373	372
329	328
393	392
568	567
165	164
163	162
114	113
83	82
289	288
427	619
183	207
500	499
231	230
233	232
134	256
130	128
450	449
279	278
187	186
357	356
360	359
391	390
83	82
305	304
574	576
381	380
255	254
500	499
332	350
408	407
135	134
724	723
561	560
1179	1518
287	372
270	269
137	136
281	280
687	686
498	497
408	407
152	151
188	187
124	123
202	201
326	325
393	392
179	178
259	258
225	224
239	238
563	563
101	100
521	520
277	295
390	389
676	675
247	246
559	558
322	313
328	327
52	51
247	246
132	131
282	281
66	65
163	162
126	125
123	122
215	214
74	73
159	158
162	161
273	272
78	77
152	151
358	357
744	741
270	300
218	256
79	78
52	68
411	496
191	190
69	68
123	110
70	69
128	127
103	102
513	512
367	366
117	116
142	141
306	305
292	291
491	490
270	269
78	63
137	139
238	237
93	139
222	289
245	244
329	328
122	121
302	301
131	138
558	696
81	80
123	122
72	71
68	67
180	179
154	153
152	151
273	272
89	88
247	246
123	122
58	57
1296	1299
734	733
426	425
152	218
394	425
316	315
575	593
398	397
302	301
122	121
143	142
187	186
87	86
249	248
109	108
267	266
74	73
101	100
90	89
92	91
126	125
167	166
126	125
92	91
348	347
251	250
109	104
236	235
156	155
562	711
419	418
360	359
92	91
351	350
240	239
109	108
240	239
349	348
336	335
379	378
198	197
97	96
189	188
235	234
327	326
139	138
212	211
247	246
244	243
236	235
184	183
465	464
385	384
659	658
244	243
307	306
253	252
664	663
303	302
148	147
463	462
426	425
63	62
170	169
238	237
226	225
226	225
236	235
193	192
144	143
160	159
163	162
388	387
360	359
287	286
212	211
247	246
299	298
352	351
298	297
77	76
220	219
411	410
201	200
110	109
193	192
442	441
393	392
401	400
365	364
130	129
958	957
478	477
104	103
220	219
327	326
89	88
136	135
174	173
299	298
237	236
578	577
294	293
506	505
183	182
42	41
483	482
640	639
131	162
456	455
439	438
462	448
957	956
260	259
443	442
1033	1032
193	192
257	256
542	541
311	310
462	461
404	403
399	398
396	395
593	592
160	159
293	292
766	765
252	251
410	409
394	393
279	278
254	253
473	472
231	230
312	311
421	420
344	343
773	719
357	356
41	40
347	346
73	72
238	237
230	229
49	48
177	176
536	748
214	260
292	291
265	264
157	156
188	187
77	135
108	107
1123	1122
963	962
1181	1180
609	608
444	443
418	417
113	129
183	199
152	151
323	360
223	222
150	196
199	198
316	315
215	214
188	259
143	142
179	178
360	359
587	586
141	140
473	472
546	545
309	348
458	776
380	559
405	404
100	164
201	200
838	837
623	622
121	175
59	175
274	273
793	792
236	243
788	787
775	774
717	878
157	233
164	163
551	550
203	221
446	445
513	514
167	166
366	365
269	268
148	147
402	401
76	75
306	305
132	131
367	366
241	240
141	140
473	472
573	591
439	438
216	215
383	382
282	281
456	455
430	429
455	454
250	246
148	181
110	109
261	260
150	149
451	450
81	73
378	435
447	446
919	918
259	433
161	188
745	1178
137	148
122	121
508	545
433	432
291	290
36	35
224	223
336	335
468	469
430	427
506	505
307	306
493	492
426	425
262	261
485	484
252	251
212	225
260	259
287	286
192	191
87	86
424	423
122	121
569	568
43	42
571	570
245	244
51	50
35	34
346	345
254	257
61	60
476	475
202	201
108	107
104	103
237	236
160	159
350	349
254	253
209	208
380	379
331	330
184	183
348	347
126	132
346	390
259	258
213	212
337	336
303	302
256	255
219	218
854	853
115	114
143	142
693	692
337	336
374	373
91	90
291	290
117	116
154	153
204	203
546	545
64	63
308	307
570	569
181	180
256	255
137	136
156	155
140	139
146	145
68	67
176	175
681	750
67	745
378	377
480	479
505	504
322	321
258	257
120	119
260	259
124	123
320	319
188	187
184	218
194	213
80	79
166	165
354	353
142	141
793	792
93	92
62	61
217	145
189	188
143	142
519	518
172	171
257	370
236	235
513	512
391	390
177	176
112	111
178	207
395	394
331	330
355	354
401	400
320	319
715	714
71	65
82	81
110	109
115	114
150	149
135	134
175	174
100	99
53	52
150	149
221	220
467	466
427	426
483	482
422	421
326	325
161	160
159	158
97	96
114	113
554	553
293	292
198	197
414	413
289	288
454	453
83	82
183	182
256	255
116	115
161	160
409	408
173	172
121	120
357	356
374	373
369	368
114	113
213	212
241	246
246	245
327	326
244	243
858	857
85	84
433	432
51	90
59	137
452	451
887	886
233	232
140	139
346	345
230	229
128	127
196	195
294	293
445	444
246	245
541	540
192	191
217	216
319	318
160	159
600	599
325	324
227	226
302	301
243	242
244	243
127	126
87	86
283	282
212	211
168	167
519	518
1296	1295
367	415
62	61
231	237
445	445
113	112
397	396
89	88
349	417
351	397
1094	1093
328	327
510	509
333	332
284	320
67	73
291	290
141	140
380	379
427	426
285	284
268	267
247	246
163	162
405	404
129	128
108	107
172	171
617	616
112	111
67	66
428	427
230	229
282	281
1654	1653
759	770
144	143
385	384
336	335
373	372
225	224
209	218
207	206
393	392
491	490
72	71
492	724
104	106
331	330
1952	2693
752	2693
456	455
489	488
526	525
180	179
172	171
58	57
51	50
748	747
514	513
689	688
213	212
346	345
209	208
430	429
249	248
120	119
488	487
354	353
127	126
191	190
293	292
345	344
77	76
238	237
288	287
672	671
233	232
67	66
376	375
119	118
497	1037
218	272
333	340
493	507
526	659
144	200
192	191
333	332
668	667
249	248
760	759
112	111
160	159
234	233
268	267
339	338
112	111
96	95
192	213
256	255
218	258
71	176
396	395
409	408
468	467
454	453
296	295
220	219
167	166
351	350
301	300
208	207
142	141
150	149
192	191
300	299
475	474
299	298
264	263
339	338
278	277
292	291
366	365
304	303
123	122
284	283
170	169
576	575
86	85
324	323
77	92
175	174
310	309
672	671
73	72
333	332
309	308
255	254
278	277
419	418
295	294
472	471
124	123
120	119
812	811
401	400
413	412
109	108
419	418
322	321
109	108
416	415
323	361
346	345
832	831
286	285
245	244
566	565
413	412
307	306
81	80
92	91
211	210
417	416
565	564
315	314
382	381
1198	1197
205	204
388	387
513	512
443	442
446	445
312	311
76	75
287	286
335	334
197	196
79	78
137	136
896	895
91	90
294	293
317	316
392	391
311	310
252	251
447	446
95	94
437	436
620	714
90	176
162	161
189	188
883	882
233	250
164	163
160	159
176	175
247	274
184	183
311	310
362	361
275	274
270	269
183	182
93	92
528	668
145	153
407	406
393	392
332	331
163	228
226	309
338	337
271	270
220	219
305	304
423	422
221	220
163	162
503	505
190	189
261	260
261	260
229	228
239	238
177	176
90	89
298	297
121	120
216	215
215	214
184	183
181	180
493	506
715	714
401	400
152	151
165	164
217	216
611	610
200	199
406	405
261	291
55	54
148	147
210	220
601	600
167	166
446	445
909	908
326	325
181	180
285	284
614	613
510	509
486	485
168	167
200	237
581	580
306	305
66	65
95	124
102	101
297	431
557	556
253	252
286	285
291	320
452	451
89	88
129	128
112	111
94	130
471	550
103	237
202	194
133	132
539	660
323	322
386	385
201	200
142	141
92	103
103	130
333	400
261	260
427	428
430	429
268	267
74	73
332	331
397	396
420	419
543	542
453	452
359	358
217	216
85	84
377	376
762	761
311	430
963	1252
201	200
174	173
240	240
294	293
591	875
563	562
208	207
1465	1464
430	442
259	258
395	394
441	440
217	216
221	220
462	461
609	608
783	946
166	169
217	216
117	116
753	890
374	373
352	351
355	354
548	547
549	548
157	156
55	54
165	164
88	87
829	828
232	231
288	287
150	149
201	200
158	178
221	220
246	245
70	69
160	159
648	647
186	185
351	350
216	215
68	67
214	213
587	586
76	75
336	335
95	94
587	586
232	231
397	396
115	114
530	529
186	194
171	170
365	364
605	604
519	518
189	188
238	237
329	328
489	488
191	190
85	84
394	393
377	376
313	312
564	563
314	313
313	312
65	64
351	407
233	232
314	313
363	362
286	285
350	349
294	293
490	489
664	663
279	278
223	222
386	385
347	346
333	332
56	55
416	476
69	68
262	263
412	411
413	412
273	311
295	294
232	231
133	132
317	316
479	508
254	253
193	192
196	195
311	310
572	571
756	755
298	305
386	385
309	308
244	243
36	35
244	243
195	239
333	347
240	239
157	156
154	153
577	667
111	110
379	378
509	759
239	216
363	362
62	61
728	1117
347	395
1254	1253
538	1266
740	1266
678	677
370	369
94	93
181	180
225	224
827	826
49	48
280	279
113	112
275	274
91	90
236	262
267	266
273	272
249	248
242	233
94	137
335	334
426	425
351	350
285	284
421	420
151	150
95	94
452	451
347	346
260	259
300	299
106	105
454	453
111	110
241	240
468	467
472	471
1026	1497
1041	1040
416	415
82	80
155	219
254	253
647	646
451	450
283	282
936	1105
178	177
214	213
194	193
261	251
358	357
528	527
380	379
148	147
721	720
280	279
163	162
406	405
407	406
249	248
183	182
374	373
322	321
161	160
408	407
424	478
69	77
457	456
165	151
229	206
91	90
508	459
101	100
316	426
380	406
465	464
123	122
184	201
362	361
300	299
293	292
124	124
420	419
322	321
383	382
406	405
202	201
367	366
157	118
469	468
389	388
326	325
204	203
259	258
246	245
197	196
356	355
357	356
435	434
300	299
84	83
85	84
275	274
317	316
453	454
153	152
475	474
299	392
64	63
56	55
95	94
192	209
223	222
158	157
55	54
98	97
128	127
202	201
57	56
51	50
44	43
323	322
123	122
103	102
208	207
109	152
302	301
238	237
67	66
98	97
91	90
296	295
459	458
96	108
34	33
89	88
137	136
123	122
59	58
71	70
97	96
121	120
63	62
173	172
108	107
159	158
146	145
51	50
121	161
81	80
147	146
472	471
732	731
298	297
418	417
63	62
154	153
473	472
318	317
152	151
231	230
116	130
328	449
169	621
168	456
364	722
122	121
82	49
84	83
793	823
380	371
158	157
353	352
110	109
65	64
125	124
123	122
215	214
74	73
159	158
158	157
82	81
273	272
137	136
161	159
103	108
272	266
302	301
795	794
145	144
722	721
330	329
155	154
181	190
221	255
86	85
524	523
116	115
102	101
99	107
139	138
341	340
231	230
201	200
69	68
51	52
399	398
67	66
190	189
134	133
146	172
286	285
345	344
312	310
184	183
242	241
59	147
90	89
39	38
258	257
175	174
399	398
218	217
318	309
215	214
43	42
716	715
181	180
248	247
357	356
312	311
306	305
317	316
485	484
239	238
485	484
253	252
77	171
94	93
351	350
159	158
421	420
250	249
582	659
526	525
268	267
367	366
1806	3163
1347	1346
530	2035
1062	2035
325	326
320	319
220	286
387	387
601	600
427	426
435	434
421	420
266	265
217	216
65	64
201	200
212	211
282	334
138	137
261	260
453	452
284	283
372	371
37	36
232	231
473	472
157	156
307	306
306	305
61	60
565	564
249	271
76	75
63	62
159	207
41	40
262	261
90	89
246	245
122	121
472	472
155	154
376	375
148	147
309	308
142	154
229	228
127	152
220	171
553	552
105	104
111	110
184	183
266	265
183	182
90	89
166	165
78	77
402	401
138	137
496	495
122	121
137	136
472	471
350	349
240	239
184	183
286	285
329	328
223	222
251	250
241	240
75	74
219	218
611	610
135	134
339	338
88	87
61	60
190	189
302	420
373	445
73	212
107	106
138	137
77	76
159	158
75	74
252	251
472	471
137	136
79	78
104	103
75	74
39	38
74	73
263	262
308	307
233	232
202	201
163	162
78	77
214	213
60	59
199	198
98	97
224	223
128	127
91	90
160	159
82	81
189	188
627	626
78	77
525	524
436	435
110	109
345	344
140	139
127	126
227	226
179	178
301	300
130	129
307	306
209	208
395	394
130	129
501	500
171	170
94	93
547	546
130	129
75	74
348	347
140	139
222	221
404	403
80	79
166	165
108	107
84	83
168	167
330	329
505	504
153	157
191	196
267	266
475	474
143	142
117	116
193	192
296	295
97	96
213	212
655	654
168	167
554	553
40	39
287	286
350	349
130	129
215	214
383	382
693	692
131	130
578	577
189	188
222	221
367	366
810	809
324	323
248	247
217	421
191	190
112	111
88	89
591	590
148	147
247	246
174	173
201	200
204	203
337	336
174	173
106	105
107	107
262	261
196	202
315	310
205	210
225	257
324	323
481	480
232	231
50	49
492	491
604	603
214	213
393	392
97	96
131	130
37	36
220	219
687	686
221	220
219	218
77	76
125	124
291	290
114	113
219	218
101	106
79	78
482	481
701	877
78	195
80	106
428	427
184	183
233	232
683	682
294	293
458	457
264	263
80	79
96	95
70	69
297	269
189	188
153	152
284	283
267	266
324	323
519	518
533	532
455	454
193	192
454	453
60	59
116	115
644	644
232	231
194	193
584	583
372	371
213	212
120	119
61	60
83	82
342	341
85	84
114	115
394	393
273	272
180	180
168	167
497	496
492	491
428	427
645	644
141	150
190	189
95	97
295	294
87	86
351	350
332	331
138	137
91	90
359	358
460	459
348	347
279	278
320	315
327	326
253	252
453	452
214	213
339	338
237	236
302	301
295	361
184	183
348	347
652	651
448	447
91	90
136	135
207	206
436	435
218	217
512	511
389	388
183	182
235	234
226	225
237	236
269	268
407	406
189	188
160	182
493	492
131	120
644	541
162	161
116	115
89	88
296	295
276	275
113	112
107	106
453	452
117	116
218	217
451	450
253	252
754	753
88	87
464	463
197	196
223	222
179	178
262	215
97	96
338	309
253	252
36	35
96	95
643	642
145	144
66	65
119	118
302	301
842	795
327	326
148	150
250	249
155	154
193	177
106	105
378	409
260	280
95	94
278	277
793	792
549	566
98	97
177	179
267	266
205	312
255	254
227	231
384	383
532	531
253	252
289	288
422	421
405	404
119	118
371	370
1019	1018
137	136
63	62
123	122
496	495
249	248
424	423
407	406
139	138
335	334
79	78
471	470
70	69
209	208
154	368
128	264
315	417
128	138
213	212
223	222
30	29
233	261
289	254
393	415
149	189
102	101
374	418
458	457
214	213
383	382
381	403
311	310
342	341
30	29
390	389
194	193
251	246
116	115
216	215
136	135
366	365
200	199
80	79
299	298
174	173
671	670
286	285
79	78
145	144
156	155
370	369
108	107
219	218
425	424
287	286
202	201
501	500
212	211
232	231
207	206
255	351
106	105
807	628
193	192
194	193
147	146
72	71
347	346
334	333
391	390
237	236
284	319
343	342
256	255
193	192
604	603
458	457
78	77
323	325
503	502
392	391
127	125
437	548
468	467
174	200
141	161
434	433
240	239
112	111
241	240
461	460
315	314
511	510
463	462
345	344
122	121
110	109
274	273
103	102
418	417
298	297
407	406
232	231
419	418
205	204
285	284
206	205
246	245
245	244
809	808
102	101
249	248
187	186
114	113
109	108
405	404
340	339
456	455
487	486
68	67
229	228
249	248
682	681
297	296
32	31
396	395
300	299
73	72
128	127
145	144
222	221
389	396
294	293
463	462
309	308
120	119
473	472
484	483
305	304
227	250
89	88
441	440
60	59
188	187
237	236
884	883
177	176
168	167
305	304
262	261
191	479
291	304
66	65
254	253
364	394
186	185
386	385
270	269
467	466
512	511
440	439
50	86
742	787
144	143
72	71
46	45
277	276
254	252
337	336
57	56
95	94
144	166
83	95
295	294
804	1015
181	180
275	274
463	462
1247	1246
515	514
232	231
236	235
314	297
282	281
190	189
379	378
500	499
354	353
701	700
79	78
173	172
150	149
78	77
58	57
475	474
160	159
125	124
314	313
225	337
120	337
382	381
469	468
57	56
156	159
509	667
64	45
41	78
391	390
223	222
198	197
331	330
32	37
296	326
180	179
75	74
540	551
395	447
66	65
308	307
98	97
56	55
58	57
177	176
251	257
84	83
430	479
67	64
267	266
1301	1300
202	201
289	288
693	1710
2184	1591
57	56
78	77
109	108
62	61
256	273
618	809
330	329
141	140
89	88
1175	1174
378	377
145	144
90	89
280	275
190	191
263	266
58	57
179	178
154	169
421	422
188	187
504	503
343	342
115	145
129	128
105	104
67	66
251	250
317	316
86	85
344	343
538	537
300	299
307	306
153	173
80	67
243	242
228	232
89	88
169	168
514	513
354	353
466	465
333	332
302	301
361	360
220	219
756	755
352	351
267	262
351	350
281	280
294	293
431	430
560	559
105	104
74	73
120	119
75	74
223	222
326	325
82	81
199	192
369	468
322	321
297	296
333	332
269	268
388	387
458	457
251	250
781	1035
374	373
189	188
263	262
376	375
645	644
662	661
58	57
250	249
73	72
109	108
266	265
390	389
103	102
255	254
197	196
396	401
478	477
56	55
43	42
325	324
796	865
60	88
84	83
350	349
253	252
86	85
111	110
103	102
341	340
292	291
632	627
207	206
255	293
521	520
381	414
172	203
453	452
398	397
108	118
164	268
218	217
248	247
180	179
133	132
237	238
99	98
418	417
301	315
190	189
110	109
335	334
338	337
303	302
307	306
559	558
54	53
52	51
216	215
892	891
241	246
172	401
206	205
138	137
303	302
338	337
315	314
153	152
247	280
181	363
183	363
375	374
201	200
429	428
269	268
339	338
336	335
226	225
237	236
513	512
1248	1247
464	463
73	72
409	440
191	211
217	216
465	464
118	117
239	238
80	79
367	366
36	35
285	284
270	269
131	130
278	277
361	360
232	322
133	215
102	107
130	132
72	198
60	59
67	88
72	86
66	102
95	97
173	162
193	235
207	206
93	92
195	194
364	363
392	391
95	94
164	163
57	56
66	65
46	45
264	389
80	398
71	70
204	647
384	647
200	199
466	465
300	284
156	155
66	65
205	204
305	304
151	150
180	179
141	140
163	162
90	89
176	175
120	119
112	111
82	81
512	544
77	75
172	171
376	375
56	55
586	585
80	79
640	639
357	356
211	210
473	472
566	565
341	340
185	184
143	142
253	252
271	270
273	282
657	656
85	84
87	108
151	244
204	203
180	179
127	126
579	578
357	356
433	432
511	510
240	239
514	513
177	176
339	422
71	76
140	139
87	86
149	148
220	219
98	97
134	133
123	122
232	231
271	270
89	88
104	103
58	57
95	94
110	109
124	123
121	120
51	50
227	226
83	82
89	88
79	78
404	403
244	243
135	134
51	50
207	206
115	114
276	275
286	285
286	285
98	97
93	92
443	594
259	240
1091	1090
191	190
248	247
233	232
110	109
856	855
145	144
141	140
247	246
132	131
82	81
118	117
132	131
342	341
94	127
444	443
534	533
69	68
642	641
182	181
118	117
109	108
98	97
154	153
178	177
80	79
95	104
72	71
361	360
128	127
46	45
121	120
95	96
57	56
152	151
348	347
871	1302
372	442
234	233
335	339
180	179
77	76
230	229
342	341
150	149
69	68
99	98
262	261
175	179
61	60
94	93
74	73
109	108
80	79
79	78
123	126
255	304
417	416
218	217
154	153
369	368
214	213
457	456
224	223
487	486
374	373
109	130
308	312
379	378
288	287
89	88
219	218
98	97
93	92
688	687
200	199
1074	1230
194	193
248	247
233	232
110	109
854	853
138	137
144	143
249	248
132	131
178	177
118	117
128	127
343	342
116	115
502	501
382	392
169	168
69	68
643	642
170	169
137	136
175	174
51	50
156	155
178	177
91	90
115	114
72	71
54	53
63	62
112	111
197	273
119	118
350	349
52	51
60	59
59	58
61	60
119	118
141	140
329	354
142	141
94	93
85	84
79	78
43	42
73	72
63	62
64	63
814	813
90	89
373	372
265	264
349	348
143	133
232	262
80	79
274	273
200	216
117	114
413	412
234	233
400	399
313	312
1173	1172
320	319
86	85
145	124
93	129
180	179
435	434
181	180
342	341
275	274
214	213
126	125
117	122
541	729
185	278
478	477
266	265
335	334
214	213
341	340
270	269
414	413
79	78
103	123
163	162
310	309
318	317
375	374
58	57
174	173
208	207
320	319
1062	1061
318	317
548	547
314	313
325	324
233	232
261	260
252	251
402	401
232	231
135	134
108	138
48	47
220	219
98	97
139	138
512	511
287	307
216	215
195	194
403	402
216	215
187	186
348	347
82	81
85	84
373	372
38	37
189	188
179	191
351	350
307	306
409	408
125	124
76	75
176	175
243	349
408	463
501	517
348	385
476	445
178	177
104	103
111	110
153	152
152	82
217	216
130	129
139	138
278	277
174	173
185	184
246	245
313	312
35	34
456	455
808	807
493	472
442	441
138	137
355	354
353	423
303	375
87	68
286	285
503	502
1321	1320
213	212
364	363
232	231
129	128
267	266
164	196
165	164
443	442
58	57
199	198
76	75
273	413
150	146
307	306
102	101
200	199
356	471
321	346
391	390
231	230
343	342
896	895
368	367
58	57
71	70
71	70
437	436
31	30
379	378
515	514
273	285
133	132
196	195
204	235
278	277
272	271
373	372
220	219
110	109
93	92
392	391
106	105
138	137
221	220
153	152
685	684
149	148
721	720
210	209
170	169
351	350
113	150
109	159
442	482
209	208
56	55
734	733
418	417
636	635
703	702
351	350
181	180
337	336
192	191
230	238
92	91
382	381
265	264
184	193
54	53
211	210
133	132
150	149
69	68
77	76
228	227
72	71
99	98
91	90
65	64
177	176
90	89
389	388
590	589
304	303
103	102
63	62
139	138
255	254
72	71
134	133
248	247
117	116
235	234
218	217
109	108
104	103
181	180
266	289
238	280
499	498
274	273
153	152
372	371
318	317
113	112
149	148
155	154
84	83
476	475
174	173
94	93
112	111
450	449
636	1070
295	294
71	70
385	384
199	198
116	115
368	367
193	192
644	643
205	204
158	157
191	190
86	145
871	870
401	400
467	466
363	362
397	396
216	215
183	182
616	615
1487	1486
235	234
441	440
262	261
260	259
298	297
249	248
61	60
411	410
329	328
583	582
531	754
218	294
95	94
558	557
228	227
255	254
428	427
363	362
231	230
587	586
399	398
761	760
85	84
388	387
160	159
460	605
337	361
92	91
173	172
397	396
159	158
126	125
193	192
641	874
200	258
177	176
303	302
116	115
212	211
151	150
157	155
53	57
142	141
142	141
260	259
68	67
122	125
164	198
82	69
262	357
107	96
123	125
150	152
591	590
345	344
91	139
52	139
244	243
169	168
147	380
251	380
613	759
151	150
92	91
75	74
101	100
75	74
167	166
57	65
119	118
83	82
260	331
159	160
383	382
209	208
288	287
142	205
145	144
632	814
431	430
448	447
204	203
101	100
1283	1368
165	164
357	356
589	588
574	573
235	234
73	72
308	307
84	63
64	63
160	159
93	92
176	175
205	204
198	197
276	275
66	65
168	167
126	125
122	121
215	214
74	73
159	158
160	159
82	81
273	272
252	251
77	78
402	398
297	629
90	89
356	370
138	146
491	1652
1179	1211
76	274
188	187
217	216
189	188
606	605
401	400
759	758
107	106
98	97
505	553
119	118
147	146
101	100
405	404
187	186
390	389
169	168
81	80
142	141
105	104
583	582
100	99
76	75
68	67
60	59
70	69
211	306
212	412
70	84
75	74
649	648
372	371
331	330
553	552
232	231
300	299
425	550
120	171
323	322
573	572
334	333
477	476
338	337
277	276
108	107
129	128
243	242
244	243
227	226
223	222
244	243
376	375
163	162
282	281
315	314
246	245
132	127
371	370
123	122
241	262
241	240
96	95
86	85
126	125
562	561
179	178
376	375
272	271
93	92
411	410
199	198
253	252
229	438
192	193
114	149
95	110
372	371
128	127
442	441
443	442
142	141
636	782
304	303
307	306
513	512
624	623
322	321
412	411
250	249
221	220
300	299
114	152
712	810
272	271
248	284
211	321
85	76
307	306
373	372
156	155
43	42
463	527
77	76
172	171
60	61
222	258
168	167
249	248
220	219
241	240
515	460
216	215
309	308
87	86
291	325
450	661
225	224
89	88
87	86
362	361
321	320
717	716
66	65
454	453
224	223
332	331
498	578
66	65
378	377
104	103
271	278
137	136
254	253
414	413
286	318
238	237
235	234
151	150
82	81
162	161
171	170
330	329
303	302
674	673
221	205
247	251
385	384
347	346
430	429
159	158
428	427
754	753
478	477
351	350
318	317
332	331
273	272
222	298
64	63
230	229
258	257
50	49
263	262
155	156
341	490
339	338
349	348
383	382
347	346
251	250
351	350
127	126
314	313
240	239
305	347
264	263
174	173
431	430
382	366
143	142
231	230
135	134
104	103
38	37
380	379
495	522
398	397
878	877
639	638
241	240
143	142
157	156
389	388
406	405
925	933
239	238
199	206
398	427
116	115
135	134
36	35
428	427
437	436
154	153
323	322
372	390
104	103
227	251
280	332
79	337
150	184
71	228
238	237
349	348
264	263
245	244
311	310
219	218
248	247
494	493
427	472
46	45
170	169
69	68
558	557
683	682
191	190
895	894
234	210
161	157
358	620
237	243
139	136
297	432
81	80
476	546
182	181
301	254
121	120
177	176
149	148
109	108
164	163
265	264
555	554
254	253
329	328
412	411
386	385
277	295
243	252
390	389
157	156
427	426
649	648
140	146
147	166
60	73
326	382
407	406
112	114
155	156
555	554
146	145
392	391
475	474
360	359
156	155
293	292
513	512
626	625
303	302
247	246
225	224
242	241
312	311
557	556
484	483
236	235
185	125
73	72
161	160
237	236
562	631
67	66
194	193
344	343
214	213
204	203
106	105
156	155
634	633
371	370
363	362
404	403
88	87
214	213
178	177
322	321
68	67
263	262
128	127
70	69
157	170
462	461
227	226
553	552
353	352
99	98
303	302
511	510
184	183
293	292
488	487
269	268
137	136
30	29
143	142
532	531
188	187
249	248
301	300
407	406
210	209
387	386
363	362
66	65
616	701
68	63
388	389
286	285
537	536
392	391
319	318
417	416
335	334
331	330
272	271
378	377
905	1293
390	389
73	72
401	400
747	746
261	260
68	311
203	311
84	276
148	276
317	316
507	506
312	311
207	206
419	514
356	355
266	265
262	261
51	50
51	50
373	372
83	82
128	127
218	217
416	415
473	472
1048	1047
408	407
111	110
461	460
228	227
481	480
746	745
991	990
297	296
318	317
223	222
100	99
289	288
71	70
174	173
462	461
165	164
241	240
110	109
170	169
356	355
298	297
272	271
51	50
371	419
556	555
233	248
122	121
412	411
262	261
382	381
434	433
454	453
485	484
293	292
259	258
594	593
272	271
161	160
309	308
369	368
93	92
223	222
186	219
33	66
668	667
284	299
368	491
119	118
229	228
198	197
270	269
285	284
260	259
226	225
306	305
153	152
160	159
136	135
431	430
311	310
835	834
114	113
101	100
265	264
160	159
228	266
168	167
551	550
407	406
297	315
268	358
435	434
181	263
152	164
321	320
215	214
625	624
202	201
110	109
203	228
178	441
264	298
184	183
126	125
176	175
55	54
1121	1120
216	215
398	397
1050	1049
125	124
73	72
184	183
157	156
517	516
118	117
104	129
191	190
287	286
429	428
51	50
59	58
594	593
591	590
153	152
273	272
567	566
232	231
133	132
124	123
624	623
91	90
785	784
425	424
208	207
433	432
105	104
193	192
492	491
316	315
664	663
205	204
110	109
297	296
317	326
137	198
164	163
304	303
197	196
483	482
81	80
300	299
237	236
403	402
325	324
173	172
326	325
140	139
157	156
368	367
150	149
180	179
295	294
116	115
324	323
605	615
111	110
376	375
357	356
194	193
89	106
214	296
310	308
458	457
440	439
222	244
211	216
230	229
401	400
1048	1047
423	422
303	302
326	325
61	60
95	94
226	225
64	63
175	174
153	152
270	269
372	371
107	69
472	471
87	86
365	364
71	70
103	102
365	364
407	406
34	33
386	385
208	207
996	995
325	324
284	283
276	275
256	255
321	320
92	91
370	369
236	277
180	179
404	403
338	337
317	316
270	269
289	288
315	314
555	554
278	277
364	363
1025	1024
418	417
81	206
428	427
420	419
168	167
478	628
484	483
390	389
297	296
529	528
92	91
211	210
350	349
461	460
317	316
473	472
516	515
288	287
202	201
166	165
311	310
363	362
41	40
617	618
196	195
491	490
557	556
94	93
188	187
258	264
47	46
211	243
478	626
293	324
223	222
106	65
232	231
210	334
284	258
240	239
285	284
442	556
198	197
290	289
286	285
1416	1415
284	283
330	329
298	297
309	308
307	306
381	380
34	33
89	88
47	46
181	180
196	195
223	222
287	286
556	649
548	547
237	236
205	204
112	111
94	198
166	242
307	306
202	260
1033	1032
546	545
416	415
157	156
418	417
368	367
352	351
134	133
415	414
153	152
486	485
205	204
380	379
125	124
352	351
308	307
288	287
239	238
156	155
354	353
104	103
131	130
439	438
305	304
144	280
137	178
326	325
310	309
459	458
100	99
367	366
247	246
262	261
209	245
401	400
238	237
144	143
112	111
104	241
139	245
93	92
143	142
311	310
813	812
32	31
134	133
183	182
116	115
132	131
145	144
447	464
237	236
337	336
549	548
114	113
329	328
284	283
124	123
251	250
91	90
261	260
138	164
234	379
698	697
253	252
247	246
256	255
193	192
193	192
623	814
149	148
257	256
247	246
156	155
241	240
252	251
407	406
257	256
275	274
305	304
268	267
85	84
191	190
344	343
218	217
177	176
135	134
170	235
61	60
365	431
133	132
275	274
237	236
141	140
182	181
67	66
87	86
438	437
130	129
97	96
595	713
320	319
1161	1160
199	198
383	382
263	262
152	151
166	165
191	180
162	161
394	398
414	436
451	450
250	249
51	50
253	252
399	398
172	185
242	241
114	113
116	158
242	241
265	264
891	890
275	274
129	128
386	385
365	364
118	172
346	443
233	232
267	266
208	207
115	114
474	473
427	426
525	660
144	143
297	296
266	265
750	749
337	336
826	825
239	238
189	188
842	841
767	809
177	176
235	234
152	151
309	308
455	454
160	159
195	194
247	246
603	602
265	272
191	190
201	200
199	198
418	417
265	264
284	283
66	65
307	306
127	126
410	409
147	146
257	256
284	283
208	207
183	182
797	796
517	516
103	102
289	288
265	264
121	120
381	424
483	865
588	587
209	208
260	259
631	630
888	887
255	254
97	96
97	96
97	96
95	94
594	593
457	456
213	284
86	85
184	183
298	297
147	146
462	461
401	400
348	347
122	121
96	95
248	247
66	65
133	132
902	901
196	195
306	305
384	383
170	205
263	295
277	276
307	306
492	491
356	355
415	414
439	438
361	360
453	452
496	495
120	119
470	588
122	121
249	254
153	152
335	334
164	163
575	574
315	314
524	523
364	363
467	466
202	201
44	43
552	551
328	327
537	536
233	232
255	254
496	495
146	145
318	317
308	307
411	410
282	281
567	566
501	500
232	231
784	783
969	968
220	219
272	271
785	784
429	428
330	329
274	273
126	125
283	282
95	94
78	77
197	196
621	620
177	176
444	443
96	95
429	428
314	313
257	256
355	367
158	187
381	380
406	405
518	517
262	261
197	196
132	131
73	72
1074	1073
383	382
274	273
80	83
68	121
305	304
317	316
150	149
165	164
939	938
314	313
88	87
458	457
518	679
162	679
300	299
389	388
412	419
252	297
247	318
254	253
51	50
377	376
639	638
135	134
238	237
189	188
196	195
318	317
477	476
259	258
99	98
384	426
311	310
310	338
470	470
229	228
239	238
451	450
475	474
230	229
158	157
290	289
216	215
176	175
99	98
455	454
157	221
556	555
41	40
411	410
425	460
323	322
215	214
339	338
444	443
240	239
408	407
441	440
260	259
253	285
172	213
235	234
260	259
358	357
54	53
202	201
539	538
226	225
149	148
138	137
344	343
79	78
263	262
226	225
242	241
278	277
158	157
180	179
246	245
165	164
188	194
588	763
341	340
302	301
551	550
294	305
158	157
424	423
555	554
717	716
68	67
319	318
101	100
245	244
700	699
782	781
62	149
389	435
1088	1087
238	237
55	54
57	56
307	306
201	199
203	237
116	129
271	323
256	255
86	85
324	323
393	392
185	184
228	227
154	153
388	390
330	329
468	467
457	456
645	644
197	196
382	430
261	260
296	295
381	380
514	513
75	74
455	454
423	422
361	360
355	356
211	210
794	793
128	127
70	103
181	224
487	486
395	394
448	447
301	300
168	167
177	176
879	878
242	241
166	179
183	182
199	198
201	200
239	238
369	368
327	326
90	89
526	743
1433	1571
112	107
266	265
92	91
91	90
278	277
112	111
105	111
158	157
191	190
73	121
302	317
84	204
127	204
73	72
185	261
338	337
228	238
248	325
239	568
330	568
430	474
363	397
48	397
1045	1044
166	165
107	106
293	292
423	422
340	339
501	500
361	360
384	383
504	503
148	147
952	951
396	395
140	167
139	138
335	334
151	150
388	406
311	310
335	334
468	467
163	162
312	311
154	153
129	128
205	204
687	898
316	315
474	473
552	551
713	712
155	154
129	128
451	450
184	183
458	457
333	332
332	331
341	340
501	500
319	318
177	176
75	101
1260	1259
578	577
213	212
448	447
69	68
186	185
247	246
648	647
127	126
287	286
322	321
221	220
471	470
207	206
213	212
216	215
264	263
281	280
228	258
514	513
683	690
426	425
272	253
169	168
164	163
150	149
76	75
105	104
132	131
92	91
229	228
285	284
217	216
155	154
102	101
466	465
355	354
79	78
184	183
250	249
110	109
92	91
542	541
388	387
213	212
133	132
220	219
233	232
134	133
244	243
725	813
94	114
142	141
433	432
66	65
335	334
420	419
427	426
103	102
199	225
134	133
616	615
444	443
154	153
167	196
352	356
309	308
64	64
182	181
351	350
323	322
1108	1107
101	100
486	500
326	325
603	602
245	244
132	131
120	119
335	334
178	177
106	105
49	48
42	41
189	188
343	342
290	289
118	117
549	548
98	97
419	418
159	158
479	478
434	433
113	112
566	565
192	191
513	512
445	444
138	214
564	728
486	485
506	505
58	57
99	98
91	90
1310	1309
60	59
264	263
161	160
1280	1279
175	174
231	230
846	845
91	90
77	76
783	782
447	446
536	548
217	216
452	451
303	302
757	756
254	253
446	445
548	547
223	222
367	366
30	29
437	500
293	292
743	742
112	111
148	147
263	262
339	338
260	259
200	199
151	150
195	194
327	354
282	281
253	252
227	226
379	378
186	185
145	144
253	252
119	118
150	149
297	296
264	263
128	127
384	389
327	326
232	231
224	309
99	138
266	504
388	387
92	91
344	343
684	683
489	488
140	139
560	715
523	522
350	349
278	277
279	278
235	234
230	229
438	437
199	198
128	127
369	535
154	170
319	318
118	141
121	111
189	188
479	478
653	652
105	104
550	549
230	229
137	136
295	294
550	549
450	449
155	154
108	107
529	528
94	93
179	178
941	940
119	118
139	138
238	237
607	606
453	452
358	357
500	499
291	290
390	389
467	466
385	384
915	914
398	397
335	334
186	185
207	206
121	120
404	385
345	344
524	523
260	259
427	426
325	678
363	374
328	327
81	80
332	331
172	171
70	69
442	441
203	202
123	122
314	869
499	807
291	290
166	165
307	306
106	105
216	288
466	384
397	396
515	514
297	296
137	136
53	52
630	698
53	52
246	245
213	212
81	43
76	78
275	334
196	215
450	449
91	90
291	290
316	315
269	268
136	135
113	116
266	265
275	274
410	409
230	229
544	543
150	149
35	34
1228	1227
235	274
575	574
435	439
534	533
310	309
148	147
128	127
85	84
530	529
430	429
442	441
459	458
140	139
212	211
91	90
197	196
224	223
355	354
258	257
159	158
632	631
212	211
252	251
67	66
257	256
378	377
1408	1407
1343	1342
122	121
166	165
235	234
143	142
182	181
128	127
395	394
253	256
322	321
343	342
71	74
285	284
266	265
391	390
46	52
228	227
74	73
145	144
257	256
142	141
141	140
64	63
77	76
49	56
421	453
181	180
81	76
176	175
78	77
653	652
145	144
240	239
71	70
155	213
96	95
274	273
170	169
128	127
229	228
76	75
120	119
104	103
189	188
243	242
476	475
197	196
107	106
78	77
172	171
74	73
158	157
154	153
877	876
129	128
211	210
331	330
102	101
213	212
617	616
86	85
248	247
114	113
112	111
95	94
182	181
127	111
458	460
644	643
311	310
160	159
244	243
246	245
715	714
957	1756
800	1756
249	248
287	286
187	186
153	146
70	69
216	215
116	115
524	523
165	182
87	86
286	285
235	234
53	52
169	168
254	253
647	646
176	175
460	459
396	423
306	308
232	231
162	161
162	161
248	247
168	167
94	93
436	499
252	251
84	83
109	108
81	88
392	391
754	753
259	258
236	247
189	188
132	111
116	115
170	169
87	86
109	108
160	159
508	507
119	118
93	92
116	115
86	85
253	252
341	340
260	259
172	182
264	263
657	656
122	121
38	37
390	389
247	246
326	325
107	106
214	213
56	55
73	72
102	101
270	269
92	91
215	214
324	323
131	130
78	77
318	326
146	145
83	82
173	172
334	406
