85	84
286	285
516	612
99	365
367	366
120	119
235	234
439	438
389	388
467	466
306	305
428	427
405	404
458	457
259	258
335	334
384	383
884	883
578	577
284	283
114	113
293	292
766	765
107	106
360	359
834	833
221	220
368	367
206	205
302	301
727	726
297	296
518	517
375	374
517	516
540	539
287	286
811	810
387	386
106	105
203	202
71	70
733	732
342	341
285	284
141	141
444	443
309	308
162	161
80	79
282	281
503	502
337	336
249	248
143	142
100	99
147	146
200	199
256	255
252	251
330	329
321	320
301	300
167	166
233	232
235	235
223	222
225	224
328	327
207	206
345	344
313	312
279	278
490	489
420	419
275	274
105	104
465	464
133	126
65	64
278	277
196	195
435	804
189	295
212	206
301	300
212	211
310	309
73	72
34	73
121	120
152	151
314	313
146	145
291	290
200	199
296	295
450	449
478	477
337	336
296	295
293	292
299	298
263	262
422	421
327	326
237	236
608	607
470	469
350	349
470	469
37	36
458	457
170	169
142	141
929	928
62	61
311	310
477	476
209	208
336	328
90	89
195	194
176	175
85	84
182	181
412	462
82	72
205	204
444	443
730	729
388	387
234	233
498	497
163	162
261	260
259	258
172	171
90	89
547	546
202	201
252	251
476	475
256	255
335	334
210	209
325	324
169	168
497	496
255	254
270	269
32	31
223	222
287	286
994	519
319	318
130	129
408	407
302	301
282	281
666	665
503	502
186	185
98	97
143	142
86	85
82	81
754	753
318	317
300	299
267	266
341	340
207	206
207	206
612	611
290	289
156	155
297	296
283	282
166	165
317	316
255	254
301	300
721	720
239	238
299	298
236	235
275	274
68	67
78	77
107	106
849	848
321	320
247	246
400	399
399	398
552	551
412	411
462	461
247	246
451	450
360	359
417	416
377	376
225	224
294	293
356	355
421	420
377	376
349	348
368	367
420	419
110	109
362	361
495	494
674	673
94	93
188	251
279	322
325	324
516	515
617	616
140	139
164	132
88	87
64	117
481	479
507	506
113	112
280	279
85	84
231	230
468	475
328	327
310	309
297	296
322	321
502	501
140	139
623	622
499	498
252	233
250	249
331	330
153	152
148	147
630	629
208	207
127	126
74	90
202	201
80	79
157	156
178	177
514	513
288	287
461	460
140	139
457	456
610	609
347	346
320	319
297	296
258	257
242	241
279	278
625	624
465	464
539	538
390	389
241	240
158	157
222	221
446	445
189	188
250	249
320	319
392	391
416	415
472	471
455	454
549	548
66	65
47	46
468	467
367	366
358	357
805	804
133	132
271	270
219	218
230	229
293	292
206	205
383	382
183	214
217	254
367	366
405	415
87	86
138	137
143	142
554	553
289	288
572	571
498	497
116	115
121	120
166	165
395	394
33	32
563	562
97	96
197	196
501	500
440	439
464	463
589	588
445	444
151	150
108	107
120	119
413	412
98	97
273	272
308	307
166	165
346	345
461	460
587	586
187	390
518	517
157	156
105	104
364	363
284	283
287	286
311	310
227	226
570	569
464	463
402	401
694	693
230	229
703	702
92	91
208	207
561	560
206	205
275	274
255	254
96	95
64	63
62	61
34	33
702	701
474	473
226	225
154	153
54	53
919	918
124	123
114	113
201	200
74	73
88	87
65	64
73	72
65	64
61	60
278	277
144	143
68	67
282	281
420	419
288	287
239	238
214	213
199	198
153	152
407	406
223	222
79	78
56	55
270	269
160	159
426	425
353	352
375	374
266	265
339	338
332	331
231	230
343	342
328	327
418	417
327	326
349	348
311	310
399	398
342	341
345	344
320	319
420	419
515	514
144	143
84	83
156	155
340	339
274	273
158	157
416	396
259	258
552	551
1733	1647
80	79
160	159
121	120
70	69
196	195
383	382
638	637
121	120
379	378
203	202
464	463
36	66
580	614
384	383
432	431
513	512
232	231
287	286
221	220
499	498
329	328
246	292
180	224
156	155
189	306
125	211
155	154
333	332
283	282
158	157
418	417
677	676
275	274
393	392
394	393
514	513
331	330
441	440
485	484
114	113
146	145
329	328
103	102
304	303
690	689
71	70
71	70
97	96
237	236
325	324
220	219
778	777
147	146
188	187
233	232
403	402
564	563
536	535
340	339
301	300
328	327
335	334
424	423
36	35
560	559
64	63
391	390
113	124
63	62
251	250
873	872
770	769
369	368
1158	1157
650	649
429	428
499	498
310	309
256	255
687	686
441	440
338	337
324	323
201	200
550	549
466	465
467	466
275	274
243	242
1038	1037
386	385
176	175
163	162
111	110
113	112
192	191
257	256
319	318
208	207
165	164
446	445
305	304
661	660
343	342
177	176
189	188
58	57
142	141
72	71
451	450
281	280
681	680
251	250
490	489
145	144
112	111
500	499
398	397
355	354
356	355
912	911
375	374
284	283
90	89
503	502
453	452
94	93
158	157
249	248
134	133
269	268
255	254
278	277
315	314
525	524
205	204
350	349
420	419
186	185
222	221
82	81
733	732
209	208
120	119
90	89
199	198
499	498
223	222
353	352
285	284
295	294
307	306
285	284
249	248
162	161
134	133
368	367
128	127
370	369
309	308
426	425
169	168
81	113
238	237
439	438
296	295
282	281
357	356
248	247
147	146
578	577
95	94
96	98
67	164
393	392
163	162
346	345
232	231
236	235
176	175
447	446
172	197
368	367
729	728
658	657
432	431
478	477
816	815
68	67
167	166
251	250
865	864
188	187
191	190
260	259
374	373
30	29
237	236
256	255
202	201
502	501
109	108
275	274
253	252
533	532
409	408
339	338
902	901
798	797
695	694
439	438
192	191
228	227
257	256
198	197
79	78
774	773
76	75
774	773
159	158
240	239
369	447
541	540
575	574
293	292
134	133
223	222
97	96
579	711
187	186
851	850
260	259
180	179
147	146
135	134
403	412
174	173
363	362
429	428
239	238
226	225
253	252
335	334
302	301
121	120
388	387
409	408
293	292
118	117
435	434
362	361
56	55
215	286
231	319
269	268
109	108
848	847
394	393
191	190
56	55
201	200
188	187
407	406
697	696
211	210
135	134
290	289
73	72
302	301
638	637
184	183
602	601
67	66
197	196
73	72
271	270
241	240
129	128
120	119
96	95
125	124
157	156
705	704
395	394
900	899
65	64
159	158
226	225
154	153
388	387
328	327
319	195
170	169
146	145
399	398
494	493
651	650
272	271
490	489
140	139
104	103
210	209
202	201
101	100
274	273
93	92
111	110
234	233
137	136
64	63
85	84
124	123
105	104
180	179
102	101
131	130
178	177
118	117
168	167
60	59
145	144
444	443
39	38
119	118
130	129
74	73
152	151
330	329
128	127
123	122
142	141
73	72
138	137
459	458
430	429
316	315
170	169
375	374
158	157
181	180
191	190
273	272
86	85
185	184
85	84
91	90
253	252
368	367
394	393
342	341
74	73
42	41
601	1034
443	472
386	385
221	220
60	59
295	294
99	98
322	321
294	293
484	483
81	80
319	318
272	271
285	284
297	296
299	298
201	200
330	329
321	320
349	348
338	337
112	111
157	156
325	324
647	646
251	252
77	76
368	367
163	162
198	197
154	153
334	333
1267	1266
482	481
310	309
68	67
311	310
656	655
91	90
88	87
157	156
313	312
356	355
412	455
54	53
133	132
376	375
143	142
131	130
183	182
166	165
261	260
298	297
497	496
230	229
292	291
155	154
183	182
53	46
473	472
1518	1517
310	309
779	778
218	217
243	242
211	210
91	90
285	284
164	163
96	95
203	202
287	342
242	241
186	185
192	191
70	69
126	125
329	328
326	325
270	269
261	260
179	178
212	211
98	97
90	89
420	419
93	92
324	323
104	103
86	85
322	321
391	390
478	477
159	158
98	97
210	209
648	647
283	282
446	445
111	110
506	541
448	447
141	140
496	495
465	456
438	466
134	133
315	314
90	89
712	711
295	294
630	629
415	414
336	335
293	292
332	331
175	174
168	167
101	100
148	147
173	172
212	211
347	346
192	191
197	196
132	131
679	678
288	287
238	237
208	263
47	47
268	267
159	158
287	286
385	384
378	377
145	144
293	292
260	259
158	157
427	426
275	274
524	523
445	444
257	256
297	296
382	381
313	312
330	329
444	443
403	402
765	764
130	129
455	454
444	443
437	436
55	54
212	233
296	285
123	122
329	328
161	160
100	99
135	134
102	101
123	122
128	127
221	220
259	258
433	432
471	470
496	495
184	183
79	78
351	350
322	321
329	328
231	230
168	167
379	378
139	138
272	271
400	399
784	783
357	356
357	356
150	149
1031	1030
328	327
111	110
430	429
502	506
208	207
255	254
169	168
614	613
582	581
72	71
338	337
488	487
202	201
304	303
311	310
206	205
123	122
274	273
413	412
207	206
402	401
133	145
434	433
947	946
478	477
554	553
210	209
67	66
100	99
218	217
350	349
247	246
841	840
188	187
57	56
258	257
272	271
224	223
223	222
599	598
387	386
224	223
494	493
171	170
141	140
276	275
194	193
631	630
714	713
270	269
328	327
350	349
316	315
296	295
105	104
66	65
74	152
160	159
237	236
111	110
450	449
173	186
42	72
131	130
161	160
536	535
753	752
246	245
471	470
435	434
161	160
328	327
337	336
339	338
491	490
250	249
740	739
86	85
218	217
276	275
388	387
319	318
220	219
396	395
245	244
142	141
295	294
165	164
347	346
296	295
96	95
373	372
329	328
393	392
568	567
165	164
163	162
114	113
83	82
289	288
620	619
173	204
263	279
231	230
233	232
257	256
450	449
279	278
187	186
357	356
85	84
259	260
391	390
83	82
305	304
575	583
381	380
255	254
500	499
351	350
408	407
135	134
724	723
561	560
1522	1521
270	269
137	136
273	272
687	686
498	497
408	407
152	151
188	187
124	123
202	201
326	325
393	392
179	178
259	258
331	330
330	329
380	381
418	417
921	920
246	245
225	224
415	414
676	675
247	246
559	558
383	382
328	327
69	68
88	87
335	334
97	96
66	65
163	162
125	124
83	82
74	73
159	158
160	159
273	272
78	77
159	160
839	838
66	65
973	1039
291	290
495	494
201	200
69	68
67	66
121	96
70	189
128	127
142	141
189	188
59	58
79	78
171	275
203	235
425	424
66	77
145	144
82	81
79	78
70	69
76	75
517	516
151	150
425	424
699	704
74	73
229	228
153	152
64	63
151	182
168	167
37	36
208	207
30	29
209	208
104	103
116	115
120	119
296	295
109	108
195	194
32	31
193	192
116	319
174	319
165	164
105	104
291	290
61	60
291	290
91	90
100	99
285	284
140	139
117	116
538	537
267	385
96	95
126	147
251	254
838	849
140	139
171	170
190	286
182	181
241	240
726	822
88	87
344	343
64	62
120	119
142	141
117	116
538	537
56	135
101	148
683	682
1452	1444
244	257
114	113
423	422
716	715
88	111
301	369
1281	1274
561	596
191	419
225	286
399	398
69	68
154	158
172	171
63	62
32	31
299	298
407	406
596	595
210	209
264	263
455	656
178	194
58	57
50	49
208	339
143	339
56	55
86	91
72	71
86	85
566	565
379	378
63	62
246	245
1364	1363
63	62
216	215
64	63
108	107
141	140
348	347
249	248
507	500
348	347
422	421
236	235
680	711
419	418
360	359
92	91
351	350
240	239
109	108
240	239
349	348
336	335
379	378
198	197
97	96
189	188
235	234
327	326
139	138
212	211
317	316
244	243
236	235
152	151
465	464
385	384
84	83
659	658
244	243
307	306
194	193
664	663
303	302
148	147
463	462
426	425
63	62
170	169
238	237
226	225
226	225
141	235
193	192
160	143
340	339
388	387
360	359
287	286
212	211
247	246
299	298
365	364
298	297
77	76
220	219
411	410
201	200
110	109
193	192
442	441
393	392
401	400
365	364
130	129
726	957
238	237
478	477
104	103
220	219
327	326
89	88
136	135
174	173
299	298
237	236
578	577
294	293
506	505
183	182
42	41
483	482
382	392
259	292
163	162
456	455
439	438
467	466
104	103
871	956
260	259
443	442
1033	1032
177	176
160	159
37	32
507	541
311	310
462	461
404	403
399	398
396	395
593	592
160	159
305	304
766	765
252	251
410	409
394	393
279	278
254	253
473	472
231	230
312	311
421	420
344	343
260	323
460	719
398	397
347	346
73	72
238	237
230	229
49	48
177	176
749	748
292	291
265	264
157	156
188	187
136	135
108	107
1123	1122
963	962
327	326
855	1180
609	608
444	443
418	417
275	274
527	526
385	384
199	198
316	315
459	458
143	142
179	178
360	359
587	586
148	147
185	209
526	525
542	536
1130	1143
405	404
270	306
263	262
839	838
163	179
494	649
152	151
185	184
274	273
791	790
686	881
186	183
164	163
319	341
239	262
222	221
446	445
513	512
167	166
366	365
269	268
148	147
402	401
76	75
306	305
132	131
435	366
244	243
141	140
473	472
592	591
439	438
216	215
383	382
282	281
456	455
430	429
455	454
283	282
148	153
110	109
261	260
150	149
451	450
447	446
447	446
919	918
434	433
745	744
264	263
546	545
433	432
301	300
383	382
97	96
151	169
201	200
224	223
493	492
426	425
262	261
485	484
355	445
259	258
287	286
192	191
87	86
424	423
122	121
600	599
571	570
245	244
51	50
346	345
303	302
390	450
202	201
108	107
104	103
237	236
160	159
350	349
254	253
209	208
380	379
331	330
184	183
348	347
455	454
259	258
633	420
303	302
256	255
219	218
856	855
486	485
195	194
51	50
328	327
172	171
142	141
93	90
400	399
146	145
603	602
115	114
143	142
693	692
337	336
374	373
91	90
291	290
117	116
154	153
204	203
609	608
211	257
105	219
570	569
181	180
214	213
137	136
156	155
258	257
104	103
140	139
143	142
176	175
601	627
183	479
378	377
480	479
505	504
322	321
258	257
120	119
260	259
124	123
320	319
188	187
184	218
194	193
166	165
354	353
167	166
877	876
62	61
30	29
171	145
189	188
138	137
519	518
172	171
371	370
236	235
513	512
391	390
177	176
112	111
246	245
395	394
331	330
355	354
401	400
320	319
715	714
137	136
82	81
144	143
445	444
110	109
115	114
150	149
135	134
175	174
100	99
53	52
150	149
221	220
467	466
427	426
483	482
423	422
326	325
161	160
159	158
97	96
114	113
554	553
238	263
198	197
414	413
289	288
454	453
83	82
183	182
256	255
116	115
161	160
409	408
173	172
121	121
357	356
374	373
387	386
114	113
246	245
327	326
244	243
858	857
85	84
58	57
201	200
135	134
75	74
163	259
433	432
91	90
452	451
887	886
233	232
140	139
346	345
230	229
128	127
196	195
294	293
445	444
246	245
541	540
192	191
217	216
319	318
160	159
289	301
253	288
325	324
227	226
302	301
243	242
244	243
127	126
87	86
283	282
212	211
168	167
519	518
1348	1347
461	460
238	237
445	445
113	112
289	396
100	117
418	417
398	397
1094	1093
328	327
504	503
333	332
354	353
291	290
141	140
380	379
427	426
285	284
268	267
247	246
163	162
405	404
129	128
108	107
172	171
617	616
112	111
67	66
428	427
259	258
282	281
1654	1653
82	100
678	770
144	143
385	384
113	112
223	335
373	372
425	424
207	206
393	392
491	490
72	71
726	725
135	134
189	188
2461	2683
231	293
459	458
489	488
526	525
257	256
132	131
490	489
68	67
180	179
172	171
58	57
51	50
748	747
514	513
606	605
85	110
213	212
346	345
187	186
430	429
249	248
120	119
488	487
354	353
157	156
191	190
293	292
345	344
77	76
238	237
288	287
672	671
233	232
67	66
376	375
119	118
1038	1037
567	566
660	659
192	191
333	332
341	340
346	369
317	316
760	759
112	111
160	159
198	233
268	267
339	338
112	111
96	95
468	467
279	278
396	395
409	408
468	467
454	453
296	295
220	219
167	166
351	350
300	299
290	289
142	141
150	149
192	191
300	299
475	474
299	298
264	263
339	338
278	277
292	291
366	365
304	303
123	122
284	283
170	169
576	575
86	85
324	323
254	253
333	332
672	671
73	72
333	332
309	308
255	254
105	111
185	277
419	418
295	294
472	471
124	123
120	119
730	729
401	400
413	412
109	108
419	418
322	321
109	108
416	415
362	361
346	345
832	831
286	285
245	244
566	565
413	412
307	306
81	80
92	91
211	210
417	416
565	564
315	314
382	381
1148	1147
205	204
388	387
513	512
443	442
446	445
124	123
177	234
311	310
252	251
447	448
95	94
221	227
211	249
715	714
162	161
189	188
883	882
251	250
168	167
160	159
176	175
281	280
184	183
311	310
224	223
123	127
275	274
270	269
183	182
93	92
392	469
290	327
101	92
288	287
393	392
332	331
298	297
111	110
47	46
87	86
370	369
395	394
171	170
125	124
936	935
163	162
196	195
30	29
220	219
178	177
176	175
722	721
177	176
299	298
117	116
194	193
215	214
156	155
186	185
131	130
175	174
165	164
102	213
185	184
351	350
279	278
584	583
349	348
115	114
136	135
112	111
104	103
320	319
941	940
122	121
77	76
100	99
82	81
68	67
81	80
96	95
114	113
36	35
36	35
69	68
96	95
107	106
335	334
386	385
338	337
60	59
226	225
220	219
305	304
423	422
221	220
163	162
506	505
190	189
261	260
261	260
229	228
239	238
258	257
297	296
298	297
121	120
216	215
215	214
184	183
181	180
493	506
715	714
401	400
152	151
165	164
217	216
611	610
200	199
406	405
313	312
55	54
148	147
221	220
440	600
164	163
167	166
446	445
909	908
326	325
181	180
185	184
101	100
614	613
510	509
486	485
168	167
324	323
582	581
306	305
119	118
102	101
432	431
557	556
253	252
286	285
291	320
452	451
89	88
129	128
112	111
551	550
297	296
661	660
323	322
386	385
201	200
142	141
181	180
401	400
261	260
402	401
430	429
268	267
74	73
304	303
397	396
420	419
543	542
453	452
359	358
217	216
105	84
377	376
762	761
1255	1252
241	240
876	875
563	562
208	207
210	257
1240	1464
550	549
259	258
395	394
441	440
217	216
221	220
462	461
609	608
950	949
217	216
891	890
376	375
352	351
355	354
217	216
548	547
549	548
163	162
55	54
165	164
88	87
829	828
232	231
288	287
150	149
201	200
206	205
221	220
246	245
70	69
160	159
648	647
186	185
351	350
216	215
68	67
112	111
52	51
587	586
76	75
336	335
95	94
587	586
232	231
397	396
115	114
530	529
342	341
365	364
605	604
197	221
323	322
189	188
238	237
329	328
489	488
191	190
85	84
394	393
377	376
313	312
564	563
314	313
313	312
56	55
351	407
233	232
314	313
363	362
286	285
120	119
234	272
294	293
490	489
664	663
279	278
223	222
386	385
347	346
333	332
507	506
337	336
412	411
413	412
80	79
240	239
295	294
232	231
133	132
317	316
479	478
254	253
193	192
196	195
311	310
648	647
756	755
306	305
386	385
309	308
244	243
36	35
244	243
562	561
240	239
157	156
154	153
668	667
379	378
760	759
363	362
30	29
62	61
829	1210
382	381
1263	1262
678	677
370	369
94	93
181	180
225	224
827	826
345	344
113	112
275	274
91	90
40	39
263	262
267	266
270	269
249	248
322	321
335	334
426	425
351	350
285	284
421	420
151	150
95	94
452	451
347	346
260	259
300	299
106	105
454	453
405	404
239	238
703	702
202	201
111	110
241	240
468	467
472	471
1026	1025
974	1040
68	112
456	455
220	219
227	226
647	646
451	450
283	282
1106	1105
214	213
194	193
618	617
528	527
380	379
148	147
721	720
280	279
163	162
406	405
406	405
249	248
183	182
374	373
322	321
161	160
408	407
479	478
457	456
465	464
493	492
427	426
407	406
465	464
298	297
362	361
300	299
293	292
183	182
413	412
301	300
342	361
368	367
345	344
369	368
377	376
403	402
136	135
469	468
389	388
326	325
86	84
204	203
259	258
246	245
197	196
356	355
357	356
435	434
300	299
64	63
85	84
275	274
317	316
453	452
307	298
76	75
476	475
389	388
158	157
353	352
110	109
65	64
125	124
83	82
74	73
69	68
91	90
102	105
74	73
49	48
191	190
93	89
137	136
90	89
64	110
104	103
226	225
357	356
302	301
795	794
145	144
722	721
330	329
608	600
86	85
139	138
82	83
31	30
341	340
260	259
201	200
69	68
51	52
399	398
67	66
97	96
93	92
134	133
146	172
238	238
345	344
322	321
253	252
405	404
39	38
258	257
175	174
399	398
218	217
408	407
215	214
43	42
716	715
181	180
248	247
360	359
176	227
154	229
133	132
233	159
89	88
62	171
71	70
3207	3206
867	866
66	82
223	269
83	82
377	376
423	422
1599	1598
129	324
882	1010
612	2440
1574	2166
2155	2154
488	487
480	479
1456	1455
623	819
200	425
502	501
241	240
171	170
83	82
424	423
485	484
317	316
120	119
187	305
239	238
485	484
439	438
351	350
159	158
490	489
250	249
674	673
286	332
249	284
268	267
367	366
1613	3163
1531	3163
2036	2035
320	319
601	600
601	600
427	426
435	434
348	347
266	265
279	278
73	72
97	96
99	98
81	80
117	116
135	134
160	159
244	243
194	193
321	320
54	86
352	390
62	61
57	56
158	157
177	176
92	91
279	278
170	169
308	307
501	500
102	101
186	185
488	487
607	606
407	406
217	216
212	211
335	334
138	137
261	260
453	452
284	283
353	352
232	231
473	472
157	156
307	306
306	305
81	80
565	564
272	271
76	75
63	62
208	207
262	261
90	89
109	108
147	174
122	121
138	137
335	334
155	154
376	375
148	147
458	457
229	228
332	331
553	552
105	104
111	110
184	183
266	265
361	360
223	222
78	77
402	401
138	137
496	495
122	121
137	136
472	471
437	436
240	239
184	183
286	285
272	272
67	66
223	222
251	250
241	240
75	74
219	218
611	610
183	182
222	221
404	403
80	79
166	165
108	107
84	83
168	167
223	239
119	118
505	504
329	328
267	266
475	474
143	142
117	116
193	192
296	295
309	308
266	259
369	368
168	167
554	553
40	39
287	286
350	349
130	129
215	214
383	382
693	693
131	130
578	577
90	99
249	248
367	366
810	809
324	323
248	247
132	131
273	272
189	188
591	590
148	147
247	246
174	173
201	200
204	203
337	336
262	261
252	251
329	328
441	440
324	323
481	480
290	289
50	49
324	323
176	175
604	603
214	213
393	392
86	69
119	118
37	36
220	219
361	404
327	331
107	121
119	144
219	218
77	76
123	120
208	290
114	113
219	218
92	91
79	78
482	479
878	877
428	427
184	183
233	232
683	682
294	293
458	457
264	263
80	79
96	95
70	69
270	269
189	188
153	152
284	283
267	266
324	323
519	518
285	284
251	250
455	454
193	192
454	453
60	59
100	99
116	115
512	636
134	134
232	231
194	193
314	390
228	378
372	371
213	212
45	44
75	74
61	60
83	82
342	341
85	84
116	115
394	393
273	272
149	148
168	167
497	497
492	491
428	427
645	644
249	248
285	284
295	294
332	331
138	137
53	44
358	357
460	459
348	347
279	278
316	315
327	326
253	252
453	452
214	213
339	338
198	216
428	712
184	183
348	347
404	403
241	388
448	447
91	90
87	108
207	206
436	435
218	217
512	511
389	388
183	182
235	234
226	225
237	236
269	268
211	225
209	406
345	344
493	492
251	257
198	248
323	322
162	161
192	191
296	295
276	275
113	112
107	106
453	452
117	116
280	279
451	450
253	252
754	753
88	87
464	463
197	196
223	222
179	178
287	286
97	96
310	309
86	98
182	192
36	35
176	191
643	642
145	144
66	65
119	118
328	327
796	795
100	99
327	326
184	183
250	249
155	154
238	237
479	478
64	63
349	348
278	277
793	792
549	566
98	97
430	429
313	312
255	254
59	58
304	303
384	383
532	531
253	252
289	288
422	421
405	404
119	118
371	370
107	106
913	1018
137	136
63	62
123	122
496	495
249	248
424	423
407	406
139	138
335	334
79	78
471	470
70	69
209	208
701	700
213	212
223	222
262	261
255	254
537	536
102	101
419	418
458	457
214	213
383	382
404	403
311	310
342	341
30	29
390	389
194	193
276	275
116	115
216	215
136	135
283	283
200	199
80	79
271	298
174	173
671	670
286	285
79	78
145	144
156	155
370	369
108	107
219	218
425	424
287	286
202	201
501	500
212	211
232	231
207	206
353	352
709	741
193	192
194	193
147	146
72	71
347	346
334	333
178	204
219	244
459	458
209	208
124	134
256	255
193	192
604	603
458	457
422	421
503	502
392	391
549	548
468	467
310	309
434	433
240	239
112	111
241	240
461	460
315	314
511	510
463	462
345	344
122	121
110	109
274	273
103	102
418	417
298	297
407	406
232	231
419	418
205	204
285	284
206	205
799	798
249	235
577	808
102	101
249	248
187	186
114	113
109	108
405	404
340	339
56	48
403	402
487	486
68	67
229	228
249	248
682	681
297	296
32	31
356	372
104	103
558	557
480	479
73	72
128	127
145	144
222	221
389	396
294	293
463	462
309	308
120	119
473	472
484	483
305	304
253	252
441	440
67	66
164	163
190	159
254	253
273	348
104	103
261	260
41	89
188	187
237	236
884	883
177	176
168	167
305	304
480	479
291	304
66	65
254	253
561	560
386	385
337	336
467	466
512	511
440	439
800	799
144	143
72	71
46	45
566	565
337	336
57	56
93	92
108	107
218	217
295	294
804	1015
196	195
275	274
463	462
1243	1242
515	514
232	231
227	226
298	297
282	281
532	531
95	94
143	136
59	58
500	499
354	353
701	700
79	78
173	172
150	149
78	77
58	57
475	474
265	264
314	313
338	337
382	381
333	468
123	140
57	56
668	667
64	45
121	178
391	390
223	222
93	95
87	159
331	330
327	326
180	179
75	74
552	551
448	447
308	307
156	149
58	57
177	176
334	333
480	479
267	266
1301	1300
202	201
423	430
586	585
299	298
202	201
287	286
940	1685
1480	2428
109	108
62	61
880	879
330	329
141	140
89	88
1175	1174
378	377
145	144
90	89
312	311
458	457
58	57
181	185
154	169
411	410
188	187
504	504
343	342
272	271
113	112
150	156
105	115
317	316
86	85
344	343
538	537
300	299
307	306
213	212
243	242
322	321
169	168
514	513
354	353
466	465
333	332
302	301
361	360
220	219
756	755
293	292
263	262
351	350
156	160
294	293
431	430
560	559
105	104
74	73
120	119
75	74
223	222
326	325
82	81
548	547
322	321
297	296
331	330
269	268
388	387
458	457
251	250
781	1035
374	373
189	188
263	262
376	375
645	644
653	661
58	57
250	249
73	72
109	108
266	265
390	389
103	102
255	254
197	196
892	891
56	55
43	42
325	324
866	865
84	83
350	349
253	252
197	196
292	291
631	629
207	206
294	293
521	520
532	531
453	452
398	397
269	268
168	167
169	168
213	212
248	247
180	179
133	132
239	238
99	98
418	417
487	486
110	109
335	334
338	337
303	302
307	306
559	558
54	53
52	51
216	215
907	891
402	401
206	205
138	137
303	302
338	337
315	314
153	152
281	280
400	399
226	225
237	236
513	512
1248	1247
464	463
73	72
599	598
217	216
465	464
118	117
239	238
77	76
367	366
36	35
285	284
270	269
131	130
278	277
361	360
442	441
208	207
284	283
338	337
82	106
490	512
93	92
195	194
364	363
640	642
357	356
211	210
473	472
566	565
341	340
327	326
253	252
271	270
285	284
322	378
271	292
85	84
245	244
204	203
305	304
579	578
357	356
374	373
62	61
511	510
240	239
514	513
177	176
50	69
363	410
140	139
149	148
220	219
98	97
134	133
123	122
232	231
271	270
89	88
104	103
58	57
95	94
110	109
71	70
106	105
133	120
60	59
73	72
227	226
83	82
89	88
79	78
404	403
244	243
135	134
51	50
207	206
115	143
276	275
286	285
286	285
98	97
347	346
94	93
800	799
200	199
1059	1058
183	182
200	219
233	232
110	109
468	854
401	400
145	144
82	140
49	53
247	246
132	131
193	192
118	117
133	132
342	341
111	110
440	439
534	533
69	68
642	641
182	181
98	97
154	153
170	165
72	71
361	360
128	127
46	45
121	120
97	96
57	56
152	151
346	347
509	508
111	110
101	100
234	233
335	334
180	179
77	76
252	251
314	313
69	68
99	98
262	261
227	226
53	52
251	250
72	71
73	72
80	79
79	78
381	380
417	416
218	217
154	153
369	368
214	213
457	456
209	223
487	486
342	373
409	408
379	378
286	285
265	264
349	348
154	153
263	262
274	273
304	303
413	412
234	233
400	399
358	357
1165	1164
320	319
86	85
237	236
180	179
435	434
181	180
342	341
275	274
214	213
118	117
120	119
730	729
478	477
266	265
335	334
214	213
341	340
270	269
414	413
79	78
245	244
190	264
104	103
318	317
347	346
58	57
174	173
208	207
320	319
1062	1061
318	317
548	547
314	313
366	365
233	232
261	260
252	251
402	401
232	231
135	134
139	138
220	219
98	97
139	138
512	511
308	307
216	215
195	194
403	402
216	215
187	186
349	348
82	81
85	84
373	372
38	37
189	188
192	191
351	350
307	306
409	408
125	124
76	75
816	825
501	511
386	385
494	493
178	177
104	103
111	110
152	151
152	82
217	216
31	27
139	138
278	277
174	173
185	184
246	245
313	312
276	275
66	65
163	162
127	126
155	154
215	214
74	73
159	158
158	157
82	81
273	272
152	151
862	838
1028	1039
291	290
99	98
78	77
181	180
379	163
61	60
421	420
264	263
455	656
169	168
298	297
115	114
39	38
145	144
106	105
153	152
372	371
1220	1261
138	137
257	278
319	318
562	725
165	164
342	341
167	166
247	246
321	320
164	163
176	175
590	876
275	290
232	231
149	148
183	182
110	109
74	73
190	189
171	170
64	63
153	152
138	137
117	92
74	73
344	400
365	364
425	424
151	150
517	516
98	97
70	69
54	53
82	81
75	74
285	284
345	344
79	78
124	123
103	102
96	95
80	79
188	187
230	229
72	76
132	131
87	86
64	63
126	125
48	80
1515	1753
876	3109
669	644
591	590
130	129
353	352
241	240
280	279
86	85
84	83
194	193
453	452
118	117
559	558
141	140
202	201
773	772
195	194
390	389
155	154
244	243
410	409
142	141
77	101
66	65
167	166
94	93
84	83
208	207
106	105
388	387
373	382
265	629
69	68
198	197
203	288
189	292
55	54
543	605
401	400
43	173
456	455
808	807
673	672
325	441
138	137
355	354
424	423
376	375
59	58
219	218
503	502
70	69
1321	1320
213	212
243	285
123	122
232	231
129	128
267	266
197	196
165	164
443	442
58	57
199	198
76	75
414	413
307	306
102	101
200	199
849	848
391	390
231	230
343	342
896	895
368	367
58	57
71	70
437	436
31	30
379	378
515	514
286	285
133	132
196	195
236	235
598	597
373	372
220	219
110	109
86	92
392	391
106	105
138	137
221	220
153	152
145	144
527	684
149	148
718	720
210	209
170	169
347	346
151	150
587	586
209	208
56	55
188	187
547	546
312	376
115	115
636	635
314	357
401	390
370	369
181	180
337	336
192	191
320	319
382	381
265	264
256	255
871	870
401	400
467	466
363	362
397	396
216	215
183	182
616	615
1487	1486
235	234
441	440
262	261
260	259
298	297
249	248
61	60
411	410
329	328
583	582
755	754
95	94
558	557
228	227
255	254
167	166
260	259
363	362
231	230
587	586
399	398
761	760
247	246
375	382
209	208
288	287
142	205
413	412
407	406
431	430
448	447
204	203
1356	1355
165	164
357	356
589	588
574	573
235	234
73	72
759	758
107	106
75	74
649	648
372	371
208	207
553	552
232	231
300	299
551	550
323	322
573	572
334	333
511	807
338	337
277	276
108	107
129	128
243	242
244	243
227	238
223	222
148	147
68	66
376	375
163	162
282	281
318	317
378	377
371	370
159	158
301	300
241	240
96	95
86	85
126	125
562	561
179	178
376	402
272	271
93	94
411	410
199	198
253	252
401	400
209	208
372	371
128	127
442	441
443	442
783	782
304	303
237	306
90	83
513	512
624	623
322	321
65	116
350	411
250	249
221	220
300	299
811	810
272	271
531	530
307	306
373	372
156	155
43	42
528	527
172	171
296	295
168	167
249	248
220	219
241	240
742	741
309	308
87	86
761	760
189	224
89	88
87	86
362	361
321	320
717	716
66	101
454	453
224	223
332	331
579	578
378	377
369	368
137	136
254	253
414	413
319	318
238	237
235	234
151	150
82	81
162	161
171	170
330	329
303	302
674	673
226	225
252	251
385	384
347	346
430	429
377	376
159	158
428	427
754	753
478	477
351	350
318	317
347	331
273	272
353	352
230	229
258	257
50	49
263	262
491	490
339	338
349	348
383	382
347	346
251	250
280	350
81	124
127	126
314	313
240	239
348	347
264	263
174	173
431	430
422	421
143	142
231	230
135	134
98	97
38	37
380	379
523	522
91	98
320	319
143	142
157	156
389	388
406	405
934	933
239	238
589	588
116	115
135	134
36	35
428	427
81	80
349	348
264	263
245	244
266	310
63	62
219	218
248	247
494	493
473	472
170	169
69	68
558	557
683	682
191	190
414	413
493	894
226	225
38	45
733	732
417	417
30	29
547	546
182	181
255	254
121	120
177	176
149	148
109	108
469	468
555	554
254	253
329	328
412	411
386	385
296	295
241	240
390	389
157	156
344	343
649	648
267	266
383	382
407	406
251	250
555	554
392	391
475	474
360	359
156	155
293	292
513	512
515	625
303	302
247	246
225	224
242	241
312	311
161	160
861	860
194	193
344	343
214	213
204	203
106	105
156	155
634	633
371	370
363	362
45	44
328	403
88	87
214	213
131	130
322	321
68	67
263	262
128	127
70	69
187	186
462	461
227	226
553	552
190	180
179	178
99	98
231	202
140	348
477	466
48	47
184	183
293	292
488	487
269	268
137	136
30	29
143	142
532	531
188	187
249	248
301	300
407	406
210	209
387	386
363	362
66	65
310	358
393	471
138	137
249	248
286	285
537	536
392	391
319	318
417	416
335	334
331	330
272	271
378	377
1294	1293
73	72
401	400
747	746
248	247
51	50
43	42
373	372
83	82
128	127
218	217
416	415
461	460
1048	1047
408	407
111	110
461	460
228	227
481	480
746	745
991	990
297	296
318	317
219	218
100	99
289	288
71	70
174	173
462	461
165	164
241	240
110	109
170	169
356	355
298	297
218	217
420	419
556	555
350	349
412	411
262	261
382	381
434	433
454	453
485	484
293	292
259	258
594	593
272	271
161	160
309	308
365	364
805	804
229	228
198	197
257	256
285	284
260	259
226	225
306	305
153	152
121	120
472	471
141	140
68	67
136	135
431	430
311	310
835	834
265	264
85	84
71	70
551	550
407	406
559	558
265	266
171	209
323	322
321	320
215	214
625	624
202	201
110	109
203	228
442	441
184	183
126	125
176	175
54	53
1121	1120
216	215
398	397
1050	1049
125	124
73	72
184	183
157	156
517	516
118	117
104	103
191	190
287	286
429	428
113	112
594	593
591	590
153	152
273	272
567	566
232	231
133	132
124	123
624	623
91	90
785	784
425	424
208	207
433	432
105	104
193	192
492	491
316	315
664	663
205	204
110	109
297	296
455	454
164	163
304	303
197	196
483	482
81	80
266	278
237	236
209	426
173	172
234	241
95	94
173	172
326	325
140	139
157	156
368	367
150	149
180	179
295	294
116	115
324	323
605	615
111	110
376	375
61	65
297	286
194	193
606	605
458	457
440	439
432	431
230	229
401	400
1048	1047
423	422
303	302
326	325
61	60
95	94
226	225
64	63
175	174
127	126
270	269
372	371
107	106
472	471
87	86
365	364
71	70
103	102
365	364
407	406
34	33
386	385
208	207
993	992
325	324
284	283
276	275
256	255
321	320
224	223
115	125
268	267
175	174
258	257
92	91
370	369
278	277
180	179
364	363
1025	1024
418	417
207	206
428	427
420	419
629	628
484	483
390	389
297	296
529	528
92	91
212	224
82	81
350	349
461	460
317	316
473	472
516	515
288	287
202	201
166	165
311	310
363	362
678	677
196	195
491	490
557	556
94	93
188	187
265	264
47	46
254	253
766	765
223	222
176	190
476	475
240	239
285	284
442	441
198	197
290	289
286	285
1417	1416
284	283
330	329
298	297
309	308
307	306
381	380
34	33
89	88
47	46
181	180
206	205
223	222
842	841
260	297
288	298
237	236
205	204
72	71
503	502
741	1376
175	174
113	112
426	444
219	218
634	633
66	65
344	343
128	127
66	65
103	102
187	186
57	56
61	60
66	65
184	183
53	52
51	50
673	672
426	425
91	90
184	183
248	247
891	890
128	127
95	94
120	119
59	58
58	57
97	96
275	274
397	396
418	417
368	367
352	351
134	133
415	414
153	152
486	485
205	204
380	383
125	150
352	351
212	211
580	579
107	106
53	52
145	201
247	246
256	255
193	192
815	814
149	148
257	256
44	43
163	162
118	119
162	161
60	59
97	96
826	479
661	660
40	39
173	172
168	167
495	494
142	141
614	613
350	349
427	426
136	174
449	448
255	254
921	920
248	247
481	480
1176	1175
236	235
236	452
160	159
262	261
40	40
247	246
156	155
241	240
252	251
407	406
257	256
275	274
305	304
268	267
85	84
191	190
344	343
218	217
272	271
135	134
236	235
573	572
275	274
237	236
141	140
182	181
67	66
87	86
438	437
130	129
714	713
133	132
195	194
1161	1160
199	198
383	382
202	209
152	151
342	341
162	161
394	398
414	436
451	450
250	249
232	231
399	398
186	185
242	241
284	283
242	241
265	264
891	890
275	274
129	128
49	48
386	385
365	364
506	505
233	232
267	266
208	207
115	114
474	473
427	426
525	660
144	143
297	296
266	265
753	752
845	844
810	809
177	176
235	234
152	151
309	308
455	454
160	159
197	196
247	246
863	862
115	117
203	202
199	198
422	421
267	264
284	283
68	67
311	310
127	126
410	409
147	146
257	256
284	283
208	207
183	182
797	796
517	516
103	102
297	296
265	264
121	120
866	865
586	585
475	474
631	630
888	887
255	254
97	96
98	97
97	96
594	593
457	456
285	284
184	183
298	297
147	146
462	461
401	400
348	347
207	206
248	247
66	65
133	132
902	901
196	195
306	305
384	383
421	420
277	276
307	306
492	491
356	355
415	414
439	438
361	360
453	452
496	495
120	119
470	588
122	121
314	313
153	152
335	334
164	163
575	574
315	314
524	523
364	363
467	466
202	201
44	43
552	551
328	327
532	536
233	232
255	254
293	292
486	485
501	500
232	231
784	783
969	968
220	219
294	293
394	418
362	361
429	428
330	329
274	273
126	125
283	282
105	104
78	77
197	196
621	620
177	176
444	443
96	95
429	428
314	313
257	256
505	504
381	380
406	405
518	517
262	261
197	196
132	131
1074	1073
383	382
274	273
122	121
305	304
317	316
150	149
165	164
939	938
314	313
88	87
300	299
389	388
420	419
408	497
71	71
254	253
51	50
377	376
639	638
135	134
238	237
189	188
196	195
318	317
477	476
259	258
100	99
429	428
311	310
821	820
229	228
239	238
451	450
475	474
230	229
158	157
290	289
216	215
176	175
99	98
646	645
556	555
95	94
111	110
411	410
461	460
323	322
215	214
339	338
444	443
240	239
408	407
441	440
260	259
517	516
235	234
260	259
358	357
54	53
202	201
420	479
112	104
226	225
149	148
138	137
344	343
79	78
263	262
226	225
242	241
278	277
158	157
180	179
246	245
165	164
764	763
341	340
305	304
454	453
555	554
717	716
68	67
319	318
101	100
70	69
389	388
140	135
341	539
437	436
1088	1087
113	112
57	56
307	306
427	426
384	383
256	255
86	85
324	323
393	392
185	184
228	227
154	153
391	390
319	318
114	113
128	127
258	257
487	486
395	394
448	447
301	300
168	167
177	176
879	878
242	241
166	165
183	182
199	198
201	200
239	238
369	368
327	326
379	378
100	99
37	36
86	85
184	183
54	53
183	182
87	86
374	373
93	92
438	437
269	268
144	143
211	210
261	260
265	262
302	301
656	655
450	449
329	328
335	334
101	121
123	122
38	37
74	73
159	158
162	161
262	260
78	77
226	225
227	226
59	58
286	264
232	237
157	177
244	243
293	292
118	117
60	59
484	483
393	392
109	108
296	296
193	192
232	272
173	172
93	92
95	94
93	92
529	528
86	85
385	384
1129	1128
263	315
155	154
207	206
222	221
134	133
110	109
315	314
170	169
269	292
118	155
132	152
189	188
187	186
78	77
183	182
208	207
78	77
589	588
1485	3262
644	2267
996	995
129	128
126	125
157	156
176	175
119	118
349	348
214	480
757	986
556	555
89	88
126	126
30	29
165	195
284	283
240	239
200	199
267	256
81	80
171	170
1025	1024
708	707
479	478
76	75
1015	1014
151	150
100	99
79	78
125	124
121	120
117	116
538	537
214	213
183	182
406	405
133	132
183	182
242	241
845	844
360	359
137	136
69	68
159	158
70	69
123	122
77	76
74	73
105	104
188	187
167	166
216	266
559	836
240	239
194	193
179	178
174	173
168	167
336	335
167	166
100	99
123	122
247	246
500	499
1172	1171
268	420
127	139
340	339
188	187
344	343
255	254
440	439
333	332
560	559
361	360
360	359
504	503
148	147
952	951
396	395
168	167
139	138
335	334
151	150
407	406
311	310
335	334
468	467
163	162
312	311
154	153
129	128
899	898
316	315
474	473
467	551
102	101
713	712
155	154
129	128
451	450
184	183
458	457
333	332
332	331
341	340
501	500
319	318
177	176
114	113
82	81
1188	1259
437	577
156	180
213	212
448	447
69	68
186	185
247	246
648	647
127	126
287	286
322	321
221	220
471	470
207	206
213	212
109	108
110	120
264	263
281	280
228	258
514	513
691	690
426	425
204	203
209	222
164	163
150	149
76	75
105	104
132	131
92	91
229	228
285	284
217	216
155	154
102	101
466	465
355	354
252	251
250	249
110	109
92	91
530	529
388	387
213	212
133	132
220	219
233	232
134	133
244	243
764	813
142	141
433	432
66	65
336	334
420	419
427	426
103	102
317	316
616	615
446	445
154	153
511	515
380	379
182	181
351	350
323	322
1108	1107
486	500
326	325
603	602
245	244
132	131
120	119
378	377
178	177
106	105
49	48
42	41
189	188
343	342
290	289
118	117
549	548
98	97
419	418
159	158
479	478
434	433
113	112
566	565
192	191
169	168
352	351
445	444
716	715
486	485
506	505
58	57
99	98
91	90
77	76
544	543
240	239
435	445
549	548
217	216
452	451
303	302
757	756
254	253
446	445
548	547
223	222
367	366
30	29
501	500
293	292
743	742
112	111
148	147
263	262
339	338
277	276
242	241
151	150
195	194
355	354
282	281
253	252
227	226
379	378
186	185
145	144
253	252
110	76
150	149
297	296
312	311
511	510
327	326
232	231
310	309
662	661
92	91
242	343
684	683
489	488
140	139
560	715
523	522
350	349
278	277
235	278
235	234
230	229
438	437
199	198
128	127
523	572
319	318
224	223
189	188
479	478
653	652
105	104
550	549
230	229
137	136
295	294
550	549
450	449
155	154
108	107
518	517
94	93
179	178
941	940
119	118
139	138
238	237
607	606
453	452
358	357
500	499
291	290
390	389
473	472
385	384
904	914
398	397
360	359
472	471
345	344
524	523
260	259
467	466
683	682
328	327
81	80
332	331
172	171
70	69
442	441
203	202
123	122
808	807
291	290
132	131
307	306
447	446
372	371
32	31
397	396
515	514
297	296
137	136
53	52
630	698
53	52
246	245
213	212
81	43
550	549
450	449
91	90
291	290
316	315
269	268
136	135
165	164
266	265
275	274
410	409
230	229
544	543
150	149
107	106
1228	1227
275	274
210	295
376	375
435	434
159	175
392	533
310	309
148	147
128	127
85	84
530	529
430	429
442	441
459	458
43	42
140	139
212	211
91	90
197	196
224	223
355	354
258	257
159	158
591	631
42	41
212	211
252	251
67	66
257	256
378	377
1408	1407
1343	1342
122	121
166	165
235	234
143	142
182	181
128	127
395	394
309	308
322	321
343	342
32	34
876	875
129	128
211	210
331	330
213	212
603	602
86	85
248	247
116	115
105	104
78	77
182	181
94	93
127	126
214	214
245	362
644	940
311	326
164	163
259	258
718	717
133	132
76	75
1757	1756
249	248
287	286
187	186
69	68
86	85
161	160
286	285
51	50
61	65
1002	1001
186	185
281	286
133	132
86	85
111	110
59	73
92	91
126	125
145	144
117	116
92	91
141	140
565	564
121	120
79	78
236	235
560	571
287	286
505	504
262	261
167	166
280	279
116	115
260	259
338	337
67	66
187	186
989	988
84	83
96	95
135	134
248	247
112	111
113	112
197	196
87	86
151	150
197	196
226	225
209	217
192	191
295	294
599	606
202	213
71	70
90	89
339	338
250	249
40	39
118	117
272	271
176	175
53	52
116	115
92	91
104	103
699	698
425	424
85	84
87	93
283	282
153	152
116	115
197	196
87	86
713	712
134	133
77	76
334	333
115	114
85	84
309	308
203	202
43	92
396	395
83	82
217	216
495	494
100	99
55	54
165	164
562	561
319	318
257	256
138	137
1220	1261
372	371
187	186
97	96
98	97
324	397
268	288
182	181
314	313
92	91
79	97
436	435
647	646
394	393
92	91
116	115
84	83
119	118
326	325
40	39
247	246
310	309
370	369
318	317
34	33
116	115
92	91
305	304
276	275
286	285
286	285
145	144
72	71
127	126
398	397
575	593
76	251
204	203
581	580
426	425
734	733
92	91
116	115
189	283
522	521
139	138
77	76
95	94
73	72
102	101
269	268
252	251
389	388
324	323
169	168
146	145
228	227
74	73
145	144
55	54
197	196
142	141
141	140
64	63
77	76
454	453
188	187
67	63
180	179
78	77
137	136
240	239
71	70
96	95
274	273
170	169
128	127
230	229
132	131
122	121
104	103
189	188
224	234
476	475
197	196
66	65
84	83
172	171
73	73
