quast_flye_30134_6#3/report.tsv:# mismatches per 100 kbp	6.78
quast_flye_30224_1#102/report.tsv:# mismatches per 100 kbp	6.86
quast_flye_30224_1#172/report.tsv:# mismatches per 100 kbp	10.42
quast_flye_30224_1#201/report.tsv:# mismatches per 100 kbp	12.08
quast_flye_30224_1#211/report.tsv:# mismatches per 100 kbp	43.36
quast_flye_30224_1#245/report.tsv:# mismatches per 100 kbp	12.13
quast_flye_30224_1#251/report.tsv:# mismatches per 100 kbp	5.70
quast_flye_30224_1#273/report.tsv:# mismatches per 100 kbp	49.79
quast_flye_30224_1#291/report.tsv:# mismatches per 100 kbp	178.44
quast_flye_30224_1#298/report.tsv:# mismatches per 100 kbp	26.13
quast_flye_30224_1#302/report.tsv:# mismatches per 100 kbp	4.53
quast_flye_30224_1#305/report.tsv:# mismatches per 100 kbp	61.69
quast_flye_30224_1#313/report.tsv:# mismatches per 100 kbp	11.31
quast_flye_30224_1#333/report.tsv:# mismatches per 100 kbp	2.93
quast_flye_30224_1#351/report.tsv:# mismatches per 100 kbp	124.61
quast_flye_30224_1#355/report.tsv:# mismatches per 100 kbp	22.20
quast_flye_30224_1#383/report.tsv:# mismatches per 100 kbp	61.34
quast_flye_30224_1#38/report.tsv:# mismatches per 100 kbp	12.03
quast_flye_30224_1#48/report.tsv:# mismatches per 100 kbp	79.73
quast_flye_30345_1#119/report.tsv:# mismatches per 100 kbp	15.21
quast_flye_30345_1#11/report.tsv:# mismatches per 100 kbp	12.71
quast_flye_30345_1#164/report.tsv:# mismatches per 100 kbp	3107.69
quast_flye_30345_1#186/report.tsv:# mismatches per 100 kbp	4.85
quast_flye_30345_1#188/report.tsv:# mismatches per 100 kbp	985.82
quast_flye_30345_1#218/report.tsv:# mismatches per 100 kbp	379.39
quast_flye_30345_1#220/report.tsv:# mismatches per 100 kbp	5.64
quast_flye_30345_1#224/report.tsv:# mismatches per 100 kbp	42.14
quast_flye_30345_1#226/report.tsv:# mismatches per 100 kbp	43.48
quast_flye_30345_1#247/report.tsv:# mismatches per 100 kbp	6.55
quast_flye_30345_1#279/report.tsv:# mismatches per 100 kbp	1.61
quast_flye_30345_1#292/report.tsv:# mismatches per 100 kbp	6.81
quast_flye_30345_1#298/report.tsv:# mismatches per 100 kbp	416.00
quast_flye_30345_1#31/report.tsv:# mismatches per 100 kbp	13.57
quast_flye_30345_1#330/report.tsv:# mismatches per 100 kbp	3.62
quast_flye_30345_1#335/report.tsv:# mismatches per 100 kbp	15.95
quast_flye_30345_1#350/report.tsv:# mismatches per 100 kbp	54.66
quast_flye_30345_1#36/report.tsv:# mismatches per 100 kbp	1317.52
quast_flye_30345_1#377/report.tsv:# mismatches per 100 kbp	785.42
quast_flye_30345_1#43/report.tsv:# mismatches per 100 kbp	152.16
quast_flye_30348_1#126/report.tsv:# mismatches per 100 kbp	2.96
quast_flye_30348_1#195/report.tsv:# mismatches per 100 kbp	6.52
quast_flye_30348_1#247/report.tsv:# mismatches per 100 kbp	2.88
quast_flye_30348_1#372/report.tsv:# mismatches per 100 kbp	65.97
quast_flye_30348_1#3/report.tsv:# mismatches per 100 kbp	8.98
quast_flye_30348_1#87/report.tsv:# mismatches per 100 kbp	3.74
quast_flye_30348_1#89/report.tsv:# mismatches per 100 kbp	12.35
quast_flye_30348_2#105/report.tsv:# mismatches per 100 kbp	52.63
quast_flye_30348_2#113/report.tsv:# mismatches per 100 kbp	647.35
quast_flye_30348_2#155/report.tsv:# mismatches per 100 kbp	156.00
quast_flye_30348_2#202/report.tsv:# mismatches per 100 kbp	33.58
quast_flye_30348_2#223/report.tsv:# mismatches per 100 kbp	12.81
quast_flye_30348_2#231/report.tsv:# mismatches per 100 kbp	15.20
quast_flye_30348_2#256/report.tsv:# mismatches per 100 kbp	220.02
quast_flye_30348_2#316/report.tsv:# mismatches per 100 kbp	14.48
quast_flye_30348_2#3/report.tsv:# mismatches per 100 kbp	55.05
quast_flye_30348_2#44/report.tsv:# mismatches per 100 kbp	95.55
quast_flye_30602_1#104/report.tsv:# mismatches per 100 kbp	65.54
quast_flye_30602_1#109/report.tsv:# mismatches per 100 kbp	6.60
quast_flye_30602_1#133/report.tsv:# mismatches per 100 kbp	10.78
quast_flye_30602_1#214/report.tsv:# mismatches per 100 kbp	10.86
quast_flye_30602_1#40/report.tsv:# mismatches per 100 kbp	13.83
quast_flye_30602_1#44/report.tsv:# mismatches per 100 kbp	26.52
quast_flye_30602_1#64/report.tsv:# mismatches per 100 kbp	8.49
quast_flye_30602_6#188/report.tsv:# mismatches per 100 kbp	12.96
quast_flye_30602_6#35/report.tsv:# mismatches per 100 kbp	46.79
quast_flye_30821_1#117/report.tsv:# mismatches per 100 kbp	7.99
quast_flye_30821_1#134/report.tsv:# mismatches per 100 kbp	354.62
quast_flye_30821_1#241/report.tsv:# mismatches per 100 kbp	18.13
quast_flye_30821_1#256/report.tsv:# mismatches per 100 kbp	533.56
quast_flye_30821_1#274/report.tsv:# mismatches per 100 kbp	10.77
quast_flye_30821_1#280/report.tsv:# mismatches per 100 kbp	8.22
quast_flye_30821_1#330/report.tsv:# mismatches per 100 kbp	7.39
quast_flye_30821_1#335/report.tsv:# mismatches per 100 kbp	230.12
quast_flye_30821_1#373/report.tsv:# mismatches per 100 kbp	37.99
quast_flye_30821_1#82/report.tsv:# mismatches per 100 kbp	589.67
quast_flye_30821_1#88/report.tsv:# mismatches per 100 kbp	14.88
quast_flye_30859_5#11/report.tsv:# mismatches per 100 kbp	5.70
quast_flye_30859_5#121/report.tsv:# mismatches per 100 kbp	58.20
quast_flye_30859_5#129/report.tsv:# mismatches per 100 kbp	3.30
quast_flye_30859_5#12/report.tsv:# mismatches per 100 kbp	11.22
quast_flye_30859_5#136/report.tsv:# mismatches per 100 kbp	17.98
quast_flye_30859_5#17/report.tsv:# mismatches per 100 kbp	306.43
quast_flye_30859_5#197/report.tsv:# mismatches per 100 kbp	9.63
quast_flye_30859_5#21/report.tsv:# mismatches per 100 kbp	7.79
quast_flye_30859_5#278/report.tsv:# mismatches per 100 kbp	4.27
quast_flye_30859_5#287/report.tsv:# mismatches per 100 kbp	6.71
quast_flye_30859_5#29/report.tsv:# mismatches per 100 kbp	11.10
quast_flye_30859_5#32/report.tsv:# mismatches per 100 kbp	99.61
quast_flye_30859_5#35/report.tsv:# mismatches per 100 kbp	56.38
quast_flye_30859_5#383/report.tsv:# mismatches per 100 kbp	14.02
quast_flye_30859_5#40/report.tsv:# mismatches per 100 kbp	3.18
quast_flye_30859_5#62/report.tsv:# mismatches per 100 kbp	32.81
quast_flye_30859_5#96/report.tsv:# mismatches per 100 kbp	6.86
quast_flye_30859_8#141/report.tsv:# mismatches per 100 kbp	55.84
quast_medaka_30134_6#3/report.tsv:# mismatches per 100 kbp	6.27
quast_medaka_30224_1#102/report.tsv:# mismatches per 100 kbp	6.49
quast_medaka_30224_1#172/report.tsv:# mismatches per 100 kbp	10.09
quast_medaka_30224_1#201/report.tsv:# mismatches per 100 kbp	9.38
quast_medaka_30224_1#211/report.tsv:# mismatches per 100 kbp	41.48
quast_medaka_30224_1#245/report.tsv:# mismatches per 100 kbp	9.71
quast_medaka_30224_1#251/report.tsv:# mismatches per 100 kbp	5.50
quast_medaka_30224_1#273/report.tsv:# mismatches per 100 kbp	55.66
quast_medaka_30224_1#291/report.tsv:# mismatches per 100 kbp	158.17
quast_medaka_30224_1#298/report.tsv:# mismatches per 100 kbp	23.29
quast_medaka_30224_1#302/report.tsv:# mismatches per 100 kbp	3.55
quast_medaka_30224_1#305/report.tsv:# mismatches per 100 kbp	58.28
quast_medaka_30224_1#313/report.tsv:# mismatches per 100 kbp	10.67
quast_medaka_30224_1#333/report.tsv:# mismatches per 100 kbp	3.56
quast_medaka_30224_1#351/report.tsv:# mismatches per 100 kbp	120.21
quast_medaka_30224_1#355/report.tsv:# mismatches per 100 kbp	13.66
quast_medaka_30224_1#383/report.tsv:# mismatches per 100 kbp	60.15
quast_medaka_30224_1#38/report.tsv:# mismatches per 100 kbp	9.81
quast_medaka_30224_1#48/report.tsv:# mismatches per 100 kbp	84.51
quast_medaka_30345_1#119/report.tsv:# mismatches per 100 kbp	12.63
quast_medaka_30345_1#11/report.tsv:# mismatches per 100 kbp	12.23
quast_medaka_30345_1#164/report.tsv:# mismatches per 100 kbp	3122.08
quast_medaka_30345_1#186/report.tsv:# mismatches per 100 kbp	4.50
quast_medaka_30345_1#188/report.tsv:# mismatches per 100 kbp	995.92
quast_medaka_30345_1#218/report.tsv:# mismatches per 100 kbp	405.61
quast_medaka_30345_1#220/report.tsv:# mismatches per 100 kbp	4.86
quast_medaka_30345_1#224/report.tsv:# mismatches per 100 kbp	40.54
quast_medaka_30345_1#226/report.tsv:# mismatches per 100 kbp	35.86
quast_medaka_30345_1#247/report.tsv:# mismatches per 100 kbp	5.29
quast_medaka_30345_1#279/report.tsv:# mismatches per 100 kbp	1.33
quast_medaka_30345_1#292/report.tsv:# mismatches per 100 kbp	6.17
quast_medaka_30345_1#298/report.tsv:# mismatches per 100 kbp	425.64
quast_medaka_30345_1#31/report.tsv:# mismatches per 100 kbp	10.32
quast_medaka_30345_1#330/report.tsv:# mismatches per 100 kbp	2.73
quast_medaka_30345_1#335/report.tsv:# mismatches per 100 kbp	12.52
quast_medaka_30345_1#350/report.tsv:# mismatches per 100 kbp	49.97
quast_medaka_30345_1#36/report.tsv:# mismatches per 100 kbp	1318.12
quast_medaka_30345_1#377/report.tsv:# mismatches per 100 kbp	791.63
quast_medaka_30345_1#43/report.tsv:# mismatches per 100 kbp	151.06
quast_medaka_30348_1#126/report.tsv:# mismatches per 100 kbp	2.37
quast_medaka_30348_1#195/report.tsv:# mismatches per 100 kbp	6.25
quast_medaka_30348_1#247/report.tsv:# mismatches per 100 kbp	2.20
quast_medaka_30348_1#372/report.tsv:# mismatches per 100 kbp	65.15
quast_medaka_30348_1#3/report.tsv:# mismatches per 100 kbp	8.70
quast_medaka_30348_1#87/report.tsv:# mismatches per 100 kbp	3.47
quast_medaka_30348_1#89/report.tsv:# mismatches per 100 kbp	11.64
quast_medaka_30348_2#105/report.tsv:# mismatches per 100 kbp	46.06
quast_medaka_30348_2#113/report.tsv:# mismatches per 100 kbp	637.02
quast_medaka_30348_2#155/report.tsv:# mismatches per 100 kbp	154.16
quast_medaka_30348_2#202/report.tsv:# mismatches per 100 kbp	37.43
quast_medaka_30348_2#223/report.tsv:# mismatches per 100 kbp	9.36
quast_medaka_30348_2#231/report.tsv:# mismatches per 100 kbp	12.04
quast_medaka_30348_2#256/report.tsv:# mismatches per 100 kbp	220.29
quast_medaka_30348_2#316/report.tsv:# mismatches per 100 kbp	11.37
quast_medaka_30348_2#3/report.tsv:# mismatches per 100 kbp	52.48
quast_medaka_30348_2#44/report.tsv:# mismatches per 100 kbp	84.28
quast_medaka_30602_1#104/report.tsv:# mismatches per 100 kbp	59.96
quast_medaka_30602_1#109/report.tsv:# mismatches per 100 kbp	5.71
quast_medaka_30602_1#133/report.tsv:# mismatches per 100 kbp	9.84
quast_medaka_30602_1#214/report.tsv:# mismatches per 100 kbp	8.72
quast_medaka_30602_1#40/report.tsv:# mismatches per 100 kbp	12.85
quast_medaka_30602_1#44/report.tsv:# mismatches per 100 kbp	24.66
quast_medaka_30602_1#64/report.tsv:# mismatches per 100 kbp	7.13
quast_medaka_30602_6#188/report.tsv:# mismatches per 100 kbp	18.07
quast_medaka_30602_6#35/report.tsv:# mismatches per 100 kbp	46.11
quast_medaka_30821_1#117/report.tsv:# mismatches per 100 kbp	6.53
quast_medaka_30821_1#134/report.tsv:# mismatches per 100 kbp	366.85
quast_medaka_30821_1#241/report.tsv:# mismatches per 100 kbp	16.41
quast_medaka_30821_1#256/report.tsv:# mismatches per 100 kbp	557.71
quast_medaka_30821_1#274/report.tsv:# mismatches per 100 kbp	8.57
quast_medaka_30821_1#280/report.tsv:# mismatches per 100 kbp	6.34
quast_medaka_30821_1#330/report.tsv:# mismatches per 100 kbp	6.28
quast_medaka_30821_1#335/report.tsv:# mismatches per 100 kbp	218.03
quast_medaka_30821_1#373/report.tsv:# mismatches per 100 kbp	33.51
quast_medaka_30821_1#82/report.tsv:# mismatches per 100 kbp	658.50
quast_medaka_30821_1#88/report.tsv:# mismatches per 100 kbp	11.74
quast_medaka_30859_5#11/report.tsv:# mismatches per 100 kbp	5.46
quast_medaka_30859_5#121/report.tsv:# mismatches per 100 kbp	53.53
quast_medaka_30859_5#129/report.tsv:# mismatches per 100 kbp	2.37
quast_medaka_30859_5#12/report.tsv:# mismatches per 100 kbp	8.79
quast_medaka_30859_5#136/report.tsv:# mismatches per 100 kbp	16.17
quast_medaka_30859_5#17/report.tsv:# mismatches per 100 kbp	314.80
quast_medaka_30859_5#197/report.tsv:# mismatches per 100 kbp	8.74
quast_medaka_30859_5#21/report.tsv:# mismatches per 100 kbp	7.14
quast_medaka_30859_5#278/report.tsv:# mismatches per 100 kbp	2.65
quast_medaka_30859_5#287/report.tsv:# mismatches per 100 kbp	6.40
quast_medaka_30859_5#29/report.tsv:# mismatches per 100 kbp	9.59
quast_medaka_30859_5#32/report.tsv:# mismatches per 100 kbp	93.34
quast_medaka_30859_5#35/report.tsv:# mismatches per 100 kbp	54.16
quast_medaka_30859_5#383/report.tsv:# mismatches per 100 kbp	13.72
quast_medaka_30859_5#40/report.tsv:# mismatches per 100 kbp	3.16
quast_medaka_30859_5#62/report.tsv:# mismatches per 100 kbp	30.47
quast_medaka_30859_5#96/report.tsv:# mismatches per 100 kbp	5.82
quast_medaka_30859_8#141/report.tsv:# mismatches per 100 kbp	63.98
quast_spades_30134_6#3/report.tsv:# mismatches per 100 kbp	1.11
quast_spades_30224_1#102/report.tsv:# mismatches per 100 kbp	0.70
quast_spades_30224_1#172/report.tsv:# mismatches per 100 kbp	5.87
quast_spades_30224_1#201/report.tsv:# mismatches per 100 kbp	0.45
quast_spades_30224_1#211/report.tsv:# mismatches per 100 kbp	0.22
quast_spades_30224_1#245/report.tsv:# mismatches per 100 kbp	0.51
quast_spades_30224_1#251/report.tsv:# mismatches per 100 kbp	0.02
quast_spades_30224_1#273/report.tsv:# mismatches per 100 kbp	0.69
quast_spades_30224_1#291/report.tsv:# mismatches per 100 kbp	0.31
quast_spades_30224_1#298/report.tsv:# mismatches per 100 kbp	0.21
quast_spades_30224_1#302/report.tsv:# mismatches per 100 kbp	0.17
quast_spades_30224_1#305/report.tsv:# mismatches per 100 kbp	0.20
quast_spades_30224_1#313/report.tsv:# mismatches per 100 kbp	0.06
quast_spades_30224_1#333/report.tsv:# mismatches per 100 kbp	2.57
quast_spades_30224_1#351/report.tsv:# mismatches per 100 kbp	0.02
quast_spades_30224_1#355/report.tsv:# mismatches per 100 kbp	0.12
quast_spades_30224_1#383/report.tsv:# mismatches per 100 kbp	0.04
quast_spades_30224_1#38/report.tsv:# mismatches per 100 kbp	0.02
quast_spades_30224_1#48/report.tsv:# mismatches per 100 kbp	0.63
quast_spades_30345_1#119/report.tsv:# mismatches per 100 kbp	0.12
quast_spades_30345_1#11/report.tsv:# mismatches per 100 kbp	0.69
quast_spades_30345_1#164/report.tsv:# mismatches per 100 kbp	0.70
quast_spades_30345_1#186/report.tsv:# mismatches per 100 kbp	0.34
quast_spades_30345_1#188/report.tsv:# mismatches per 100 kbp	1.34
quast_spades_30345_1#218/report.tsv:# mismatches per 100 kbp	0.55
quast_spades_30345_1#220/report.tsv:# mismatches per 100 kbp	0.50
quast_spades_30345_1#224/report.tsv:# mismatches per 100 kbp	0.20
quast_spades_30345_1#226/report.tsv:# mismatches per 100 kbp	0.66
quast_spades_30345_1#247/report.tsv:# mismatches per 100 kbp	0.59
quast_spades_30345_1#279/report.tsv:# mismatches per 100 kbp	0.04
quast_spades_30345_1#292/report.tsv:# mismatches per 100 kbp	0.02
quast_spades_30345_1#298/report.tsv:# mismatches per 100 kbp	0.20
quast_spades_30345_1#31/report.tsv:# mismatches per 100 kbp	0.28
quast_spades_30345_1#330/report.tsv:# mismatches per 100 kbp	0.18
quast_spades_30345_1#335/report.tsv:# mismatches per 100 kbp	0.64
quast_spades_30345_1#350/report.tsv:# mismatches per 100 kbp	0.17
quast_spades_30345_1#36/report.tsv:# mismatches per 100 kbp	0.04
quast_spades_30345_1#377/report.tsv:# mismatches per 100 kbp	0.33
quast_spades_30345_1#43/report.tsv:# mismatches per 100 kbp	0.56
quast_spades_30348_1#126/report.tsv:# mismatches per 100 kbp	0.20
quast_spades_30348_1#195/report.tsv:# mismatches per 100 kbp	0.91
quast_spades_30348_1#247/report.tsv:# mismatches per 100 kbp	0.08
quast_spades_30348_1#372/report.tsv:# mismatches per 100 kbp	0.45
quast_spades_30348_1#3/report.tsv:# mismatches per 100 kbp	0.16
quast_spades_30348_1#87/report.tsv:# mismatches per 100 kbp	0.16
quast_spades_30348_1#89/report.tsv:# mismatches per 100 kbp	0.04
quast_spades_30348_2#105/report.tsv:# mismatches per 100 kbp	0.71
quast_spades_30348_2#113/report.tsv:# mismatches per 100 kbp	0.04
quast_spades_30348_2#155/report.tsv:# mismatches per 100 kbp	0.12
quast_spades_30348_2#202/report.tsv:# mismatches per 100 kbp	0.00
quast_spades_30348_2#223/report.tsv:# mismatches per 100 kbp	0.92
quast_spades_30348_2#231/report.tsv:# mismatches per 100 kbp	0.00
quast_spades_30348_2#256/report.tsv:# mismatches per 100 kbp	0.02
quast_spades_30348_2#296/report.tsv:# mismatches per 100 kbp	0.18
quast_spades_30348_2#316/report.tsv:# mismatches per 100 kbp	0.47
quast_spades_30348_2#3/report.tsv:# mismatches per 100 kbp	10.92
quast_spades_30348_2#44/report.tsv:# mismatches per 100 kbp	0.94
quast_spades_30602_1#104/report.tsv:# mismatches per 100 kbp	1.29
quast_spades_30602_1#109/report.tsv:# mismatches per 100 kbp	0.26
quast_spades_30602_1#133/report.tsv:# mismatches per 100 kbp	0.12
quast_spades_30602_1#214/report.tsv:# mismatches per 100 kbp	0.30
quast_spades_30602_1#40/report.tsv:# mismatches per 100 kbp	0.48
quast_spades_30602_1#44/report.tsv:# mismatches per 100 kbp	0.34
quast_spades_30602_1#64/report.tsv:# mismatches per 100 kbp	0.08
quast_spades_30602_6#188/report.tsv:# mismatches per 100 kbp	0.31
quast_spades_30602_6#35/report.tsv:# mismatches per 100 kbp	0.47
quast_spades_30821_1#117/report.tsv:# mismatches per 100 kbp	1.13
quast_spades_30821_1#134/report.tsv:# mismatches per 100 kbp	0.12
quast_spades_30821_1#162/report.tsv:# mismatches per 100 kbp	0.12
quast_spades_30821_1#241/report.tsv:# mismatches per 100 kbp	0.06
quast_spades_30821_1#256/report.tsv:# mismatches per 100 kbp	0.22
quast_spades_30821_1#274/report.tsv:# mismatches per 100 kbp	0.46
quast_spades_30821_1#280/report.tsv:# mismatches per 100 kbp	0.04
quast_spades_30821_1#330/report.tsv:# mismatches per 100 kbp	0.06
quast_spades_30821_1#335/report.tsv:# mismatches per 100 kbp	4.36
quast_spades_30821_1#373/report.tsv:# mismatches per 100 kbp	0.61
quast_spades_30821_1#82/report.tsv:# mismatches per 100 kbp	0.24
quast_spades_30821_1#88/report.tsv:# mismatches per 100 kbp	0.18
quast_spades_30859_5#11/report.tsv:# mismatches per 100 kbp	2.37
quast_spades_30859_5#121/report.tsv:# mismatches per 100 kbp	0.76
quast_spades_30859_5#129/report.tsv:# mismatches per 100 kbp	0.10
quast_spades_30859_5#12/report.tsv:# mismatches per 100 kbp	0.28
quast_spades_30859_5#136/report.tsv:# mismatches per 100 kbp	0.20
quast_spades_30859_5#17/report.tsv:# mismatches per 100 kbp	1.87
quast_spades_30859_5#197/report.tsv:# mismatches per 100 kbp	0.14
quast_spades_30859_5#21/report.tsv:# mismatches per 100 kbp	6.66
quast_spades_30859_5#278/report.tsv:# mismatches per 100 kbp	0.16
quast_spades_30859_5#287/report.tsv:# mismatches per 100 kbp	0.00
quast_spades_30859_5#29/report.tsv:# mismatches per 100 kbp	0.16
quast_spades_30859_5#32/report.tsv:# mismatches per 100 kbp	3.70
quast_spades_30859_5#35/report.tsv:# mismatches per 100 kbp	0.84
quast_spades_30859_5#383/report.tsv:# mismatches per 100 kbp	0.60
quast_spades_30859_5#40/report.tsv:# mismatches per 100 kbp	0.04
quast_spades_30859_5#62/report.tsv:# mismatches per 100 kbp	12.74
quast_spades_30859_5#96/report.tsv:# mismatches per 100 kbp	0.39
quast_spades_30859_8#141/report.tsv:# mismatches per 100 kbp	1.00
quast_unicycler_30134_6#3/report.tsv:# mismatches per 100 kbp	5.43
quast_unicycler_30224_1#102/report.tsv:# mismatches per 100 kbp	5.53
quast_unicycler_30224_1#172/report.tsv:# mismatches per 100 kbp	11.38
quast_unicycler_30224_1#201/report.tsv:# mismatches per 100 kbp	3.21
quast_unicycler_30224_1#211/report.tsv:# mismatches per 100 kbp	2.22
quast_unicycler_30224_1#245/report.tsv:# mismatches per 100 kbp	1.86
quast_unicycler_30224_1#251/report.tsv:# mismatches per 100 kbp	5.29
quast_unicycler_30224_1#273/report.tsv:# mismatches per 100 kbp	10.64
quast_unicycler_30224_1#291/report.tsv:# mismatches per 100 kbp	5.89
quast_unicycler_30224_1#298/report.tsv:# mismatches per 100 kbp	0.50
quast_unicycler_30224_1#302/report.tsv:# mismatches per 100 kbp	1.28
quast_unicycler_30224_1#305/report.tsv:# mismatches per 100 kbp	1.06
quast_unicycler_30224_1#313/report.tsv:# mismatches per 100 kbp	0.60
quast_unicycler_30224_1#333/report.tsv:# mismatches per 100 kbp	2.26
quast_unicycler_30224_1#351/report.tsv:# mismatches per 100 kbp	2.11
quast_unicycler_30224_1#355/report.tsv:# mismatches per 100 kbp	8.54
quast_unicycler_30224_1#383/report.tsv:# mismatches per 100 kbp	4.34
quast_unicycler_30224_1#38/report.tsv:# mismatches per 100 kbp	6.44
quast_unicycler_30224_1#48/report.tsv:# mismatches per 100 kbp	3.92
quast_unicycler_30345_1#119/report.tsv:# mismatches per 100 kbp	5.07
quast_unicycler_30345_1#11/report.tsv:# mismatches per 100 kbp	14.76
quast_unicycler_30345_1#164/report.tsv:# mismatches per 100 kbp	5.38
quast_unicycler_30345_1#186/report.tsv:# mismatches per 100 kbp	3.61
quast_unicycler_30345_1#188/report.tsv:# mismatches per 100 kbp	2.50
quast_unicycler_30345_1#218/report.tsv:# mismatches per 100 kbp	6.53
quast_unicycler_30345_1#220/report.tsv:# mismatches per 100 kbp	3.77
quast_unicycler_30345_1#224/report.tsv:# mismatches per 100 kbp	3.83
quast_unicycler_30345_1#226/report.tsv:# mismatches per 100 kbp	2.74
quast_unicycler_30345_1#247/report.tsv:# mismatches per 100 kbp	5.66
quast_unicycler_30345_1#279/report.tsv:# mismatches per 100 kbp	0.22
quast_unicycler_30345_1#292/report.tsv:# mismatches per 100 kbp	5.58
quast_unicycler_30345_1#298/report.tsv:# mismatches per 100 kbp	6.88
quast_unicycler_30345_1#31/report.tsv:# mismatches per 100 kbp	2.85
quast_unicycler_30345_1#330/report.tsv:# mismatches per 100 kbp	0.96
quast_unicycler_30345_1#335/report.tsv:# mismatches per 100 kbp	2.32
quast_unicycler_30345_1#350/report.tsv:# mismatches per 100 kbp	7.16
quast_unicycler_30345_1#36/report.tsv:# mismatches per 100 kbp	5.75
quast_unicycler_30345_1#377/report.tsv:# mismatches per 100 kbp	9.64
quast_unicycler_30345_1#43/report.tsv:# mismatches per 100 kbp	13.88
quast_unicycler_30348_1#126/report.tsv:# mismatches per 100 kbp	1.60
quast_unicycler_30348_1#195/report.tsv:# mismatches per 100 kbp	5.58
quast_unicycler_30348_1#247/report.tsv:# mismatches per 100 kbp	1.82
quast_unicycler_30348_1#372/report.tsv:# mismatches per 100 kbp	18.04
quast_unicycler_30348_1#3/report.tsv:# mismatches per 100 kbp	8.06
quast_unicycler_30348_1#87/report.tsv:# mismatches per 100 kbp	2.89
quast_unicycler_30348_1#89/report.tsv:# mismatches per 100 kbp	12.59
quast_unicycler_30348_2#105/report.tsv:# mismatches per 100 kbp	5.18
quast_unicycler_30348_2#113/report.tsv:# mismatches per 100 kbp	1.53
quast_unicycler_30348_2#155/report.tsv:# mismatches per 100 kbp	61.23
quast_unicycler_30348_2#202/report.tsv:# mismatches per 100 kbp	3.48
quast_unicycler_30348_2#223/report.tsv:# mismatches per 100 kbp	2.87
quast_unicycler_30348_2#231/report.tsv:# mismatches per 100 kbp	0.58
quast_unicycler_30348_2#256/report.tsv:# mismatches per 100 kbp	2.33
quast_unicycler_30348_2#296/report.tsv:# mismatches per 100 kbp	4.58
quast_unicycler_30348_2#316/report.tsv:# mismatches per 100 kbp	4.41
quast_unicycler_30348_2#3/report.tsv:# mismatches per 100 kbp	19.94
quast_unicycler_30348_2#44/report.tsv:# mismatches per 100 kbp	0.58
quast_unicycler_30602_1#104/report.tsv:# mismatches per 100 kbp	33.36
quast_unicycler_30602_1#109/report.tsv:# mismatches per 100 kbp	4.11
quast_unicycler_30602_1#133/report.tsv:# mismatches per 100 kbp	7.42
quast_unicycler_30602_1#214/report.tsv:# mismatches per 100 kbp	15.77
quast_unicycler_30602_1#40/report.tsv:# mismatches per 100 kbp	12.80
quast_unicycler_30602_1#44/report.tsv:# mismatches per 100 kbp	4.75
quast_unicycler_30602_1#64/report.tsv:# mismatches per 100 kbp	6.57
quast_unicycler_30602_6#188/report.tsv:# mismatches per 100 kbp	3.43
quast_unicycler_30602_6#35/report.tsv:# mismatches per 100 kbp	9.00
quast_unicycler_30821_1#117/report.tsv:# mismatches per 100 kbp	5.43
quast_unicycler_30821_1#134/report.tsv:# mismatches per 100 kbp	4.49
quast_unicycler_30821_1#162/report.tsv:# mismatches per 100 kbp	7.00
quast_unicycler_30821_1#241/report.tsv:# mismatches per 100 kbp	13.51
quast_unicycler_30821_1#256/report.tsv:# mismatches per 100 kbp	7.34
quast_unicycler_30821_1#274/report.tsv:# mismatches per 100 kbp	4.93
quast_unicycler_30821_1#280/report.tsv:# mismatches per 100 kbp	2.47
quast_unicycler_30821_1#330/report.tsv:# mismatches per 100 kbp	2.08
quast_unicycler_30821_1#335/report.tsv:# mismatches per 100 kbp	6.02
quast_unicycler_30821_1#373/report.tsv:# mismatches per 100 kbp	6.12
quast_unicycler_30821_1#82/report.tsv:# mismatches per 100 kbp	3.30
quast_unicycler_30821_1#88/report.tsv:# mismatches per 100 kbp	0.46
quast_unicycler_30859_5#11/report.tsv:# mismatches per 100 kbp	4.68
quast_unicycler_30859_5#121/report.tsv:# mismatches per 100 kbp	12.34
quast_unicycler_30859_5#129/report.tsv:# mismatches per 100 kbp	1.76
quast_unicycler_30859_5#12/report.tsv:# mismatches per 100 kbp	2.32
quast_unicycler_30859_5#136/report.tsv:# mismatches per 100 kbp	13.77
quast_unicycler_30859_5#17/report.tsv:# mismatches per 100 kbp	7.15
quast_unicycler_30859_5#197/report.tsv:# mismatches per 100 kbp	6.79
quast_unicycler_30859_5#21/report.tsv:# mismatches per 100 kbp	12.72
quast_unicycler_30859_5#278/report.tsv:# mismatches per 100 kbp	0.47
quast_unicycler_30859_5#287/report.tsv:# mismatches per 100 kbp	5.38
quast_unicycler_30859_5#29/report.tsv:# mismatches per 100 kbp	8.52
quast_unicycler_30859_5#32/report.tsv:# mismatches per 100 kbp	6.85
quast_unicycler_30859_5#35/report.tsv:# mismatches per 100 kbp	13.02
quast_unicycler_30859_5#383/report.tsv:# mismatches per 100 kbp	13.01
quast_unicycler_30859_5#40/report.tsv:# mismatches per 100 kbp	3.20
quast_unicycler_30859_5#62/report.tsv:# mismatches per 100 kbp	23.89
quast_unicycler_30859_5#96/report.tsv:# mismatches per 100 kbp	3.21
quast_unicycler_30859_8#141/report.tsv:# mismatches per 100 kbp	17.20
