L	edge_2	+	edge_29	+	0M 	 flye_30348_2#113phred20
L	edge_4	-	edge_29	+	0M 	 flye_30348_2#113phred20
L	edge_5	-	edge_29	-	0M 	 flye_30348_2#113phred20
L	edge_9	+	edge_11	+	0M 	 flye_30348_2#113phred20
L	edge_9	-	edge_31	-	0M 	 flye_30348_2#113phred20
L	edge_10	-	edge_31	-	0M 	 flye_30348_2#113phred20
L	edge_11	-	edge_12	+	0M 	 flye_30348_2#113phred20
L	edge_29	+	edge_30	+	0M 	 flye_30348_2#113phred20
