L	edge_1	+	edge_11	+	0M 	 flye_30345_1#43phred20
L	edge_1	+	edge_3	+	0M 	 flye_30345_1#43phred20
L	edge_1	-	edge_3	-	0M 	 flye_30345_1#43phred20
L	edge_1	-	edge_11	-	0M 	 flye_30345_1#43phred20
L	edge_5	+	edge_6	+	0M 	 flye_30345_1#43phred20
L	edge_5	-	edge_6	+	0M 	 flye_30345_1#43phred20
L	edge_6	+	edge_8	+	0M 	 flye_30345_1#43phred20
L	edge_6	+	edge_8	-	0M 	 flye_30345_1#43phred20
L	edge_6	-	edge_7	+	0M 	 flye_30345_1#43phred20
L	edge_13	+	edge_13	+	0M 	 flye_30345_1#43phred20
L	edge_14	+	edge_14	+	0M 	 flye_30345_1#43phred20
L	edge_15	+	edge_15	+	0M 	 flye_30345_1#43phred20
